﻿[
{
  "Id":0,
  "Text":""
},
{
  "Id":1,
  "Text":"Obtained from gladiator quest progression."
},
{
  "Id":2,
  "Text":"Obtained from marauder quest progression."
},
{
  "Id":3,
  "Text":"Obtained from conjurer quest progression."
},
{
  "Id":4,
  "Text":"Obtained from pugilist quest progression."
},
{
  "Id":5,
  "Text":"Obtained from lancer quest progression."
},
{
  "Id":6,
  "Text":"Obtained from rogue quest progression."
},
{
  "Id":7,
  "Text":"Obtained from archer quest progression."
},
{
  "Id":8,
  "Text":"Obtained from thaumaturge quest progression."
},
{
  "Id":9,
  "Text":"Obtained from arcanist quest progression."
},
{
  "Id":10,
  "Text":"Obtained from carpenter quest progression."
},
{
  "Id":11,
  "Text":"Obtained from blacksmith quest progression."
},
{
  "Id":12,
  "Text":"Obtained from armorer quest progression."
},
{
  "Id":13,
  "Text":"Obtained from goldsmith quest progression."
},
{
  "Id":14,
  "Text":"Obtained from leatherworker quest progression."
},
{
  "Id":15,
  "Text":"Obtained from weaver quest progression."
},
{
  "Id":16,
  "Text":"Obtained from alchemist quest progression."
},
{
  "Id":17,
  "Text":"Obtained from culinarian quest progression."
},
{
  "Id":18,
  "Text":"Obtained from miner quest progression."
},
{
  "Id":19,
  "Text":"Obtained from botanist quest progression."
},
{
  "Id":20,
  "Text":"Obtained from fisher quest progression."
},
{
  "Id":21,
  "Text":"Obtained from paladin quest progression."
},
{
  "Id":22,
  "Text":"Obtained from warrior quest progression."
},
{
  "Id":23,
  "Text":"Obtained from dark knight quest progression."
},
{
  "Id":24,
  "Text":"Obtained from gunbreaker quest progression."
},
{
  "Id":25,
  "Text":"Obtained from white mage quest progression."
},
{
  "Id":26,
  "Text":"Obtained from scholar quest progression."
},
{
  "Id":27,
  "Text":"Obtained from astrologian quest progression."
},
{
  "Id":28,
  "Text":"Obtained from sage quest progression."
},
{
  "Id":29,
  "Text":"Obtained from monk quest progression."
},
{
  "Id":30,
  "Text":"Obtained from dragoon quest progression."
},
{
  "Id":31,
  "Text":"Obtained from ninja quest progression."
},
{
  "Id":32,
  "Text":"Obtained from samurai quest progression."
},
{
  "Id":33,
  "Text":"Obtained from reaper quest progression."
},
{
  "Id":34,
  "Text":"Obtained from bard quest progression."
},
{
  "Id":35,
  "Text":"Obtained from machinist quest progression."
},
{
  "Id":36,
  "Text":"Obtained from dancer quest progression."
},
{
  "Id":37,
  "Text":"Obtained from black mage quest progression."
},
{
  "Id":38,
  "Text":"Obtained from summoner quest progression."
},
{
  "Id":39,
  "Text":"Obtained from red mage quest progression."
},
{
  "Id":40,
  "Text":"Obtained from blue mage quest progression."
},
{
  "Id":41,
  "Text":"Obtained from Seventh Umbral Era main scenario quest progression."
},
{
  "Id":42,
  "Text":"Obtained from Heavensward main scenario quest progression."
},
{
  "Id":43,
  "Text":"Obtained from Stormblood main scenario quest progression."
},
{
  "Id":44,
  "Text":"Obtained from Shadowbringers main scenario quest progression."
},
{
  "Id":45,
  "Text":"Obtained from Endwalker main scenario quest progression."
},
{
  "Id":46,
  "Text":"Obtained from A Realm Reborn tribal quest progression."
},
{
  "Id":47,
  "Text":"Obtained from Heavensward tribal quest progression."
},
{
  "Id":48,
  "Text":"Obtained from Stormblood tribal quest progression."
},
{
  "Id":49,
  "Text":"Obtained from Shadowbringers tribal quest progression."
},
{
  "Id":50,
  "Text":"Obtained from Endwalker tribal quest progression."
},
{
  "Id":51,
  "Text":"Obtained from A Realm Reborn sidequest progression."
},
{
  "Id":52,
  "Text":"Obtained from Heavensward sidequest progression."
},
{
  "Id":53,
  "Text":"Obtained from Stormblood sidequest progression."
},
{
  "Id":54,
  "Text":"Obtained from Shadowbringers sidequest progression."
},
{
  "Id":55,
  "Text":"Obtained from Endwalker sidequest progression."
},
{
  "Id":56,
  "Text":""
},
{
  "Id":57,
  "Text":""
},
{
  "Id":58,
  "Text":""
},
{
  "Id":59,
  "Text":""
},
{
  "Id":60,
  "Text":""
},
{
  "Id":61,
  "Text":"Obtained by unlocking the relevant Ultimate raid from A Realm Reborn."
},
{
  "Id":62,
  "Text":"Obtained by unlocking the relevant Ultimate raid from Heavensward."
},
{
  "Id":63,
  "Text":"Obtained by unlocking the relevant Ultimate raid from Stormblood."
},
{
  "Id":64,
  "Text":"Obtained by unlocking the relevant Ultimate raid from Shadowbringers."
},
{
  "Id":65,
  "Text":"Obtained by unlocking the relevant Ultimate raid from Endwalker."
},
{
  "Id":66,
  "Text":"Obtained by clearing the relevant dungeon from A Realm Reborn."
},
{
  "Id":67,
  "Text":"Obtained by clearing the relevant dungeon from Heavensward."
},
{
  "Id":68,
  "Text":"Obtained by clearing the relevant dungeon from Stormblood."
},
{
  "Id":69,
  "Text":"Obtained by clearing the relevant dungeon from Shadowbringers."
},
{
  "Id":70,
  "Text":"Obtained by clearing the relevant dungeon from Endwalker."
},
{
  "Id":71,
  "Text":"Obtained by completing the relevant trial from A Realm Reborn."
},
{
  "Id":72,
  "Text":"Obtained by completing the relevant trial from Heavensward."
},
{
  "Id":73,
  "Text":"Obtained by completing the relevant trial from Stormblood."
},
{
  "Id":74,
  "Text":"Obtained by completing the relevant trial from Shadowbringers."
},
{
  "Id":75,
  "Text":"Obtained by completing the relevant trial from Endwalker."
},
{
  "Id":76,
  "Text":"Obtained from A Realm Reborn: Chronicles of a New Era quest progression."
},
{
  "Id":77,
  "Text":"Obtained from Heavensward: Chronicles of a New Era quest progression."
},
{
  "Id":78,
  "Text":"Obtained from Stormblood: Chronicles of a New Era quest progression."
},
{
  "Id":79,
  "Text":"Obtained from Shadowbringers: Chronicles of a New Era quest progression."
},
{
  "Id":80,
  "Text":"Obtained from Endwalker: Chronicles of a New Era quest progression."
},
{
  "Id":81,
  "Text":"Obtained by completing the relevant alliance raid from A Realm Reborn."
},
{
  "Id":82,
  "Text":"Obtained by completing the relevant alliance raid from Heavensward."
},
{
  "Id":83,
  "Text":"Obtained by completing the relevant alliance raid from Stormblood."
},
{
  "Id":84,
  "Text":"Obtained by completing the relevant alliance raid from Shadowbringers."
},
{
  "Id":85,
  "Text":"Obtained by completing the relevant alliance raid from Endwalker."
},
{
  "Id":86,
  "Text":""
},
{
  "Id":87,
  "Text":""
},
{
  "Id":88,
  "Text":""
},
{
  "Id":89,
  "Text":""
},
{
  "Id":90,
  "Text":""
}
]
