﻿[
{
  "Id":0,
  "Type":0,
  "AdditionalData":0,
  "AcceptClassJobCategory":1,
  "Category":0,
  "UnlockCondition":0,
  "SortKey":0,
  "Icon":0,
  "Name":"未設定"
},
{
  "Id":1,
  "Type":20,
  "AdditionalData":3,
  "AcceptClassJobCategory":1,
  "Category":3,
  "UnlockCondition":1,
  "SortKey":1,
  "Icon":82083,
  "Name":"Standing 1"
},
{
  "Id":2,
  "Type":11,
  "AdditionalData":91,
  "AcceptClassJobCategory":1,
  "Category":3,
  "UnlockCondition":1,
  "SortKey":2,
  "Icon":82083,
  "Name":"Standing 2"
},
{
  "Id":3,
  "Type":11,
  "AdditionalData":92,
  "AcceptClassJobCategory":1,
  "Category":3,
  "UnlockCondition":1,
  "SortKey":3,
  "Icon":82083,
  "Name":"Standing 3"
},
{
  "Id":4,
  "Type":11,
  "AdditionalData":107,
  "AcceptClassJobCategory":1,
  "Category":3,
  "UnlockCondition":1,
  "SortKey":4,
  "Icon":82083,
  "Name":"Standing 4"
},
{
  "Id":5,
  "Type":11,
  "AdditionalData":108,
  "AcceptClassJobCategory":1,
  "Category":3,
  "UnlockCondition":1,
  "SortKey":5,
  "Icon":82083,
  "Name":"Standing 5"
},
{
  "Id":6,
  "Type":11,
  "AdditionalData":218,
  "AcceptClassJobCategory":1,
  "Category":3,
  "UnlockCondition":1,
  "SortKey":6,
  "Icon":82083,
  "Name":"Standing 6"
},
{
  "Id":7,
  "Type":11,
  "AdditionalData":219,
  "AcceptClassJobCategory":1,
  "Category":3,
  "UnlockCondition":1,
  "SortKey":7,
  "Icon":82083,
  "Name":"Standing 7"
},
{
  "Id":8,
  "Type":20,
  "AdditionalData":34,
  "AcceptClassJobCategory":1,
  "Category":3,
  "UnlockCondition":1,
  "SortKey":8,
  "Icon":82083,
  "Name":"Standing 8"
},
{
  "Id":9,
  "Type":11,
  "AdditionalData":93,
  "AcceptClassJobCategory":1,
  "Category":3,
  "UnlockCondition":1,
  "SortKey":9,
  "Icon":82083,
  "Name":"Standing 9"
},
{
  "Id":10,
  "Type":11,
  "AdditionalData":5,
  "AcceptClassJobCategory":1,
  "Category":1,
  "UnlockCondition":1,
  "SortKey":1000,
  "Icon":64005,
  "Name":""
},
{
  "Id":11,
  "Type":11,
  "AdditionalData":154,
  "AcceptClassJobCategory":1,
  "Category":1,
  "UnlockCondition":6,
  "SortKey":1001,
  "Icon":64340,
  "Name":""
},
{
  "Id":12,
  "Type":0,
  "AdditionalData":0,
  "AcceptClassJobCategory":0,
  "Category":0,
  "UnlockCondition":0,
  "SortKey":0,
  "Icon":0,
  "Name":""
},
{
  "Id":13,
  "Type":11,
  "AdditionalData":41,
  "AcceptClassJobCategory":1,
  "Category":1,
  "UnlockCondition":1,
  "SortKey":1002,
  "Icon":64041,
  "Name":""
},
{
  "Id":14,
  "Type":11,
  "AdditionalData":172,
  "AcceptClassJobCategory":1,
  "Category":1,
  "UnlockCondition":7,
  "SortKey":1003,
  "Icon":64361,
  "Name":""
},
{
  "Id":15,
  "Type":11,
  "AdditionalData":15,
  "AcceptClassJobCategory":1,
  "Category":1,
  "UnlockCondition":1,
  "SortKey":1004,
  "Icon":64015,
  "Name":""
},
{
  "Id":16,
  "Type":11,
  "AdditionalData":16,
  "AcceptClassJobCategory":1,
  "Category":1,
  "UnlockCondition":1,
  "SortKey":1005,
  "Icon":64016,
  "Name":""
},
{
  "Id":17,
  "Type":11,
  "AdditionalData":19,
  "AcceptClassJobCategory":1,
  "Category":1,
  "UnlockCondition":1,
  "SortKey":1006,
  "Icon":64019,
  "Name":""
},
{
  "Id":18,
  "Type":11,
  "AdditionalData":31,
  "AcceptClassJobCategory":1,
  "Category":1,
  "UnlockCondition":1,
  "SortKey":1007,
  "Icon":64031,
  "Name":""
},
{
  "Id":19,
  "Type":0,
  "AdditionalData":0,
  "AcceptClassJobCategory":0,
  "Category":0,
  "UnlockCondition":0,
  "SortKey":0,
  "Icon":0,
  "Name":""
},
{
  "Id":20,
  "Type":0,
  "AdditionalData":0,
  "AcceptClassJobCategory":0,
  "Category":0,
  "UnlockCondition":0,
  "SortKey":0,
  "Icon":0,
  "Name":""
},
{
  "Id":21,
  "Type":0,
  "AdditionalData":0,
  "AcceptClassJobCategory":0,
  "Category":0,
  "UnlockCondition":0,
  "SortKey":0,
  "Icon":0,
  "Name":""
},
{
  "Id":22,
  "Type":11,
  "AdditionalData":59,
  "AcceptClassJobCategory":1,
  "Category":1,
  "UnlockCondition":8,
  "SortKey":1008,
  "Icon":64066,
  "Name":""
},
{
  "Id":23,
  "Type":11,
  "AdditionalData":124,
  "AcceptClassJobCategory":1,
  "Category":1,
  "UnlockCondition":46,
  "SortKey":1009,
  "Icon":64088,
  "Name":""
},
{
  "Id":24,
  "Type":11,
  "AdditionalData":199,
  "AcceptClassJobCategory":1,
  "Category":1,
  "UnlockCondition":9,
  "SortKey":1010,
  "Icon":64383,
  "Name":""
},
{
  "Id":25,
  "Type":11,
  "AdditionalData":20,
  "AcceptClassJobCategory":1,
  "Category":1,
  "UnlockCondition":1,
  "SortKey":1011,
  "Icon":64020,
  "Name":""
},
{
  "Id":26,
  "Type":11,
  "AdditionalData":21,
  "AcceptClassJobCategory":1,
  "Category":1,
  "UnlockCondition":1,
  "SortKey":1012,
  "Icon":64021,
  "Name":""
},
{
  "Id":27,
  "Type":11,
  "AdditionalData":18,
  "AcceptClassJobCategory":1,
  "Category":1,
  "UnlockCondition":1,
  "SortKey":1013,
  "Icon":64018,
  "Name":""
},
{
  "Id":28,
  "Type":11,
  "AdditionalData":48,
  "AcceptClassJobCategory":1,
  "Category":1,
  "UnlockCondition":1,
  "SortKey":1014,
  "Icon":64052,
  "Name":""
},
{
  "Id":29,
  "Type":11,
  "AdditionalData":34,
  "AcceptClassJobCategory":1,
  "Category":1,
  "UnlockCondition":1,
  "SortKey":1015,
  "Icon":64034,
  "Name":""
},
{
  "Id":30,
  "Type":11,
  "AdditionalData":35,
  "AcceptClassJobCategory":1,
  "Category":1,
  "UnlockCondition":1,
  "SortKey":1016,
  "Icon":64035,
  "Name":""
},
{
  "Id":31,
  "Type":11,
  "AdditionalData":4,
  "AcceptClassJobCategory":1,
  "Category":1,
  "UnlockCondition":1,
  "SortKey":1017,
  "Icon":64004,
  "Name":""
},
{
  "Id":32,
  "Type":11,
  "AdditionalData":9,
  "AcceptClassJobCategory":1,
  "Category":1,
  "UnlockCondition":1,
  "SortKey":1018,
  "Icon":64009,
  "Name":""
},
{
  "Id":33,
  "Type":11,
  "AdditionalData":30,
  "AcceptClassJobCategory":1,
  "Category":1,
  "UnlockCondition":1,
  "SortKey":1019,
  "Icon":64030,
  "Name":""
},
{
  "Id":34,
  "Type":11,
  "AdditionalData":58,
  "AcceptClassJobCategory":1,
  "Category":1,
  "UnlockCondition":1,
  "SortKey":1020,
  "Icon":64064,
  "Name":""
},
{
  "Id":35,
  "Type":11,
  "AdditionalData":140,
  "AcceptClassJobCategory":1,
  "Category":1,
  "UnlockCondition":1,
  "SortKey":1021,
  "Icon":64329,
  "Name":""
},
{
  "Id":36,
  "Type":11,
  "AdditionalData":46,
  "AcceptClassJobCategory":1,
  "Category":1,
  "UnlockCondition":1,
  "SortKey":1023,
  "Icon":64049,
  "Name":""
},
{
  "Id":37,
  "Type":0,
  "AdditionalData":0,
  "AcceptClassJobCategory":0,
  "Category":0,
  "UnlockCondition":0,
  "SortKey":0,
  "Icon":0,
  "Name":""
},
{
  "Id":38,
  "Type":11,
  "AdditionalData":11,
  "AcceptClassJobCategory":1,
  "Category":1,
  "UnlockCondition":1,
  "SortKey":1024,
  "Icon":64011,
  "Name":""
},
{
  "Id":39,
  "Type":11,
  "AdditionalData":42,
  "AcceptClassJobCategory":1,
  "Category":1,
  "UnlockCondition":1,
  "SortKey":1025,
  "Icon":64042,
  "Name":""
},
{
  "Id":40,
  "Type":11,
  "AdditionalData":43,
  "AcceptClassJobCategory":1,
  "Category":1,
  "UnlockCondition":1,
  "SortKey":1026,
  "Icon":64043,
  "Name":""
},
{
  "Id":41,
  "Type":11,
  "AdditionalData":7,
  "AcceptClassJobCategory":1,
  "Category":1,
  "UnlockCondition":1,
  "SortKey":1027,
  "Icon":64007,
  "Name":""
},
{
  "Id":42,
  "Type":11,
  "AdditionalData":29,
  "AcceptClassJobCategory":1,
  "Category":1,
  "UnlockCondition":1,
  "SortKey":1028,
  "Icon":64029,
  "Name":""
},
{
  "Id":43,
  "Type":11,
  "AdditionalData":6,
  "AcceptClassJobCategory":1,
  "Category":1,
  "UnlockCondition":1,
  "SortKey":1029,
  "Icon":64006,
  "Name":""
},
{
  "Id":44,
  "Type":11,
  "AdditionalData":240,
  "AcceptClassJobCategory":1,
  "Category":1,
  "UnlockCondition":120,
  "SortKey":1030,
  "Icon":64419,
  "Name":""
},
{
  "Id":45,
  "Type":11,
  "AdditionalData":110,
  "AcceptClassJobCategory":1,
  "Category":1,
  "UnlockCondition":48,
  "SortKey":1031,
  "Icon":64075,
  "Name":""
},
{
  "Id":46,
  "Type":11,
  "AdditionalData":112,
  "AcceptClassJobCategory":1,
  "Category":1,
  "UnlockCondition":1,
  "SortKey":1032,
  "Icon":64077,
  "Name":""
},
{
  "Id":47,
  "Type":11,
  "AdditionalData":113,
  "AcceptClassJobCategory":1,
  "Category":1,
  "UnlockCondition":28,
  "SortKey":1033,
  "Icon":64078,
  "Name":""
},
{
  "Id":48,
  "Type":11,
  "AdditionalData":105,
  "AcceptClassJobCategory":1,
  "Category":1,
  "UnlockCondition":1,
  "SortKey":1034,
  "Icon":64067,
  "Name":""
},
{
  "Id":49,
  "Type":11,
  "AdditionalData":115,
  "AcceptClassJobCategory":1,
  "Category":1,
  "UnlockCondition":112,
  "SortKey":1035,
  "Icon":64080,
  "Name":""
},
{
  "Id":50,
  "Type":11,
  "AdditionalData":121,
  "AcceptClassJobCategory":1,
  "Category":1,
  "UnlockCondition":10,
  "SortKey":1036,
  "Icon":64085,
  "Name":""
},
{
  "Id":51,
  "Type":11,
  "AdditionalData":122,
  "AcceptClassJobCategory":1,
  "Category":1,
  "UnlockCondition":11,
  "SortKey":1037,
  "Icon":64086,
  "Name":""
},
{
  "Id":52,
  "Type":11,
  "AdditionalData":125,
  "AcceptClassJobCategory":1,
  "Category":1,
  "UnlockCondition":49,
  "SortKey":1038,
  "Icon":64089,
  "Name":""
},
{
  "Id":53,
  "Type":11,
  "AdditionalData":127,
  "AcceptClassJobCategory":1,
  "Category":1,
  "UnlockCondition":12,
  "SortKey":1039,
  "Icon":64091,
  "Name":""
},
{
  "Id":54,
  "Type":0,
  "AdditionalData":0,
  "AcceptClassJobCategory":0,
  "Category":0,
  "UnlockCondition":0,
  "SortKey":0,
  "Icon":0,
  "Name":""
},
{
  "Id":55,
  "Type":11,
  "AdditionalData":195,
  "AcceptClassJobCategory":1,
  "Category":1,
  "UnlockCondition":95,
  "SortKey":1040,
  "Icon":64379,
  "Name":""
},
{
  "Id":56,
  "Type":11,
  "AdditionalData":197,
  "AcceptClassJobCategory":1,
  "Category":1,
  "UnlockCondition":50,
  "SortKey":1041,
  "Icon":64381,
  "Name":""
},
{
  "Id":57,
  "Type":0,
  "AdditionalData":0,
  "AcceptClassJobCategory":0,
  "Category":0,
  "UnlockCondition":0,
  "SortKey":0,
  "Icon":0,
  "Name":""
},
{
  "Id":58,
  "Type":0,
  "AdditionalData":0,
  "AcceptClassJobCategory":0,
  "Category":0,
  "UnlockCondition":0,
  "SortKey":0,
  "Icon":0,
  "Name":""
},
{
  "Id":59,
  "Type":0,
  "AdditionalData":0,
  "AcceptClassJobCategory":0,
  "Category":0,
  "UnlockCondition":0,
  "SortKey":0,
  "Icon":0,
  "Name":""
},
{
  "Id":60,
  "Type":0,
  "AdditionalData":0,
  "AcceptClassJobCategory":0,
  "Category":0,
  "UnlockCondition":0,
  "SortKey":0,
  "Icon":0,
  "Name":""
},
{
  "Id":61,
  "Type":0,
  "AdditionalData":0,
  "AcceptClassJobCategory":0,
  "Category":0,
  "UnlockCondition":0,
  "SortKey":0,
  "Icon":0,
  "Name":""
},
{
  "Id":62,
  "Type":0,
  "AdditionalData":0,
  "AcceptClassJobCategory":0,
  "Category":0,
  "UnlockCondition":0,
  "SortKey":0,
  "Icon":0,
  "Name":""
},
{
  "Id":63,
  "Type":0,
  "AdditionalData":0,
  "AcceptClassJobCategory":0,
  "Category":0,
  "UnlockCondition":0,
  "SortKey":0,
  "Icon":0,
  "Name":""
},
{
  "Id":64,
  "Type":11,
  "AdditionalData":24,
  "AcceptClassJobCategory":1,
  "Category":1,
  "UnlockCondition":1,
  "SortKey":1043,
  "Icon":64024,
  "Name":""
},
{
  "Id":65,
  "Type":11,
  "AdditionalData":25,
  "AcceptClassJobCategory":1,
  "Category":1,
  "UnlockCondition":1,
  "SortKey":1044,
  "Icon":64025,
  "Name":""
},
{
  "Id":66,
  "Type":11,
  "AdditionalData":10,
  "AcceptClassJobCategory":1,
  "Category":1,
  "UnlockCondition":1,
  "SortKey":1045,
  "Icon":64010,
  "Name":""
},
{
  "Id":67,
  "Type":11,
  "AdditionalData":3,
  "AcceptClassJobCategory":1,
  "Category":1,
  "UnlockCondition":1,
  "SortKey":1046,
  "Icon":64003,
  "Name":""
},
{
  "Id":68,
  "Type":11,
  "AdditionalData":14,
  "AcceptClassJobCategory":1,
  "Category":1,
  "UnlockCondition":1,
  "SortKey":1047,
  "Icon":64014,
  "Name":""
},
{
  "Id":69,
  "Type":11,
  "AdditionalData":26,
  "AcceptClassJobCategory":1,
  "Category":1,
  "UnlockCondition":1,
  "SortKey":1048,
  "Icon":64026,
  "Name":""
},
{
  "Id":70,
  "Type":11,
  "AdditionalData":40,
  "AcceptClassJobCategory":1,
  "Category":1,
  "UnlockCondition":1,
  "SortKey":1049,
  "Icon":64040,
  "Name":""
},
{
  "Id":71,
  "Type":11,
  "AdditionalData":49,
  "AcceptClassJobCategory":1,
  "Category":1,
  "UnlockCondition":1,
  "SortKey":1050,
  "Icon":64053,
  "Name":""
},
{
  "Id":72,
  "Type":11,
  "AdditionalData":38,
  "AcceptClassJobCategory":1,
  "Category":1,
  "UnlockCondition":1,
  "SortKey":1051,
  "Icon":64038,
  "Name":""
},
{
  "Id":73,
  "Type":11,
  "AdditionalData":2,
  "AcceptClassJobCategory":1,
  "Category":1,
  "UnlockCondition":1,
  "SortKey":1052,
  "Icon":64002,
  "Name":""
},
{
  "Id":74,
  "Type":11,
  "AdditionalData":17,
  "AcceptClassJobCategory":1,
  "Category":1,
  "UnlockCondition":1,
  "SortKey":1053,
  "Icon":64017,
  "Name":""
},
{
  "Id":75,
  "Type":11,
  "AdditionalData":32,
  "AcceptClassJobCategory":1,
  "Category":1,
  "UnlockCondition":1,
  "SortKey":1054,
  "Icon":64032,
  "Name":""
},
{
  "Id":76,
  "Type":11,
  "AdditionalData":33,
  "AcceptClassJobCategory":1,
  "Category":1,
  "UnlockCondition":1,
  "SortKey":1055,
  "Icon":64033,
  "Name":""
},
{
  "Id":77,
  "Type":11,
  "AdditionalData":36,
  "AcceptClassJobCategory":1,
  "Category":1,
  "UnlockCondition":1,
  "SortKey":1056,
  "Icon":64036,
  "Name":""
},
{
  "Id":78,
  "Type":11,
  "AdditionalData":1,
  "AcceptClassJobCategory":1,
  "Category":1,
  "UnlockCondition":1,
  "SortKey":1057,
  "Icon":64001,
  "Name":""
},
{
  "Id":79,
  "Type":11,
  "AdditionalData":12,
  "AcceptClassJobCategory":1,
  "Category":1,
  "UnlockCondition":1,
  "SortKey":1058,
  "Icon":64012,
  "Name":""
},
{
  "Id":80,
  "Type":11,
  "AdditionalData":47,
  "AcceptClassJobCategory":1,
  "Category":1,
  "UnlockCondition":1,
  "SortKey":1059,
  "Icon":64051,
  "Name":""
},
{
  "Id":81,
  "Type":11,
  "AdditionalData":111,
  "AcceptClassJobCategory":1,
  "Category":1,
  "UnlockCondition":1,
  "SortKey":1060,
  "Icon":64076,
  "Name":""
},
{
  "Id":82,
  "Type":11,
  "AdditionalData":137,
  "AcceptClassJobCategory":1,
  "Category":1,
  "UnlockCondition":1,
  "SortKey":1061,
  "Icon":64326,
  "Name":""
},
{
  "Id":83,
  "Type":11,
  "AdditionalData":233,
  "AcceptClassJobCategory":1,
  "Category":1,
  "UnlockCondition":1,
  "SortKey":1062,
  "Icon":64416,
  "Name":""
},
{
  "Id":84,
  "Type":11,
  "AdditionalData":171,
  "AcceptClassJobCategory":1,
  "Category":1,
  "UnlockCondition":42,
  "SortKey":1063,
  "Icon":64360,
  "Name":""
},
{
  "Id":85,
  "Type":11,
  "AdditionalData":204,
  "AcceptClassJobCategory":1,
  "Category":1,
  "UnlockCondition":32,
  "SortKey":1064,
  "Icon":64387,
  "Name":""
},
{
  "Id":86,
  "Type":0,
  "AdditionalData":0,
  "AcceptClassJobCategory":0,
  "Category":0,
  "UnlockCondition":0,
  "SortKey":0,
  "Icon":0,
  "Name":""
},
{
  "Id":87,
  "Type":11,
  "AdditionalData":45,
  "AcceptClassJobCategory":1,
  "Category":1,
  "UnlockCondition":1,
  "SortKey":1065,
  "Icon":64045,
  "Name":""
},
{
  "Id":88,
  "Type":11,
  "AdditionalData":139,
  "AcceptClassJobCategory":1,
  "Category":1,
  "UnlockCondition":1,
  "SortKey":1066,
  "Icon":64328,
  "Name":""
},
{
  "Id":89,
  "Type":11,
  "AdditionalData":8,
  "AcceptClassJobCategory":1,
  "Category":1,
  "UnlockCondition":1,
  "SortKey":1067,
  "Icon":64008,
  "Name":""
},
{
  "Id":90,
  "Type":11,
  "AdditionalData":85,
  "AcceptClassJobCategory":1,
  "Category":1,
  "UnlockCondition":14,
  "SortKey":1068,
  "Icon":64050,
  "Name":""
},
{
  "Id":91,
  "Type":11,
  "AdditionalData":106,
  "AcceptClassJobCategory":1,
  "Category":1,
  "UnlockCondition":1,
  "SortKey":1069,
  "Icon":64073,
  "Name":""
},
{
  "Id":92,
  "Type":11,
  "AdditionalData":39,
  "AcceptClassJobCategory":1,
  "Category":1,
  "UnlockCondition":1,
  "SortKey":1070,
  "Icon":64039,
  "Name":""
},
{
  "Id":93,
  "Type":11,
  "AdditionalData":44,
  "AcceptClassJobCategory":1,
  "Category":1,
  "UnlockCondition":1,
  "SortKey":1071,
  "Icon":64044,
  "Name":""
},
{
  "Id":94,
  "Type":11,
  "AdditionalData":13,
  "AcceptClassJobCategory":1,
  "Category":1,
  "UnlockCondition":1,
  "SortKey":1072,
  "Icon":64013,
  "Name":""
},
{
  "Id":95,
  "Type":11,
  "AdditionalData":27,
  "AcceptClassJobCategory":1,
  "Category":1,
  "UnlockCondition":1,
  "SortKey":1073,
  "Icon":64027,
  "Name":""
},
{
  "Id":96,
  "Type":11,
  "AdditionalData":28,
  "AcceptClassJobCategory":1,
  "Category":1,
  "UnlockCondition":1,
  "SortKey":1074,
  "Icon":64028,
  "Name":""
},
{
  "Id":97,
  "Type":11,
  "AdditionalData":37,
  "AcceptClassJobCategory":1,
  "Category":1,
  "UnlockCondition":1,
  "SortKey":1075,
  "Icon":64037,
  "Name":""
},
{
  "Id":98,
  "Type":11,
  "AdditionalData":22,
  "AcceptClassJobCategory":1,
  "Category":1,
  "UnlockCondition":1,
  "SortKey":1076,
  "Icon":64022,
  "Name":""
},
{
  "Id":99,
  "Type":11,
  "AdditionalData":54,
  "AcceptClassJobCategory":1,
  "Category":1,
  "UnlockCondition":1,
  "SortKey":1077,
  "Icon":64063,
  "Name":""
},
{
  "Id":100,
  "Type":11,
  "AdditionalData":23,
  "AcceptClassJobCategory":1,
  "Category":1,
  "UnlockCondition":1,
  "SortKey":1078,
  "Icon":64023,
  "Name":""
},
{
  "Id":101,
  "Type":11,
  "AdditionalData":123,
  "AcceptClassJobCategory":1,
  "Category":1,
  "UnlockCondition":56,
  "SortKey":1079,
  "Icon":64087,
  "Name":""
},
{
  "Id":102,
  "Type":11,
  "AdditionalData":128,
  "AcceptClassJobCategory":1,
  "Category":1,
  "UnlockCondition":57,
  "SortKey":1080,
  "Icon":64092,
  "Name":""
},
{
  "Id":103,
  "Type":11,
  "AdditionalData":142,
  "AcceptClassJobCategory":1,
  "Category":1,
  "UnlockCondition":58,
  "SortKey":1081,
  "Icon":64330,
  "Name":""
},
{
  "Id":104,
  "Type":11,
  "AdditionalData":148,
  "AcceptClassJobCategory":1,
  "Category":1,
  "UnlockCondition":15,
  "SortKey":1082,
  "Icon":64335,
  "Name":""
},
{
  "Id":105,
  "Type":0,
  "AdditionalData":0,
  "AcceptClassJobCategory":0,
  "Category":0,
  "UnlockCondition":0,
  "SortKey":0,
  "Icon":0,
  "Name":""
},
{
  "Id":106,
  "Type":11,
  "AdditionalData":159,
  "AcceptClassJobCategory":1,
  "Category":1,
  "UnlockCondition":1,
  "SortKey":1083,
  "Icon":64345,
  "Name":""
},
{
  "Id":107,
  "Type":11,
  "AdditionalData":182,
  "AcceptClassJobCategory":1,
  "Category":1,
  "UnlockCondition":119,
  "SortKey":1084,
  "Icon":64369,
  "Name":""
},
{
  "Id":108,
  "Type":11,
  "AdditionalData":231,
  "AcceptClassJobCategory":1,
  "Category":1,
  "UnlockCondition":16,
  "SortKey":1085,
  "Icon":64412,
  "Name":""
},
{
  "Id":109,
  "Type":11,
  "AdditionalData":63,
  "AcceptClassJobCategory":1,
  "Category":1,
  "UnlockCondition":60,
  "SortKey":1086,
  "Icon":64353,
  "Name":""
},
{
  "Id":110,
  "Type":0,
  "AdditionalData":0,
  "AcceptClassJobCategory":0,
  "Category":0,
  "UnlockCondition":0,
  "SortKey":0,
  "Icon":0,
  "Name":""
},
{
  "Id":111,
  "Type":11,
  "AdditionalData":208,
  "AcceptClassJobCategory":1,
  "Category":1,
  "UnlockCondition":35,
  "SortKey":1087,
  "Icon":64393,
  "Name":""
},
{
  "Id":112,
  "Type":11,
  "AdditionalData":206,
  "AcceptClassJobCategory":1,
  "Category":1,
  "UnlockCondition":36,
  "SortKey":1088,
  "Icon":64390,
  "Name":""
},
{
  "Id":113,
  "Type":11,
  "AdditionalData":220,
  "AcceptClassJobCategory":1,
  "Category":1,
  "UnlockCondition":37,
  "SortKey":1089,
  "Icon":64402,
  "Name":""
},
{
  "Id":114,
  "Type":11,
  "AdditionalData":221,
  "AcceptClassJobCategory":1,
  "Category":1,
  "UnlockCondition":103,
  "SortKey":1090,
  "Icon":64403,
  "Name":""
},
{
  "Id":115,
  "Type":0,
  "AdditionalData":0,
  "AcceptClassJobCategory":0,
  "Category":0,
  "UnlockCondition":0,
  "SortKey":0,
  "Icon":0,
  "Name":""
},
{
  "Id":116,
  "Type":11,
  "AdditionalData":235,
  "AcceptClassJobCategory":1,
  "Category":1,
  "UnlockCondition":62,
  "SortKey":1091,
  "Icon":64417,
  "Name":""
},
{
  "Id":117,
  "Type":0,
  "AdditionalData":0,
  "AcceptClassJobCategory":0,
  "Category":0,
  "UnlockCondition":0,
  "SortKey":0,
  "Icon":0,
  "Name":""
},
{
  "Id":118,
  "Type":11,
  "AdditionalData":207,
  "AcceptClassJobCategory":1,
  "Category":1,
  "UnlockCondition":38,
  "SortKey":1092,
  "Icon":64391,
  "Name":""
},
{
  "Id":119,
  "Type":11,
  "AdditionalData":209,
  "AcceptClassJobCategory":1,
  "Category":1,
  "UnlockCondition":64,
  "SortKey":1094,
  "Icon":64392,
  "Name":""
},
{
  "Id":120,
  "Type":11,
  "AdditionalData":213,
  "AcceptClassJobCategory":1,
  "Category":1,
  "UnlockCondition":39,
  "SortKey":1095,
  "Icon":64397,
  "Name":""
},
{
  "Id":121,
  "Type":0,
  "AdditionalData":0,
  "AcceptClassJobCategory":0,
  "Category":0,
  "UnlockCondition":0,
  "SortKey":0,
  "Icon":0,
  "Name":""
},
{
  "Id":122,
  "Type":11,
  "AdditionalData":238,
  "AcceptClassJobCategory":1,
  "Category":1,
  "UnlockCondition":121,
  "SortKey":1097,
  "Icon":64423,
  "Name":""
},
{
  "Id":123,
  "Type":11,
  "AdditionalData":237,
  "AcceptClassJobCategory":1,
  "Category":1,
  "UnlockCondition":122,
  "SortKey":1098,
  "Icon":64422,
  "Name":""
},
{
  "Id":124,
  "Type":11,
  "AdditionalData":101,
  "AcceptClassJobCategory":1,
  "Category":1,
  "UnlockCondition":17,
  "SortKey":2000,
  "Icon":64069,
  "Name":""
},
{
  "Id":125,
  "Type":11,
  "AdditionalData":102,
  "AcceptClassJobCategory":1,
  "Category":1,
  "UnlockCondition":18,
  "SortKey":2001,
  "Icon":64070,
  "Name":""
},
{
  "Id":126,
  "Type":11,
  "AdditionalData":103,
  "AcceptClassJobCategory":1,
  "Category":1,
  "UnlockCondition":19,
  "SortKey":2002,
  "Icon":64071,
  "Name":""
},
{
  "Id":127,
  "Type":11,
  "AdditionalData":104,
  "AcceptClassJobCategory":1,
  "Category":1,
  "UnlockCondition":20,
  "SortKey":2003,
  "Icon":64072,
  "Name":""
},
{
  "Id":128,
  "Type":11,
  "AdditionalData":109,
  "AcceptClassJobCategory":1,
  "Category":1,
  "UnlockCondition":66,
  "SortKey":2004,
  "Icon":64074,
  "Name":""
},
{
  "Id":129,
  "Type":0,
  "AdditionalData":0,
  "AcceptClassJobCategory":0,
  "Category":0,
  "UnlockCondition":0,
  "SortKey":0,
  "Icon":0,
  "Name":""
},
{
  "Id":130,
  "Type":11,
  "AdditionalData":118,
  "AcceptClassJobCategory":1,
  "Category":1,
  "UnlockCondition":29,
  "SortKey":2005,
  "Icon":64082,
  "Name":""
},
{
  "Id":131,
  "Type":11,
  "AdditionalData":119,
  "AcceptClassJobCategory":1,
  "Category":1,
  "UnlockCondition":30,
  "SortKey":2006,
  "Icon":64083,
  "Name":""
},
{
  "Id":132,
  "Type":11,
  "AdditionalData":120,
  "AcceptClassJobCategory":1,
  "Category":1,
  "UnlockCondition":22,
  "SortKey":2007,
  "Icon":64084,
  "Name":""
},
{
  "Id":133,
  "Type":11,
  "AdditionalData":145,
  "AcceptClassJobCategory":1,
  "Category":1,
  "UnlockCondition":23,
  "SortKey":2008,
  "Icon":64333,
  "Name":""
},
{
  "Id":134,
  "Type":11,
  "AdditionalData":126,
  "AcceptClassJobCategory":1,
  "Category":1,
  "UnlockCondition":24,
  "SortKey":2009,
  "Icon":64090,
  "Name":""
},
{
  "Id":135,
  "Type":10,
  "AdditionalData":130,
  "AcceptClassJobCategory":1,
  "Category":1,
  "UnlockCondition":67,
  "SortKey":2010,
  "Icon":64094,
  "Name":""
},
{
  "Id":136,
  "Type":10,
  "AdditionalData":134,
  "AcceptClassJobCategory":1,
  "Category":1,
  "UnlockCondition":68,
  "SortKey":2011,
  "Icon":64097,
  "Name":""
},
{
  "Id":137,
  "Type":10,
  "AdditionalData":131,
  "AcceptClassJobCategory":1,
  "Category":1,
  "UnlockCondition":69,
  "SortKey":2012,
  "Icon":64095,
  "Name":""
},
{
  "Id":138,
  "Type":10,
  "AdditionalData":135,
  "AcceptClassJobCategory":1,
  "Category":1,
  "UnlockCondition":70,
  "SortKey":2013,
  "Icon":64098,
  "Name":""
},
{
  "Id":139,
  "Type":10,
  "AdditionalData":132,
  "AcceptClassJobCategory":1,
  "Category":1,
  "UnlockCondition":71,
  "SortKey":2014,
  "Icon":64096,
  "Name":""
},
{
  "Id":140,
  "Type":10,
  "AdditionalData":136,
  "AcceptClassJobCategory":1,
  "Category":1,
  "UnlockCondition":72,
  "SortKey":2015,
  "Icon":64099,
  "Name":""
},
{
  "Id":141,
  "Type":0,
  "AdditionalData":0,
  "AcceptClassJobCategory":0,
  "Category":0,
  "UnlockCondition":0,
  "SortKey":0,
  "Icon":0,
  "Name":""
},
{
  "Id":142,
  "Type":0,
  "AdditionalData":0,
  "AcceptClassJobCategory":0,
  "Category":0,
  "UnlockCondition":0,
  "SortKey":0,
  "Icon":0,
  "Name":""
},
{
  "Id":143,
  "Type":0,
  "AdditionalData":0,
  "AcceptClassJobCategory":0,
  "Category":0,
  "UnlockCondition":0,
  "SortKey":0,
  "Icon":0,
  "Name":""
},
{
  "Id":144,
  "Type":0,
  "AdditionalData":0,
  "AcceptClassJobCategory":0,
  "Category":0,
  "UnlockCondition":0,
  "SortKey":0,
  "Icon":0,
  "Name":""
},
{
  "Id":145,
  "Type":0,
  "AdditionalData":0,
  "AcceptClassJobCategory":0,
  "Category":0,
  "UnlockCondition":0,
  "SortKey":0,
  "Icon":0,
  "Name":""
},
{
  "Id":146,
  "Type":0,
  "AdditionalData":0,
  "AcceptClassJobCategory":0,
  "Category":0,
  "UnlockCondition":0,
  "SortKey":0,
  "Icon":0,
  "Name":""
},
{
  "Id":147,
  "Type":0,
  "AdditionalData":0,
  "AcceptClassJobCategory":0,
  "Category":0,
  "UnlockCondition":0,
  "SortKey":0,
  "Icon":0,
  "Name":""
},
{
  "Id":148,
  "Type":11,
  "AdditionalData":176,
  "AcceptClassJobCategory":1,
  "Category":1,
  "UnlockCondition":107,
  "SortKey":2016,
  "Icon":64365,
  "Name":""
},
{
  "Id":149,
  "Type":11,
  "AdditionalData":173,
  "AcceptClassJobCategory":1,
  "Category":1,
  "UnlockCondition":78,
  "SortKey":2017,
  "Icon":64362,
  "Name":""
},
{
  "Id":150,
  "Type":11,
  "AdditionalData":174,
  "AcceptClassJobCategory":1,
  "Category":1,
  "UnlockCondition":79,
  "SortKey":2018,
  "Icon":64363,
  "Name":""
},
{
  "Id":151,
  "Type":11,
  "AdditionalData":185,
  "AcceptClassJobCategory":1,
  "Category":1,
  "UnlockCondition":80,
  "SortKey":2019,
  "Icon":64370,
  "Name":""
},
{
  "Id":152,
  "Type":11,
  "AdditionalData":186,
  "AcceptClassJobCategory":1,
  "Category":1,
  "UnlockCondition":81,
  "SortKey":2020,
  "Icon":64371,
  "Name":""
},
{
  "Id":153,
  "Type":0,
  "AdditionalData":0,
  "AcceptClassJobCategory":0,
  "Category":0,
  "UnlockCondition":0,
  "SortKey":0,
  "Icon":0,
  "Name":""
},
{
  "Id":154,
  "Type":0,
  "AdditionalData":0,
  "AcceptClassJobCategory":0,
  "Category":0,
  "UnlockCondition":0,
  "SortKey":0,
  "Icon":0,
  "Name":""
},
{
  "Id":155,
  "Type":11,
  "AdditionalData":187,
  "AcceptClassJobCategory":1,
  "Category":1,
  "UnlockCondition":25,
  "SortKey":2021,
  "Icon":64372,
  "Name":""
},
{
  "Id":156,
  "Type":11,
  "AdditionalData":198,
  "AcceptClassJobCategory":1,
  "Category":1,
  "UnlockCondition":26,
  "SortKey":2022,
  "Icon":64382,
  "Name":""
},
{
  "Id":157,
  "Type":0,
  "AdditionalData":0,
  "AcceptClassJobCategory":0,
  "Category":0,
  "UnlockCondition":0,
  "SortKey":0,
  "Icon":0,
  "Name":""
},
{
  "Id":158,
  "Type":11,
  "AdditionalData":212,
  "AcceptClassJobCategory":1,
  "Category":1,
  "UnlockCondition":85,
  "SortKey":2023,
  "Icon":64396,
  "Name":""
},
{
  "Id":159,
  "Type":11,
  "AdditionalData":216,
  "AcceptClassJobCategory":1,
  "Category":1,
  "UnlockCondition":31,
  "SortKey":2024,
  "Icon":64400,
  "Name":""
},
{
  "Id":160,
  "Type":11,
  "AdditionalData":217,
  "AcceptClassJobCategory":1,
  "Category":1,
  "UnlockCondition":108,
  "SortKey":2025,
  "Icon":64401,
  "Name":""
},
{
  "Id":161,
  "Type":11,
  "AdditionalData":155,
  "AcceptClassJobCategory":1,
  "Category":1,
  "UnlockCondition":113,
  "SortKey":2026,
  "Icon":64341,
  "Name":""
},
{
  "Id":162,
  "Type":11,
  "AdditionalData":156,
  "AcceptClassJobCategory":1,
  "Category":1,
  "UnlockCondition":114,
  "SortKey":2027,
  "Icon":64342,
  "Name":""
},
{
  "Id":163,
  "Type":11,
  "AdditionalData":157,
  "AcceptClassJobCategory":1,
  "Category":1,
  "UnlockCondition":115,
  "SortKey":2028,
  "Icon":64343,
  "Name":""
},
{
  "Id":164,
  "Type":11,
  "AdditionalData":158,
  "AcceptClassJobCategory":1,
  "Category":1,
  "UnlockCondition":116,
  "SortKey":2029,
  "Icon":64344,
  "Name":""
},
{
  "Id":165,
  "Type":11,
  "AdditionalData":164,
  "AcceptClassJobCategory":1,
  "Category":1,
  "UnlockCondition":117,
  "SortKey":2030,
  "Icon":64346,
  "Name":""
},
{
  "Id":166,
  "Type":11,
  "AdditionalData":165,
  "AcceptClassJobCategory":1,
  "Category":1,
  "UnlockCondition":118,
  "SortKey":2031,
  "Icon":64347,
  "Name":""
},
{
  "Id":167,
  "Type":11,
  "AdditionalData":166,
  "AcceptClassJobCategory":1,
  "Category":1,
  "UnlockCondition":27,
  "SortKey":2032,
  "Icon":64348,
  "Name":""
},
{
  "Id":168,
  "Type":11,
  "AdditionalData":180,
  "AcceptClassJobCategory":1,
  "Category":1,
  "UnlockCondition":43,
  "SortKey":2033,
  "Icon":64367,
  "Name":""
},
{
  "Id":169,
  "Type":11,
  "AdditionalData":181,
  "AcceptClassJobCategory":1,
  "Category":1,
  "UnlockCondition":96,
  "SortKey":2034,
  "Icon":64368,
  "Name":""
},
{
  "Id":170,
  "Type":11,
  "AdditionalData":169,
  "AcceptClassJobCategory":1,
  "Category":1,
  "UnlockCondition":33,
  "SortKey":2035,
  "Icon":64358,
  "Name":""
},
{
  "Id":171,
  "Type":11,
  "AdditionalData":170,
  "AcceptClassJobCategory":1,
  "Category":1,
  "UnlockCondition":34,
  "SortKey":2036,
  "Icon":64359,
  "Name":""
},
{
  "Id":172,
  "Type":11,
  "AdditionalData":188,
  "AcceptClassJobCategory":1,
  "Category":1,
  "UnlockCondition":102,
  "SortKey":2037,
  "Icon":64373,
  "Name":""
},
{
  "Id":173,
  "Type":11,
  "AdditionalData":189,
  "AcceptClassJobCategory":1,
  "Category":1,
  "UnlockCondition":97,
  "SortKey":2038,
  "Icon":64374,
  "Name":""
},
{
  "Id":174,
  "Type":11,
  "AdditionalData":196,
  "AcceptClassJobCategory":1,
  "Category":1,
  "UnlockCondition":123,
  "SortKey":2039,
  "Icon":64380,
  "Name":""
},
{
  "Id":175,
  "Type":0,
  "AdditionalData":0,
  "AcceptClassJobCategory":0,
  "Category":0,
  "UnlockCondition":0,
  "SortKey":0,
  "Icon":0,
  "Name":""
},
{
  "Id":176,
  "Type":11,
  "AdditionalData":203,
  "AcceptClassJobCategory":1,
  "Category":1,
  "UnlockCondition":40,
  "SortKey":2041,
  "Icon":64388,
  "Name":""
},
{
  "Id":177,
  "Type":11,
  "AdditionalData":214,
  "AcceptClassJobCategory":1,
  "Category":1,
  "UnlockCondition":44,
  "SortKey":2042,
  "Icon":64398,
  "Name":""
},
{
  "Id":178,
  "Type":11,
  "AdditionalData":215,
  "AcceptClassJobCategory":1,
  "Category":1,
  "UnlockCondition":45,
  "SortKey":2043,
  "Icon":64399,
  "Name":""
},
{
  "Id":179,
  "Type":11,
  "AdditionalData":222,
  "AcceptClassJobCategory":1,
  "Category":1,
  "UnlockCondition":104,
  "SortKey":2044,
  "Icon":64404,
  "Name":""
},
{
  "Id":180,
  "Type":11,
  "AdditionalData":223,
  "AcceptClassJobCategory":1,
  "Category":1,
  "UnlockCondition":41,
  "SortKey":2045,
  "Icon":64405,
  "Name":""
},
{
  "Id":181,
  "Type":0,
  "AdditionalData":0,
  "AcceptClassJobCategory":0,
  "Category":0,
  "UnlockCondition":0,
  "SortKey":0,
  "Icon":0,
  "Name":""
},
{
  "Id":182,
  "Type":0,
  "AdditionalData":0,
  "AcceptClassJobCategory":0,
  "Category":0,
  "UnlockCondition":0,
  "SortKey":0,
  "Icon":0,
  "Name":""
},
{
  "Id":183,
  "Type":0,
  "AdditionalData":0,
  "AcceptClassJobCategory":0,
  "Category":0,
  "UnlockCondition":0,
  "SortKey":0,
  "Icon":0,
  "Name":""
},
{
  "Id":184,
  "Type":0,
  "AdditionalData":0,
  "AcceptClassJobCategory":0,
  "Category":0,
  "UnlockCondition":0,
  "SortKey":0,
  "Icon":0,
  "Name":""
},
{
  "Id":185,
  "Type":0,
  "AdditionalData":0,
  "AcceptClassJobCategory":0,
  "Category":0,
  "UnlockCondition":0,
  "SortKey":0,
  "Icon":0,
  "Name":""
},
{
  "Id":186,
  "Type":0,
  "AdditionalData":0,
  "AcceptClassJobCategory":0,
  "Category":0,
  "UnlockCondition":0,
  "SortKey":0,
  "Icon":0,
  "Name":""
},
{
  "Id":187,
  "Type":0,
  "AdditionalData":0,
  "AcceptClassJobCategory":0,
  "Category":0,
  "UnlockCondition":0,
  "SortKey":0,
  "Icon":0,
  "Name":""
},
{
  "Id":188,
  "Type":0,
  "AdditionalData":0,
  "AcceptClassJobCategory":0,
  "Category":0,
  "UnlockCondition":0,
  "SortKey":0,
  "Icon":0,
  "Name":""
},
{
  "Id":189,
  "Type":0,
  "AdditionalData":0,
  "AcceptClassJobCategory":0,
  "Category":0,
  "UnlockCondition":0,
  "SortKey":0,
  "Icon":0,
  "Name":""
},
{
  "Id":190,
  "Type":0,
  "AdditionalData":0,
  "AcceptClassJobCategory":0,
  "Category":0,
  "UnlockCondition":0,
  "SortKey":0,
  "Icon":0,
  "Name":""
},
{
  "Id":191,
  "Type":0,
  "AdditionalData":0,
  "AcceptClassJobCategory":0,
  "Category":0,
  "UnlockCondition":0,
  "SortKey":0,
  "Icon":0,
  "Name":""
},
{
  "Id":192,
  "Type":0,
  "AdditionalData":0,
  "AcceptClassJobCategory":0,
  "Category":0,
  "UnlockCondition":0,
  "SortKey":0,
  "Icon":0,
  "Name":""
},
{
  "Id":193,
  "Type":0,
  "AdditionalData":0,
  "AcceptClassJobCategory":0,
  "Category":0,
  "UnlockCondition":0,
  "SortKey":0,
  "Icon":0,
  "Name":""
},
{
  "Id":194,
  "Type":0,
  "AdditionalData":0,
  "AcceptClassJobCategory":0,
  "Category":0,
  "UnlockCondition":0,
  "SortKey":0,
  "Icon":0,
  "Name":""
},
{
  "Id":195,
  "Type":0,
  "AdditionalData":0,
  "AcceptClassJobCategory":0,
  "Category":0,
  "UnlockCondition":0,
  "SortKey":0,
  "Icon":0,
  "Name":""
},
{
  "Id":196,
  "Type":0,
  "AdditionalData":0,
  "AcceptClassJobCategory":0,
  "Category":0,
  "UnlockCondition":0,
  "SortKey":0,
  "Icon":0,
  "Name":""
},
{
  "Id":197,
  "Type":0,
  "AdditionalData":0,
  "AcceptClassJobCategory":0,
  "Category":0,
  "UnlockCondition":0,
  "SortKey":0,
  "Icon":0,
  "Name":""
},
{
  "Id":198,
  "Type":0,
  "AdditionalData":0,
  "AcceptClassJobCategory":0,
  "Category":0,
  "UnlockCondition":0,
  "SortKey":0,
  "Icon":0,
  "Name":""
},
{
  "Id":199,
  "Type":0,
  "AdditionalData":0,
  "AcceptClassJobCategory":0,
  "Category":0,
  "UnlockCondition":0,
  "SortKey":0,
  "Icon":0,
  "Name":""
},
{
  "Id":200,
  "Type":0,
  "AdditionalData":0,
  "AcceptClassJobCategory":0,
  "Category":0,
  "UnlockCondition":0,
  "SortKey":0,
  "Icon":0,
  "Name":""
},
{
  "Id":201,
  "Type":0,
  "AdditionalData":0,
  "AcceptClassJobCategory":0,
  "Category":0,
  "UnlockCondition":0,
  "SortKey":0,
  "Icon":0,
  "Name":""
},
{
  "Id":202,
  "Type":0,
  "AdditionalData":0,
  "AcceptClassJobCategory":0,
  "Category":0,
  "UnlockCondition":0,
  "SortKey":0,
  "Icon":0,
  "Name":""
},
{
  "Id":203,
  "Type":0,
  "AdditionalData":0,
  "AcceptClassJobCategory":0,
  "Category":0,
  "UnlockCondition":0,
  "SortKey":0,
  "Icon":0,
  "Name":""
},
{
  "Id":204,
  "Type":0,
  "AdditionalData":0,
  "AcceptClassJobCategory":0,
  "Category":0,
  "UnlockCondition":0,
  "SortKey":0,
  "Icon":0,
  "Name":""
},
{
  "Id":205,
  "Type":0,
  "AdditionalData":0,
  "AcceptClassJobCategory":0,
  "Category":0,
  "UnlockCondition":0,
  "SortKey":0,
  "Icon":0,
  "Name":""
},
{
  "Id":206,
  "Type":0,
  "AdditionalData":0,
  "AcceptClassJobCategory":0,
  "Category":0,
  "UnlockCondition":0,
  "SortKey":0,
  "Icon":0,
  "Name":""
},
{
  "Id":207,
  "Type":0,
  "AdditionalData":0,
  "AcceptClassJobCategory":0,
  "Category":0,
  "UnlockCondition":0,
  "SortKey":0,
  "Icon":0,
  "Name":""
},
{
  "Id":208,
  "Type":0,
  "AdditionalData":0,
  "AcceptClassJobCategory":0,
  "Category":0,
  "UnlockCondition":0,
  "SortKey":0,
  "Icon":0,
  "Name":""
},
{
  "Id":209,
  "Type":0,
  "AdditionalData":0,
  "AcceptClassJobCategory":0,
  "Category":0,
  "UnlockCondition":0,
  "SortKey":0,
  "Icon":0,
  "Name":""
},
{
  "Id":210,
  "Type":0,
  "AdditionalData":0,
  "AcceptClassJobCategory":0,
  "Category":0,
  "UnlockCondition":0,
  "SortKey":0,
  "Icon":0,
  "Name":""
},
{
  "Id":211,
  "Type":0,
  "AdditionalData":0,
  "AcceptClassJobCategory":0,
  "Category":0,
  "UnlockCondition":0,
  "SortKey":0,
  "Icon":0,
  "Name":""
},
{
  "Id":212,
  "Type":20,
  "AdditionalData":256,
  "AcceptClassJobCategory":154,
  "Category":3,
  "UnlockCondition":1,
  "SortKey":6100,
  "Icon":82096,
  "Name":"Ready to Gather"
},
{
  "Id":213,
  "Type":0,
  "AdditionalData":0,
  "AcceptClassJobCategory":0,
  "Category":0,
  "UnlockCondition":0,
  "SortKey":0,
  "Icon":0,
  "Name":""
},
{
  "Id":214,
  "Type":0,
  "AdditionalData":0,
  "AcceptClassJobCategory":0,
  "Category":0,
  "UnlockCondition":0,
  "SortKey":0,
  "Icon":0,
  "Name":""
},
{
  "Id":215,
  "Type":0,
  "AdditionalData":0,
  "AcceptClassJobCategory":0,
  "Category":0,
  "UnlockCondition":0,
  "SortKey":0,
  "Icon":0,
  "Name":""
},
{
  "Id":216,
  "Type":0,
  "AdditionalData":0,
  "AcceptClassJobCategory":0,
  "Category":0,
  "UnlockCondition":0,
  "SortKey":0,
  "Icon":0,
  "Name":""
},
{
  "Id":217,
  "Type":0,
  "AdditionalData":0,
  "AcceptClassJobCategory":0,
  "Category":0,
  "UnlockCondition":0,
  "SortKey":0,
  "Icon":0,
  "Name":""
},
{
  "Id":218,
  "Type":20,
  "AdditionalData":271,
  "AcceptClassJobCategory":19,
  "Category":3,
  "UnlockCondition":1,
  "SortKey":6200,
  "Icon":62118,
  "Name":"Tackle in Hand"
},
{
  "Id":219,
  "Type":20,
  "AdditionalData":277,
  "AcceptClassJobCategory":19,
  "Category":3,
  "UnlockCondition":1,
  "SortKey":6201,
  "Icon":62118,
  "Name":"Ready to Reel"
},
{
  "Id":220,
  "Type":0,
  "AdditionalData":0,
  "AcceptClassJobCategory":0,
  "Category":0,
  "UnlockCondition":0,
  "SortKey":0,
  "Icon":0,
  "Name":""
},
{
  "Id":221,
  "Type":0,
  "AdditionalData":0,
  "AcceptClassJobCategory":0,
  "Category":0,
  "UnlockCondition":0,
  "SortKey":0,
  "Icon":0,
  "Name":""
},
{
  "Id":222,
  "Type":0,
  "AdditionalData":0,
  "AcceptClassJobCategory":0,
  "Category":0,
  "UnlockCondition":0,
  "SortKey":0,
  "Icon":0,
  "Name":""
},
{
  "Id":223,
  "Type":0,
  "AdditionalData":0,
  "AcceptClassJobCategory":0,
  "Category":0,
  "UnlockCondition":0,
  "SortKey":0,
  "Icon":0,
  "Name":""
},
{
  "Id":224,
  "Type":0,
  "AdditionalData":0,
  "AcceptClassJobCategory":0,
  "Category":0,
  "UnlockCondition":0,
  "SortKey":0,
  "Icon":0,
  "Name":""
},
{
  "Id":225,
  "Type":0,
  "AdditionalData":0,
  "AcceptClassJobCategory":0,
  "Category":0,
  "UnlockCondition":0,
  "SortKey":0,
  "Icon":0,
  "Name":""
},
{
  "Id":226,
  "Type":0,
  "AdditionalData":0,
  "AcceptClassJobCategory":0,
  "Category":0,
  "UnlockCondition":0,
  "SortKey":0,
  "Icon":0,
  "Name":""
},
{
  "Id":227,
  "Type":0,
  "AdditionalData":0,
  "AcceptClassJobCategory":0,
  "Category":0,
  "UnlockCondition":0,
  "SortKey":0,
  "Icon":0,
  "Name":""
},
{
  "Id":228,
  "Type":0,
  "AdditionalData":0,
  "AcceptClassJobCategory":0,
  "Category":0,
  "UnlockCondition":0,
  "SortKey":0,
  "Icon":0,
  "Name":""
},
{
  "Id":229,
  "Type":0,
  "AdditionalData":0,
  "AcceptClassJobCategory":0,
  "Category":0,
  "UnlockCondition":0,
  "SortKey":0,
  "Icon":0,
  "Name":""
},
{
  "Id":230,
  "Type":0,
  "AdditionalData":0,
  "AcceptClassJobCategory":0,
  "Category":0,
  "UnlockCondition":0,
  "SortKey":0,
  "Icon":0,
  "Name":""
},
{
  "Id":231,
  "Type":0,
  "AdditionalData":0,
  "AcceptClassJobCategory":0,
  "Category":0,
  "UnlockCondition":0,
  "SortKey":0,
  "Icon":0,
  "Name":""
},
{
  "Id":232,
  "Type":0,
  "AdditionalData":0,
  "AcceptClassJobCategory":0,
  "Category":0,
  "UnlockCondition":0,
  "SortKey":0,
  "Icon":0,
  "Name":""
},
{
  "Id":233,
  "Type":0,
  "AdditionalData":0,
  "AcceptClassJobCategory":0,
  "Category":0,
  "UnlockCondition":0,
  "SortKey":0,
  "Icon":0,
  "Name":""
},
{
  "Id":234,
  "Type":0,
  "AdditionalData":0,
  "AcceptClassJobCategory":0,
  "Category":0,
  "UnlockCondition":0,
  "SortKey":0,
  "Icon":0,
  "Name":""
},
{
  "Id":235,
  "Type":0,
  "AdditionalData":0,
  "AcceptClassJobCategory":0,
  "Category":0,
  "UnlockCondition":0,
  "SortKey":0,
  "Icon":0,
  "Name":""
},
{
  "Id":236,
  "Type":0,
  "AdditionalData":0,
  "AcceptClassJobCategory":0,
  "Category":0,
  "UnlockCondition":0,
  "SortKey":0,
  "Icon":0,
  "Name":""
},
{
  "Id":237,
  "Type":0,
  "AdditionalData":0,
  "AcceptClassJobCategory":0,
  "Category":0,
  "UnlockCondition":0,
  "SortKey":0,
  "Icon":0,
  "Name":""
},
{
  "Id":238,
  "Type":0,
  "AdditionalData":0,
  "AcceptClassJobCategory":0,
  "Category":0,
  "UnlockCondition":0,
  "SortKey":0,
  "Icon":0,
  "Name":""
},
{
  "Id":239,
  "Type":0,
  "AdditionalData":0,
  "AcceptClassJobCategory":0,
  "Category":0,
  "UnlockCondition":0,
  "SortKey":0,
  "Icon":0,
  "Name":""
},
{
  "Id":240,
  "Type":0,
  "AdditionalData":0,
  "AcceptClassJobCategory":0,
  "Category":0,
  "UnlockCondition":0,
  "SortKey":0,
  "Icon":0,
  "Name":""
},
{
  "Id":241,
  "Type":0,
  "AdditionalData":0,
  "AcceptClassJobCategory":0,
  "Category":0,
  "UnlockCondition":0,
  "SortKey":0,
  "Icon":0,
  "Name":""
},
{
  "Id":242,
  "Type":2,
  "AdditionalData":29069,
  "AcceptClassJobCategory":20,
  "Category":2,
  "UnlockCondition":124,
  "SortKey":4000,
  "Icon":62119,
  "Name":""
},
{
  "Id":243,
  "Type":2,
  "AdditionalData":29083,
  "AcceptClassJobCategory":22,
  "Category":2,
  "UnlockCondition":125,
  "SortKey":4010,
  "Icon":62121,
  "Name":""
},
{
  "Id":244,
  "Type":2,
  "AdditionalData":29097,
  "AcceptClassJobCategory":98,
  "Category":2,
  "UnlockCondition":126,
  "SortKey":4020,
  "Icon":62132,
  "Name":""
},
{
  "Id":245,
  "Type":2,
  "AdditionalData":29131,
  "AcceptClassJobCategory":149,
  "Category":2,
  "UnlockCondition":127,
  "SortKey":4032,
  "Icon":62137,
  "Name":""
},
{
  "Id":246,
  "Type":2,
  "AdditionalData":29230,
  "AcceptClassJobCategory":25,
  "Category":2,
  "UnlockCondition":128,
  "SortKey":4040,
  "Icon":62124,
  "Name":""
},
{
  "Id":247,
  "Type":2,
  "AdditionalData":29237,
  "AcceptClassJobCategory":29,
  "Category":2,
  "UnlockCondition":129,
  "SortKey":4050,
  "Icon":62128,
  "Name":""
},
{
  "Id":248,
  "Type":2,
  "AdditionalData":29255,
  "AcceptClassJobCategory":99,
  "Category":2,
  "UnlockCondition":130,
  "SortKey":4060,
  "Icon":62133,
  "Name":""
},
{
  "Id":249,
  "Type":2,
  "AdditionalData":29266,
  "AcceptClassJobCategory":181,
  "Category":2,
  "UnlockCondition":131,
  "SortKey":4070,
  "Icon":62140,
  "Name":""
},
{
  "Id":250,
  "Type":2,
  "AdditionalData":29485,
  "AcceptClassJobCategory":21,
  "Category":2,
  "UnlockCondition":132,
  "SortKey":4080,
  "Icon":62120,
  "Name":""
},
{
  "Id":251,
  "Type":2,
  "AdditionalData":29498,
  "AcceptClassJobCategory":23,
  "Category":2,
  "UnlockCondition":133,
  "SortKey":4100,
  "Icon":62122,
  "Name":""
},
{
  "Id":252,
  "Type":20,
  "AdditionalData":11602,
  "AcceptClassJobCategory":92,
  "Category":2,
  "UnlockCondition":134,
  "SortKey":4110,
  "Icon":62130,
  "Name":"Seiton Tenchu"
},
{
  "Id":253,
  "Type":20,
  "AdditionalData":11601,
  "AcceptClassJobCategory":111,
  "Category":2,
  "UnlockCondition":135,
  "SortKey":4120,
  "Icon":62134,
  "Name":"Zantetsuken"
},
{
  "Id":254,
  "Type":20,
  "AdditionalData":11600,
  "AcceptClassJobCategory":180,
  "Category":2,
  "UnlockCondition":136,
  "SortKey":4130,
  "Icon":62139,
  "Name":"Tenebrae Lemurum"
},
{
  "Id":255,
  "Type":2,
  "AdditionalData":29401,
  "AcceptClassJobCategory":24,
  "Category":2,
  "UnlockCondition":137,
  "SortKey":4140,
  "Icon":62123,
  "Name":""
},
{
  "Id":256,
  "Type":2,
  "AdditionalData":29415,
  "AcceptClassJobCategory":96,
  "Category":2,
  "UnlockCondition":138,
  "SortKey":4150,
  "Icon":62131,
  "Name":""
},
{
  "Id":257,
  "Type":2,
  "AdditionalData":29432,
  "AcceptClassJobCategory":150,
  "Category":2,
  "UnlockCondition":139,
  "SortKey":4160,
  "Icon":62138,
  "Name":""
},
{
  "Id":258,
  "Type":2,
  "AdditionalData":29662,
  "AcceptClassJobCategory":26,
  "Category":2,
  "UnlockCondition":140,
  "SortKey":4170,
  "Icon":62125,
  "Name":""
},
{
  "Id":259,
  "Type":2,
  "AdditionalData":29673,
  "AcceptClassJobCategory":28,
  "Category":2,
  "UnlockCondition":141,
  "SortKey":4180,
  "Icon":62127,
  "Name":""
},
{
  "Id":260,
  "Type":2,
  "AdditionalData":29678,
  "AcceptClassJobCategory":28,
  "Category":2,
  "UnlockCondition":141,
  "SortKey":4181,
  "Icon":62127,
  "Name":""
},
{
  "Id":261,
  "Type":2,
  "AdditionalData":29704,
  "AcceptClassJobCategory":112,
  "Category":2,
  "UnlockCondition":142,
  "SortKey":4190,
  "Icon":62135,
  "Name":""
},
{
  "Id":262,
  "Type":11,
  "AdditionalData":248,
  "AcceptClassJobCategory":1,
  "Category":1,
  "UnlockCondition":345,
  "SortKey":2046,
  "Icon":64426,
  "Name":""
},
{
  "Id":263,
  "Type":11,
  "AdditionalData":251,
  "AcceptClassJobCategory":1,
  "Category":1,
  "UnlockCondition":408,
  "SortKey":1096,
  "Icon":64429,
  "Name":""
},
{
  "Id":264,
  "Type":11,
  "AdditionalData":252,
  "AcceptClassJobCategory":1,
  "Category":1,
  "UnlockCondition":470,
  "SortKey":1042,
  "Icon":64430,
  "Name":""
},
{
  "Id":265,
  "Type":11,
  "AdditionalData":263,
  "AcceptClassJobCategory":1,
  "Category":1,
  "UnlockCondition":471,
  "SortKey":1022,
  "Icon":64438,
  "Name":""
},
{
  "Id":266,
  "Type":11,
  "AdditionalData":270,
  "AcceptClassJobCategory":1,
  "Category":1,
  "UnlockCondition":532,
  "SortKey":1093,
  "Icon":64444,
  "Name":""
},
{
  "Id":267,
  "Type":11,
  "AdditionalData":273,
  "AcceptClassJobCategory":1,
  "Category":1,
  "UnlockCondition":533,
  "SortKey":2040,
  "Icon":64447,
  "Name":""
},
{
  "Id":268,
  "Type":0,
  "AdditionalData":0,
  "AcceptClassJobCategory":0,
  "Category":0,
  "UnlockCondition":0,
  "SortKey":0,
  "Icon":0,
  "Name":""
},
{
  "Id":269,
  "Type":0,
  "AdditionalData":0,
  "AcceptClassJobCategory":0,
  "Category":0,
  "UnlockCondition":0,
  "SortKey":0,
  "Icon":0,
  "Name":""
},
{
  "Id":270,
  "Type":0,
  "AdditionalData":0,
  "AcceptClassJobCategory":0,
  "Category":0,
  "UnlockCondition":0,
  "SortKey":0,
  "Icon":0,
  "Name":""
},
{
  "Id":271,
  "Type":0,
  "AdditionalData":0,
  "AcceptClassJobCategory":0,
  "Category":0,
  "UnlockCondition":0,
  "SortKey":0,
  "Icon":0,
  "Name":""
},
{
  "Id":272,
  "Type":0,
  "AdditionalData":0,
  "AcceptClassJobCategory":0,
  "Category":0,
  "UnlockCondition":0,
  "SortKey":0,
  "Icon":0,
  "Name":""
},
{
  "Id":273,
  "Type":0,
  "AdditionalData":0,
  "AcceptClassJobCategory":0,
  "Category":0,
  "UnlockCondition":0,
  "SortKey":0,
  "Icon":0,
  "Name":""
},
{
  "Id":274,
  "Type":0,
  "AdditionalData":0,
  "AcceptClassJobCategory":0,
  "Category":0,
  "UnlockCondition":0,
  "SortKey":0,
  "Icon":0,
  "Name":""
},
{
  "Id":275,
  "Type":0,
  "AdditionalData":0,
  "AcceptClassJobCategory":0,
  "Category":0,
  "UnlockCondition":0,
  "SortKey":0,
  "Icon":0,
  "Name":""
},
{
  "Id":276,
  "Type":0,
  "AdditionalData":0,
  "AcceptClassJobCategory":0,
  "Category":0,
  "UnlockCondition":0,
  "SortKey":0,
  "Icon":0,
  "Name":""
},
{
  "Id":277,
  "Type":0,
  "AdditionalData":0,
  "AcceptClassJobCategory":0,
  "Category":0,
  "UnlockCondition":0,
  "SortKey":0,
  "Icon":0,
  "Name":""
},
{
  "Id":278,
  "Type":0,
  "AdditionalData":0,
  "AcceptClassJobCategory":0,
  "Category":0,
  "UnlockCondition":0,
  "SortKey":0,
  "Icon":0,
  "Name":""
},
{
  "Id":279,
  "Type":0,
  "AdditionalData":0,
  "AcceptClassJobCategory":0,
  "Category":0,
  "UnlockCondition":0,
  "SortKey":0,
  "Icon":0,
  "Name":""
},
{
  "Id":280,
  "Type":0,
  "AdditionalData":0,
  "AcceptClassJobCategory":0,
  "Category":0,
  "UnlockCondition":0,
  "SortKey":0,
  "Icon":0,
  "Name":""
},
{
  "Id":281,
  "Type":0,
  "AdditionalData":0,
  "AcceptClassJobCategory":0,
  "Category":0,
  "UnlockCondition":0,
  "SortKey":0,
  "Icon":0,
  "Name":""
},
{
  "Id":282,
  "Type":0,
  "AdditionalData":0,
  "AcceptClassJobCategory":0,
  "Category":0,
  "UnlockCondition":0,
  "SortKey":0,
  "Icon":0,
  "Name":""
},
{
  "Id":283,
  "Type":0,
  "AdditionalData":0,
  "AcceptClassJobCategory":0,
  "Category":0,
  "UnlockCondition":0,
  "SortKey":0,
  "Icon":0,
  "Name":""
},
{
  "Id":284,
  "Type":0,
  "AdditionalData":0,
  "AcceptClassJobCategory":0,
  "Category":0,
  "UnlockCondition":0,
  "SortKey":0,
  "Icon":0,
  "Name":""
},
{
  "Id":285,
  "Type":0,
  "AdditionalData":0,
  "AcceptClassJobCategory":0,
  "Category":0,
  "UnlockCondition":0,
  "SortKey":0,
  "Icon":0,
  "Name":""
},
{
  "Id":286,
  "Type":0,
  "AdditionalData":0,
  "AcceptClassJobCategory":0,
  "Category":0,
  "UnlockCondition":0,
  "SortKey":0,
  "Icon":0,
  "Name":""
},
{
  "Id":287,
  "Type":0,
  "AdditionalData":0,
  "AcceptClassJobCategory":0,
  "Category":0,
  "UnlockCondition":0,
  "SortKey":0,
  "Icon":0,
  "Name":""
},
{
  "Id":288,
  "Type":0,
  "AdditionalData":0,
  "AcceptClassJobCategory":0,
  "Category":0,
  "UnlockCondition":0,
  "SortKey":0,
  "Icon":0,
  "Name":""
},
{
  "Id":289,
  "Type":0,
  "AdditionalData":0,
  "AcceptClassJobCategory":0,
  "Category":0,
  "UnlockCondition":0,
  "SortKey":0,
  "Icon":0,
  "Name":""
},
{
  "Id":290,
  "Type":0,
  "AdditionalData":0,
  "AcceptClassJobCategory":0,
  "Category":0,
  "UnlockCondition":0,
  "SortKey":0,
  "Icon":0,
  "Name":""
},
{
  "Id":291,
  "Type":0,
  "AdditionalData":0,
  "AcceptClassJobCategory":0,
  "Category":0,
  "UnlockCondition":0,
  "SortKey":0,
  "Icon":0,
  "Name":""
},
{
  "Id":292,
  "Type":0,
  "AdditionalData":0,
  "AcceptClassJobCategory":0,
  "Category":0,
  "UnlockCondition":0,
  "SortKey":0,
  "Icon":0,
  "Name":""
},
{
  "Id":293,
  "Type":0,
  "AdditionalData":0,
  "AcceptClassJobCategory":0,
  "Category":0,
  "UnlockCondition":0,
  "SortKey":0,
  "Icon":0,
  "Name":""
},
{
  "Id":294,
  "Type":0,
  "AdditionalData":0,
  "AcceptClassJobCategory":0,
  "Category":0,
  "UnlockCondition":0,
  "SortKey":0,
  "Icon":0,
  "Name":""
},
{
  "Id":295,
  "Type":0,
  "AdditionalData":0,
  "AcceptClassJobCategory":0,
  "Category":0,
  "UnlockCondition":0,
  "SortKey":0,
  "Icon":0,
  "Name":""
},
{
  "Id":296,
  "Type":0,
  "AdditionalData":0,
  "AcceptClassJobCategory":0,
  "Category":0,
  "UnlockCondition":0,
  "SortKey":0,
  "Icon":0,
  "Name":""
},
{
  "Id":297,
  "Type":0,
  "AdditionalData":0,
  "AcceptClassJobCategory":0,
  "Category":0,
  "UnlockCondition":0,
  "SortKey":0,
  "Icon":0,
  "Name":""
},
{
  "Id":298,
  "Type":0,
  "AdditionalData":0,
  "AcceptClassJobCategory":0,
  "Category":0,
  "UnlockCondition":0,
  "SortKey":0,
  "Icon":0,
  "Name":""
},
{
  "Id":299,
  "Type":0,
  "AdditionalData":0,
  "AcceptClassJobCategory":0,
  "Category":0,
  "UnlockCondition":0,
  "SortKey":0,
  "Icon":0,
  "Name":""
},
{
  "Id":300,
  "Type":0,
  "AdditionalData":0,
  "AcceptClassJobCategory":0,
  "Category":0,
  "UnlockCondition":0,
  "SortKey":0,
  "Icon":0,
  "Name":""
},
{
  "Id":301,
  "Type":0,
  "AdditionalData":0,
  "AcceptClassJobCategory":0,
  "Category":0,
  "UnlockCondition":0,
  "SortKey":0,
  "Icon":0,
  "Name":""
},
{
  "Id":302,
  "Type":0,
  "AdditionalData":0,
  "AcceptClassJobCategory":0,
  "Category":0,
  "UnlockCondition":0,
  "SortKey":0,
  "Icon":0,
  "Name":""
},
{
  "Id":303,
  "Type":0,
  "AdditionalData":0,
  "AcceptClassJobCategory":0,
  "Category":0,
  "UnlockCondition":0,
  "SortKey":0,
  "Icon":0,
  "Name":""
},
{
  "Id":304,
  "Type":0,
  "AdditionalData":0,
  "AcceptClassJobCategory":0,
  "Category":0,
  "UnlockCondition":0,
  "SortKey":0,
  "Icon":0,
  "Name":""
},
{
  "Id":305,
  "Type":0,
  "AdditionalData":0,
  "AcceptClassJobCategory":0,
  "Category":0,
  "UnlockCondition":0,
  "SortKey":0,
  "Icon":0,
  "Name":""
},
{
  "Id":306,
  "Type":0,
  "AdditionalData":0,
  "AcceptClassJobCategory":0,
  "Category":0,
  "UnlockCondition":0,
  "SortKey":0,
  "Icon":0,
  "Name":""
},
{
  "Id":307,
  "Type":0,
  "AdditionalData":0,
  "AcceptClassJobCategory":0,
  "Category":0,
  "UnlockCondition":0,
  "SortKey":0,
  "Icon":0,
  "Name":""
},
{
  "Id":308,
  "Type":0,
  "AdditionalData":0,
  "AcceptClassJobCategory":0,
  "Category":0,
  "UnlockCondition":0,
  "SortKey":0,
  "Icon":0,
  "Name":""
},
{
  "Id":309,
  "Type":0,
  "AdditionalData":0,
  "AcceptClassJobCategory":0,
  "Category":0,
  "UnlockCondition":0,
  "SortKey":0,
  "Icon":0,
  "Name":""
},
{
  "Id":310,
  "Type":0,
  "AdditionalData":0,
  "AcceptClassJobCategory":0,
  "Category":0,
  "UnlockCondition":0,
  "SortKey":0,
  "Icon":0,
  "Name":""
},
{
  "Id":311,
  "Type":0,
  "AdditionalData":0,
  "AcceptClassJobCategory":0,
  "Category":0,
  "UnlockCondition":0,
  "SortKey":0,
  "Icon":0,
  "Name":""
},
{
  "Id":312,
  "Type":0,
  "AdditionalData":0,
  "AcceptClassJobCategory":0,
  "Category":0,
  "UnlockCondition":0,
  "SortKey":0,
  "Icon":0,
  "Name":""
},
{
  "Id":313,
  "Type":0,
  "AdditionalData":0,
  "AcceptClassJobCategory":0,
  "Category":0,
  "UnlockCondition":0,
  "SortKey":0,
  "Icon":0,
  "Name":""
},
{
  "Id":314,
  "Type":0,
  "AdditionalData":0,
  "AcceptClassJobCategory":0,
  "Category":0,
  "UnlockCondition":0,
  "SortKey":0,
  "Icon":0,
  "Name":""
},
{
  "Id":315,
  "Type":0,
  "AdditionalData":0,
  "AcceptClassJobCategory":0,
  "Category":0,
  "UnlockCondition":0,
  "SortKey":0,
  "Icon":0,
  "Name":""
},
{
  "Id":316,
  "Type":0,
  "AdditionalData":0,
  "AcceptClassJobCategory":0,
  "Category":0,
  "UnlockCondition":0,
  "SortKey":0,
  "Icon":0,
  "Name":""
},
{
  "Id":317,
  "Type":0,
  "AdditionalData":0,
  "AcceptClassJobCategory":0,
  "Category":0,
  "UnlockCondition":0,
  "SortKey":0,
  "Icon":0,
  "Name":""
},
{
  "Id":318,
  "Type":0,
  "AdditionalData":0,
  "AcceptClassJobCategory":0,
  "Category":0,
  "UnlockCondition":0,
  "SortKey":0,
  "Icon":0,
  "Name":""
},
{
  "Id":319,
  "Type":0,
  "AdditionalData":0,
  "AcceptClassJobCategory":0,
  "Category":0,
  "UnlockCondition":0,
  "SortKey":0,
  "Icon":0,
  "Name":""
},
{
  "Id":320,
  "Type":0,
  "AdditionalData":0,
  "AcceptClassJobCategory":0,
  "Category":0,
  "UnlockCondition":0,
  "SortKey":0,
  "Icon":0,
  "Name":""
},
{
  "Id":321,
  "Type":0,
  "AdditionalData":0,
  "AcceptClassJobCategory":0,
  "Category":0,
  "UnlockCondition":0,
  "SortKey":0,
  "Icon":0,
  "Name":""
},
{
  "Id":322,
  "Type":0,
  "AdditionalData":0,
  "AcceptClassJobCategory":0,
  "Category":0,
  "UnlockCondition":0,
  "SortKey":0,
  "Icon":0,
  "Name":""
},
{
  "Id":323,
  "Type":0,
  "AdditionalData":0,
  "AcceptClassJobCategory":0,
  "Category":0,
  "UnlockCondition":0,
  "SortKey":0,
  "Icon":0,
  "Name":""
},
{
  "Id":324,
  "Type":0,
  "AdditionalData":0,
  "AcceptClassJobCategory":0,
  "Category":0,
  "UnlockCondition":0,
  "SortKey":0,
  "Icon":0,
  "Name":""
},
{
  "Id":325,
  "Type":0,
  "AdditionalData":0,
  "AcceptClassJobCategory":0,
  "Category":0,
  "UnlockCondition":0,
  "SortKey":0,
  "Icon":0,
  "Name":""
},
{
  "Id":326,
  "Type":0,
  "AdditionalData":0,
  "AcceptClassJobCategory":0,
  "Category":0,
  "UnlockCondition":0,
  "SortKey":0,
  "Icon":0,
  "Name":""
},
{
  "Id":327,
  "Type":0,
  "AdditionalData":0,
  "AcceptClassJobCategory":0,
  "Category":0,
  "UnlockCondition":0,
  "SortKey":0,
  "Icon":0,
  "Name":""
},
{
  "Id":328,
  "Type":0,
  "AdditionalData":0,
  "AcceptClassJobCategory":0,
  "Category":0,
  "UnlockCondition":0,
  "SortKey":0,
  "Icon":0,
  "Name":""
},
{
  "Id":329,
  "Type":0,
  "AdditionalData":0,
  "AcceptClassJobCategory":0,
  "Category":0,
  "UnlockCondition":0,
  "SortKey":0,
  "Icon":0,
  "Name":""
},
{
  "Id":330,
  "Type":0,
  "AdditionalData":0,
  "AcceptClassJobCategory":0,
  "Category":0,
  "UnlockCondition":0,
  "SortKey":0,
  "Icon":0,
  "Name":""
},
{
  "Id":331,
  "Type":0,
  "AdditionalData":0,
  "AcceptClassJobCategory":0,
  "Category":0,
  "UnlockCondition":0,
  "SortKey":0,
  "Icon":0,
  "Name":""
},
{
  "Id":332,
  "Type":0,
  "AdditionalData":0,
  "AcceptClassJobCategory":0,
  "Category":0,
  "UnlockCondition":0,
  "SortKey":0,
  "Icon":0,
  "Name":""
},
{
  "Id":333,
  "Type":0,
  "AdditionalData":0,
  "AcceptClassJobCategory":0,
  "Category":0,
  "UnlockCondition":0,
  "SortKey":0,
  "Icon":0,
  "Name":""
},
{
  "Id":334,
  "Type":0,
  "AdditionalData":0,
  "AcceptClassJobCategory":0,
  "Category":0,
  "UnlockCondition":0,
  "SortKey":0,
  "Icon":0,
  "Name":""
},
{
  "Id":335,
  "Type":0,
  "AdditionalData":0,
  "AcceptClassJobCategory":0,
  "Category":0,
  "UnlockCondition":0,
  "SortKey":0,
  "Icon":0,
  "Name":""
},
{
  "Id":336,
  "Type":0,
  "AdditionalData":0,
  "AcceptClassJobCategory":0,
  "Category":0,
  "UnlockCondition":0,
  "SortKey":0,
  "Icon":0,
  "Name":""
},
{
  "Id":337,
  "Type":0,
  "AdditionalData":0,
  "AcceptClassJobCategory":0,
  "Category":0,
  "UnlockCondition":0,
  "SortKey":0,
  "Icon":0,
  "Name":""
},
{
  "Id":338,
  "Type":0,
  "AdditionalData":0,
  "AcceptClassJobCategory":0,
  "Category":0,
  "UnlockCondition":0,
  "SortKey":0,
  "Icon":0,
  "Name":""
},
{
  "Id":339,
  "Type":0,
  "AdditionalData":0,
  "AcceptClassJobCategory":0,
  "Category":0,
  "UnlockCondition":0,
  "SortKey":0,
  "Icon":0,
  "Name":""
},
{
  "Id":340,
  "Type":0,
  "AdditionalData":0,
  "AcceptClassJobCategory":0,
  "Category":0,
  "UnlockCondition":0,
  "SortKey":0,
  "Icon":0,
  "Name":""
},
{
  "Id":341,
  "Type":0,
  "AdditionalData":0,
  "AcceptClassJobCategory":0,
  "Category":0,
  "UnlockCondition":0,
  "SortKey":0,
  "Icon":0,
  "Name":""
},
{
  "Id":342,
  "Type":0,
  "AdditionalData":0,
  "AcceptClassJobCategory":0,
  "Category":0,
  "UnlockCondition":0,
  "SortKey":0,
  "Icon":0,
  "Name":""
},
{
  "Id":343,
  "Type":0,
  "AdditionalData":0,
  "AcceptClassJobCategory":0,
  "Category":0,
  "UnlockCondition":0,
  "SortKey":0,
  "Icon":0,
  "Name":""
},
{
  "Id":344,
  "Type":0,
  "AdditionalData":0,
  "AcceptClassJobCategory":0,
  "Category":0,
  "UnlockCondition":0,
  "SortKey":0,
  "Icon":0,
  "Name":""
},
{
  "Id":345,
  "Type":0,
  "AdditionalData":0,
  "AcceptClassJobCategory":0,
  "Category":0,
  "UnlockCondition":0,
  "SortKey":0,
  "Icon":0,
  "Name":""
},
{
  "Id":346,
  "Type":0,
  "AdditionalData":0,
  "AcceptClassJobCategory":0,
  "Category":0,
  "UnlockCondition":0,
  "SortKey":0,
  "Icon":0,
  "Name":""
},
{
  "Id":347,
  "Type":0,
  "AdditionalData":0,
  "AcceptClassJobCategory":0,
  "Category":0,
  "UnlockCondition":0,
  "SortKey":0,
  "Icon":0,
  "Name":""
},
{
  "Id":348,
  "Type":0,
  "AdditionalData":0,
  "AcceptClassJobCategory":0,
  "Category":0,
  "UnlockCondition":0,
  "SortKey":0,
  "Icon":0,
  "Name":""
},
{
  "Id":349,
  "Type":0,
  "AdditionalData":0,
  "AcceptClassJobCategory":0,
  "Category":0,
  "UnlockCondition":0,
  "SortKey":0,
  "Icon":0,
  "Name":""
},
{
  "Id":350,
  "Type":0,
  "AdditionalData":0,
  "AcceptClassJobCategory":0,
  "Category":0,
  "UnlockCondition":0,
  "SortKey":0,
  "Icon":0,
  "Name":""
}
]
