﻿[
{
  "Id":0,
  "Image":0,
  "Icon":82093,
  "UnlockCondition":0,
  "SortKey":0,
  "Name":"None"
},
{
  "Id":1,
  "Image":192001,
  "Icon":82093,
  "UnlockCondition":1,
  "SortKey":1,
  "Name":"None"
},
{
  "Id":2,
  "Image":192002,
  "Icon":82093,
  "UnlockCondition":1,
  "SortKey":2,
  "Name":"Laurels"
},
{
  "Id":3,
  "Image":192003,
  "Icon":82093,
  "UnlockCondition":1,
  "SortKey":10,
  "Name":"Hearts"
},
{
  "Id":4,
  "Image":192004,
  "Icon":82093,
  "UnlockCondition":1,
  "SortKey":11,
  "Name":"Stars"
},
{
  "Id":5,
  "Image":192005,
  "Icon":82093,
  "UnlockCondition":1,
  "SortKey":12,
  "Name":"Tank Emblem"
},
{
  "Id":6,
  "Image":192006,
  "Icon":82093,
  "UnlockCondition":1,
  "SortKey":14,
  "Name":"DPS Emblem"
},
{
  "Id":7,
  "Image":192007,
  "Icon":82093,
  "UnlockCondition":1,
  "SortKey":13,
  "Name":"Healer Emblem"
},
{
  "Id":8,
  "Image":192008,
  "Icon":82093,
  "UnlockCondition":1,
  "SortKey":32,
  "Name":"Sparkles"
},
{
  "Id":9,
  "Image":192009,
  "Icon":82093,
  "UnlockCondition":1,
  "SortKey":16,
  "Name":"Pawprints"
},
{
  "Id":10,
  "Image":192010,
  "Icon":82093,
  "UnlockCondition":1,
  "SortKey":17,
  "Name":"Exclamation Mark"
},
{
  "Id":11,
  "Image":192011,
  "Icon":82093,
  "UnlockCondition":1,
  "SortKey":18,
  "Name":"Question Mark"
},
{
  "Id":12,
  "Image":192301,
  "Icon":82093,
  "UnlockCondition":124,
  "SortKey":2000,
  "Name":"Paladin Emblem"
},
{
  "Id":13,
  "Image":192302,
  "Icon":82093,
  "UnlockCondition":125,
  "SortKey":2001,
  "Name":"Warrior Emblem"
},
{
  "Id":14,
  "Image":192303,
  "Icon":82093,
  "UnlockCondition":126,
  "SortKey":2002,
  "Name":"Dark Knight Emblem"
},
{
  "Id":15,
  "Image":192304,
  "Icon":82093,
  "UnlockCondition":127,
  "SortKey":2003,
  "Name":"Gunbreaker Emblem"
},
{
  "Id":16,
  "Image":192305,
  "Icon":82093,
  "UnlockCondition":128,
  "SortKey":2004,
  "Name":"White Mage Emblem"
},
{
  "Id":17,
  "Image":192306,
  "Icon":82093,
  "UnlockCondition":129,
  "SortKey":2005,
  "Name":"Scholar Emblem"
},
{
  "Id":18,
  "Image":192307,
  "Icon":82093,
  "UnlockCondition":130,
  "SortKey":2006,
  "Name":"Astrologian Emblem"
},
{
  "Id":19,
  "Image":192308,
  "Icon":82093,
  "UnlockCondition":131,
  "SortKey":2007,
  "Name":"Sage Emblem"
},
{
  "Id":20,
  "Image":192309,
  "Icon":82093,
  "UnlockCondition":132,
  "SortKey":2008,
  "Name":"Monk Emblem"
},
{
  "Id":21,
  "Image":192310,
  "Icon":82093,
  "UnlockCondition":133,
  "SortKey":2009,
  "Name":"Dragoon Emblem"
},
{
  "Id":22,
  "Image":192311,
  "Icon":82093,
  "UnlockCondition":134,
  "SortKey":2010,
  "Name":"Ninja Emblem"
},
{
  "Id":23,
  "Image":192312,
  "Icon":82093,
  "UnlockCondition":135,
  "SortKey":2011,
  "Name":"Samurai Emblem"
},
{
  "Id":24,
  "Image":192313,
  "Icon":82093,
  "UnlockCondition":136,
  "SortKey":2012,
  "Name":"Reaper Emblem"
},
{
  "Id":25,
  "Image":192314,
  "Icon":82093,
  "UnlockCondition":137,
  "SortKey":2013,
  "Name":"Bard Emblem"
},
{
  "Id":26,
  "Image":192315,
  "Icon":82093,
  "UnlockCondition":138,
  "SortKey":2014,
  "Name":"Machinist Emblem"
},
{
  "Id":27,
  "Image":192316,
  "Icon":82093,
  "UnlockCondition":139,
  "SortKey":2015,
  "Name":"Dancer Emblem"
},
{
  "Id":28,
  "Image":192317,
  "Icon":82093,
  "UnlockCondition":140,
  "SortKey":2016,
  "Name":"Black Mage Emblem"
},
{
  "Id":29,
  "Image":192318,
  "Icon":82093,
  "UnlockCondition":141,
  "SortKey":2017,
  "Name":"Summoner Emblem"
},
{
  "Id":30,
  "Image":192319,
  "Icon":82093,
  "UnlockCondition":142,
  "SortKey":2018,
  "Name":"Red Mage Emblem"
},
{
  "Id":31,
  "Image":192401,
  "Icon":82093,
  "UnlockCondition":143,
  "SortKey":3000,
  "Name":"Astra Emblem"
},
{
  "Id":32,
  "Image":192402,
  "Icon":82093,
  "UnlockCondition":144,
  "SortKey":3001,
  "Name":"Umbra Emblem"
},
{
  "Id":33,
  "Image":192403,
  "Icon":82093,
  "UnlockCondition":145,
  "SortKey":3200,
  "Name":"Final Conflict Crystal 1"
},
{
  "Id":34,
  "Image":192404,
  "Icon":82093,
  "UnlockCondition":146,
  "SortKey":3201,
  "Name":"Endless Conflict Blades 1"
},
{
  "Id":35,
  "Image":192405,
  "Icon":82093,
  "UnlockCondition":147,
  "SortKey":3202,
  "Name":"Rising Conflict Blades 1"
},
{
  "Id":36,
  "Image":192406,
  "Icon":82093,
  "UnlockCondition":148,
  "SortKey":3208,
  "Name":"Bronze Conflict Arms 1"
},
{
  "Id":37,
  "Image":192407,
  "Icon":82093,
  "UnlockCondition":149,
  "SortKey":3207,
  "Name":"Silver Conflict Arms 1"
},
{
  "Id":38,
  "Image":192408,
  "Icon":82093,
  "UnlockCondition":150,
  "SortKey":3206,
  "Name":"Gold Conflict Arms 1"
},
{
  "Id":39,
  "Image":192409,
  "Icon":82093,
  "UnlockCondition":151,
  "SortKey":3205,
  "Name":"Platinum Conflict Arms 1"
},
{
  "Id":40,
  "Image":192410,
  "Icon":82093,
  "UnlockCondition":152,
  "SortKey":3204,
  "Name":"Diamond Conflict Arms 1"
},
{
  "Id":41,
  "Image":192411,
  "Icon":82093,
  "UnlockCondition":153,
  "SortKey":3203,
  "Name":"Crystal Conflict Arms 1"
},
{
  "Id":42,
  "Image":192901,
  "Icon":82093,
  "UnlockCondition":154,
  "SortKey":4000,
  "Name":"Companion Buttons 1"
},
{
  "Id":43,
  "Image":192902,
  "Icon":82093,
  "UnlockCondition":155,
  "SortKey":4001,
  "Name":"Companion Buttons 2"
},
{
  "Id":44,
  "Image":192701,
  "Icon":82093,
  "UnlockCondition":319,
  "SortKey":2500,
  "Name":"Unending Coil of Bahamut"
},
{
  "Id":45,
  "Image":192702,
  "Icon":82093,
  "UnlockCondition":320,
  "SortKey":2501,
  "Name":"Weapon's Refrain"
},
{
  "Id":46,
  "Image":192703,
  "Icon":82093,
  "UnlockCondition":321,
  "SortKey":2502,
  "Name":"Epic of Alexander"
},
{
  "Id":47,
  "Image":192704,
  "Icon":82093,
  "UnlockCondition":322,
  "SortKey":2503,
  "Name":"Dragonsong's Reprise"
},
{
  "Id":48,
  "Image":192412,
  "Icon":82093,
  "UnlockCondition":323,
  "SortKey":3209,
  "Name":"Final Conflict Crystal 2"
},
{
  "Id":49,
  "Image":192413,
  "Icon":82093,
  "UnlockCondition":324,
  "SortKey":3210,
  "Name":"Endless Conflict Blades 2"
},
{
  "Id":50,
  "Image":192414,
  "Icon":82093,
  "UnlockCondition":325,
  "SortKey":3211,
  "Name":"Rising Conflict Blades 2"
},
{
  "Id":51,
  "Image":192415,
  "Icon":82093,
  "UnlockCondition":326,
  "SortKey":3217,
  "Name":"Bronze Conflict Arms 2"
},
{
  "Id":52,
  "Image":192416,
  "Icon":82093,
  "UnlockCondition":327,
  "SortKey":3216,
  "Name":"Silver Conflict Arms 2"
},
{
  "Id":53,
  "Image":192417,
  "Icon":82093,
  "UnlockCondition":328,
  "SortKey":3215,
  "Name":"Gold Conflict Arms 2"
},
{
  "Id":54,
  "Image":192418,
  "Icon":82093,
  "UnlockCondition":329,
  "SortKey":3214,
  "Name":"Platinum Conflict Arms 2"
},
{
  "Id":55,
  "Image":192419,
  "Icon":82093,
  "UnlockCondition":330,
  "SortKey":3213,
  "Name":"Diamond Conflict Arms 2"
},
{
  "Id":56,
  "Image":192420,
  "Icon":82093,
  "UnlockCondition":331,
  "SortKey":3212,
  "Name":"Crystal Conflict Arms 2"
},
{
  "Id":57,
  "Image":192421,
  "Icon":82093,
  "UnlockCondition":332,
  "SortKey":3218,
  "Name":"Final Conflict Crystal 3"
},
{
  "Id":58,
  "Image":192422,
  "Icon":82093,
  "UnlockCondition":333,
  "SortKey":3219,
  "Name":"Endless Conflict Blades 3"
},
{
  "Id":59,
  "Image":192423,
  "Icon":82093,
  "UnlockCondition":334,
  "SortKey":3220,
  "Name":"Rising Conflict Blades 3"
},
{
  "Id":60,
  "Image":192424,
  "Icon":82093,
  "UnlockCondition":335,
  "SortKey":3226,
  "Name":"Bronze Conflict Arms 3"
},
{
  "Id":61,
  "Image":192425,
  "Icon":82093,
  "UnlockCondition":336,
  "SortKey":3225,
  "Name":"Silver Conflict Arms 3"
},
{
  "Id":62,
  "Image":192426,
  "Icon":82093,
  "UnlockCondition":337,
  "SortKey":3224,
  "Name":"Gold Conflict Arms 3"
},
{
  "Id":63,
  "Image":192427,
  "Icon":82093,
  "UnlockCondition":338,
  "SortKey":3223,
  "Name":"Platinum Conflict Arms 3"
},
{
  "Id":64,
  "Image":192428,
  "Icon":82093,
  "UnlockCondition":339,
  "SortKey":3222,
  "Name":"Diamond Conflict Arms 3"
},
{
  "Id":65,
  "Image":192429,
  "Icon":82093,
  "UnlockCondition":340,
  "SortKey":3221,
  "Name":"Crystal Conflict Arms 3"
},
{
  "Id":66,
  "Image":192430,
  "Icon":82093,
  "UnlockCondition":341,
  "SortKey":3002,
  "Name":"Azure Conflict Emblem"
},
{
  "Id":67,
  "Image":192431,
  "Icon":82093,
  "UnlockCondition":342,
  "SortKey":3003,
  "Name":"Crimson Conflict Emblem"
},
{
  "Id":68,
  "Image":192705,
  "Icon":82093,
  "UnlockCondition":343,
  "SortKey":2400,
  "Name":"Sil'dihn Emblem"
},
{
  "Id":69,
  "Image":192966,
  "Icon":82093,
  "UnlockCondition":344,
  "SortKey":2310,
  "Name":"Omicron Matrices"
},
{
  "Id":70,
  "Image":192601,
  "Icon":82093,
  "UnlockCondition":346,
  "SortKey":1000,
  "Name":"Lominsan Flag"
},
{
  "Id":71,
  "Image":192602,
  "Icon":82093,
  "UnlockCondition":346,
  "SortKey":1001,
  "Name":"Gridanian Flag"
},
{
  "Id":72,
  "Image":192603,
  "Icon":82093,
  "UnlockCondition":346,
  "SortKey":1002,
  "Name":"Ul'dahn Flag"
},
{
  "Id":73,
  "Image":192015,
  "Icon":82093,
  "UnlockCondition":1,
  "SortKey":3,
  "Name":"Floral Embellishment"
},
{
  "Id":74,
  "Image":192016,
  "Icon":82093,
  "UnlockCondition":1,
  "SortKey":21,
  "Name":"Balloon"
},
{
  "Id":75,
  "Image":192019,
  "Icon":82093,
  "UnlockCondition":1,
  "SortKey":30,
  "Name":"Particles"
},
{
  "Id":76,
  "Image":192018,
  "Icon":82093,
  "UnlockCondition":347,
  "SortKey":31,
  "Name":"Music"
},
{
  "Id":77,
  "Image":192012,
  "Icon":82093,
  "UnlockCondition":1,
  "SortKey":20,
  "Name":"Nameday"
},
{
  "Id":78,
  "Image":192013,
  "Icon":82093,
  "UnlockCondition":1,
  "SortKey":19,
  "Name":"New Adventurer"
},
{
  "Id":79,
  "Image":192014,
  "Icon":82093,
  "UnlockCondition":1,
  "SortKey":33,
  "Name":"Luster"
},
{
  "Id":80,
  "Image":192017,
  "Icon":82093,
  "UnlockCondition":1,
  "SortKey":34,
  "Name":"Roses"
},
{
  "Id":81,
  "Image":192432,
  "Icon":82093,
  "UnlockCondition":409,
  "SortKey":3227,
  "Name":"Final Conflict Crystal 4"
},
{
  "Id":82,
  "Image":192433,
  "Icon":82093,
  "UnlockCondition":410,
  "SortKey":3228,
  "Name":"Endless Conflict Blades 4"
},
{
  "Id":83,
  "Image":192434,
  "Icon":82093,
  "UnlockCondition":411,
  "SortKey":3229,
  "Name":"Rising Conflict Blades 4"
},
{
  "Id":84,
  "Image":192440,
  "Icon":82093,
  "UnlockCondition":412,
  "SortKey":3230,
  "Name":"Crystal Conflict Arms 4"
},
{
  "Id":85,
  "Image":192439,
  "Icon":82093,
  "UnlockCondition":413,
  "SortKey":3231,
  "Name":"Diamond Conflict Arms 4"
},
{
  "Id":86,
  "Image":192438,
  "Icon":82093,
  "UnlockCondition":414,
  "SortKey":3232,
  "Name":"Platinum Conflict Arms 4"
},
{
  "Id":87,
  "Image":192437,
  "Icon":82093,
  "UnlockCondition":415,
  "SortKey":3233,
  "Name":"Gold Conflict Arms 4"
},
{
  "Id":88,
  "Image":192436,
  "Icon":82093,
  "UnlockCondition":416,
  "SortKey":3234,
  "Name":"Silver Conflict Arms 4"
},
{
  "Id":89,
  "Image":192435,
  "Icon":82093,
  "UnlockCondition":417,
  "SortKey":3235,
  "Name":"Bronze Conflict Arms 4"
},
{
  "Id":90,
  "Image":192441,
  "Icon":82093,
  "UnlockCondition":418,
  "SortKey":3236,
  "Name":"Final Conflict Crystal 5"
},
{
  "Id":91,
  "Image":192442,
  "Icon":82093,
  "UnlockCondition":419,
  "SortKey":3237,
  "Name":"Endless Conflict Blades 5"
},
{
  "Id":92,
  "Image":192443,
  "Icon":82093,
  "UnlockCondition":420,
  "SortKey":3238,
  "Name":"Rising Conflict Blades 5"
},
{
  "Id":93,
  "Image":192449,
  "Icon":82093,
  "UnlockCondition":421,
  "SortKey":3239,
  "Name":"Crystal Conflict Arms 5"
},
{
  "Id":94,
  "Image":192448,
  "Icon":82093,
  "UnlockCondition":422,
  "SortKey":3240,
  "Name":"Diamond Conflict Arms 5"
},
{
  "Id":95,
  "Image":192447,
  "Icon":82093,
  "UnlockCondition":423,
  "SortKey":3241,
  "Name":"Platinum Conflict Arms 5"
},
{
  "Id":96,
  "Image":192446,
  "Icon":82093,
  "UnlockCondition":424,
  "SortKey":3242,
  "Name":"Gold Conflict Arms 5"
},
{
  "Id":97,
  "Image":192445,
  "Icon":82093,
  "UnlockCondition":425,
  "SortKey":3243,
  "Name":"Silver Conflict Arms 5"
},
{
  "Id":98,
  "Image":192444,
  "Icon":82093,
  "UnlockCondition":426,
  "SortKey":3244,
  "Name":"Bronze Conflict Arms 5"
},
{
  "Id":99,
  "Image":192450,
  "Icon":82093,
  "UnlockCondition":427,
  "SortKey":3004,
  "Name":"Falcons"
},
{
  "Id":100,
  "Image":192451,
  "Icon":82093,
  "UnlockCondition":428,
  "SortKey":3005,
  "Name":"Ravens"
},
{
  "Id":101,
  "Image":192962,
  "Icon":82093,
  "UnlockCondition":429,
  "SortKey":2306,
  "Name":"Pixie Rainbows"
},
{
  "Id":102,
  "Image":192963,
  "Icon":82093,
  "UnlockCondition":430,
  "SortKey":2307,
  "Name":"Qitari Rope"
},
{
  "Id":103,
  "Image":192964,
  "Icon":82093,
  "UnlockCondition":431,
  "SortKey":2308,
  "Name":"Dwarven Blocks"
},
{
  "Id":104,
  "Image":192965,
  "Icon":82093,
  "UnlockCondition":432,
  "SortKey":2309,
  "Name":"Arkasodara Charms"
},
{
  "Id":105,
  "Image":192967,
  "Icon":82093,
  "UnlockCondition":433,
  "SortKey":2311,
  "Name":"Loporrit Stars"
},
{
  "Id":106,
  "Image":192706,
  "Icon":82093,
  "UnlockCondition":434,
  "SortKey":2504,
  "Name":"Omega Protocol"
},
{
  "Id":107,
  "Image":192711,
  "Icon":82093,
  "UnlockCondition":465,
  "SortKey":2354,
  "Name":"Eureka Orthos"
},
{
  "Id":108,
  "Image":192712,
  "Icon":82093,
  "UnlockCondition":466,
  "SortKey":2355,
  "Name":"Enaretos"
},
{
  "Id":109,
  "Image":192713,
  "Icon":82093,
  "UnlockCondition":468,
  "SortKey":2340,
  "Name":"Island Vacation"
},
{
  "Id":110,
  "Image":192714,
  "Icon":82093,
  "UnlockCondition":469,
  "SortKey":2341,
  "Name":"Island Memories"
},
{
  "Id":111,
  "Image":192452,
  "Icon":82093,
  "UnlockCondition":502,
  "SortKey":3245,
  "Name":"Final Conflict Crystal 6"
},
{
  "Id":112,
  "Image":192453,
  "Icon":82093,
  "UnlockCondition":503,
  "SortKey":3246,
  "Name":"Endless Conflict Blades 6"
},
{
  "Id":113,
  "Image":192454,
  "Icon":82093,
  "UnlockCondition":504,
  "SortKey":3247,
  "Name":"Rising Conflict Blades 6"
},
{
  "Id":114,
  "Image":192460,
  "Icon":82093,
  "UnlockCondition":505,
  "SortKey":3248,
  "Name":"Crystal Conflict Arms 6"
},
{
  "Id":115,
  "Image":192459,
  "Icon":82093,
  "UnlockCondition":506,
  "SortKey":3249,
  "Name":"Diamond Conflict Arms 6"
},
{
  "Id":116,
  "Image":192458,
  "Icon":82093,
  "UnlockCondition":507,
  "SortKey":3250,
  "Name":"Platinum Conflict Arms 6"
},
{
  "Id":117,
  "Image":192457,
  "Icon":82093,
  "UnlockCondition":508,
  "SortKey":3251,
  "Name":"Gold Conflict Arms 6"
},
{
  "Id":118,
  "Image":192456,
  "Icon":82093,
  "UnlockCondition":509,
  "SortKey":3252,
  "Name":"Silver Conflict Arms 6"
},
{
  "Id":119,
  "Image":192455,
  "Icon":82093,
  "UnlockCondition":510,
  "SortKey":3253,
  "Name":"Bronze Conflict Arms 6"
},
{
  "Id":120,
  "Image":192461,
  "Icon":82093,
  "UnlockCondition":511,
  "SortKey":3254,
  "Name":"Final Conflict Crystal 7"
},
{
  "Id":121,
  "Image":192462,
  "Icon":82093,
  "UnlockCondition":512,
  "SortKey":3255,
  "Name":"Endless Conflict Blades 7"
},
{
  "Id":122,
  "Image":192463,
  "Icon":82093,
  "UnlockCondition":513,
  "SortKey":3256,
  "Name":"Rising Conflict Blades 7"
},
{
  "Id":123,
  "Image":192469,
  "Icon":82093,
  "UnlockCondition":514,
  "SortKey":3257,
  "Name":"Crystal Conflict Arms 7"
},
{
  "Id":124,
  "Image":192468,
  "Icon":82093,
  "UnlockCondition":515,
  "SortKey":3258,
  "Name":"Diamond Conflict Arms 7"
},
{
  "Id":125,
  "Image":192467,
  "Icon":82093,
  "UnlockCondition":516,
  "SortKey":3259,
  "Name":"Platinum Conflict Arms 7"
},
{
  "Id":126,
  "Image":192466,
  "Icon":82093,
  "UnlockCondition":517,
  "SortKey":3260,
  "Name":"Gold Conflict Arms 7"
},
{
  "Id":127,
  "Image":192465,
  "Icon":82093,
  "UnlockCondition":518,
  "SortKey":3261,
  "Name":"Silver Conflict Arms 7"
},
{
  "Id":128,
  "Image":192464,
  "Icon":82093,
  "UnlockCondition":519,
  "SortKey":3262,
  "Name":"Bronze Conflict Arms 7"
},
{
  "Id":129,
  "Image":192470,
  "Icon":82093,
  "UnlockCondition":520,
  "SortKey":3006,
  "Name":"Aramitama Kimen"
},
{
  "Id":130,
  "Image":192471,
  "Icon":82093,
  "UnlockCondition":521,
  "SortKey":3007,
  "Name":"Nigimitama Okinamen"
},
{
  "Id":131,
  "Image":192960,
  "Icon":82093,
  "UnlockCondition":524,
  "SortKey":2303,
  "Name":"Kojin Buoys"
},
{
  "Id":132,
  "Image":192959,
  "Icon":82093,
  "UnlockCondition":525,
  "SortKey":2304,
  "Name":"Ananta Hearts"
},
{
  "Id":133,
  "Image":192961,
  "Icon":82093,
  "UnlockCondition":526,
  "SortKey":2305,
  "Name":"Namazu Lanterns"
},
{
  "Id":134,
  "Image":192320,
  "Icon":82093,
  "UnlockCondition":522,
  "SortKey":2019,
  "Name":"Blue Mage Emblem"
},
{
  "Id":135,
  "Image":192715,
  "Icon":82093,
  "UnlockCondition":523,
  "SortKey":3950,
  "Name":"Ten Year Anniversary Logo"
},
{
  "Id":136,
  "Image":192716,
  "Icon":82093,
  "UnlockCondition":528,
  "SortKey":2401,
  "Name":"Rokkon Emblem"
},
{
  "Id":137,
  "Image":192717,
  "Icon":82093,
  "UnlockCondition":529,
  "SortKey":2342,
  "Name":"Dolphins"
},
{
  "Id":138,
  "Image":192718,
  "Icon":82093,
  "UnlockCondition":530,
  "SortKey":2343,
  "Name":"Hooked a Big 'Un!"
},
{
  "Id":139,
  "Image":192719,
  "Icon":82093,
  "UnlockCondition":531,
  "SortKey":2350,
  "Name":"Mahjong Tiles"
},
{
  "Id":140,
  "Image":192490,
  "Icon":82093,
  "UnlockCondition":578,
  "SortKey":3008,
  "Name":"Palaistra Ribbons"
},
{
  "Id":141,
  "Image":192491,
  "Icon":82093,
  "UnlockCondition":579,
  "SortKey":3009,
  "Name":"Cloud Nine Ivy"
},
{
  "Id":142,
  "Image":192472,
  "Icon":82093,
  "UnlockCondition":580,
  "SortKey":3263,
  "Name":"Final Conflict Crystal 8"
},
{
  "Id":143,
  "Image":192473,
  "Icon":82093,
  "UnlockCondition":581,
  "SortKey":3264,
  "Name":"Endless Conflict Blades 8"
},
{
  "Id":144,
  "Image":192474,
  "Icon":82093,
  "UnlockCondition":582,
  "SortKey":3265,
  "Name":"Rising Conflict Blades 8"
},
{
  "Id":145,
  "Image":192480,
  "Icon":82093,
  "UnlockCondition":583,
  "SortKey":3266,
  "Name":"Crystal Conflict Arms 8"
},
{
  "Id":146,
  "Image":192479,
  "Icon":82093,
  "UnlockCondition":584,
  "SortKey":3267,
  "Name":"Diamond Conflict Arms 8"
},
{
  "Id":147,
  "Image":192478,
  "Icon":82093,
  "UnlockCondition":585,
  "SortKey":3268,
  "Name":"Platinum Conflict Arms 8"
},
{
  "Id":148,
  "Image":192477,
  "Icon":82093,
  "UnlockCondition":586,
  "SortKey":3269,
  "Name":"Gold Conflict Arms 8"
},
{
  "Id":149,
  "Image":192476,
  "Icon":82093,
  "UnlockCondition":587,
  "SortKey":3270,
  "Name":"Silver Conflict Arms 8"
},
{
  "Id":150,
  "Image":192475,
  "Icon":82093,
  "UnlockCondition":588,
  "SortKey":3271,
  "Name":"Bronze Conflict Arms 8"
},
{
  "Id":151,
  "Image":192481,
  "Icon":82093,
  "UnlockCondition":589,
  "SortKey":3272,
  "Name":"Final Conflict Crystal 9"
},
{
  "Id":152,
  "Image":192482,
  "Icon":82093,
  "UnlockCondition":590,
  "SortKey":3273,
  "Name":"Endless Conflict Blades 9"
},
{
  "Id":153,
  "Image":192483,
  "Icon":82093,
  "UnlockCondition":591,
  "SortKey":3274,
  "Name":"Rising Conflict Blades 9"
},
{
  "Id":154,
  "Image":192489,
  "Icon":82093,
  "UnlockCondition":592,
  "SortKey":3275,
  "Name":"Crystal Conflict Arms 9"
},
{
  "Id":155,
  "Image":192488,
  "Icon":82093,
  "UnlockCondition":593,
  "SortKey":3276,
  "Name":"Diamond Conflict Arms 9"
},
{
  "Id":156,
  "Image":192487,
  "Icon":82093,
  "UnlockCondition":594,
  "SortKey":3277,
  "Name":"Platinum Conflict Arms 9"
},
{
  "Id":157,
  "Image":192486,
  "Icon":82093,
  "UnlockCondition":595,
  "SortKey":3278,
  "Name":"Gold Conflict Arms 9"
},
{
  "Id":158,
  "Image":192485,
  "Icon":82093,
  "UnlockCondition":596,
  "SortKey":3279,
  "Name":"Silver Conflict Arms 9"
},
{
  "Id":159,
  "Image":192484,
  "Icon":82093,
  "UnlockCondition":597,
  "SortKey":3280,
  "Name":"Bronze Conflict Arms 9"
},
{
  "Id":160,
  "Image":192492,
  "Icon":82093,
  "UnlockCondition":598,
  "SortKey":3281,
  "Name":"Final Conflict Crystal 10"
},
{
  "Id":161,
  "Image":192493,
  "Icon":82093,
  "UnlockCondition":599,
  "SortKey":3282,
  "Name":"Endless Conflict Blades 10"
},
{
  "Id":162,
  "Image":192494,
  "Icon":82093,
  "UnlockCondition":600,
  "SortKey":3283,
  "Name":"Rising Conflict Blades 10"
},
{
  "Id":163,
  "Image":192500,
  "Icon":82093,
  "UnlockCondition":601,
  "SortKey":3284,
  "Name":"Crystal Conflict Arms 10"
},
{
  "Id":164,
  "Image":192499,
  "Icon":82093,
  "UnlockCondition":602,
  "SortKey":3285,
  "Name":"Diamond Conflict Arms 10"
},
{
  "Id":165,
  "Image":192498,
  "Icon":82093,
  "UnlockCondition":603,
  "SortKey":3286,
  "Name":"Platinum Conflict Arms 10"
},
{
  "Id":166,
  "Image":192497,
  "Icon":82093,
  "UnlockCondition":604,
  "SortKey":3287,
  "Name":"Gold Conflict Arms 10"
},
{
  "Id":167,
  "Image":192496,
  "Icon":82093,
  "UnlockCondition":605,
  "SortKey":3288,
  "Name":"Silver Conflict Arms 10"
},
{
  "Id":168,
  "Image":192495,
  "Icon":82093,
  "UnlockCondition":606,
  "SortKey":3289,
  "Name":"Bronze Conflict Arms 10"
},
{
  "Id":169,
  "Image":192956,
  "Icon":82093,
  "UnlockCondition":567,
  "SortKey":2300,
  "Name":"Vanu Vanu Cords"
},
{
  "Id":170,
  "Image":192957,
  "Icon":82093,
  "UnlockCondition":568,
  "SortKey":2301,
  "Name":"Vath Vents"
},
{
  "Id":171,
  "Image":192958,
  "Icon":82093,
  "UnlockCondition":569,
  "SortKey":2302,
  "Name":"Moogle Lamps"
},
{
  "Id":172,
  "Image":192722,
  "Icon":82093,
  "UnlockCondition":572,
  "SortKey":2252,
  "Name":"Symbol of the Fury"
},
{
  "Id":173,
  "Image":192723,
  "Icon":82093,
  "UnlockCondition":572,
  "SortKey":2253,
  "Name":"Symbol of the Lover"
},
{
  "Id":174,
  "Image":192724,
  "Icon":82093,
  "UnlockCondition":572,
  "SortKey":2254,
  "Name":"Symbol of the Scholar"
},
{
  "Id":175,
  "Image":192725,
  "Icon":82093,
  "UnlockCondition":572,
  "SortKey":2255,
  "Name":"Symbol of the Spinner"
},
{
  "Id":176,
  "Image":192726,
  "Icon":82093,
  "UnlockCondition":572,
  "SortKey":2256,
  "Name":"Symbol of the Navigator"
},
{
  "Id":177,
  "Image":192727,
  "Icon":82093,
  "UnlockCondition":572,
  "SortKey":2257,
  "Name":"Symbol of the Wanderer"
},
{
  "Id":178,
  "Image":192728,
  "Icon":82093,
  "UnlockCondition":572,
  "SortKey":2258,
  "Name":"Symbol of the Builder"
},
{
  "Id":179,
  "Image":192729,
  "Icon":82093,
  "UnlockCondition":572,
  "SortKey":2259,
  "Name":"Symbol of the Destroyer"
},
{
  "Id":180,
  "Image":192730,
  "Icon":82093,
  "UnlockCondition":572,
  "SortKey":2260,
  "Name":"Symbol of the Warden"
},
{
  "Id":181,
  "Image":192731,
  "Icon":82093,
  "UnlockCondition":572,
  "SortKey":2261,
  "Name":"Symbol of the Traders"
},
{
  "Id":182,
  "Image":192732,
  "Icon":82093,
  "UnlockCondition":572,
  "SortKey":2262,
  "Name":"Symbol of the Matron"
},
{
  "Id":183,
  "Image":192733,
  "Icon":82093,
  "UnlockCondition":572,
  "SortKey":2263,
  "Name":"Symbol of the Keeper"
},
{
  "Id":184,
  "Image":192734,
  "Icon":82093,
  "UnlockCondition":574,
  "SortKey":2402,
  "Name":"Aloalo Emblem"
},
{
  "Id":185,
  "Image":192720,
  "Icon":82093,
  "UnlockCondition":570,
  "SortKey":2600,
  "Name":"Wondrous Seals"
},
{
  "Id":186,
  "Image":192721,
  "Icon":82093,
  "UnlockCondition":571,
  "SortKey":2601,
  "Name":"Faux Panels"
},
{
  "Id":187,
  "Image":192735,
  "Icon":82093,
  "UnlockCondition":575,
  "SortKey":2700,
  "Name":"Blunderful Bean"
},
{
  "Id":188,
  "Image":192736,
  "Icon":82093,
  "UnlockCondition":576,
  "SortKey":2701,
  "Name":"Blunderous Gemstone"
},
{
  "Id":189,
  "Image":192737,
  "Icon":82093,
  "UnlockCondition":577,
  "SortKey":2702,
  "Name":"Blunder-villed Crown"
},
{
  "Id":190,
  "Image":192738,
  "Icon":82093,
  "UnlockCondition":607,
  "SortKey":2703,
  "Name":"Yo-kai Stars"
}
]
