﻿[
{
  "Id":0,
  "Image":0,
  "Icon":82092,
  "UnlockCondition":0,
  "SortKey":0,
  "Name":"None"
},
{
  "Id":1,
  "Image":191001,
  "Icon":82092,
  "UnlockCondition":1,
  "SortKey":1,
  "Name":"None"
},
{
  "Id":2,
  "Image":191002,
  "Icon":82092,
  "UnlockCondition":1,
  "SortKey":3,
  "Name":"Fade to Black"
},
{
  "Id":3,
  "Image":191003,
  "Icon":82092,
  "UnlockCondition":1,
  "SortKey":2,
  "Name":"Fade to White"
},
{
  "Id":4,
  "Image":191004,
  "Icon":82092,
  "UnlockCondition":1,
  "SortKey":7,
  "Name":"Solid White"
},
{
  "Id":5,
  "Image":191005,
  "Icon":82092,
  "UnlockCondition":1,
  "SortKey":5,
  "Name":"Metallic Silver"
},
{
  "Id":6,
  "Image":191006,
  "Icon":82092,
  "UnlockCondition":1,
  "SortKey":4,
  "Name":"Metallic Gold"
},
{
  "Id":7,
  "Image":191007,
  "Icon":82092,
  "UnlockCondition":1,
  "SortKey":10,
  "Name":"Journal"
},
{
  "Id":8,
  "Image":191008,
  "Icon":82092,
  "UnlockCondition":1,
  "SortKey":8,
  "Name":"Plain"
},
{
  "Id":9,
  "Image":191009,
  "Icon":82092,
  "UnlockCondition":1,
  "SortKey":9,
  "Name":"Beveled"
},
{
  "Id":10,
  "Image":191010,
  "Icon":82092,
  "UnlockCondition":1,
  "SortKey":20,
  "Name":"Antique"
},
{
  "Id":11,
  "Image":191011,
  "Icon":82092,
  "UnlockCondition":1,
  "SortKey":21,
  "Name":"Corner Accent"
},
{
  "Id":12,
  "Image":191301,
  "Icon":82092,
  "UnlockCondition":124,
  "SortKey":2000,
  "Name":"Paladin"
},
{
  "Id":13,
  "Image":191302,
  "Icon":82092,
  "UnlockCondition":125,
  "SortKey":2001,
  "Name":"Warrior"
},
{
  "Id":14,
  "Image":191303,
  "Icon":82092,
  "UnlockCondition":126,
  "SortKey":2002,
  "Name":"Dark Knight"
},
{
  "Id":15,
  "Image":191304,
  "Icon":82092,
  "UnlockCondition":127,
  "SortKey":2003,
  "Name":"Gunbreaker"
},
{
  "Id":16,
  "Image":191305,
  "Icon":82092,
  "UnlockCondition":128,
  "SortKey":2004,
  "Name":"White Mage"
},
{
  "Id":17,
  "Image":191306,
  "Icon":82092,
  "UnlockCondition":129,
  "SortKey":2005,
  "Name":"Scholar"
},
{
  "Id":18,
  "Image":191307,
  "Icon":82092,
  "UnlockCondition":130,
  "SortKey":2006,
  "Name":"Astrologian"
},
{
  "Id":19,
  "Image":191308,
  "Icon":82092,
  "UnlockCondition":131,
  "SortKey":2007,
  "Name":"Sage"
},
{
  "Id":20,
  "Image":191309,
  "Icon":82092,
  "UnlockCondition":132,
  "SortKey":2008,
  "Name":"Monk"
},
{
  "Id":21,
  "Image":191310,
  "Icon":82092,
  "UnlockCondition":133,
  "SortKey":2009,
  "Name":"Dragoon"
},
{
  "Id":22,
  "Image":191311,
  "Icon":82092,
  "UnlockCondition":134,
  "SortKey":2010,
  "Name":"Ninja"
},
{
  "Id":23,
  "Image":191312,
  "Icon":82092,
  "UnlockCondition":135,
  "SortKey":2011,
  "Name":"Samurai"
},
{
  "Id":24,
  "Image":191313,
  "Icon":82092,
  "UnlockCondition":136,
  "SortKey":2012,
  "Name":"Reaper"
},
{
  "Id":25,
  "Image":191314,
  "Icon":82092,
  "UnlockCondition":137,
  "SortKey":2013,
  "Name":"Bard"
},
{
  "Id":26,
  "Image":191315,
  "Icon":82092,
  "UnlockCondition":138,
  "SortKey":2014,
  "Name":"Machinist"
},
{
  "Id":27,
  "Image":191316,
  "Icon":82092,
  "UnlockCondition":139,
  "SortKey":2015,
  "Name":"Dancer"
},
{
  "Id":28,
  "Image":191317,
  "Icon":82092,
  "UnlockCondition":140,
  "SortKey":2016,
  "Name":"Black Mage"
},
{
  "Id":29,
  "Image":191318,
  "Icon":82092,
  "UnlockCondition":141,
  "SortKey":2017,
  "Name":"Summoner"
},
{
  "Id":30,
  "Image":191319,
  "Icon":82092,
  "UnlockCondition":142,
  "SortKey":2018,
  "Name":"Red Mage"
},
{
  "Id":31,
  "Image":191401,
  "Icon":82092,
  "UnlockCondition":143,
  "SortKey":3000,
  "Name":"Team Astra"
},
{
  "Id":32,
  "Image":191402,
  "Icon":82092,
  "UnlockCondition":144,
  "SortKey":3001,
  "Name":"Team Umbra"
},
{
  "Id":33,
  "Image":191403,
  "Icon":82092,
  "UnlockCondition":145,
  "SortKey":3200,
  "Name":"Final Conflict 1"
},
{
  "Id":34,
  "Image":191404,
  "Icon":82092,
  "UnlockCondition":146,
  "SortKey":3201,
  "Name":"Endless Conflict 1"
},
{
  "Id":35,
  "Image":191405,
  "Icon":82092,
  "UnlockCondition":147,
  "SortKey":3202,
  "Name":"Rising Conflict 1"
},
{
  "Id":36,
  "Image":191406,
  "Icon":82092,
  "UnlockCondition":148,
  "SortKey":3208,
  "Name":"Bronze Conflict 1"
},
{
  "Id":37,
  "Image":191407,
  "Icon":82092,
  "UnlockCondition":149,
  "SortKey":3207,
  "Name":"Silver Conflict 1"
},
{
  "Id":38,
  "Image":191408,
  "Icon":82092,
  "UnlockCondition":150,
  "SortKey":3206,
  "Name":"Gold Conflict 1"
},
{
  "Id":39,
  "Image":191409,
  "Icon":82092,
  "UnlockCondition":151,
  "SortKey":3205,
  "Name":"Platinum Conflict 1"
},
{
  "Id":40,
  "Image":191410,
  "Icon":82092,
  "UnlockCondition":152,
  "SortKey":3204,
  "Name":"Diamond Conflict 1"
},
{
  "Id":41,
  "Image":191411,
  "Icon":82092,
  "UnlockCondition":153,
  "SortKey":3203,
  "Name":"Crystal Conflict 1"
},
{
  "Id":42,
  "Image":191901,
  "Icon":82092,
  "UnlockCondition":154,
  "SortKey":4000,
  "Name":"Companion 1"
},
{
  "Id":43,
  "Image":191902,
  "Icon":82092,
  "UnlockCondition":155,
  "SortKey":4001,
  "Name":"Companion 2"
},
{
  "Id":44,
  "Image":191701,
  "Icon":82092,
  "UnlockCondition":319,
  "SortKey":2500,
  "Name":"Unending Coil of Bahamut"
},
{
  "Id":45,
  "Image":191702,
  "Icon":82092,
  "UnlockCondition":320,
  "SortKey":2501,
  "Name":"Weapon's Refrain"
},
{
  "Id":46,
  "Image":191703,
  "Icon":82092,
  "UnlockCondition":321,
  "SortKey":2502,
  "Name":"Epic of Alexander"
},
{
  "Id":47,
  "Image":191704,
  "Icon":82092,
  "UnlockCondition":322,
  "SortKey":2503,
  "Name":"Dragonsong's Reprise"
},
{
  "Id":48,
  "Image":191412,
  "Icon":82092,
  "UnlockCondition":323,
  "SortKey":3210,
  "Name":"Final Conflict 2"
},
{
  "Id":49,
  "Image":191413,
  "Icon":82092,
  "UnlockCondition":324,
  "SortKey":3211,
  "Name":"Endless Conflict 2"
},
{
  "Id":50,
  "Image":191414,
  "Icon":82092,
  "UnlockCondition":325,
  "SortKey":3212,
  "Name":"Rising Conflict 2"
},
{
  "Id":51,
  "Image":191415,
  "Icon":82092,
  "UnlockCondition":326,
  "SortKey":3218,
  "Name":"Bronze Conflict 2"
},
{
  "Id":52,
  "Image":191416,
  "Icon":82092,
  "UnlockCondition":327,
  "SortKey":3217,
  "Name":"Silver Conflict 2"
},
{
  "Id":53,
  "Image":191417,
  "Icon":82092,
  "UnlockCondition":328,
  "SortKey":3216,
  "Name":"Gold Conflict 2"
},
{
  "Id":54,
  "Image":191418,
  "Icon":82092,
  "UnlockCondition":329,
  "SortKey":3215,
  "Name":"Platinum Conflict 2"
},
{
  "Id":55,
  "Image":191419,
  "Icon":82092,
  "UnlockCondition":330,
  "SortKey":3214,
  "Name":"Diamond Conflict 2"
},
{
  "Id":56,
  "Image":191420,
  "Icon":82092,
  "UnlockCondition":331,
  "SortKey":3213,
  "Name":"Crystal Conflict 2"
},
{
  "Id":57,
  "Image":191421,
  "Icon":82092,
  "UnlockCondition":332,
  "SortKey":3220,
  "Name":"Final Conflict 3"
},
{
  "Id":58,
  "Image":191422,
  "Icon":82092,
  "UnlockCondition":333,
  "SortKey":3221,
  "Name":"Endless Conflict 3"
},
{
  "Id":59,
  "Image":191423,
  "Icon":82092,
  "UnlockCondition":334,
  "SortKey":3222,
  "Name":"Rising Conflict 3"
},
{
  "Id":60,
  "Image":191424,
  "Icon":82092,
  "UnlockCondition":335,
  "SortKey":3228,
  "Name":"Bronze Conflict 3"
},
{
  "Id":61,
  "Image":191425,
  "Icon":82092,
  "UnlockCondition":336,
  "SortKey":3227,
  "Name":"Silver Conflict 3"
},
{
  "Id":62,
  "Image":191426,
  "Icon":82092,
  "UnlockCondition":337,
  "SortKey":3226,
  "Name":"Gold Conflict 3"
},
{
  "Id":63,
  "Image":191427,
  "Icon":82092,
  "UnlockCondition":338,
  "SortKey":3225,
  "Name":"Platinum Conflict 3"
},
{
  "Id":64,
  "Image":191428,
  "Icon":82092,
  "UnlockCondition":339,
  "SortKey":3224,
  "Name":"Diamond Conflict 3"
},
{
  "Id":65,
  "Image":191429,
  "Icon":82092,
  "UnlockCondition":340,
  "SortKey":3223,
  "Name":"Crystal Conflict 3"
},
{
  "Id":66,
  "Image":191430,
  "Icon":82092,
  "UnlockCondition":341,
  "SortKey":3002,
  "Name":"Azure Conflict"
},
{
  "Id":67,
  "Image":191431,
  "Icon":82092,
  "UnlockCondition":342,
  "SortKey":3003,
  "Name":"Crimson Conflict"
},
{
  "Id":68,
  "Image":191705,
  "Icon":82092,
  "UnlockCondition":343,
  "SortKey":2400,
  "Name":"Sil'dihn Subterrane (Variant)"
},
{
  "Id":69,
  "Image":191016,
  "Icon":82092,
  "UnlockCondition":1,
  "SortKey":32,
  "Name":"Comic Panel"
},
{
  "Id":70,
  "Image":191019,
  "Icon":82092,
  "UnlockCondition":1,
  "SortKey":6,
  "Name":"Metallic Arch"
},
{
  "Id":71,
  "Image":191020,
  "Icon":82092,
  "UnlockCondition":1,
  "SortKey":33,
  "Name":"Film"
},
{
  "Id":72,
  "Image":191012,
  "Icon":82092,
  "UnlockCondition":1,
  "SortKey":31,
  "Name":"Focus Lines"
},
{
  "Id":73,
  "Image":191013,
  "Icon":82092,
  "UnlockCondition":1,
  "SortKey":30,
  "Name":"Fog"
},
{
  "Id":74,
  "Image":191017,
  "Icon":82092,
  "UnlockCondition":1,
  "SortKey":22,
  "Name":"Black Lace"
},
{
  "Id":75,
  "Image":191018,
  "Icon":82092,
  "UnlockCondition":1,
  "SortKey":23,
  "Name":"White Lace"
},
{
  "Id":76,
  "Image":191014,
  "Icon":82092,
  "UnlockCondition":1,
  "SortKey":11,
  "Name":"NQ Item"
},
{
  "Id":77,
  "Image":191015,
  "Icon":82092,
  "UnlockCondition":1,
  "SortKey":12,
  "Name":"HQ Item"
},
{
  "Id":78,
  "Image":191432,
  "Icon":82092,
  "UnlockCondition":409,
  "SortKey":3230,
  "Name":"Final Conflict 4"
},
{
  "Id":79,
  "Image":191433,
  "Icon":82092,
  "UnlockCondition":410,
  "SortKey":3231,
  "Name":"Endless Conflict 4"
},
{
  "Id":80,
  "Image":191434,
  "Icon":82092,
  "UnlockCondition":411,
  "SortKey":3232,
  "Name":"Rising Conflict 4"
},
{
  "Id":81,
  "Image":191440,
  "Icon":82092,
  "UnlockCondition":412,
  "SortKey":3233,
  "Name":"Crystal Conflict 4"
},
{
  "Id":82,
  "Image":191439,
  "Icon":82092,
  "UnlockCondition":413,
  "SortKey":3234,
  "Name":"Diamond Conflict 4"
},
{
  "Id":83,
  "Image":191438,
  "Icon":82092,
  "UnlockCondition":414,
  "SortKey":3235,
  "Name":"Platinum Conflict 4"
},
{
  "Id":84,
  "Image":191437,
  "Icon":82092,
  "UnlockCondition":415,
  "SortKey":3236,
  "Name":"Gold Conflict 4"
},
{
  "Id":85,
  "Image":191436,
  "Icon":82092,
  "UnlockCondition":416,
  "SortKey":3237,
  "Name":"Silver Conflict 4"
},
{
  "Id":86,
  "Image":191435,
  "Icon":82092,
  "UnlockCondition":417,
  "SortKey":3238,
  "Name":"Bronze Conflict 4"
},
{
  "Id":87,
  "Image":191441,
  "Icon":82092,
  "UnlockCondition":418,
  "SortKey":3240,
  "Name":"Final Conflict 5"
},
{
  "Id":88,
  "Image":191442,
  "Icon":82092,
  "UnlockCondition":419,
  "SortKey":3241,
  "Name":"Endless Conflict 5"
},
{
  "Id":89,
  "Image":191443,
  "Icon":82092,
  "UnlockCondition":420,
  "SortKey":3242,
  "Name":"Rising Conflict 5"
},
{
  "Id":90,
  "Image":191449,
  "Icon":82092,
  "UnlockCondition":421,
  "SortKey":3243,
  "Name":"Crystal Conflict 5"
},
{
  "Id":91,
  "Image":191448,
  "Icon":82092,
  "UnlockCondition":422,
  "SortKey":3244,
  "Name":"Diamond Conflict 5"
},
{
  "Id":92,
  "Image":191447,
  "Icon":82092,
  "UnlockCondition":423,
  "SortKey":3245,
  "Name":"Platinum Conflict 5"
},
{
  "Id":93,
  "Image":191446,
  "Icon":82092,
  "UnlockCondition":424,
  "SortKey":3246,
  "Name":"Gold Conflict 5"
},
{
  "Id":94,
  "Image":191445,
  "Icon":82092,
  "UnlockCondition":425,
  "SortKey":3247,
  "Name":"Silver Conflict 5"
},
{
  "Id":95,
  "Image":191444,
  "Icon":82092,
  "UnlockCondition":426,
  "SortKey":3248,
  "Name":"Bronze Conflict 5"
},
{
  "Id":96,
  "Image":191450,
  "Icon":82092,
  "UnlockCondition":427,
  "SortKey":3004,
  "Name":"Falcons"
},
{
  "Id":97,
  "Image":191451,
  "Icon":82092,
  "UnlockCondition":428,
  "SortKey":3005,
  "Name":"Ravens"
},
{
  "Id":98,
  "Image":191706,
  "Icon":82092,
  "UnlockCondition":434,
  "SortKey":2504,
  "Name":"Omega Protocol"
},
{
  "Id":99,
  "Image":191707,
  "Icon":82092,
  "UnlockCondition":467,
  "SortKey":2251,
  "Name":"Four Lords"
},
{
  "Id":100,
  "Image":191708,
  "Icon":82092,
  "UnlockCondition":468,
  "SortKey":2340,
  "Name":"Island Vacation"
},
{
  "Id":101,
  "Image":191709,
  "Icon":82092,
  "UnlockCondition":469,
  "SortKey":2341,
  "Name":"Island Memories"
},
{
  "Id":102,
  "Image":191452,
  "Icon":82092,
  "UnlockCondition":502,
  "SortKey":3249,
  "Name":"Final Conflict 6"
},
{
  "Id":103,
  "Image":191453,
  "Icon":82092,
  "UnlockCondition":503,
  "SortKey":3250,
  "Name":"Endless Conflict 6"
},
{
  "Id":104,
  "Image":191454,
  "Icon":82092,
  "UnlockCondition":504,
  "SortKey":3251,
  "Name":"Rising Conflict 6"
},
{
  "Id":105,
  "Image":191460,
  "Icon":82092,
  "UnlockCondition":505,
  "SortKey":3252,
  "Name":"Crystal Conflict 6"
},
{
  "Id":106,
  "Image":191459,
  "Icon":82092,
  "UnlockCondition":506,
  "SortKey":3253,
  "Name":"Diamond Conflict 6"
},
{
  "Id":107,
  "Image":191458,
  "Icon":82092,
  "UnlockCondition":507,
  "SortKey":3254,
  "Name":"Platinum Conflict 6"
},
{
  "Id":108,
  "Image":191457,
  "Icon":82092,
  "UnlockCondition":508,
  "SortKey":3255,
  "Name":"Gold Conflict 6"
},
{
  "Id":109,
  "Image":191456,
  "Icon":82092,
  "UnlockCondition":509,
  "SortKey":3256,
  "Name":"Silver Conflict 6"
},
{
  "Id":110,
  "Image":191455,
  "Icon":82092,
  "UnlockCondition":510,
  "SortKey":3257,
  "Name":"Bronze Conflict 6"
},
{
  "Id":111,
  "Image":191461,
  "Icon":82092,
  "UnlockCondition":511,
  "SortKey":3258,
  "Name":"Final Conflict 7"
},
{
  "Id":112,
  "Image":191462,
  "Icon":82092,
  "UnlockCondition":512,
  "SortKey":3259,
  "Name":"Endless Conflict 7"
},
{
  "Id":113,
  "Image":191463,
  "Icon":82092,
  "UnlockCondition":513,
  "SortKey":3260,
  "Name":"Rising Conflict 7"
},
{
  "Id":114,
  "Image":191469,
  "Icon":82092,
  "UnlockCondition":514,
  "SortKey":3261,
  "Name":"Crystal Conflict 7"
},
{
  "Id":115,
  "Image":191468,
  "Icon":82092,
  "UnlockCondition":515,
  "SortKey":3262,
  "Name":"Diamond Conflict 7"
},
{
  "Id":116,
  "Image":191467,
  "Icon":82092,
  "UnlockCondition":516,
  "SortKey":3263,
  "Name":"Platinum Conflict 7"
},
{
  "Id":117,
  "Image":191466,
  "Icon":82092,
  "UnlockCondition":517,
  "SortKey":3264,
  "Name":"Gold Conflict 7"
},
{
  "Id":118,
  "Image":191465,
  "Icon":82092,
  "UnlockCondition":518,
  "SortKey":3265,
  "Name":"Silver Conflict 7"
},
{
  "Id":119,
  "Image":191464,
  "Icon":82092,
  "UnlockCondition":519,
  "SortKey":3266,
  "Name":"Bronze Conflict 7"
},
{
  "Id":120,
  "Image":191470,
  "Icon":82092,
  "UnlockCondition":520,
  "SortKey":3006,
  "Name":"Aramitama"
},
{
  "Id":121,
  "Image":191471,
  "Icon":82092,
  "UnlockCondition":521,
  "SortKey":3007,
  "Name":"Nigimitama"
},
{
  "Id":122,
  "Image":191320,
  "Icon":82092,
  "UnlockCondition":522,
  "SortKey":2019,
  "Name":"Blue Mage"
},
{
  "Id":123,
  "Image":191710,
  "Icon":82092,
  "UnlockCondition":523,
  "SortKey":3950,
  "Name":"Ten Year Anniversary"
},
{
  "Id":124,
  "Image":191711,
  "Icon":82092,
  "UnlockCondition":528,
  "SortKey":2401,
  "Name":"Mount Rokkon (Variant)"
},
{
  "Id":125,
  "Image":191712,
  "Icon":82092,
  "UnlockCondition":529,
  "SortKey":2342,
  "Name":"Adventurous Angling"
},
{
  "Id":126,
  "Image":191713,
  "Icon":82092,
  "UnlockCondition":530,
  "SortKey":2343,
  "Name":"Big Fish"
},
{
  "Id":127,
  "Image":191714,
  "Icon":82092,
  "UnlockCondition":531,
  "SortKey":2360,
  "Name":"Mahjong Mastery"
},
{
  "Id":128,
  "Image":191715,
  "Icon":82092,
  "UnlockCondition":527,
  "SortKey":2250,
  "Name":"End of an Era"
},
{
  "Id":129,
  "Image":191490,
  "Icon":82092,
  "UnlockCondition":578,
  "SortKey":3008,
  "Name":"Palaistra"
},
{
  "Id":130,
  "Image":191491,
  "Icon":82092,
  "UnlockCondition":579,
  "SortKey":3009,
  "Name":"Cloud Nine"
},
{
  "Id":131,
  "Image":191472,
  "Icon":82092,
  "UnlockCondition":580,
  "SortKey":3267,
  "Name":"Final Conflict 8"
},
{
  "Id":132,
  "Image":191473,
  "Icon":82092,
  "UnlockCondition":581,
  "SortKey":3268,
  "Name":"Endless Conflict 8"
},
{
  "Id":133,
  "Image":191474,
  "Icon":82092,
  "UnlockCondition":582,
  "SortKey":3269,
  "Name":"Rising Conflict 8"
},
{
  "Id":134,
  "Image":191480,
  "Icon":82092,
  "UnlockCondition":583,
  "SortKey":3270,
  "Name":"Crystal Conflict 8"
},
{
  "Id":135,
  "Image":191479,
  "Icon":82092,
  "UnlockCondition":584,
  "SortKey":3271,
  "Name":"Diamond Conflict 8"
},
{
  "Id":136,
  "Image":191478,
  "Icon":82092,
  "UnlockCondition":585,
  "SortKey":3272,
  "Name":"Platinum Conflict 8"
},
{
  "Id":137,
  "Image":191477,
  "Icon":82092,
  "UnlockCondition":586,
  "SortKey":3273,
  "Name":"Gold Conflict 8"
},
{
  "Id":138,
  "Image":191476,
  "Icon":82092,
  "UnlockCondition":587,
  "SortKey":3274,
  "Name":"Silver Conflict 8"
},
{
  "Id":139,
  "Image":191475,
  "Icon":82092,
  "UnlockCondition":588,
  "SortKey":3275,
  "Name":"Bronze Conflict 8"
},
{
  "Id":140,
  "Image":191481,
  "Icon":82092,
  "UnlockCondition":589,
  "SortKey":3276,
  "Name":"Final Conflict 9"
},
{
  "Id":141,
  "Image":191482,
  "Icon":82092,
  "UnlockCondition":590,
  "SortKey":3277,
  "Name":"Endless Conflict 9"
},
{
  "Id":142,
  "Image":191483,
  "Icon":82092,
  "UnlockCondition":591,
  "SortKey":3278,
  "Name":"Rising Conflict 9"
},
{
  "Id":143,
  "Image":191489,
  "Icon":82092,
  "UnlockCondition":592,
  "SortKey":3279,
  "Name":"Crystal Conflict 9"
},
{
  "Id":144,
  "Image":191488,
  "Icon":82092,
  "UnlockCondition":593,
  "SortKey":3280,
  "Name":"Diamond Conflict 9"
},
{
  "Id":145,
  "Image":191487,
  "Icon":82092,
  "UnlockCondition":594,
  "SortKey":3281,
  "Name":"Platinum Conflict 9"
},
{
  "Id":146,
  "Image":191486,
  "Icon":82092,
  "UnlockCondition":595,
  "SortKey":3282,
  "Name":"Gold Conflict 9"
},
{
  "Id":147,
  "Image":191485,
  "Icon":82092,
  "UnlockCondition":596,
  "SortKey":3283,
  "Name":"Silver Conflict 9"
},
{
  "Id":148,
  "Image":191484,
  "Icon":82092,
  "UnlockCondition":597,
  "SortKey":3284,
  "Name":"Bronze Conflict 9"
},
{
  "Id":149,
  "Image":191492,
  "Icon":82092,
  "UnlockCondition":598,
  "SortKey":3285,
  "Name":"Final Conflict 10"
},
{
  "Id":150,
  "Image":191493,
  "Icon":82092,
  "UnlockCondition":599,
  "SortKey":3286,
  "Name":"Endless Conflict 10"
},
{
  "Id":151,
  "Image":191494,
  "Icon":82092,
  "UnlockCondition":600,
  "SortKey":3287,
  "Name":"Rising Conflict 10"
},
{
  "Id":152,
  "Image":191500,
  "Icon":82092,
  "UnlockCondition":601,
  "SortKey":3288,
  "Name":"Crystal Conflict 10"
},
{
  "Id":153,
  "Image":191499,
  "Icon":82092,
  "UnlockCondition":602,
  "SortKey":3289,
  "Name":"Diamond Conflict 10"
},
{
  "Id":154,
  "Image":191498,
  "Icon":82092,
  "UnlockCondition":603,
  "SortKey":3290,
  "Name":"Platinum Conflict 10"
},
{
  "Id":155,
  "Image":191497,
  "Icon":82092,
  "UnlockCondition":604,
  "SortKey":3291,
  "Name":"Gold Conflict 10"
},
{
  "Id":156,
  "Image":191496,
  "Icon":82092,
  "UnlockCondition":605,
  "SortKey":3292,
  "Name":"Silver Conflict 10"
},
{
  "Id":157,
  "Image":191495,
  "Icon":82092,
  "UnlockCondition":606,
  "SortKey":3293,
  "Name":"Bronze Conflict 10"
},
{
  "Id":158,
  "Image":191718,
  "Icon":82092,
  "UnlockCondition":572,
  "SortKey":2252,
  "Name":"Twelvefold Blessings"
},
{
  "Id":159,
  "Image":191719,
  "Icon":82092,
  "UnlockCondition":574,
  "SortKey":2402,
  "Name":"Aloalo Island (Variant)"
},
{
  "Id":160,
  "Image":191716,
  "Icon":82092,
  "UnlockCondition":570,
  "SortKey":2600,
  "Name":"Wondrous Whimsy"
},
{
  "Id":161,
  "Image":191717,
  "Icon":82092,
  "UnlockCondition":571,
  "SortKey":2601,
  "Name":"Fantastic Faux"
},
{
  "Id":162,
  "Image":191720,
  "Icon":82092,
  "UnlockCondition":575,
  "SortKey":2700,
  "Name":"Blunderful"
},
{
  "Id":163,
  "Image":191721,
  "Icon":82092,
  "UnlockCondition":576,
  "SortKey":2701,
  "Name":"Blunderous"
},
{
  "Id":164,
  "Image":191722,
  "Icon":82092,
  "UnlockCondition":577,
  "SortKey":2702,
  "Name":"Blunder-villed"
},
{
  "Id":165,
  "Image":191723,
  "Icon":82092,
  "UnlockCondition":607,
  "SortKey":2703,
  "Name":"Yo-kai Watch"
},
{
  "Id":166,
  "Image":0,
  "Icon":0,
  "UnlockCondition":0,
  "SortKey":0,
  "Name":""
},
{
  "Id":167,
  "Image":0,
  "Icon":0,
  "UnlockCondition":0,
  "SortKey":0,
  "Name":""
},
{
  "Id":168,
  "Image":0,
  "Icon":0,
  "UnlockCondition":0,
  "SortKey":0,
  "Name":""
},
{
  "Id":169,
  "Image":0,
  "Icon":0,
  "UnlockCondition":0,
  "SortKey":0,
  "Name":""
},
{
  "Id":170,
  "Image":0,
  "Icon":0,
  "UnlockCondition":0,
  "SortKey":0,
  "Name":""
}
]
