﻿[
{
  "Id":0,
  "Image":0,
  "Icon":82093,
  "UnlockCondition":0,
  "SortKey":0,
  "Name":"Nichts"
},
{
  "Id":1,
  "Image":192001,
  "Icon":82093,
  "UnlockCondition":1,
  "SortKey":1,
  "Name":"Nichts"
},
{
  "Id":2,
  "Image":192002,
  "Icon":82093,
  "UnlockCondition":1,
  "SortKey":2,
  "Name":"Lorbeer"
},
{
  "Id":3,
  "Image":192003,
  "Icon":82093,
  "UnlockCondition":1,
  "SortKey":10,
  "Name":"Herzen"
},
{
  "Id":4,
  "Image":192004,
  "Icon":82093,
  "UnlockCondition":1,
  "SortKey":11,
  "Name":"Sterne"
},
{
  "Id":5,
  "Image":192005,
  "Icon":82093,
  "UnlockCondition":1,
  "SortKey":12,
  "Name":"Verteidiger"
},
{
  "Id":6,
  "Image":192006,
  "Icon":82093,
  "UnlockCondition":1,
  "SortKey":14,
  "Name":"Angreifer"
},
{
  "Id":7,
  "Image":192007,
  "Icon":82093,
  "UnlockCondition":1,
  "SortKey":13,
  "Name":"Heiler"
},
{
  "Id":8,
  "Image":192008,
  "Icon":82093,
  "UnlockCondition":1,
  "SortKey":32,
  "Name":"Glitzer"
},
{
  "Id":9,
  "Image":192009,
  "Icon":82093,
  "UnlockCondition":1,
  "SortKey":16,
  "Name":"Pfoten"
},
{
  "Id":10,
  "Image":192010,
  "Icon":82093,
  "UnlockCondition":1,
  "SortKey":17,
  "Name":"Ausrufezeichen"
},
{
  "Id":11,
  "Image":192011,
  "Icon":82093,
  "UnlockCondition":1,
  "SortKey":18,
  "Name":"Fragezeichen"
},
{
  "Id":12,
  "Image":192301,
  "Icon":82093,
  "UnlockCondition":124,
  "SortKey":2000,
  "Name":"Paladin"
},
{
  "Id":13,
  "Image":192302,
  "Icon":82093,
  "UnlockCondition":125,
  "SortKey":2001,
  "Name":"Krieger"
},
{
  "Id":14,
  "Image":192303,
  "Icon":82093,
  "UnlockCondition":126,
  "SortKey":2002,
  "Name":"Dunkelritter"
},
{
  "Id":15,
  "Image":192304,
  "Icon":82093,
  "UnlockCondition":127,
  "SortKey":2003,
  "Name":"Revolverklinge"
},
{
  "Id":16,
  "Image":192305,
  "Icon":82093,
  "UnlockCondition":128,
  "SortKey":2004,
  "Name":"Weißmagier"
},
{
  "Id":17,
  "Image":192306,
  "Icon":82093,
  "UnlockCondition":129,
  "SortKey":2005,
  "Name":"Gelehrter"
},
{
  "Id":18,
  "Image":192307,
  "Icon":82093,
  "UnlockCondition":130,
  "SortKey":2006,
  "Name":"Astrologe"
},
{
  "Id":19,
  "Image":192308,
  "Icon":82093,
  "UnlockCondition":131,
  "SortKey":2007,
  "Name":"Weiser"
},
{
  "Id":20,
  "Image":192309,
  "Icon":82093,
  "UnlockCondition":132,
  "SortKey":2008,
  "Name":"Mönch"
},
{
  "Id":21,
  "Image":192310,
  "Icon":82093,
  "UnlockCondition":133,
  "SortKey":2009,
  "Name":"Dragoon"
},
{
  "Id":22,
  "Image":192311,
  "Icon":82093,
  "UnlockCondition":134,
  "SortKey":2010,
  "Name":"Ninja"
},
{
  "Id":23,
  "Image":192312,
  "Icon":82093,
  "UnlockCondition":135,
  "SortKey":2011,
  "Name":"Samurai"
},
{
  "Id":24,
  "Image":192313,
  "Icon":82093,
  "UnlockCondition":136,
  "SortKey":2012,
  "Name":"Schnitter"
},
{
  "Id":25,
  "Image":192314,
  "Icon":82093,
  "UnlockCondition":137,
  "SortKey":2013,
  "Name":"Barde"
},
{
  "Id":26,
  "Image":192315,
  "Icon":82093,
  "UnlockCondition":138,
  "SortKey":2014,
  "Name":"Maschinist"
},
{
  "Id":27,
  "Image":192316,
  "Icon":82093,
  "UnlockCondition":139,
  "SortKey":2015,
  "Name":"Tänzer"
},
{
  "Id":28,
  "Image":192317,
  "Icon":82093,
  "UnlockCondition":140,
  "SortKey":2016,
  "Name":"Schwarzmagier"
},
{
  "Id":29,
  "Image":192318,
  "Icon":82093,
  "UnlockCondition":141,
  "SortKey":2017,
  "Name":"Beschwörer"
},
{
  "Id":30,
  "Image":192319,
  "Icon":82093,
  "UnlockCondition":142,
  "SortKey":2018,
  "Name":"Rotmagier"
},
{
  "Id":31,
  "Image":192401,
  "Icon":82093,
  "UnlockCondition":143,
  "SortKey":3000,
  "Name":"Team Astra"
},
{
  "Id":32,
  "Image":192402,
  "Icon":82093,
  "UnlockCondition":144,
  "SortKey":3001,
  "Name":"Team Umbra"
},
{
  "Id":33,
  "Image":192403,
  "Icon":82093,
  "UnlockCondition":145,
  "SortKey":3200,
  "Name":"Kristallkönig (1. Saison)"
},
{
  "Id":34,
  "Image":192404,
  "Icon":82093,
  "UnlockCondition":146,
  "SortKey":3201,
  "Name":"Kristallfürst (1. Saison)"
},
{
  "Id":35,
  "Image":192405,
  "Icon":82093,
  "UnlockCondition":147,
  "SortKey":3202,
  "Name":"Kristallkämpfer (1. Saison)"
},
{
  "Id":36,
  "Image":192406,
  "Icon":82093,
  "UnlockCondition":148,
  "SortKey":3208,
  "Name":"Crystalline Conflict: Bronze (1. Saison)"
},
{
  "Id":37,
  "Image":192407,
  "Icon":82093,
  "UnlockCondition":149,
  "SortKey":3207,
  "Name":"Crystalline Conflict: Silber (1. Saison)"
},
{
  "Id":38,
  "Image":192408,
  "Icon":82093,
  "UnlockCondition":150,
  "SortKey":3206,
  "Name":"Crystalline Conflict: Gold (1. Saison)"
},
{
  "Id":39,
  "Image":192409,
  "Icon":82093,
  "UnlockCondition":151,
  "SortKey":3205,
  "Name":"Crystalline Conflict: Platin (1. Saison)"
},
{
  "Id":40,
  "Image":192410,
  "Icon":82093,
  "UnlockCondition":152,
  "SortKey":3204,
  "Name":"Crystalline Conflict: Diamant (1. Saison)"
},
{
  "Id":41,
  "Image":192411,
  "Icon":82093,
  "UnlockCondition":153,
  "SortKey":3203,
  "Name":"Crystalline Conflict: Kristall (1. Saison)"
},
{
  "Id":42,
  "Image":192901,
  "Icon":82093,
  "UnlockCondition":154,
  "SortKey":4000,
  "Name":"Companion-App 1"
},
{
  "Id":43,
  "Image":192902,
  "Icon":82093,
  "UnlockCondition":155,
  "SortKey":4001,
  "Name":"Companion-App 2"
},
{
  "Id":44,
  "Image":192701,
  "Icon":82093,
  "UnlockCondition":319,
  "SortKey":2500,
  "Name":"Endlose Schatten von Bahamut (fatal)"
},
{
  "Id":45,
  "Image":192702,
  "Icon":82093,
  "UnlockCondition":320,
  "SortKey":2501,
  "Name":"Heldenlied von Ultima (fatal)"
},
{
  "Id":46,
  "Image":192703,
  "Icon":82093,
  "UnlockCondition":321,
  "SortKey":2502,
  "Name":"Alexander (fatal)"
},
{
  "Id":47,
  "Image":192704,
  "Icon":82093,
  "UnlockCondition":322,
  "SortKey":2503,
  "Name":"Drachenkrieg (fatal)"
},
{
  "Id":48,
  "Image":192412,
  "Icon":82093,
  "UnlockCondition":323,
  "SortKey":3209,
  "Name":"Kristallkönig (2. Saison)"
},
{
  "Id":49,
  "Image":192413,
  "Icon":82093,
  "UnlockCondition":324,
  "SortKey":3210,
  "Name":"Kristallfürst (2. Saison)"
},
{
  "Id":50,
  "Image":192414,
  "Icon":82093,
  "UnlockCondition":325,
  "SortKey":3211,
  "Name":"Kristallkämpfer (2. Saison)"
},
{
  "Id":51,
  "Image":192415,
  "Icon":82093,
  "UnlockCondition":326,
  "SortKey":3217,
  "Name":"Crystalline Conflict: Bronze (2. Saison)"
},
{
  "Id":52,
  "Image":192416,
  "Icon":82093,
  "UnlockCondition":327,
  "SortKey":3216,
  "Name":"Crystalline Conflict: Silber (2. Saison)"
},
{
  "Id":53,
  "Image":192417,
  "Icon":82093,
  "UnlockCondition":328,
  "SortKey":3215,
  "Name":"Crystalline Conflict: Gold (2. Saison)"
},
{
  "Id":54,
  "Image":192418,
  "Icon":82093,
  "UnlockCondition":329,
  "SortKey":3214,
  "Name":"Crystalline Conflict: Platin (2. Saison)"
},
{
  "Id":55,
  "Image":192419,
  "Icon":82093,
  "UnlockCondition":330,
  "SortKey":3213,
  "Name":"Crystalline Conflict: Diamant (2. Saison)"
},
{
  "Id":56,
  "Image":192420,
  "Icon":82093,
  "UnlockCondition":331,
  "SortKey":3212,
  "Name":"Crystalline Conflict: Kristall (2. Saison)"
},
{
  "Id":57,
  "Image":192421,
  "Icon":82093,
  "UnlockCondition":332,
  "SortKey":3218,
  "Name":"Kristallkönig (3. Saison)"
},
{
  "Id":58,
  "Image":192422,
  "Icon":82093,
  "UnlockCondition":333,
  "SortKey":3219,
  "Name":"Kristallfürst (3. Saison)"
},
{
  "Id":59,
  "Image":192423,
  "Icon":82093,
  "UnlockCondition":334,
  "SortKey":3220,
  "Name":"Kristallkämpfer (3. Saison)"
},
{
  "Id":60,
  "Image":192424,
  "Icon":82093,
  "UnlockCondition":335,
  "SortKey":3226,
  "Name":"Crystalline Conflict: Bronze (3. Saison)"
},
{
  "Id":61,
  "Image":192425,
  "Icon":82093,
  "UnlockCondition":336,
  "SortKey":3225,
  "Name":"Crystalline Conflict: Silber (3. Saison)"
},
{
  "Id":62,
  "Image":192426,
  "Icon":82093,
  "UnlockCondition":337,
  "SortKey":3224,
  "Name":"Crystalline Conflict: Gold (3. Saison)"
},
{
  "Id":63,
  "Image":192427,
  "Icon":82093,
  "UnlockCondition":338,
  "SortKey":3223,
  "Name":"Crystalline Conflict: Platin (3. Saison)"
},
{
  "Id":64,
  "Image":192428,
  "Icon":82093,
  "UnlockCondition":339,
  "SortKey":3222,
  "Name":"Crystalline Conflict: Diamant (3. Saison)"
},
{
  "Id":65,
  "Image":192429,
  "Icon":82093,
  "UnlockCondition":340,
  "SortKey":3221,
  "Name":"Crystalline Conflict: Kristall (3. Saison)"
},
{
  "Id":66,
  "Image":192430,
  "Icon":82093,
  "UnlockCondition":341,
  "SortKey":3002,
  "Name":"Crystalline Conflict: Blau"
},
{
  "Id":67,
  "Image":192431,
  "Icon":82093,
  "UnlockCondition":342,
  "SortKey":3003,
  "Name":"Crystalline Conflict: Rot"
},
{
  "Id":68,
  "Image":192705,
  "Icon":82093,
  "UnlockCondition":343,
  "SortKey":2400,
  "Name":"Unstetes Gewölbe: Die Unterstadt von Sil'dih"
},
{
  "Id":69,
  "Image":192966,
  "Icon":82093,
  "UnlockCondition":344,
  "SortKey":2310,
  "Name":"Aufträge der Omikron"
},
{
  "Id":70,
  "Image":192601,
  "Icon":82093,
  "UnlockCondition":346,
  "SortKey":1000,
  "Name":"Flagge von Limsa Lominsa"
},
{
  "Id":71,
  "Image":192602,
  "Icon":82093,
  "UnlockCondition":346,
  "SortKey":1001,
  "Name":"Flagge von Gridania"
},
{
  "Id":72,
  "Image":192603,
  "Icon":82093,
  "UnlockCondition":346,
  "SortKey":1002,
  "Name":"Flagge von Ul'dah"
},
{
  "Id":73,
  "Image":192015,
  "Icon":82093,
  "UnlockCondition":1,
  "SortKey":3,
  "Name":"Florale Verzierungen"
},
{
  "Id":74,
  "Image":192016,
  "Icon":82093,
  "UnlockCondition":1,
  "SortKey":21,
  "Name":"Sprechblase"
},
{
  "Id":75,
  "Image":192019,
  "Icon":82093,
  "UnlockCondition":1,
  "SortKey":30,
  "Name":"Lichtpartikel"
},
{
  "Id":76,
  "Image":192018,
  "Icon":82093,
  "UnlockCondition":347,
  "SortKey":31,
  "Name":"Musiknoten"
},
{
  "Id":77,
  "Image":192012,
  "Icon":82093,
  "UnlockCondition":1,
  "SortKey":20,
  "Name":"Geburtstag"
},
{
  "Id":78,
  "Image":192013,
  "Icon":82093,
  "UnlockCondition":1,
  "SortKey":19,
  "Name":"Neuling"
},
{
  "Id":79,
  "Image":192014,
  "Icon":82093,
  "UnlockCondition":1,
  "SortKey":33,
  "Name":"Lichtkreise"
},
{
  "Id":80,
  "Image":192017,
  "Icon":82093,
  "UnlockCondition":1,
  "SortKey":34,
  "Name":"Rosen"
},
{
  "Id":81,
  "Image":192432,
  "Icon":82093,
  "UnlockCondition":409,
  "SortKey":3227,
  "Name":"Kristallkönig (4. Saison)"
},
{
  "Id":82,
  "Image":192433,
  "Icon":82093,
  "UnlockCondition":410,
  "SortKey":3228,
  "Name":"Kristallfürst (4. Saison)"
},
{
  "Id":83,
  "Image":192434,
  "Icon":82093,
  "UnlockCondition":411,
  "SortKey":3229,
  "Name":"Kristallkämpfer (4. Saison)"
},
{
  "Id":84,
  "Image":192440,
  "Icon":82093,
  "UnlockCondition":412,
  "SortKey":3230,
  "Name":"Crystalline Conflict: Kristall (4. Saison)"
},
{
  "Id":85,
  "Image":192439,
  "Icon":82093,
  "UnlockCondition":413,
  "SortKey":3231,
  "Name":"Crystalline Conflict: Diamant (4. Saison)"
},
{
  "Id":86,
  "Image":192438,
  "Icon":82093,
  "UnlockCondition":414,
  "SortKey":3232,
  "Name":"Crystalline Conflict: Platin (4. Saison)"
},
{
  "Id":87,
  "Image":192437,
  "Icon":82093,
  "UnlockCondition":415,
  "SortKey":3233,
  "Name":"Crystalline Conflict: Gold (4. Saison)"
},
{
  "Id":88,
  "Image":192436,
  "Icon":82093,
  "UnlockCondition":416,
  "SortKey":3234,
  "Name":"Crystalline Conflict: Silber (4. Saison)"
},
{
  "Id":89,
  "Image":192435,
  "Icon":82093,
  "UnlockCondition":417,
  "SortKey":3235,
  "Name":"Crystalline Conflict: Bronze (4. Saison)"
},
{
  "Id":90,
  "Image":192441,
  "Icon":82093,
  "UnlockCondition":418,
  "SortKey":3236,
  "Name":"Kristallkönig (5. Saison)"
},
{
  "Id":91,
  "Image":192442,
  "Icon":82093,
  "UnlockCondition":419,
  "SortKey":3237,
  "Name":"Kristallfürst (5. Saison)"
},
{
  "Id":92,
  "Image":192443,
  "Icon":82093,
  "UnlockCondition":420,
  "SortKey":3238,
  "Name":"Kristallkämpfer (5. Saison)"
},
{
  "Id":93,
  "Image":192449,
  "Icon":82093,
  "UnlockCondition":421,
  "SortKey":3239,
  "Name":"Crystalline Conflict: Kristall (5. Saison)"
},
{
  "Id":94,
  "Image":192448,
  "Icon":82093,
  "UnlockCondition":422,
  "SortKey":3240,
  "Name":"Crystalline Conflict: Diamant (5. Saison)"
},
{
  "Id":95,
  "Image":192447,
  "Icon":82093,
  "UnlockCondition":423,
  "SortKey":3241,
  "Name":"Crystalline Conflict: Platin (5. Saison)"
},
{
  "Id":96,
  "Image":192446,
  "Icon":82093,
  "UnlockCondition":424,
  "SortKey":3242,
  "Name":"Crystalline Conflict: Gold (5. Saison)"
},
{
  "Id":97,
  "Image":192445,
  "Icon":82093,
  "UnlockCondition":425,
  "SortKey":3243,
  "Name":"Crystalline Conflict: Silber (5. Saison)"
},
{
  "Id":98,
  "Image":192444,
  "Icon":82093,
  "UnlockCondition":426,
  "SortKey":3244,
  "Name":"Crystalline Conflict: Bronze (5. Saison)"
},
{
  "Id":99,
  "Image":192450,
  "Icon":82093,
  "UnlockCondition":427,
  "SortKey":3004,
  "Name":"Falken"
},
{
  "Id":100,
  "Image":192451,
  "Icon":82093,
  "UnlockCondition":428,
  "SortKey":3005,
  "Name":"Raben"
},
{
  "Id":101,
  "Image":192962,
  "Icon":82093,
  "UnlockCondition":429,
  "SortKey":2306,
  "Name":"Aufträge der Pixies"
},
{
  "Id":102,
  "Image":192963,
  "Icon":82093,
  "UnlockCondition":430,
  "SortKey":2307,
  "Name":"Aufträge der Qitari"
},
{
  "Id":103,
  "Image":192964,
  "Icon":82093,
  "UnlockCondition":431,
  "SortKey":2308,
  "Name":"Aufträge der Zwerge"
},
{
  "Id":104,
  "Image":192965,
  "Icon":82093,
  "UnlockCondition":432,
  "SortKey":2309,
  "Name":"Aufträge der Arkasodara"
},
{
  "Id":105,
  "Image":192967,
  "Icon":82093,
  "UnlockCondition":433,
  "SortKey":2311,
  "Name":"Aufträge der Loporrit"
},
{
  "Id":106,
  "Image":192706,
  "Icon":82093,
  "UnlockCondition":434,
  "SortKey":2504,
  "Name":"Omega (fatal)"
},
{
  "Id":107,
  "Image":192711,
  "Icon":82093,
  "UnlockCondition":465,
  "SortKey":2354,
  "Name":"Tiefes Gewölbe: Eureka Orthos 1"
},
{
  "Id":108,
  "Image":192712,
  "Icon":82093,
  "UnlockCondition":466,
  "SortKey":2355,
  "Name":"Tiefes Gewölbe: Eureka Orthos 2"
},
{
  "Id":109,
  "Image":192713,
  "Icon":82093,
  "UnlockCondition":468,
  "SortKey":2340,
  "Name":"Inselparadies 1"
},
{
  "Id":110,
  "Image":192714,
  "Icon":82093,
  "UnlockCondition":469,
  "SortKey":2341,
  "Name":"Inselparadies 2"
},
{
  "Id":111,
  "Image":192452,
  "Icon":82093,
  "UnlockCondition":502,
  "SortKey":3245,
  "Name":"Kristallkönig (6. Saison)"
},
{
  "Id":112,
  "Image":192453,
  "Icon":82093,
  "UnlockCondition":503,
  "SortKey":3246,
  "Name":"Kristallfürst (6. Saison)"
},
{
  "Id":113,
  "Image":192454,
  "Icon":82093,
  "UnlockCondition":504,
  "SortKey":3247,
  "Name":"Kristallkämpfer (6. Saison)"
},
{
  "Id":114,
  "Image":192460,
  "Icon":82093,
  "UnlockCondition":505,
  "SortKey":3248,
  "Name":"Crystalline Conflict: Kristall (6. Saison)"
},
{
  "Id":115,
  "Image":192459,
  "Icon":82093,
  "UnlockCondition":506,
  "SortKey":3249,
  "Name":"Crystalline Conflict: Diamant (6. Saison)"
},
{
  "Id":116,
  "Image":192458,
  "Icon":82093,
  "UnlockCondition":507,
  "SortKey":3250,
  "Name":"Crystalline Conflict: Platin (6. Saison)"
},
{
  "Id":117,
  "Image":192457,
  "Icon":82093,
  "UnlockCondition":508,
  "SortKey":3251,
  "Name":"Crystalline Conflict: Gold (6. Saison)"
},
{
  "Id":118,
  "Image":192456,
  "Icon":82093,
  "UnlockCondition":509,
  "SortKey":3252,
  "Name":"Crystalline Conflict: Silber (6. Saison)"
},
{
  "Id":119,
  "Image":192455,
  "Icon":82093,
  "UnlockCondition":510,
  "SortKey":3253,
  "Name":"Crystalline Conflict: Bronze (6. Saison)"
},
{
  "Id":120,
  "Image":192461,
  "Icon":82093,
  "UnlockCondition":511,
  "SortKey":3254,
  "Name":"Kristallkönig (7. Saison)"
},
{
  "Id":121,
  "Image":192462,
  "Icon":82093,
  "UnlockCondition":512,
  "SortKey":3255,
  "Name":"Kristallfürst (7. Saison)"
},
{
  "Id":122,
  "Image":192463,
  "Icon":82093,
  "UnlockCondition":513,
  "SortKey":3256,
  "Name":"Kristallkämpfer (7. Saison)"
},
{
  "Id":123,
  "Image":192469,
  "Icon":82093,
  "UnlockCondition":514,
  "SortKey":3257,
  "Name":"Crystalline Conflict: Kristall (7. Saison)"
},
{
  "Id":124,
  "Image":192468,
  "Icon":82093,
  "UnlockCondition":515,
  "SortKey":3258,
  "Name":"Crystalline Conflict: Diamant (7. Saison)"
},
{
  "Id":125,
  "Image":192467,
  "Icon":82093,
  "UnlockCondition":516,
  "SortKey":3259,
  "Name":"Crystalline Conflict: Platin (7. Saison)"
},
{
  "Id":126,
  "Image":192466,
  "Icon":82093,
  "UnlockCondition":517,
  "SortKey":3260,
  "Name":"Crystalline Conflict: Gold (7. Saison)"
},
{
  "Id":127,
  "Image":192465,
  "Icon":82093,
  "UnlockCondition":518,
  "SortKey":3261,
  "Name":"Crystalline Conflict: Silber (7. Saison)"
},
{
  "Id":128,
  "Image":192464,
  "Icon":82093,
  "UnlockCondition":519,
  "SortKey":3262,
  "Name":"Crystalline Conflict: Bronze (7. Saison)"
},
{
  "Id":129,
  "Image":192470,
  "Icon":82093,
  "UnlockCondition":520,
  "SortKey":3006,
  "Name":"Aramitama Kimen"
},
{
  "Id":130,
  "Image":192471,
  "Icon":82093,
  "UnlockCondition":521,
  "SortKey":3007,
  "Name":"Nigimitama Okinamen"
},
{
  "Id":131,
  "Image":192960,
  "Icon":82093,
  "UnlockCondition":524,
  "SortKey":2303,
  "Name":"Aufträge der Kojin"
},
{
  "Id":132,
  "Image":192959,
  "Icon":82093,
  "UnlockCondition":525,
  "SortKey":2304,
  "Name":"Aufträge der Ananta"
},
{
  "Id":133,
  "Image":192961,
  "Icon":82093,
  "UnlockCondition":526,
  "SortKey":2305,
  "Name":"Aufträge der Namazuo"
},
{
  "Id":134,
  "Image":192320,
  "Icon":82093,
  "UnlockCondition":522,
  "SortKey":2019,
  "Name":"Blaumagier"
},
{
  "Id":135,
  "Image":192715,
  "Icon":82093,
  "UnlockCondition":523,
  "SortKey":3950,
  "Name":"10. Jubiläum"
},
{
  "Id":136,
  "Image":192716,
  "Icon":82093,
  "UnlockCondition":528,
  "SortKey":2401,
  "Name":"Unstetes Gewölbe: Der Rokkon"
},
{
  "Id":137,
  "Image":192717,
  "Icon":82093,
  "UnlockCondition":529,
  "SortKey":2342,
  "Name":"Fischer auf großer Fahrt"
},
{
  "Id":138,
  "Image":192718,
  "Icon":82093,
  "UnlockCondition":530,
  "SortKey":2343,
  "Name":"Kapitalbeschaffung"
},
{
  "Id":139,
  "Image":192719,
  "Icon":82093,
  "UnlockCondition":531,
  "SortKey":2350,
  "Name":"Mahjong-Profi"
},
{
  "Id":140,
  "Image":192490,
  "Icon":82093,
  "UnlockCondition":578,
  "SortKey":3008,
  "Name":"Die Palästra"
},
{
  "Id":141,
  "Image":192491,
  "Icon":82093,
  "UnlockCondition":579,
  "SortKey":3009,
  "Name":"Wolke Sieben"
},
{
  "Id":142,
  "Image":192472,
  "Icon":82093,
  "UnlockCondition":580,
  "SortKey":3263,
  "Name":"Kristallkönig (8. Saison)"
},
{
  "Id":143,
  "Image":192473,
  "Icon":82093,
  "UnlockCondition":581,
  "SortKey":3264,
  "Name":"Kristallfürst (8. Saison)"
},
{
  "Id":144,
  "Image":192474,
  "Icon":82093,
  "UnlockCondition":582,
  "SortKey":3265,
  "Name":"Kristallkämpfer (8. Saison)"
},
{
  "Id":145,
  "Image":192480,
  "Icon":82093,
  "UnlockCondition":583,
  "SortKey":3266,
  "Name":"Crystalline Conflict: Kristall (8. Saison)"
},
{
  "Id":146,
  "Image":192479,
  "Icon":82093,
  "UnlockCondition":584,
  "SortKey":3267,
  "Name":"Crystalline Conflict: Diamant (8. Saison)"
},
{
  "Id":147,
  "Image":192478,
  "Icon":82093,
  "UnlockCondition":585,
  "SortKey":3268,
  "Name":"Crystalline Conflict: Platin (8. Saison)"
},
{
  "Id":148,
  "Image":192477,
  "Icon":82093,
  "UnlockCondition":586,
  "SortKey":3269,
  "Name":"Crystalline Conflict: Gold (8. Saison)"
},
{
  "Id":149,
  "Image":192476,
  "Icon":82093,
  "UnlockCondition":587,
  "SortKey":3270,
  "Name":"Crystalline Conflict: Silber (8. Saison)"
},
{
  "Id":150,
  "Image":192475,
  "Icon":82093,
  "UnlockCondition":588,
  "SortKey":3271,
  "Name":"Crystalline Conflict: Bronze (8. Saison)"
},
{
  "Id":151,
  "Image":192481,
  "Icon":82093,
  "UnlockCondition":589,
  "SortKey":3272,
  "Name":"Kristallkönig (9. Saison)"
},
{
  "Id":152,
  "Image":192482,
  "Icon":82093,
  "UnlockCondition":590,
  "SortKey":3273,
  "Name":"Kristallfürst (9. Saison)"
},
{
  "Id":153,
  "Image":192483,
  "Icon":82093,
  "UnlockCondition":591,
  "SortKey":3274,
  "Name":"Kristallkämpfer (9. Saison)"
},
{
  "Id":154,
  "Image":192489,
  "Icon":82093,
  "UnlockCondition":592,
  "SortKey":3275,
  "Name":"Crystalline Conflict: Kristall (9. Saison)"
},
{
  "Id":155,
  "Image":192488,
  "Icon":82093,
  "UnlockCondition":593,
  "SortKey":3276,
  "Name":"Crystalline Conflict: Diamant (9. Saison)"
},
{
  "Id":156,
  "Image":192487,
  "Icon":82093,
  "UnlockCondition":594,
  "SortKey":3277,
  "Name":"Crystalline Conflict: Platin (9. Saison)"
},
{
  "Id":157,
  "Image":192486,
  "Icon":82093,
  "UnlockCondition":595,
  "SortKey":3278,
  "Name":"Crystalline Conflict: Gold (9. Saison)"
},
{
  "Id":158,
  "Image":192485,
  "Icon":82093,
  "UnlockCondition":596,
  "SortKey":3279,
  "Name":"Crystalline Conflict: Silber (9. Saison)"
},
{
  "Id":159,
  "Image":192484,
  "Icon":82093,
  "UnlockCondition":597,
  "SortKey":3280,
  "Name":"Crystalline Conflict: Bronze (9. Saison)"
},
{
  "Id":160,
  "Image":192492,
  "Icon":82093,
  "UnlockCondition":598,
  "SortKey":3281,
  "Name":"Kristallkönig (10. Saison)"
},
{
  "Id":161,
  "Image":192493,
  "Icon":82093,
  "UnlockCondition":599,
  "SortKey":3282,
  "Name":"Kristallfürst (10. Saison)"
},
{
  "Id":162,
  "Image":192494,
  "Icon":82093,
  "UnlockCondition":600,
  "SortKey":3283,
  "Name":"Kristallkämpfer (10. Saison)"
},
{
  "Id":163,
  "Image":192500,
  "Icon":82093,
  "UnlockCondition":601,
  "SortKey":3284,
  "Name":"Crystalline Conflict: Kristall (10. Saison)"
},
{
  "Id":164,
  "Image":192499,
  "Icon":82093,
  "UnlockCondition":602,
  "SortKey":3285,
  "Name":"Crystalline Conflict: Diamant (10. Saison)"
},
{
  "Id":165,
  "Image":192498,
  "Icon":82093,
  "UnlockCondition":603,
  "SortKey":3286,
  "Name":"Crystalline Conflict: Platin (10. Saison)"
},
{
  "Id":166,
  "Image":192497,
  "Icon":82093,
  "UnlockCondition":604,
  "SortKey":3287,
  "Name":"Crystalline Conflict: Gold (10. Saison)"
},
{
  "Id":167,
  "Image":192496,
  "Icon":82093,
  "UnlockCondition":605,
  "SortKey":3288,
  "Name":"Crystalline Conflict: Silber (10. Saison)"
},
{
  "Id":168,
  "Image":192495,
  "Icon":82093,
  "UnlockCondition":606,
  "SortKey":3289,
  "Name":"Crystalline Conflict: Bronze (10. Saison)"
},
{
  "Id":169,
  "Image":192956,
  "Icon":82093,
  "UnlockCondition":567,
  "SortKey":2300,
  "Name":"Aufträge der Vanu Vanu"
},
{
  "Id":170,
  "Image":192957,
  "Icon":82093,
  "UnlockCondition":568,
  "SortKey":2301,
  "Name":"Aufträge der Gnath"
},
{
  "Id":171,
  "Image":192958,
  "Icon":82093,
  "UnlockCondition":569,
  "SortKey":2302,
  "Name":"Aufträge der Mogrys"
},
{
  "Id":172,
  "Image":192722,
  "Icon":82093,
  "UnlockCondition":572,
  "SortKey":2252,
  "Name":"Mythen Eorzeas: Halone"
},
{
  "Id":173,
  "Image":192723,
  "Icon":82093,
  "UnlockCondition":572,
  "SortKey":2253,
  "Name":"Mythen Eorzeas: Menphina"
},
{
  "Id":174,
  "Image":192724,
  "Icon":82093,
  "UnlockCondition":572,
  "SortKey":2254,
  "Name":"Mythen Eorzeas: Thaliak"
},
{
  "Id":175,
  "Image":192725,
  "Icon":82093,
  "UnlockCondition":572,
  "SortKey":2255,
  "Name":"Mythen Eorzeas: Nymeia"
},
{
  "Id":176,
  "Image":192726,
  "Icon":82093,
  "UnlockCondition":572,
  "SortKey":2256,
  "Name":"Mythen Eorzeas: Llymlaen"
},
{
  "Id":177,
  "Image":192727,
  "Icon":82093,
  "UnlockCondition":572,
  "SortKey":2257,
  "Name":"Mythen Eorzeas: Oschon"
},
{
  "Id":178,
  "Image":192728,
  "Icon":82093,
  "UnlockCondition":572,
  "SortKey":2258,
  "Name":"Mythen Eorzeas: Byregot"
},
{
  "Id":179,
  "Image":192729,
  "Icon":82093,
  "UnlockCondition":572,
  "SortKey":2259,
  "Name":"Mythen Eorzeas: Rhalgr"
},
{
  "Id":180,
  "Image":192730,
  "Icon":82093,
  "UnlockCondition":572,
  "SortKey":2260,
  "Name":"Mythen Eorzeas: Azeyma"
},
{
  "Id":181,
  "Image":192731,
  "Icon":82093,
  "UnlockCondition":572,
  "SortKey":2261,
  "Name":"Mythen Eorzeas: Nald'thal"
},
{
  "Id":182,
  "Image":192732,
  "Icon":82093,
  "UnlockCondition":572,
  "SortKey":2262,
  "Name":"Mythen Eorzeas: Nophica"
},
{
  "Id":183,
  "Image":192733,
  "Icon":82093,
  "UnlockCondition":572,
  "SortKey":2263,
  "Name":"Mythen Eorzeas: Althyk"
},
{
  "Id":184,
  "Image":192734,
  "Icon":82093,
  "UnlockCondition":574,
  "SortKey":2402,
  "Name":"Unstetes Gewölbe: Aloalo"
},
{
  "Id":185,
  "Image":192720,
  "Icon":82093,
  "UnlockCondition":570,
  "SortKey":2600,
  "Name":"Khloes Abenteueralbum"
},
{
  "Id":186,
  "Image":192721,
  "Icon":82093,
  "UnlockCondition":571,
  "SortKey":2601,
  "Name":"Traumtafel"
},
{
  "Id":187,
  "Image":192735,
  "Icon":82093,
  "UnlockCondition":575,
  "SortKey":2700,
  "Name":"Stolperville 1"
},
{
  "Id":188,
  "Image":192736,
  "Icon":82093,
  "UnlockCondition":576,
  "SortKey":2701,
  "Name":"Stolperville 2"
},
{
  "Id":189,
  "Image":192737,
  "Icon":82093,
  "UnlockCondition":577,
  "SortKey":2702,
  "Name":"Stolperville 3"
},
{
  "Id":190,
  "Image":192738,
  "Icon":82093,
  "UnlockCondition":607,
  "SortKey":2703,
  "Name":"Yo-kai Watch"
}
]
