﻿[
{
  "Id":0,
  "Singular":"Ledersattel",
  "Adjective":4,
  "Plural":"Ledersättel",
  "PossessivePronoun":2,
  "StartsWithVowel":0,
  "Pronoun":0,
  "Article":0,
  "Name":"Ledersattel",
  "Model{Top}":0,
  "Model{Body}":0,
  "Model{Legs}":0,
  "GrandCompany":0,
  "Icon{Head}":0,
  "Icon{Body}":0,
  "Icon{Legs}":0,
  "Order":0
},
{
  "Id":1,
  "Singular":"limsisch[a] Sattelzeug",
  "Adjective":4,
  "Plural":"limsisch[a] Sattelzeuge",
  "PossessivePronoun":2,
  "StartsWithVowel":0,
  "Pronoun":2,
  "Article":0,
  "Name":"Limsisches Sattelzeug",
  "Model{Top}":65538,
  "Model{Body}":65541,
  "Model{Legs}":65538,
  "GrandCompany":1,
  "Icon{Head}":58549,
  "Icon{Body}":58553,
  "Icon{Legs}":58551,
  "Order":1
},
{
  "Id":2,
  "Singular":"leicht[a] limsisch[a] Rossharnisch",
  "Adjective":4,
  "Plural":"leicht[a] limsisch[a] Rossharnische",
  "PossessivePronoun":2,
  "StartsWithVowel":0,
  "Pronoun":0,
  "Article":0,
  "Name":"Leichter limsischer Rossharnisch",
  "Model{Top}":65542,
  "Model{Body}":65542,
  "Model{Legs}":65542,
  "GrandCompany":1,
  "Icon{Head}":58501,
  "Icon{Body}":58502,
  "Icon{Legs}":58503,
  "Order":2
},
{
  "Id":3,
  "Singular":"limsisch[a] Rossharnisch",
  "Adjective":4,
  "Plural":"limsisch[a] Rossharnische",
  "PossessivePronoun":2,
  "StartsWithVowel":0,
  "Pronoun":0,
  "Article":0,
  "Name":"Limsischer Rossharnisch",
  "Model{Top}":131078,
  "Model{Body}":131078,
  "Model{Legs}":131078,
  "GrandCompany":1,
  "Icon{Head}":58504,
  "Icon{Body}":58505,
  "Icon{Legs}":58506,
  "Order":3
},
{
  "Id":4,
  "Singular":"schwer[a] limsisch[a] Rossharnisch",
  "Adjective":4,
  "Plural":"schwer[a] limsisch[a] Rossharnische",
  "PossessivePronoun":2,
  "StartsWithVowel":0,
  "Pronoun":0,
  "Article":0,
  "Name":"Schwerer limsischer Rossharnisch",
  "Model{Top}":196614,
  "Model{Body}":196614,
  "Model{Legs}":196614,
  "GrandCompany":1,
  "Icon{Head}":58507,
  "Icon{Body}":58508,
  "Icon{Legs}":58509,
  "Order":4
},
{
  "Id":5,
  "Singular":"gridanisch[a] Sattelzeug",
  "Adjective":4,
  "Plural":"gridanisch[a] Sattelzeuge",
  "PossessivePronoun":2,
  "StartsWithVowel":0,
  "Pronoun":2,
  "Article":0,
  "Name":"Gridanisches Sattelzeug",
  "Model{Top}":65538,
  "Model{Body}":131077,
  "Model{Legs}":65538,
  "GrandCompany":2,
  "Icon{Head}":58549,
  "Icon{Body}":58556,
  "Icon{Legs}":58551,
  "Order":5
},
{
  "Id":6,
  "Singular":"leicht[a] gridanisch[a] Rossharnisch",
  "Adjective":4,
  "Plural":"leicht[a] gridanisch[a] Rossharnische",
  "PossessivePronoun":2,
  "StartsWithVowel":0,
  "Pronoun":0,
  "Article":0,
  "Name":"Leichter gridanischer Rossharnisch",
  "Model{Top}":65543,
  "Model{Body}":65543,
  "Model{Legs}":65543,
  "GrandCompany":2,
  "Icon{Head}":58510,
  "Icon{Body}":58511,
  "Icon{Legs}":58512,
  "Order":6
},
{
  "Id":7,
  "Singular":"gridanisch[a] Rossharnisch",
  "Adjective":4,
  "Plural":"gridanisch[a] Rossharnische",
  "PossessivePronoun":2,
  "StartsWithVowel":0,
  "Pronoun":0,
  "Article":0,
  "Name":"Gridanischer Rossharnisch",
  "Model{Top}":131079,
  "Model{Body}":131079,
  "Model{Legs}":131079,
  "GrandCompany":2,
  "Icon{Head}":58513,
  "Icon{Body}":58514,
  "Icon{Legs}":58515,
  "Order":7
},
{
  "Id":8,
  "Singular":"schwer[a] gridanisch[a] Rossharnisch",
  "Adjective":4,
  "Plural":"schwer[a] gridanisch[a] Rossharnische",
  "PossessivePronoun":2,
  "StartsWithVowel":0,
  "Pronoun":0,
  "Article":0,
  "Name":"Schwerer gridanischer Rossharnisch",
  "Model{Top}":196615,
  "Model{Body}":196615,
  "Model{Legs}":196615,
  "GrandCompany":2,
  "Icon{Head}":58516,
  "Icon{Body}":58517,
  "Icon{Legs}":58518,
  "Order":8
},
{
  "Id":9,
  "Singular":"ul'dhisch[a] Sattelzeug",
  "Adjective":4,
  "Plural":"ul'dhisch[a] Sattelzeug",
  "PossessivePronoun":2,
  "StartsWithVowel":0,
  "Pronoun":2,
  "Article":0,
  "Name":"Ul'dhisches Sattelzeug",
  "Model{Top}":65538,
  "Model{Body}":196613,
  "Model{Legs}":65538,
  "GrandCompany":3,
  "Icon{Head}":58549,
  "Icon{Body}":58559,
  "Icon{Legs}":58551,
  "Order":9
},
{
  "Id":10,
  "Singular":"leicht[a] ul'dhisch[a] Rossharnisch",
  "Adjective":4,
  "Plural":"leicht[a] ul'dhisch[a] Rossharnische",
  "PossessivePronoun":2,
  "StartsWithVowel":0,
  "Pronoun":0,
  "Article":0,
  "Name":"Leichter ul'dhischer Rossharnisch",
  "Model{Top}":65544,
  "Model{Body}":65544,
  "Model{Legs}":65544,
  "GrandCompany":3,
  "Icon{Head}":58519,
  "Icon{Body}":58520,
  "Icon{Legs}":58521,
  "Order":10
},
{
  "Id":11,
  "Singular":"ul'dhisch[a] Rossharnisch",
  "Adjective":4,
  "Plural":"ul'dhisch[a] Rossharnische",
  "PossessivePronoun":2,
  "StartsWithVowel":0,
  "Pronoun":0,
  "Article":0,
  "Name":"Ul'dhischer Rossharnisch",
  "Model{Top}":131080,
  "Model{Body}":131080,
  "Model{Legs}":131080,
  "GrandCompany":3,
  "Icon{Head}":58522,
  "Icon{Body}":58523,
  "Icon{Legs}":58524,
  "Order":11
},
{
  "Id":12,
  "Singular":"schwer[a] ul'dhisch[a] Rossharnisch",
  "Adjective":4,
  "Plural":"schwer[a] ul'dhisch[a] Rossharnische",
  "PossessivePronoun":2,
  "StartsWithVowel":0,
  "Pronoun":0,
  "Article":0,
  "Name":"Schwerer ul'dhischer Rossharnisch",
  "Model{Top}":196616,
  "Model{Body}":196616,
  "Model{Legs}":196616,
  "GrandCompany":3,
  "Icon{Head}":58525,
  "Icon{Body}":58526,
  "Icon{Legs}":58527,
  "Order":12
},
{
  "Id":13,
  "Singular":"Paladin-Rossharnisch",
  "Adjective":4,
  "Plural":"Paladin-Rossharnische",
  "PossessivePronoun":2,
  "StartsWithVowel":0,
  "Pronoun":0,
  "Article":0,
  "Name":"Paladin-Rossharnisch",
  "Model{Top}":65546,
  "Model{Body}":65546,
  "Model{Legs}":65546,
  "GrandCompany":0,
  "Icon{Head}":58528,
  "Icon{Body}":58529,
  "Icon{Legs}":58530,
  "Order":13
},
{
  "Id":14,
  "Singular":"Dragoon-Rossharnisch",
  "Adjective":4,
  "Plural":"Dragoon-Rossharnische",
  "PossessivePronoun":2,
  "StartsWithVowel":0,
  "Pronoun":0,
  "Article":0,
  "Name":"Dragoon-Rossharnisch",
  "Model{Top}":65547,
  "Model{Body}":65547,
  "Model{Legs}":65547,
  "GrandCompany":0,
  "Icon{Head}":58531,
  "Icon{Body}":58532,
  "Icon{Legs}":58533,
  "Order":14
},
{
  "Id":15,
  "Singular":"Weißmagier-Rossharnisch",
  "Adjective":4,
  "Plural":"Weißmagier-Rossharnische",
  "PossessivePronoun":2,
  "StartsWithVowel":0,
  "Pronoun":0,
  "Article":0,
  "Name":"Weißmagier-Rossharnisch",
  "Model{Top}":65549,
  "Model{Body}":65549,
  "Model{Legs}":65549,
  "GrandCompany":0,
  "Icon{Head}":58534,
  "Icon{Body}":58535,
  "Icon{Legs}":58536,
  "Order":15
},
{
  "Id":16,
  "Singular":"Sleipnir-Rossharnisch",
  "Adjective":4,
  "Plural":"Sleipnir-Rossharnische",
  "PossessivePronoun":2,
  "StartsWithVowel":0,
  "Pronoun":0,
  "Article":0,
  "Name":"Sleipnir-Rossharnisch",
  "Model{Top}":65550,
  "Model{Body}":65550,
  "Model{Legs}":65550,
  "GrandCompany":0,
  "Icon{Head}":58537,
  "Icon{Body}":58538,
  "Icon{Legs}":58539,
  "Order":171
},
{
  "Id":17,
  "Singular":"Behemoth-Rossharnisch",
  "Adjective":4,
  "Plural":"Behemoth-Rossharnische",
  "PossessivePronoun":2,
  "StartsWithVowel":0,
  "Pronoun":0,
  "Article":0,
  "Name":"Behemoth-Rossharnisch",
  "Model{Top}":65551,
  "Model{Body}":65551,
  "Model{Legs}":65551,
  "GrandCompany":0,
  "Icon{Head}":58540,
  "Icon{Body}":58541,
  "Icon{Legs}":58542,
  "Order":172
},
{
  "Id":18,
  "Singular":"Chocobo-Fliegerhaube",
  "Adjective":3,
  "Plural":"Chocobo-Fliegerhauben",
  "PossessivePronoun":1,
  "StartsWithVowel":0,
  "Pronoun":1,
  "Article":0,
  "Name":"Chocobo-Fliegerhaube",
  "Model{Top}":65555,
  "Model{Body}":0,
  "Model{Legs}":0,
  "GrandCompany":0,
  "Icon{Head}":58543,
  "Icon{Body}":0,
  "Icon{Legs}":0,
  "Order":51
},
{
  "Id":19,
  "Singular":"Schwarzmagier-Rossharnisch",
  "Adjective":4,
  "Plural":"Schwarzmagier-Rossharnische",
  "PossessivePronoun":2,
  "StartsWithVowel":0,
  "Pronoun":0,
  "Article":0,
  "Name":"Schwarzmagier-Rossharnisch",
  "Model{Top}":65548,
  "Model{Body}":65548,
  "Model{Legs}":65548,
  "GrandCompany":0,
  "Icon{Head}":58546,
  "Icon{Body}":58547,
  "Icon{Legs}":58548,
  "Order":21
},
{
  "Id":20,
  "Singular":"königlich[a] Rossharnisch",
  "Adjective":4,
  "Plural":"königlich[a] Rossharnisch",
  "PossessivePronoun":2,
  "StartsWithVowel":0,
  "Pronoun":0,
  "Article":0,
  "Name":"Königlicher Rossharnisch",
  "Model{Top}":65553,
  "Model{Body}":0,
  "Model{Legs}":0,
  "GrandCompany":0,
  "Icon{Head}":58561,
  "Icon{Body}":0,
  "Icon{Legs}":0,
  "Order":52
},
{
  "Id":21,
  "Singular":"Sternenlicht-Rossharnisch",
  "Adjective":4,
  "Plural":"Sternenlicht-Rossharnische",
  "PossessivePronoun":2,
  "StartsWithVowel":0,
  "Pronoun":0,
  "Article":0,
  "Name":"Sternenlicht-Rossharnisch",
  "Model{Top}":65540,
  "Model{Body}":65540,
  "Model{Legs}":65540,
  "GrandCompany":0,
  "Icon{Head}":58564,
  "Icon{Body}":58565,
  "Icon{Legs}":58566,
  "Order":101
},
{
  "Id":22,
  "Singular":"Wogen-Rossharnisch",
  "Adjective":4,
  "Plural":"Wogen-Rossharnische",
  "PossessivePronoun":2,
  "StartsWithVowel":0,
  "Pronoun":0,
  "Article":0,
  "Name":"Wogen-Rossharnisch",
  "Model{Top}":65556,
  "Model{Body}":65556,
  "Model{Legs}":65556,
  "GrandCompany":0,
  "Icon{Head}":58567,
  "Icon{Body}":58568,
  "Icon{Legs}":58569,
  "Order":125
},
{
  "Id":23,
  "Singular":"Harnisch[p] des Lichts",
  "Adjective":4,
  "Plural":"Harnische[p] des Lichts",
  "PossessivePronoun":2,
  "StartsWithVowel":0,
  "Pronoun":0,
  "Article":0,
  "Name":"Harnisch des Lichts",
  "Model{Top}":65557,
  "Model{Body}":65557,
  "Model{Legs}":65557,
  "GrandCompany":0,
  "Icon{Head}":58570,
  "Icon{Body}":58571,
  "Icon{Legs}":58572,
  "Order":41
},
{
  "Id":24,
  "Singular":"Saliah-Harnisch",
  "Adjective":4,
  "Plural":"Saliah-Harnische",
  "PossessivePronoun":2,
  "StartsWithVowel":0,
  "Pronoun":0,
  "Article":0,
  "Name":"Saliah-Harnisch",
  "Model{Top}":65558,
  "Model{Body}":0,
  "Model{Legs}":0,
  "GrandCompany":0,
  "Icon{Head}":58573,
  "Icon{Body}":0,
  "Icon{Legs}":0,
  "Order":102
},
{
  "Id":25,
  "Singular":"Blitz-Rossharnisch",
  "Adjective":4,
  "Plural":"Blitz-Rossharnische",
  "PossessivePronoun":2,
  "StartsWithVowel":0,
  "Pronoun":0,
  "Article":0,
  "Name":"Blitz-Rossharnisch",
  "Model{Top}":65560,
  "Model{Body}":65560,
  "Model{Legs}":65560,
  "GrandCompany":0,
  "Icon{Head}":58576,
  "Icon{Body}":58577,
  "Icon{Legs}":58578,
  "Order":126
},
{
  "Id":26,
  "Singular":"gefiedert[a] Rossharnisch",
  "Adjective":4,
  "Plural":"gefiedert[a] Rossharnische",
  "PossessivePronoun":2,
  "StartsWithVowel":0,
  "Pronoun":0,
  "Article":0,
  "Name":"Gefiederter Rossharnisch",
  "Model{Top}":65559,
  "Model{Body}":0,
  "Model{Legs}":0,
  "GrandCompany":0,
  "Icon{Head}":58579,
  "Icon{Body}":0,
  "Icon{Legs}":0,
  "Order":53
},
{
  "Id":27,
  "Singular":"schaurig[a] Rossharnisch",
  "Adjective":4,
  "Plural":"schaurig[a] Rossharnische",
  "PossessivePronoun":2,
  "StartsWithVowel":0,
  "Pronoun":0,
  "Article":0,
  "Name":"Schauriger Rossharnisch",
  "Model{Top}":65561,
  "Model{Body}":65561,
  "Model{Legs}":65561,
  "GrandCompany":0,
  "Icon{Head}":58582,
  "Icon{Body}":58583,
  "Icon{Legs}":58584,
  "Order":103
},
{
  "Id":28,
  "Singular":"Eis-Rossharnisch",
  "Adjective":4,
  "Plural":"Eis-Rossharnische",
  "PossessivePronoun":2,
  "StartsWithVowel":0,
  "Pronoun":0,
  "Article":0,
  "Name":"Eis-Rossharnisch",
  "Model{Top}":65562,
  "Model{Body}":65562,
  "Model{Legs}":65562,
  "GrandCompany":0,
  "Icon{Head}":58585,
  "Icon{Body}":58586,
  "Icon{Legs}":58587,
  "Order":127
},
{
  "Id":29,
  "Singular":"Glücksspieler-Rossharnisch",
  "Adjective":2,
  "Plural":"Glücksspieler-Rossharnische",
  "PossessivePronoun":2,
  "StartsWithVowel":0,
  "Pronoun":0,
  "Article":0,
  "Name":"Glücksspieler-Rossharnisch",
  "Model{Top}":65565,
  "Model{Body}":65565,
  "Model{Legs}":65565,
  "GrandCompany":0,
  "Icon{Head}":58591,
  "Icon{Body}":58592,
  "Icon{Legs}":58593,
  "Order":42
},
{
  "Id":30,
  "Singular":"Buhlen-Rossharnisch",
  "Adjective":2,
  "Plural":"Buhlen-Rossharnische",
  "PossessivePronoun":2,
  "StartsWithVowel":0,
  "Pronoun":0,
  "Article":0,
  "Name":"Buhlen-Rossharnisch",
  "Model{Top}":65566,
  "Model{Body}":65566,
  "Model{Legs}":65566,
  "GrandCompany":0,
  "Icon{Head}":58588,
  "Icon{Body}":58589,
  "Icon{Legs}":58590,
  "Order":104
},
{
  "Id":31,
  "Singular":"leicht[a] Ishgarder Rossharnisch",
  "Adjective":4,
  "Plural":"leicht[a] Ishgarder Rossharnische",
  "PossessivePronoun":2,
  "StartsWithVowel":0,
  "Pronoun":0,
  "Article":0,
  "Name":"Leichter Ishgarder Rossharnisch",
  "Model{Top}":65567,
  "Model{Body}":65567,
  "Model{Legs}":65567,
  "GrandCompany":0,
  "Icon{Head}":58594,
  "Icon{Body}":58595,
  "Icon{Legs}":58596,
  "Order":54
},
{
  "Id":32,
  "Singular":"Ishgarder Rossharnisch",
  "Adjective":4,
  "Plural":"Ishgarder Rossharnische",
  "PossessivePronoun":2,
  "StartsWithVowel":0,
  "Pronoun":0,
  "Article":0,
  "Name":"Ishgarder Rossharnisch",
  "Model{Top}":131103,
  "Model{Body}":131103,
  "Model{Legs}":131103,
  "GrandCompany":0,
  "Icon{Head}":58597,
  "Icon{Body}":58598,
  "Icon{Legs}":58599,
  "Order":55
},
{
  "Id":33,
  "Singular":"",
  "Adjective":0,
  "Plural":"",
  "PossessivePronoun":0,
  "StartsWithVowel":0,
  "Pronoun":0,
  "Article":0,
  "Name":"",
  "Model{Top}":0,
  "Model{Body}":0,
  "Model{Legs}":0,
  "GrandCompany":0,
  "Icon{Head}":0,
  "Icon{Body}":0,
  "Icon{Legs}":0,
  "Order":0
},
{
  "Id":34,
  "Singular":"Bismarck-Rossharnisch",
  "Adjective":4,
  "Plural":"Bismarck-Rossharnische",
  "PossessivePronoun":2,
  "StartsWithVowel":0,
  "Pronoun":0,
  "Article":0,
  "Name":"Bismarck-Rossharnisch",
  "Model{Top}":65568,
  "Model{Body}":65568,
  "Model{Legs}":65568,
  "GrandCompany":0,
  "Icon{Head}":58603,
  "Icon{Body}":58604,
  "Icon{Legs}":58605,
  "Order":128
},
{
  "Id":35,
  "Singular":"Ravana-Rossharnisch",
  "Adjective":4,
  "Plural":"Ravana-Rossharnische",
  "PossessivePronoun":2,
  "StartsWithVowel":0,
  "Pronoun":0,
  "Article":0,
  "Name":"Ravana-Rossharnisch",
  "Model{Top}":65569,
  "Model{Body}":65569,
  "Model{Legs}":65569,
  "GrandCompany":0,
  "Icon{Head}":58606,
  "Icon{Body}":58607,
  "Icon{Legs}":58608,
  "Order":129
},
{
  "Id":36,
  "Singular":"Adeligen-Rossharnisch",
  "Adjective":4,
  "Plural":"Adeligen-Rossharnische",
  "PossessivePronoun":2,
  "StartsWithVowel":0,
  "Pronoun":0,
  "Article":0,
  "Name":"Adeligen-Rossharnisch",
  "Model{Top}":65570,
  "Model{Body}":65570,
  "Model{Legs}":65570,
  "GrandCompany":0,
  "Icon{Head}":58609,
  "Icon{Body}":58610,
  "Icon{Legs}":58611,
  "Order":57
},
{
  "Id":37,
  "Singular":"orthodox[a] Rossharnisch",
  "Adjective":4,
  "Plural":"orthodox[a] Rossharnische",
  "PossessivePronoun":2,
  "StartsWithVowel":0,
  "Pronoun":0,
  "Article":0,
  "Name":"Orthodoxer Rossharnisch",
  "Model{Top}":131106,
  "Model{Body}":131106,
  "Model{Legs}":131106,
  "GrandCompany":0,
  "Icon{Head}":58612,
  "Icon{Body}":58613,
  "Icon{Legs}":58614,
  "Order":58
},
{
  "Id":38,
  "Singular":"Hochland-Rossharnisch",
  "Adjective":4,
  "Plural":"Hochland-Rossharnische",
  "PossessivePronoun":2,
  "StartsWithVowel":0,
  "Pronoun":0,
  "Article":0,
  "Name":"Hochland-Rossharnisch",
  "Model{Top}":65571,
  "Model{Body}":65571,
  "Model{Legs}":65571,
  "GrandCompany":0,
  "Icon{Head}":58615,
  "Icon{Body}":58616,
  "Icon{Legs}":58617,
  "Order":59
},
{
  "Id":39,
  "Singular":"Wildrosen-Harnisch",
  "Adjective":2,
  "Plural":"Wildrosen-Harnische",
  "PossessivePronoun":2,
  "StartsWithVowel":0,
  "Pronoun":0,
  "Article":0,
  "Name":"Wildrosen-Harnisch",
  "Model{Top}":65573,
  "Model{Body}":65573,
  "Model{Legs}":65573,
  "GrandCompany":0,
  "Icon{Head}":58618,
  "Icon{Body}":58619,
  "Icon{Legs}":58620,
  "Order":43
},
{
  "Id":40,
  "Singular":"Tafelrunden-Rossharnisch",
  "Adjective":4,
  "Plural":"Tafelrunden-Rossharnische",
  "PossessivePronoun":2,
  "StartsWithVowel":0,
  "Pronoun":0,
  "Article":0,
  "Name":"Tafelrunden-Rossharnisch",
  "Model{Top}":65574,
  "Model{Body}":65574,
  "Model{Legs}":65574,
  "GrandCompany":0,
  "Icon{Head}":58621,
  "Icon{Body}":58622,
  "Icon{Legs}":58623,
  "Order":130
},
{
  "Id":41,
  "Singular":"Sephirot-Rossharnisch",
  "Adjective":4,
  "Plural":"Sephirot-Rossharnische",
  "PossessivePronoun":2,
  "StartsWithVowel":0,
  "Pronoun":0,
  "Article":0,
  "Name":"Sephirot-Rossharnisch",
  "Model{Top}":65572,
  "Model{Body}":65572,
  "Model{Legs}":65572,
  "GrandCompany":0,
  "Icon{Head}":58624,
  "Icon{Body}":58626,
  "Icon{Legs}":58625,
  "Order":131
},
{
  "Id":42,
  "Singular":"Eierjäger-Rossharnisch",
  "Adjective":4,
  "Plural":"Eierjäger-Rossharnische",
  "PossessivePronoun":2,
  "StartsWithVowel":0,
  "Pronoun":0,
  "Article":0,
  "Name":"Eierjäger-Rossharnisch",
  "Model{Top}":65575,
  "Model{Body}":65575,
  "Model{Legs}":65575,
  "GrandCompany":0,
  "Icon{Head}":58627,
  "Icon{Body}":58629,
  "Icon{Legs}":58628,
  "Order":105
},
{
  "Id":43,
  "Singular":"fernöstlich[a] Rossharnisch",
  "Adjective":4,
  "Plural":"fernöstlich[a] Rossharnische",
  "PossessivePronoun":2,
  "StartsWithVowel":0,
  "Pronoun":0,
  "Article":0,
  "Name":"Fernöstlicher Rossharnisch",
  "Model{Top}":65577,
  "Model{Body}":65577,
  "Model{Legs}":65577,
  "GrandCompany":0,
  "Icon{Head}":58630,
  "Icon{Body}":58632,
  "Icon{Legs}":58631,
  "Order":60
},
{
  "Id":44,
  "Singular":"Renn-Rossharnisch",
  "Adjective":4,
  "Plural":"Renn-Rossharnische",
  "PossessivePronoun":2,
  "StartsWithVowel":0,
  "Pronoun":0,
  "Article":0,
  "Name":"Renn-Rossharnisch",
  "Model{Top}":65579,
  "Model{Body}":65579,
  "Model{Legs}":65579,
  "GrandCompany":0,
  "Icon{Head}":58633,
  "Icon{Body}":58635,
  "Icon{Legs}":58634,
  "Order":61
},
{
  "Id":45,
  "Singular":"Nidhogg-Rossharnisch",
  "Adjective":4,
  "Plural":"Nidhogg-Rossharnische",
  "PossessivePronoun":2,
  "StartsWithVowel":0,
  "Pronoun":0,
  "Article":0,
  "Name":"Nidhogg-Rossharnisch",
  "Model{Top}":65578,
  "Model{Body}":65578,
  "Model{Legs}":65578,
  "GrandCompany":0,
  "Icon{Head}":58636,
  "Icon{Body}":58638,
  "Icon{Legs}":58637,
  "Order":132
},
{
  "Id":46,
  "Singular":"Butler-Rossharnisch",
  "Adjective":4,
  "Plural":"Butler-Rossharnische",
  "PossessivePronoun":2,
  "StartsWithVowel":0,
  "Pronoun":0,
  "Article":0,
  "Name":"Butler-Rossharnisch",
  "Model{Top}":65580,
  "Model{Body}":65580,
  "Model{Legs}":65580,
  "GrandCompany":0,
  "Icon{Head}":58639,
  "Icon{Body}":58641,
  "Icon{Legs}":58640,
  "Order":62
},
{
  "Id":47,
  "Singular":"Sophia-Rossharnisch",
  "Adjective":4,
  "Plural":"Sophia-Rossharnische",
  "PossessivePronoun":2,
  "StartsWithVowel":0,
  "Pronoun":0,
  "Article":0,
  "Name":"Sophia-Rossharnisch",
  "Model{Top}":65576,
  "Model{Body}":65576,
  "Model{Legs}":65576,
  "GrandCompany":0,
  "Icon{Head}":58642,
  "Icon{Body}":58644,
  "Icon{Legs}":58643,
  "Order":133
},
{
  "Id":48,
  "Singular":"Zimmermädchen-Rossharnisch",
  "Adjective":4,
  "Plural":"Zimmermädchen-Rossharnische",
  "PossessivePronoun":2,
  "StartsWithVowel":0,
  "Pronoun":0,
  "Article":0,
  "Name":"Zimmermädchen-Rossharnisch",
  "Model{Top}":65581,
  "Model{Body}":65581,
  "Model{Legs}":65581,
  "GrandCompany":0,
  "Icon{Head}":58645,
  "Icon{Body}":58647,
  "Icon{Legs}":58646,
  "Order":63
},
{
  "Id":49,
  "Singular":"Manderville-Rossharnisch",
  "Adjective":4,
  "Plural":"Manderville-Rossharnische",
  "PossessivePronoun":2,
  "StartsWithVowel":0,
  "Pronoun":0,
  "Article":0,
  "Name":"Manderville-Rossharnisch",
  "Model{Top}":131117,
  "Model{Body}":131117,
  "Model{Legs}":131117,
  "GrandCompany":0,
  "Icon{Head}":58648,
  "Icon{Body}":58650,
  "Icon{Legs}":58649,
  "Order":64
},
{
  "Id":50,
  "Singular":"himmlisch[a] Rossharnisch",
  "Adjective":4,
  "Plural":"himmlisch[a] Rossharnische",
  "PossessivePronoun":2,
  "StartsWithVowel":0,
  "Pronoun":0,
  "Article":0,
  "Name":"Himmlischer Rossharnisch",
  "Model{Top}":65583,
  "Model{Body}":65583,
  "Model{Legs}":65583,
  "GrandCompany":0,
  "Icon{Head}":58651,
  "Icon{Body}":58653,
  "Icon{Legs}":58652,
  "Order":65
},
{
  "Id":51,
  "Singular":"dämonisch[a] Rossharnisch",
  "Adjective":4,
  "Plural":"dämonisch[a] Rossharnische",
  "PossessivePronoun":2,
  "StartsWithVowel":0,
  "Pronoun":0,
  "Article":0,
  "Name":"Dämonischer Rossharnisch",
  "Model{Top}":65584,
  "Model{Body}":65584,
  "Model{Legs}":65584,
  "GrandCompany":0,
  "Icon{Head}":58654,
  "Icon{Body}":58656,
  "Icon{Legs}":58655,
  "Order":66
},
{
  "Id":52,
  "Singular":"Zurvan-Rossharnisch",
  "Adjective":4,
  "Plural":"Zurvan-Rossharnische",
  "PossessivePronoun":2,
  "StartsWithVowel":0,
  "Pronoun":0,
  "Article":0,
  "Name":"Zurvan-Rossharnisch",
  "Model{Top}":65582,
  "Model{Body}":65582,
  "Model{Legs}":65582,
  "GrandCompany":0,
  "Icon{Head}":58657,
  "Icon{Body}":58659,
  "Icon{Legs}":58658,
  "Order":134
},
{
  "Id":53,
  "Singular":"Susano-Rossharnisch",
  "Adjective":4,
  "Plural":"Susano-Rossharnische",
  "PossessivePronoun":2,
  "StartsWithVowel":0,
  "Pronoun":0,
  "Article":0,
  "Name":"Susano-Rossharnisch",
  "Model{Top}":65585,
  "Model{Body}":65585,
  "Model{Legs}":65585,
  "GrandCompany":0,
  "Icon{Head}":58660,
  "Icon{Body}":58662,
  "Icon{Legs}":58661,
  "Order":135
},
{
  "Id":54,
  "Singular":"mhigisch[a] Rossharnisch",
  "Adjective":4,
  "Plural":"mhigisch[a] Rossharnische",
  "PossessivePronoun":2,
  "StartsWithVowel":0,
  "Pronoun":0,
  "Article":0,
  "Name":"Mhigischer Rossharnisch",
  "Model{Top}":65586,
  "Model{Body}":65586,
  "Model{Legs}":65586,
  "GrandCompany":0,
  "Icon{Head}":58663,
  "Icon{Body}":58665,
  "Icon{Legs}":58664,
  "Order":67
},
{
  "Id":55,
  "Singular":"Lakshmi-Rossharnisch",
  "Adjective":4,
  "Plural":"Lakshmi-Rossharnische",
  "PossessivePronoun":2,
  "StartsWithVowel":0,
  "Pronoun":0,
  "Article":0,
  "Name":"Lakshmi-Rossharnisch",
  "Model{Top}":65587,
  "Model{Body}":65587,
  "Model{Legs}":65587,
  "GrandCompany":0,
  "Icon{Head}":58666,
  "Icon{Body}":58668,
  "Icon{Legs}":58667,
  "Order":136
},
{
  "Id":56,
  "Singular":"Hingashi-Harnisch[p] „Chocobo“",
  "Adjective":4,
  "Plural":"Hingashi-Harnische[p] „Chocobo“",
  "PossessivePronoun":2,
  "StartsWithVowel":0,
  "Pronoun":0,
  "Article":0,
  "Name":"Hingashi-Harnisch „Chocobo“",
  "Model{Top}":65588,
  "Model{Body}":65588,
  "Model{Legs}":65588,
  "GrandCompany":0,
  "Icon{Head}":58669,
  "Icon{Body}":58671,
  "Icon{Legs}":58670,
  "Order":68
},
{
  "Id":57,
  "Singular":"Hingashi-Harnisch[p] „Mogry“",
  "Adjective":4,
  "Plural":"Hingashi-Harnische[p] „Mogry“",
  "PossessivePronoun":2,
  "StartsWithVowel":0,
  "Pronoun":0,
  "Article":0,
  "Name":"Hingashi-Harnisch „Mogry“",
  "Model{Top}":131124,
  "Model{Body}":131124,
  "Model{Legs}":131124,
  "GrandCompany":0,
  "Icon{Head}":58672,
  "Icon{Body}":58674,
  "Icon{Legs}":58673,
  "Order":69
},
{
  "Id":58,
  "Singular":"Nezha-Rossharnisch",
  "Adjective":4,
  "Plural":"Nezha-Rossharnische",
  "PossessivePronoun":2,
  "StartsWithVowel":0,
  "Pronoun":0,
  "Article":0,
  "Name":"Nezha-Rossharnisch",
  "Model{Top}":65589,
  "Model{Body}":65589,
  "Model{Legs}":65589,
  "GrandCompany":0,
  "Icon{Head}":58675,
  "Icon{Body}":58677,
  "Icon{Legs}":58676,
  "Order":70
},
{
  "Id":59,
  "Singular":"Shinryu-Rossharnisch",
  "Adjective":4,
  "Plural":"Shinryu-Rossharnische",
  "PossessivePronoun":2,
  "StartsWithVowel":0,
  "Pronoun":0,
  "Article":0,
  "Name":"Shinryu-Rossharnisch",
  "Model{Top}":65590,
  "Model{Body}":65590,
  "Model{Legs}":65590,
  "GrandCompany":0,
  "Icon{Head}":58678,
  "Icon{Body}":58680,
  "Icon{Legs}":58679,
  "Order":137
},
{
  "Id":60,
  "Singular":"Ixion-Rossharnisch",
  "Adjective":4,
  "Plural":"Ixion-Rossharnische",
  "PossessivePronoun":2,
  "StartsWithVowel":0,
  "Pronoun":0,
  "Article":0,
  "Name":"Ixion-Rossharnisch",
  "Model{Top}":65591,
  "Model{Body}":65591,
  "Model{Legs}":65591,
  "GrandCompany":0,
  "Icon{Head}":58681,
  "Icon{Body}":58683,
  "Icon{Legs}":58682,
  "Order":173
},
{
  "Id":61,
  "Singular":"Rotmagier-Rossharnisch",
  "Adjective":4,
  "Plural":"Rotmagier-Rossharnische",
  "PossessivePronoun":2,
  "StartsWithVowel":0,
  "Pronoun":0,
  "Article":0,
  "Name":"Rotmagier-Rossharnisch",
  "Model{Top}":65592,
  "Model{Body}":65592,
  "Model{Legs}":65592,
  "GrandCompany":0,
  "Icon{Head}":58684,
  "Icon{Body}":58686,
  "Icon{Legs}":58685,
  "Order":22
},
{
  "Id":62,
  "Singular":"Byakko-Rossharnisch",
  "Adjective":4,
  "Plural":"Byakko-Rossharnische",
  "PossessivePronoun":2,
  "StartsWithVowel":0,
  "Pronoun":0,
  "Article":0,
  "Name":"Byakko-Rossharnisch",
  "Model{Top}":65593,
  "Model{Body}":65593,
  "Model{Legs}":65593,
  "GrandCompany":0,
  "Icon{Head}":58687,
  "Icon{Body}":58689,
  "Icon{Legs}":58688,
  "Order":138
},
{
  "Id":63,
  "Singular":"Chocobo-Regenmantel",
  "Adjective":4,
  "Plural":"Chocobo-Regenmäntel",
  "PossessivePronoun":2,
  "StartsWithVowel":0,
  "Pronoun":0,
  "Article":0,
  "Name":"Chocobo-Regenmantel",
  "Model{Top}":65594,
  "Model{Body}":65594,
  "Model{Legs}":65594,
  "GrandCompany":0,
  "Icon{Head}":58690,
  "Icon{Body}":58692,
  "Icon{Legs}":58691,
  "Order":71
},
{
  "Id":64,
  "Singular":"Tsukuyomi-Rossharnisch",
  "Adjective":4,
  "Plural":"Tsukuyomi-Rossharnische",
  "PossessivePronoun":2,
  "StartsWithVowel":0,
  "Pronoun":0,
  "Article":0,
  "Name":"Tsukuyomi-Rossharnisch",
  "Model{Top}":65595,
  "Model{Body}":65595,
  "Model{Legs}":65595,
  "GrandCompany":0,
  "Icon{Head}":58693,
  "Icon{Body}":58695,
  "Icon{Legs}":58694,
  "Order":139
},
{
  "Id":65,
  "Singular":"Suzaku-Rossharnisch",
  "Adjective":4,
  "Plural":"Suzaku-Rossharnische",
  "PossessivePronoun":2,
  "StartsWithVowel":0,
  "Pronoun":0,
  "Article":0,
  "Name":"Suzaku-Rossharnisch",
  "Model{Top}":65596,
  "Model{Body}":65596,
  "Model{Legs}":65596,
  "GrandCompany":0,
  "Icon{Head}":58696,
  "Icon{Body}":58698,
  "Icon{Legs}":58697,
  "Order":140
},
{
  "Id":66,
  "Singular":"Samurai-Rossharnisch",
  "Adjective":4,
  "Plural":"Samurai-Rossharnische",
  "PossessivePronoun":2,
  "StartsWithVowel":0,
  "Pronoun":0,
  "Article":0,
  "Name":"Samurai-Rossharnisch",
  "Model{Top}":65597,
  "Model{Body}":65597,
  "Model{Legs}":65597,
  "GrandCompany":0,
  "Icon{Head}":58699,
  "Icon{Body}":58701,
  "Icon{Legs}":58700,
  "Order":23
},
{
  "Id":67,
  "Singular":"Seiryu-Rossharnisch",
  "Adjective":4,
  "Plural":"Seiryu-Rossharnische",
  "PossessivePronoun":2,
  "StartsWithVowel":0,
  "Pronoun":0,
  "Article":0,
  "Name":"Seiryu-Rossharnisch",
  "Model{Top}":65598,
  "Model{Body}":65598,
  "Model{Legs}":65598,
  "GrandCompany":0,
  "Icon{Head}":58702,
  "Icon{Body}":58704,
  "Icon{Legs}":58703,
  "Order":141
},
{
  "Id":68,
  "Singular":"Yojinbo-Rossharnisch",
  "Adjective":4,
  "Plural":"Yojinbo-Rossharnische",
  "PossessivePronoun":2,
  "StartsWithVowel":0,
  "Pronoun":0,
  "Article":0,
  "Name":"Yojinbo-Rossharnisch",
  "Model{Top}":65599,
  "Model{Body}":65599,
  "Model{Legs}":65599,
  "GrandCompany":0,
  "Icon{Head}":58705,
  "Icon{Body}":58707,
  "Icon{Legs}":58706,
  "Order":174
},
{
  "Id":69,
  "Singular":"Titania-Rossharnisch",
  "Adjective":4,
  "Plural":"Titania-Rossharnische",
  "PossessivePronoun":2,
  "StartsWithVowel":0,
  "Pronoun":0,
  "Article":0,
  "Name":"Titania-Rossharnisch",
  "Model{Top}":65600,
  "Model{Body}":65600,
  "Model{Legs}":65600,
  "GrandCompany":0,
  "Icon{Head}":58708,
  "Icon{Body}":58710,
  "Icon{Legs}":58709,
  "Order":142
},
{
  "Id":70,
  "Singular":"Innozenz-Rossharnisch",
  "Adjective":4,
  "Plural":"Innozenz-Rossharnische",
  "PossessivePronoun":2,
  "StartsWithVowel":0,
  "Pronoun":0,
  "Article":0,
  "Name":"Innozenz-Rossharnisch",
  "Model{Top}":65601,
  "Model{Body}":65601,
  "Model{Legs}":65601,
  "GrandCompany":0,
  "Icon{Head}":58711,
  "Icon{Body}":58713,
  "Icon{Legs}":58712,
  "Order":143
},
{
  "Id":71,
  "Singular":"Tänzer-Rossharnisch",
  "Adjective":4,
  "Plural":"Tänzer-Rossharnische",
  "PossessivePronoun":2,
  "StartsWithVowel":0,
  "Pronoun":0,
  "Article":0,
  "Name":"Tänzer-Rossharnisch",
  "Model{Top}":65602,
  "Model{Body}":65602,
  "Model{Legs}":65602,
  "GrandCompany":0,
  "Icon{Head}":58714,
  "Icon{Body}":58716,
  "Icon{Legs}":58715,
  "Order":24
},
{
  "Id":72,
  "Singular":"Dunkelschatten-Rossharnisch",
  "Adjective":4,
  "Plural":"Dunkelschatten-Rossharnische",
  "PossessivePronoun":2,
  "StartsWithVowel":0,
  "Pronoun":0,
  "Article":0,
  "Name":"Dunkelschatten-Rossharnisch",
  "Model{Top}":65603,
  "Model{Body}":65603,
  "Model{Legs}":65603,
  "GrandCompany":0,
  "Icon{Head}":58717,
  "Icon{Body}":58719,
  "Icon{Legs}":58718,
  "Order":72
},
{
  "Id":73,
  "Singular":"Hades-Rossharnisch",
  "Adjective":4,
  "Plural":"Hades-Rossharnische",
  "PossessivePronoun":2,
  "StartsWithVowel":0,
  "Pronoun":0,
  "Article":0,
  "Name":"Hades-Rossharnisch",
  "Model{Top}":65604,
  "Model{Body}":65604,
  "Model{Legs}":65604,
  "GrandCompany":0,
  "Icon{Head}":58720,
  "Icon{Body}":58722,
  "Icon{Legs}":58721,
  "Order":144
},
{
  "Id":74,
  "Singular":"Santabo-Rossharnisch",
  "Adjective":4,
  "Plural":"Santabo-Rossharnische",
  "PossessivePronoun":2,
  "StartsWithVowel":0,
  "Pronoun":0,
  "Article":0,
  "Name":"Santabo-Rossharnisch",
  "Model{Top}":65605,
  "Model{Body}":65605,
  "Model{Legs}":65605,
  "GrandCompany":0,
  "Icon{Head}":58723,
  "Icon{Body}":58725,
  "Icon{Legs}":58724,
  "Order":106
},
{
  "Id":75,
  "Singular":"Rubin-Rossharnisch",
  "Adjective":4,
  "Plural":"Rubin-Rossharnische",
  "PossessivePronoun":2,
  "StartsWithVowel":0,
  "Pronoun":0,
  "Article":0,
  "Name":"Rubin-Rossharnisch",
  "Model{Top}":65606,
  "Model{Body}":65606,
  "Model{Legs}":65606,
  "GrandCompany":0,
  "Icon{Head}":58726,
  "Icon{Body}":58728,
  "Icon{Legs}":58727,
  "Order":145
},
{
  "Id":76,
  "Singular":"Maschinisten-Rossharnisch",
  "Adjective":4,
  "Plural":"Maschinisten-Rossharnische",
  "PossessivePronoun":2,
  "StartsWithVowel":0,
  "Pronoun":0,
  "Article":0,
  "Name":"Maschinisten-Rossharnisch",
  "Model{Top}":65607,
  "Model{Body}":65607,
  "Model{Legs}":65607,
  "GrandCompany":0,
  "Icon{Head}":58729,
  "Icon{Body}":58731,
  "Icon{Legs}":58730,
  "Order":25
},
{
  "Id":77,
  "Singular":"Rossharnisch[p] des Lichts",
  "Adjective":4,
  "Plural":"Rossharnische[p] des Lichts",
  "PossessivePronoun":2,
  "StartsWithVowel":0,
  "Pronoun":0,
  "Article":0,
  "Name":"Rossharnisch des Lichts",
  "Model{Top}":65608,
  "Model{Body}":65608,
  "Model{Legs}":65608,
  "GrandCompany":0,
  "Icon{Head}":58732,
  "Icon{Body}":58734,
  "Icon{Legs}":58733,
  "Order":146
},
{
  "Id":78,
  "Singular":"Smaragd-Rossharnisch",
  "Adjective":4,
  "Plural":"Smaragd-Rossharnische",
  "PossessivePronoun":2,
  "StartsWithVowel":0,
  "Pronoun":0,
  "Article":0,
  "Name":"Smaragd-Rossharnisch",
  "Model{Top}":65609,
  "Model{Body}":65609,
  "Model{Legs}":65609,
  "GrandCompany":0,
  "Icon{Head}":58735,
  "Icon{Body}":58737,
  "Icon{Legs}":58736,
  "Order":147
},
{
  "Id":79,
  "Singular":"Königinnenwache-Rossharnisch",
  "Adjective":4,
  "Plural":"Königinnenwache-Rossharnische",
  "PossessivePronoun":2,
  "StartsWithVowel":0,
  "Pronoun":0,
  "Article":0,
  "Name":"Königinnenwache-Rossharnisch",
  "Model{Top}":65610,
  "Model{Body}":65610,
  "Model{Legs}":65610,
  "GrandCompany":0,
  "Icon{Head}":58738,
  "Icon{Body}":58740,
  "Icon{Legs}":58739,
  "Order":148
},
{
  "Id":80,
  "Singular":"Bozja-Rossharnisch",
  "Adjective":4,
  "Plural":"Bozja-Rossharnische",
  "PossessivePronoun":2,
  "StartsWithVowel":0,
  "Pronoun":0,
  "Article":0,
  "Name":"Bozja-Rossharnisch",
  "Model{Top}":65611,
  "Model{Body}":65611,
  "Model{Legs}":65611,
  "GrandCompany":0,
  "Icon{Head}":58741,
  "Icon{Body}":58743,
  "Icon{Legs}":58742,
  "Order":150
},
{
  "Id":81,
  "Singular":"Diamant-Rossharnisch",
  "Adjective":4,
  "Plural":"Diamant-Rossharnisch",
  "PossessivePronoun":2,
  "StartsWithVowel":0,
  "Pronoun":0,
  "Article":0,
  "Name":"Diamant-Rossharnisch",
  "Model{Top}":65612,
  "Model{Body}":65612,
  "Model{Legs}":65612,
  "GrandCompany":0,
  "Icon{Head}":58744,
  "Icon{Body}":58746,
  "Icon{Legs}":58745,
  "Order":149
},
{
  "Id":82,
  "Singular":"Rossharnisch[p] der ewigen Dunkelheit",
  "Adjective":4,
  "Plural":"Rossharnische[p] der ewigen Dunkelheit",
  "PossessivePronoun":2,
  "StartsWithVowel":0,
  "Pronoun":0,
  "Article":0,
  "Name":"Rossharnisch der ewigen Dunkelheit",
  "Model{Top}":65613,
  "Model{Body}":65613,
  "Model{Legs}":65613,
  "GrandCompany":0,
  "Icon{Head}":58747,
  "Icon{Body}":58749,
  "Icon{Legs}":58748,
  "Order":151
},
{
  "Id":83,
  "Singular":"Rossharnisch[p] des göttlichen Lichts",
  "Adjective":4,
  "Plural":"Rossharnische[p] des göttlichen Lichts",
  "PossessivePronoun":2,
  "StartsWithVowel":0,
  "Pronoun":0,
  "Article":0,
  "Name":"Rossharnisch des göttlichen Lichts",
  "Model{Top}":65614,
  "Model{Body}":65614,
  "Model{Legs}":65614,
  "GrandCompany":0,
  "Icon{Head}":58750,
  "Icon{Body}":58752,
  "Icon{Legs}":58751,
  "Order":152
},
{
  "Id":84,
  "Singular":"Postdirektor-Rossharnisch",
  "Adjective":4,
  "Plural":"Postdirektor-Rossharnische",
  "PossessivePronoun":2,
  "StartsWithVowel":0,
  "Pronoun":0,
  "Article":0,
  "Name":"Postdirektor-Rossharnisch",
  "Model{Top}":65615,
  "Model{Body}":65615,
  "Model{Legs}":65615,
  "GrandCompany":0,
  "Icon{Head}":58753,
  "Icon{Body}":58755,
  "Icon{Legs}":58754,
  "Order":107
},
{
  "Id":85,
  "Singular":"Thavnair-Rossharnisch",
  "Adjective":4,
  "Plural":"Thavnair-Rossharnische",
  "PossessivePronoun":2,
  "StartsWithVowel":0,
  "Pronoun":0,
  "Article":0,
  "Name":"Thavnair-Rossharnisch",
  "Model{Top}":65616,
  "Model{Body}":65616,
  "Model{Legs}":65616,
  "GrandCompany":0,
  "Icon{Head}":58756,
  "Icon{Body}":58758,
  "Icon{Legs}":58757,
  "Order":73
},
{
  "Id":86,
  "Singular":"Blaufeder-Rossharnisch",
  "Adjective":4,
  "Plural":"Blaufeder-Rossharnische",
  "PossessivePronoun":2,
  "StartsWithVowel":0,
  "Pronoun":0,
  "Article":0,
  "Name":"Blaufeder-Rossharnisch",
  "Model{Top}":65617,
  "Model{Body}":65617,
  "Model{Legs}":65617,
  "GrandCompany":0,
  "Icon{Head}":58759,
  "Icon{Body}":58761,
  "Icon{Legs}":58760,
  "Order":153
},
{
  "Id":87,
  "Singular":"Wolf-Rossharnisch",
  "Adjective":4,
  "Plural":"Wolf-Rossharnische",
  "PossessivePronoun":2,
  "StartsWithVowel":0,
  "Pronoun":0,
  "Article":0,
  "Name":"Wolf-Rossharnisch",
  "Model{Top}":65618,
  "Model{Body}":65618,
  "Model{Legs}":65618,
  "GrandCompany":0,
  "Icon{Head}":58762,
  "Icon{Body}":58764,
  "Icon{Legs}":58763,
  "Order":74
},
{
  "Id":88,
  "Singular":"Barbarizia-Rossharnisch",
  "Adjective":4,
  "Plural":"Barbarizia-Rossharnische",
  "PossessivePronoun":2,
  "StartsWithVowel":0,
  "Pronoun":0,
  "Article":0,
  "Name":"Barbarizia-Rossharnisch",
  "Model{Top}":65619,
  "Model{Body}":65619,
  "Model{Legs}":65619,
  "GrandCompany":0,
  "Icon{Head}":58768,
  "Icon{Body}":58770,
  "Icon{Legs}":58769,
  "Order":154
},
{
  "Id":89,
  "Singular":"Inselpionier-Rossharnisch",
  "Adjective":4,
  "Plural":"Inselpionier-Rossharnische",
  "PossessivePronoun":2,
  "StartsWithVowel":0,
  "Pronoun":0,
  "Article":0,
  "Name":"Inselpionier-Rossharnisch",
  "Model{Top}":65620,
  "Model{Body}":65620,
  "Model{Legs}":65620,
  "GrandCompany":0,
  "Icon{Head}":58765,
  "Icon{Body}":58767,
  "Icon{Legs}":58766,
  "Order":75
},
{
  "Id":90,
  "Singular":"Rubicante-Rossharnisch",
  "Adjective":4,
  "Plural":"Rubicante-Rossharnische",
  "PossessivePronoun":2,
  "StartsWithVowel":0,
  "Pronoun":0,
  "Article":0,
  "Name":"Rubicante-Rossharnisch",
  "Model{Top}":65621,
  "Model{Body}":65621,
  "Model{Legs}":65621,
  "GrandCompany":0,
  "Icon{Head}":58771,
  "Icon{Body}":58773,
  "Icon{Legs}":58772,
  "Order":155
},
{
  "Id":91,
  "Singular":"allagisch[a] Rossharnisch",
  "Adjective":4,
  "Plural":"allagisch[a] Rossharnische",
  "PossessivePronoun":2,
  "StartsWithVowel":0,
  "Pronoun":0,
  "Article":0,
  "Name":"Allagischer Rossharnisch",
  "Model{Top}":65622,
  "Model{Body}":65622,
  "Model{Legs}":65622,
  "GrandCompany":0,
  "Icon{Head}":58774,
  "Icon{Body}":58776,
  "Icon{Legs}":58775,
  "Order":76
},
{
  "Id":92,
  "Singular":"Golbez-Rossharnisch",
  "Adjective":4,
  "Plural":"Golbez-Rossharnische",
  "PossessivePronoun":2,
  "StartsWithVowel":0,
  "Pronoun":0,
  "Article":0,
  "Name":"Golbez-Rossharnisch",
  "Model{Top}":65623,
  "Model{Body}":65623,
  "Model{Legs}":65623,
  "GrandCompany":0,
  "Icon{Head}":58777,
  "Icon{Body}":58779,
  "Icon{Legs}":58778,
  "Order":156
},
{
  "Id":93,
  "Singular":"Miaurizius-Rossharnisch",
  "Adjective":4,
  "Plural":"Miaurizius-Rossharnische",
  "PossessivePronoun":2,
  "StartsWithVowel":0,
  "Pronoun":0,
  "Article":0,
  "Name":"Miaurizius-Rossharnisch",
  "Model{Top}":65624,
  "Model{Body}":65624,
  "Model{Legs}":65624,
  "GrandCompany":0,
  "Icon{Head}":58780,
  "Icon{Body}":58782,
  "Icon{Legs}":58781,
  "Order":78
},
{
  "Id":94,
  "Singular":"Zeromus-Rossharnisch",
  "Adjective":4,
  "Plural":"Zeromus-Rossharnische",
  "PossessivePronoun":2,
  "StartsWithVowel":0,
  "Pronoun":0,
  "Article":0,
  "Name":"Zeromus-Rossharnisch",
  "Model{Top}":65625,
  "Model{Body}":65625,
  "Model{Legs}":65625,
  "GrandCompany":0,
  "Icon{Head}":58783,
  "Icon{Body}":58785,
  "Icon{Legs}":58784,
  "Order":157
},
{
  "Id":95,
  "Singular":"Wanderer-Rossharnisch",
  "Adjective":4,
  "Plural":"Wanderer-Rossharnische",
  "PossessivePronoun":2,
  "StartsWithVowel":0,
  "Pronoun":0,
  "Article":0,
  "Name":"Wanderer-Rossharnisch",
  "Model{Top}":65626,
  "Model{Body}":65626,
  "Model{Legs}":65626,
  "GrandCompany":0,
  "Icon{Head}":58786,
  "Icon{Body}":58788,
  "Icon{Legs}":58787,
  "Order":79
}
]
