﻿[
{
  "Id":0,
  "BasePlate":0,
  "TopBorder":0,
  "BottomBorder":0,
  "Backing":0,
  "PatternOverlay":0,
  "PortraitFrame":0,
  "PlateFrame":0,
  "Accent":0,
  "SortKey":0,
  "Name":"カスタム"
},
{
  "Id":1,
  "BasePlate":2,
  "TopBorder":1,
  "BottomBorder":0,
  "Backing":11,
  "PatternOverlay":1,
  "PortraitFrame":0,
  "PlateFrame":0,
  "Accent":0,
  "SortKey":1,
  "Name":"ベーシック"
},
{
  "Id":2,
  "BasePlate":3,
  "TopBorder":3,
  "BottomBorder":3,
  "Backing":11,
  "PatternOverlay":2,
  "PortraitFrame":0,
  "PlateFrame":0,
  "Accent":0,
  "SortKey":2,
  "Name":"シンプルモダン"
},
{
  "Id":3,
  "BasePlate":9,
  "TopBorder":8,
  "BottomBorder":8,
  "Backing":18,
  "PatternOverlay":0,
  "PortraitFrame":0,
  "PlateFrame":0,
  "Accent":0,
  "SortKey":3,
  "Name":"スタイリッシュ"
},
{
  "Id":4,
  "BasePlate":4,
  "TopBorder":3,
  "BottomBorder":3,
  "Backing":13,
  "PatternOverlay":3,
  "PortraitFrame":0,
  "PlateFrame":0,
  "Accent":0,
  "SortKey":4,
  "Name":"ポップ"
},
{
  "Id":5,
  "BasePlate":5,
  "TopBorder":0,
  "BottomBorder":1,
  "Backing":11,
  "PatternOverlay":10,
  "PortraitFrame":24,
  "PlateFrame":0,
  "Accent":0,
  "SortKey":5,
  "Name":"ロール：TANK"
},
{
  "Id":6,
  "BasePlate":6,
  "TopBorder":0,
  "BottomBorder":1,
  "Backing":11,
  "PatternOverlay":10,
  "PortraitFrame":25,
  "PlateFrame":0,
  "Accent":0,
  "SortKey":7,
  "Name":"ロール：DPS"
},
{
  "Id":7,
  "BasePlate":7,
  "TopBorder":0,
  "BottomBorder":1,
  "Backing":11,
  "PatternOverlay":10,
  "PortraitFrame":26,
  "PlateFrame":0,
  "Accent":0,
  "SortKey":6,
  "Name":"ロール：HEALER"
},
{
  "Id":8,
  "BasePlate":6,
  "TopBorder":5,
  "BottomBorder":5,
  "Backing":20,
  "PatternOverlay":4,
  "PortraitFrame":28,
  "PlateFrame":35,
  "Accent":42,
  "SortKey":8,
  "Name":"リムサ・ロミンサ"
},
{
  "Id":9,
  "BasePlate":10,
  "TopBorder":7,
  "BottomBorder":7,
  "Backing":20,
  "PatternOverlay":4,
  "PortraitFrame":28,
  "PlateFrame":36,
  "Accent":42,
  "SortKey":9,
  "Name":"グリダニア"
},
{
  "Id":10,
  "BasePlate":9,
  "TopBorder":4,
  "BottomBorder":4,
  "Backing":20,
  "PatternOverlay":4,
  "PortraitFrame":28,
  "PlateFrame":37,
  "Accent":42,
  "SortKey":10,
  "Name":"ウルダハ"
},
{
  "Id":11,
  "BasePlate":8,
  "TopBorder":9,
  "BottomBorder":9,
  "Backing":19,
  "PatternOverlay":9,
  "PortraitFrame":28,
  "PlateFrame":38,
  "Accent":49,
  "SortKey":11,
  "Name":"エクスプローラー"
},
{
  "Id":12,
  "BasePlate":8,
  "TopBorder":10,
  "BottomBorder":10,
  "Backing":14,
  "PatternOverlay":9,
  "PortraitFrame":30,
  "PlateFrame":38,
  "Accent":44,
  "SortKey":12,
  "Name":"アドベンチャラー"
},
{
  "Id":13,
  "BasePlate":54,
  "TopBorder":11,
  "BottomBorder":0,
  "Backing":160,
  "PatternOverlay":0,
  "PortraitFrame":161,
  "PlateFrame":162,
  "Accent":163,
  "SortKey":2500,
  "Name":"絶バハムート討滅戦"
},
{
  "Id":14,
  "BasePlate":55,
  "TopBorder":12,
  "BottomBorder":0,
  "Backing":164,
  "PatternOverlay":0,
  "PortraitFrame":165,
  "PlateFrame":166,
  "Accent":167,
  "SortKey":2501,
  "Name":"絶アルテマウェポン破壊作戦"
},
{
  "Id":15,
  "BasePlate":56,
  "TopBorder":13,
  "BottomBorder":0,
  "Backing":168,
  "PatternOverlay":0,
  "PortraitFrame":169,
  "PlateFrame":170,
  "Accent":171,
  "SortKey":2502,
  "Name":"絶アレキサンダー討滅戦"
},
{
  "Id":16,
  "BasePlate":57,
  "TopBorder":14,
  "BottomBorder":0,
  "Backing":172,
  "PatternOverlay":0,
  "PortraitFrame":173,
  "PlateFrame":174,
  "Accent":175,
  "SortKey":2503,
  "Name":"絶竜詩戦争"
},
{
  "Id":17,
  "BasePlate":3,
  "TopBorder":0,
  "BottomBorder":0,
  "Backing":0,
  "PatternOverlay":176,
  "PortraitFrame":177,
  "PlateFrame":0,
  "Accent":0,
  "SortKey":2400,
  "Name":"ヴァリアントダンジョン：シラディハ水道"
},
{
  "Id":18,
  "BasePlate":58,
  "TopBorder":15,
  "BottomBorder":15,
  "Backing":0,
  "PatternOverlay":0,
  "PortraitFrame":0,
  "PlateFrame":0,
  "Accent":179,
  "SortKey":2310,
  "Name":"友好部族クエスト：オミクロン族"
},
{
  "Id":19,
  "BasePlate":60,
  "TopBorder":0,
  "BottomBorder":0,
  "Backing":0,
  "PatternOverlay":0,
  "PortraitFrame":0,
  "PlateFrame":191,
  "Accent":0,
  "SortKey":13,
  "Name":"幾何学模様：サークル"
},
{
  "Id":20,
  "BasePlate":59,
  "TopBorder":0,
  "BottomBorder":0,
  "Backing":0,
  "PatternOverlay":180,
  "PortraitFrame":0,
  "PlateFrame":0,
  "Accent":194,
  "SortKey":14,
  "Name":"カフェ"
},
{
  "Id":21,
  "BasePlate":61,
  "TopBorder":16,
  "BottomBorder":16,
  "Backing":0,
  "PatternOverlay":0,
  "PortraitFrame":0,
  "PlateFrame":0,
  "Accent":196,
  "SortKey":15,
  "Name":"ミュージック"
},
{
  "Id":22,
  "BasePlate":63,
  "TopBorder":21,
  "BottomBorder":21,
  "Backing":0,
  "PatternOverlay":0,
  "PortraitFrame":0,
  "PlateFrame":0,
  "Accent":257,
  "SortKey":2306,
  "Name":"友好部族クエスト：ピクシー族"
},
{
  "Id":23,
  "BasePlate":64,
  "TopBorder":22,
  "BottomBorder":22,
  "Backing":0,
  "PatternOverlay":0,
  "PortraitFrame":0,
  "PlateFrame":0,
  "Accent":258,
  "SortKey":2307,
  "Name":"友好部族クエスト：キタリ族"
},
{
  "Id":24,
  "BasePlate":65,
  "TopBorder":23,
  "BottomBorder":23,
  "Backing":0,
  "PatternOverlay":0,
  "PortraitFrame":0,
  "PlateFrame":0,
  "Accent":259,
  "SortKey":2308,
  "Name":"友好部族クエスト：ドワーフ族"
},
{
  "Id":25,
  "BasePlate":66,
  "TopBorder":24,
  "BottomBorder":24,
  "Backing":0,
  "PatternOverlay":0,
  "PortraitFrame":0,
  "PlateFrame":0,
  "Accent":260,
  "SortKey":2309,
  "Name":"友好部族クエスト：アルカソーダラ族"
},
{
  "Id":26,
  "BasePlate":67,
  "TopBorder":25,
  "BottomBorder":25,
  "Backing":0,
  "PatternOverlay":0,
  "PortraitFrame":0,
  "PlateFrame":0,
  "Accent":261,
  "SortKey":2311,
  "Name":"友好部族クエスト：レポリット族"
},
{
  "Id":27,
  "BasePlate":68,
  "TopBorder":26,
  "BottomBorder":0,
  "Backing":262,
  "PatternOverlay":0,
  "PortraitFrame":263,
  "PlateFrame":264,
  "Accent":265,
  "SortKey":2504,
  "Name":"絶オメガ検証戦"
},
{
  "Id":28,
  "BasePlate":69,
  "TopBorder":0,
  "BottomBorder":0,
  "Backing":0,
  "PatternOverlay":0,
  "PortraitFrame":296,
  "PlateFrame":0,
  "Accent":0,
  "SortKey":2354,
  "Name":"ディープダンジョン：オルト・エウレカ1"
},
{
  "Id":29,
  "BasePlate":70,
  "TopBorder":0,
  "BottomBorder":0,
  "Backing":0,
  "PatternOverlay":0,
  "PortraitFrame":297,
  "PlateFrame":0,
  "Accent":0,
  "SortKey":2355,
  "Name":"ディープダンジョン：オルト・エウレカ2"
},
{
  "Id":30,
  "BasePlate":71,
  "TopBorder":0,
  "BottomBorder":0,
  "Backing":0,
  "PatternOverlay":0,
  "PortraitFrame":0,
  "PlateFrame":298,
  "Accent":0,
  "SortKey":2251,
  "Name":"クロニクルクエスト：四聖獣奇譚"
},
{
  "Id":31,
  "BasePlate":72,
  "TopBorder":0,
  "BottomBorder":0,
  "Backing":0,
  "PatternOverlay":0,
  "PortraitFrame":0,
  "PlateFrame":299,
  "Accent":301,
  "SortKey":2340,
  "Name":"無人島開拓1"
},
{
  "Id":32,
  "BasePlate":73,
  "TopBorder":0,
  "BottomBorder":0,
  "Backing":0,
  "PatternOverlay":0,
  "PortraitFrame":0,
  "PlateFrame":300,
  "Accent":302,
  "SortKey":2341,
  "Name":"無人島開拓2"
},
{
  "Id":33,
  "BasePlate":74,
  "TopBorder":27,
  "BottomBorder":27,
  "Backing":0,
  "PatternOverlay":0,
  "PortraitFrame":0,
  "PlateFrame":0,
  "Accent":333,
  "SortKey":2303,
  "Name":"友好部族クエスト：コウジン族"
},
{
  "Id":34,
  "BasePlate":75,
  "TopBorder":28,
  "BottomBorder":28,
  "Backing":0,
  "PatternOverlay":0,
  "PortraitFrame":0,
  "PlateFrame":0,
  "Accent":334,
  "SortKey":2304,
  "Name":"友好部族クエスト：アナンタ族"
},
{
  "Id":35,
  "BasePlate":76,
  "TopBorder":29,
  "BottomBorder":29,
  "Backing":0,
  "PatternOverlay":0,
  "PortraitFrame":0,
  "PlateFrame":0,
  "Accent":335,
  "SortKey":2305,
  "Name":"友好部族クエスト：ナマズオ族"
},
{
  "Id":36,
  "BasePlate":77,
  "TopBorder":0,
  "BottomBorder":0,
  "Backing":354,
  "PatternOverlay":0,
  "PortraitFrame":336,
  "PlateFrame":337,
  "Accent":338,
  "SortKey":2250,
  "Name":"時代の終焉"
},
{
  "Id":37,
  "BasePlate":78,
  "TopBorder":30,
  "BottomBorder":0,
  "Backing":0,
  "PatternOverlay":0,
  "PortraitFrame":0,
  "PlateFrame":339,
  "Accent":340,
  "SortKey":3950,
  "Name":"10周年記念"
},
{
  "Id":38,
  "BasePlate":3,
  "TopBorder":0,
  "BottomBorder":0,
  "Backing":0,
  "PatternOverlay":341,
  "PortraitFrame":342,
  "PlateFrame":0,
  "Accent":0,
  "SortKey":2401,
  "Name":"ヴァリアントダンジョン：六根山"
},
{
  "Id":39,
  "BasePlate":79,
  "TopBorder":31,
  "BottomBorder":0,
  "Backing":343,
  "PatternOverlay":0,
  "PortraitFrame":344,
  "PlateFrame":345,
  "Accent":346,
  "SortKey":2342,
  "Name":"世界を釣る者"
},
{
  "Id":40,
  "BasePlate":80,
  "TopBorder":32,
  "BottomBorder":0,
  "Backing":347,
  "PatternOverlay":0,
  "PortraitFrame":348,
  "PlateFrame":349,
  "Accent":350,
  "SortKey":2343,
  "Name":"太公望への道"
},
{
  "Id":41,
  "BasePlate":81,
  "TopBorder":33,
  "BottomBorder":33,
  "Backing":351,
  "PatternOverlay":0,
  "PortraitFrame":0,
  "PlateFrame":352,
  "Accent":353,
  "SortKey":2350,
  "Name":"月下の雀士"
},
{
  "Id":42,
  "BasePlate":82,
  "TopBorder":34,
  "BottomBorder":34,
  "Backing":0,
  "PatternOverlay":0,
  "PortraitFrame":0,
  "PlateFrame":0,
  "Accent":388,
  "SortKey":2300,
  "Name":"友好部族クエスト：バヌバヌ族"
},
{
  "Id":43,
  "BasePlate":83,
  "TopBorder":35,
  "BottomBorder":35,
  "Backing":0,
  "PatternOverlay":0,
  "PortraitFrame":0,
  "PlateFrame":0,
  "Accent":389,
  "SortKey":2301,
  "Name":"友好部族クエスト：グナース族"
},
{
  "Id":44,
  "BasePlate":84,
  "TopBorder":36,
  "BottomBorder":36,
  "Backing":0,
  "PatternOverlay":0,
  "PortraitFrame":0,
  "PlateFrame":0,
  "Accent":390,
  "SortKey":2302,
  "Name":"友好部族クエスト：モーグリ族"
},
{
  "Id":45,
  "BasePlate":85,
  "TopBorder":37,
  "BottomBorder":0,
  "Backing":0,
  "PatternOverlay":0,
  "PortraitFrame":391,
  "PlateFrame":392,
  "Accent":393,
  "SortKey":2252,
  "Name":"ミソロジー・オブ・エオルゼア：ハルオーネ"
},
{
  "Id":46,
  "BasePlate":86,
  "TopBorder":37,
  "BottomBorder":0,
  "Backing":0,
  "PatternOverlay":0,
  "PortraitFrame":391,
  "PlateFrame":392,
  "Accent":393,
  "SortKey":2253,
  "Name":"ミソロジー・オブ・エオルゼア：メネフィナ"
},
{
  "Id":47,
  "BasePlate":87,
  "TopBorder":37,
  "BottomBorder":0,
  "Backing":0,
  "PatternOverlay":0,
  "PortraitFrame":391,
  "PlateFrame":392,
  "Accent":393,
  "SortKey":2254,
  "Name":"ミソロジー・オブ・エオルゼア：サリャク"
},
{
  "Id":48,
  "BasePlate":88,
  "TopBorder":37,
  "BottomBorder":0,
  "Backing":0,
  "PatternOverlay":0,
  "PortraitFrame":391,
  "PlateFrame":392,
  "Accent":393,
  "SortKey":2255,
  "Name":"ミソロジー・オブ・エオルゼア：ニメーヤ"
},
{
  "Id":49,
  "BasePlate":89,
  "TopBorder":37,
  "BottomBorder":0,
  "Backing":0,
  "PatternOverlay":0,
  "PortraitFrame":391,
  "PlateFrame":392,
  "Accent":393,
  "SortKey":2256,
  "Name":"ミソロジー・オブ・エオルゼア：リムレーン"
},
{
  "Id":50,
  "BasePlate":90,
  "TopBorder":37,
  "BottomBorder":0,
  "Backing":0,
  "PatternOverlay":0,
  "PortraitFrame":391,
  "PlateFrame":392,
  "Accent":393,
  "SortKey":2257,
  "Name":"ミソロジー・オブ・エオルゼア：オシュオン"
},
{
  "Id":51,
  "BasePlate":91,
  "TopBorder":37,
  "BottomBorder":0,
  "Backing":0,
  "PatternOverlay":0,
  "PortraitFrame":391,
  "PlateFrame":392,
  "Accent":393,
  "SortKey":2258,
  "Name":"ミソロジー・オブ・エオルゼア：ビエルゴ"
},
{
  "Id":52,
  "BasePlate":92,
  "TopBorder":37,
  "BottomBorder":0,
  "Backing":0,
  "PatternOverlay":0,
  "PortraitFrame":391,
  "PlateFrame":392,
  "Accent":393,
  "SortKey":2259,
  "Name":"ミソロジー・オブ・エオルゼア：ラールガー"
},
{
  "Id":53,
  "BasePlate":93,
  "TopBorder":37,
  "BottomBorder":0,
  "Backing":0,
  "PatternOverlay":0,
  "PortraitFrame":391,
  "PlateFrame":392,
  "Accent":393,
  "SortKey":2260,
  "Name":"ミソロジー・オブ・エオルゼア：アーゼマ"
},
{
  "Id":54,
  "BasePlate":94,
  "TopBorder":37,
  "BottomBorder":0,
  "Backing":0,
  "PatternOverlay":0,
  "PortraitFrame":391,
  "PlateFrame":392,
  "Accent":393,
  "SortKey":2261,
  "Name":"ミソロジー・オブ・エオルゼア：ナルザル"
},
{
  "Id":55,
  "BasePlate":95,
  "TopBorder":37,
  "BottomBorder":0,
  "Backing":0,
  "PatternOverlay":0,
  "PortraitFrame":391,
  "PlateFrame":392,
  "Accent":393,
  "SortKey":2262,
  "Name":"ミソロジー・オブ・エオルゼア：ノフィカ"
},
{
  "Id":56,
  "BasePlate":96,
  "TopBorder":37,
  "BottomBorder":0,
  "Backing":0,
  "PatternOverlay":0,
  "PortraitFrame":391,
  "PlateFrame":392,
  "Accent":393,
  "SortKey":2263,
  "Name":"ミソロジー・オブ・エオルゼア：アルジク"
},
{
  "Id":57,
  "BasePlate":97,
  "TopBorder":38,
  "BottomBorder":0,
  "Backing":0,
  "PatternOverlay":0,
  "PortraitFrame":394,
  "PlateFrame":395,
  "Accent":0,
  "SortKey":2242,
  "Name":"タタルの大繁盛商店"
},
{
  "Id":58,
  "BasePlate":3,
  "TopBorder":0,
  "BottomBorder":0,
  "Backing":0,
  "PatternOverlay":396,
  "PortraitFrame":397,
  "PlateFrame":0,
  "Accent":0,
  "SortKey":2402,
  "Name":"ヴァリアントダンジョン：アロアロ島"
},
{
  "Id":59,
  "BasePlate":98,
  "TopBorder":39,
  "BottomBorder":0,
  "Backing":398,
  "PatternOverlay":0,
  "PortraitFrame":399,
  "PlateFrame":400,
  "Accent":401,
  "SortKey":2600,
  "Name":"クロの空想帳"
},
{
  "Id":60,
  "BasePlate":99,
  "TopBorder":40,
  "BottomBorder":0,
  "Backing":402,
  "PatternOverlay":0,
  "PortraitFrame":403,
  "PlateFrame":404,
  "Accent":405,
  "SortKey":2601,
  "Name":"ソーチョーの幻想盤"
},
{
  "Id":61,
  "BasePlate":100,
  "TopBorder":41,
  "BottomBorder":0,
  "Backing":406,
  "PatternOverlay":0,
  "PortraitFrame":0,
  "PlateFrame":0,
  "Accent":0,
  "SortKey":2700,
  "Name":"ブランダーヴィル1"
},
{
  "Id":62,
  "BasePlate":101,
  "TopBorder":42,
  "BottomBorder":0,
  "Backing":407,
  "PatternOverlay":0,
  "PortraitFrame":0,
  "PlateFrame":0,
  "Accent":0,
  "SortKey":2701,
  "Name":"ブランダーヴィル2"
},
{
  "Id":63,
  "BasePlate":102,
  "TopBorder":43,
  "BottomBorder":0,
  "Backing":408,
  "PatternOverlay":0,
  "PortraitFrame":0,
  "PlateFrame":0,
  "Accent":0,
  "SortKey":2702,
  "Name":"ブランダーヴィル3"
},
{
  "Id":64,
  "BasePlate":103,
  "TopBorder":44,
  "BottomBorder":0,
  "Backing":409,
  "PatternOverlay":0,
  "PortraitFrame":0,
  "PlateFrame":410,
  "Accent":411,
  "SortKey":2703,
  "Name":"妖怪ウォッチ ぷにぷに"
},
{
  "Id":65,
  "BasePlate":0,
  "TopBorder":0,
  "BottomBorder":0,
  "Backing":0,
  "PatternOverlay":0,
  "PortraitFrame":0,
  "PlateFrame":0,
  "Accent":0,
  "SortKey":0,
  "Name":""
},
{
  "Id":66,
  "BasePlate":0,
  "TopBorder":0,
  "BottomBorder":0,
  "Backing":0,
  "PatternOverlay":0,
  "PortraitFrame":0,
  "PlateFrame":0,
  "Accent":0,
  "SortKey":0,
  "Name":""
},
{
  "Id":67,
  "BasePlate":0,
  "TopBorder":0,
  "BottomBorder":0,
  "Backing":0,
  "PatternOverlay":0,
  "PortraitFrame":0,
  "PlateFrame":0,
  "Accent":0,
  "SortKey":0,
  "Name":""
},
{
  "Id":68,
  "BasePlate":0,
  "TopBorder":0,
  "BottomBorder":0,
  "Backing":0,
  "PatternOverlay":0,
  "PortraitFrame":0,
  "PlateFrame":0,
  "Accent":0,
  "SortKey":0,
  "Name":""
},
{
  "Id":69,
  "BasePlate":0,
  "TopBorder":0,
  "BottomBorder":0,
  "Backing":0,
  "PatternOverlay":0,
  "PortraitFrame":0,
  "PlateFrame":0,
  "Accent":0,
  "SortKey":0,
  "Name":""
},
{
  "Id":70,
  "BasePlate":0,
  "TopBorder":0,
  "BottomBorder":0,
  "Backing":0,
  "PatternOverlay":0,
  "PortraitFrame":0,
  "PlateFrame":0,
  "Accent":0,
  "SortKey":0,
  "Name":""
}
]
