﻿[
{
  "Id":0,
  "Image":0,
  "FontColor":0,
  "UnlockCondition":0,
  "SortKey":0,
  "Name":"Nichts"
},
{
  "Id":1,
  "Image":0,
  "FontColor":0,
  "UnlockCondition":0,
  "SortKey":0,
  "Name":""
},
{
  "Id":2,
  "Image":193002,
  "FontColor":1,
  "UnlockCondition":1,
  "SortKey":1,
  "Name":"Schwarz"
},
{
  "Id":3,
  "Image":193003,
  "FontColor":2,
  "UnlockCondition":1,
  "SortKey":2,
  "Name":"Weiß"
},
{
  "Id":4,
  "Image":193004,
  "FontColor":1,
  "UnlockCondition":1,
  "SortKey":5,
  "Name":"Violett"
},
{
  "Id":5,
  "Image":193005,
  "FontColor":1,
  "UnlockCondition":1,
  "SortKey":6,
  "Name":"Abgestufter Verteidiger"
},
{
  "Id":6,
  "Image":193006,
  "FontColor":1,
  "UnlockCondition":1,
  "SortKey":8,
  "Name":"Abgestufter Angreifer"
},
{
  "Id":7,
  "Image":193007,
  "FontColor":1,
  "UnlockCondition":1,
  "SortKey":7,
  "Name":"Abgestufter Heiler"
},
{
  "Id":8,
  "Image":193008,
  "FontColor":2,
  "UnlockCondition":1,
  "SortKey":4,
  "Name":"Elfenbein"
},
{
  "Id":9,
  "Image":193009,
  "FontColor":1,
  "UnlockCondition":1,
  "SortKey":10,
  "Name":"Transparent"
},
{
  "Id":10,
  "Image":193010,
  "FontColor":2,
  "UnlockCondition":1,
  "SortKey":3,
  "Name":"Beige"
},
{
  "Id":11,
  "Image":193011,
  "FontColor":2,
  "UnlockCondition":1,
  "SortKey":9,
  "Name":"Angestuftes Rosa"
},
{
  "Id":12,
  "Image":0,
  "FontColor":0,
  "UnlockCondition":0,
  "SortKey":0,
  "Name":""
},
{
  "Id":13,
  "Image":0,
  "FontColor":0,
  "UnlockCondition":0,
  "SortKey":0,
  "Name":""
},
{
  "Id":14,
  "Image":0,
  "FontColor":0,
  "UnlockCondition":0,
  "SortKey":0,
  "Name":""
},
{
  "Id":15,
  "Image":0,
  "FontColor":0,
  "UnlockCondition":0,
  "SortKey":0,
  "Name":""
},
{
  "Id":16,
  "Image":0,
  "FontColor":0,
  "UnlockCondition":0,
  "SortKey":0,
  "Name":""
},
{
  "Id":17,
  "Image":0,
  "FontColor":0,
  "UnlockCondition":0,
  "SortKey":0,
  "Name":""
},
{
  "Id":18,
  "Image":0,
  "FontColor":0,
  "UnlockCondition":0,
  "SortKey":0,
  "Name":""
},
{
  "Id":19,
  "Image":0,
  "FontColor":0,
  "UnlockCondition":0,
  "SortKey":0,
  "Name":""
},
{
  "Id":20,
  "Image":0,
  "FontColor":0,
  "UnlockCondition":0,
  "SortKey":0,
  "Name":""
},
{
  "Id":21,
  "Image":0,
  "FontColor":0,
  "UnlockCondition":0,
  "SortKey":0,
  "Name":""
},
{
  "Id":22,
  "Image":0,
  "FontColor":0,
  "UnlockCondition":0,
  "SortKey":0,
  "Name":""
},
{
  "Id":23,
  "Image":0,
  "FontColor":0,
  "UnlockCondition":0,
  "SortKey":0,
  "Name":""
},
{
  "Id":24,
  "Image":0,
  "FontColor":0,
  "UnlockCondition":0,
  "SortKey":0,
  "Name":""
},
{
  "Id":25,
  "Image":0,
  "FontColor":0,
  "UnlockCondition":0,
  "SortKey":0,
  "Name":""
},
{
  "Id":26,
  "Image":0,
  "FontColor":0,
  "UnlockCondition":0,
  "SortKey":0,
  "Name":""
},
{
  "Id":27,
  "Image":0,
  "FontColor":0,
  "UnlockCondition":0,
  "SortKey":0,
  "Name":""
},
{
  "Id":28,
  "Image":0,
  "FontColor":0,
  "UnlockCondition":0,
  "SortKey":0,
  "Name":""
},
{
  "Id":29,
  "Image":0,
  "FontColor":0,
  "UnlockCondition":0,
  "SortKey":0,
  "Name":""
},
{
  "Id":30,
  "Image":0,
  "FontColor":0,
  "UnlockCondition":0,
  "SortKey":0,
  "Name":""
},
{
  "Id":31,
  "Image":0,
  "FontColor":0,
  "UnlockCondition":0,
  "SortKey":0,
  "Name":""
},
{
  "Id":32,
  "Image":0,
  "FontColor":0,
  "UnlockCondition":0,
  "SortKey":0,
  "Name":""
},
{
  "Id":33,
  "Image":0,
  "FontColor":0,
  "UnlockCondition":0,
  "SortKey":0,
  "Name":""
},
{
  "Id":34,
  "Image":0,
  "FontColor":0,
  "UnlockCondition":0,
  "SortKey":0,
  "Name":""
},
{
  "Id":35,
  "Image":0,
  "FontColor":0,
  "UnlockCondition":0,
  "SortKey":0,
  "Name":""
},
{
  "Id":36,
  "Image":0,
  "FontColor":0,
  "UnlockCondition":0,
  "SortKey":0,
  "Name":""
},
{
  "Id":37,
  "Image":0,
  "FontColor":0,
  "UnlockCondition":0,
  "SortKey":0,
  "Name":""
},
{
  "Id":38,
  "Image":0,
  "FontColor":0,
  "UnlockCondition":0,
  "SortKey":0,
  "Name":""
},
{
  "Id":39,
  "Image":0,
  "FontColor":0,
  "UnlockCondition":0,
  "SortKey":0,
  "Name":""
},
{
  "Id":40,
  "Image":0,
  "FontColor":0,
  "UnlockCondition":0,
  "SortKey":0,
  "Name":""
},
{
  "Id":41,
  "Image":0,
  "FontColor":0,
  "UnlockCondition":0,
  "SortKey":0,
  "Name":""
},
{
  "Id":42,
  "Image":0,
  "FontColor":0,
  "UnlockCondition":0,
  "SortKey":0,
  "Name":""
},
{
  "Id":43,
  "Image":0,
  "FontColor":0,
  "UnlockCondition":0,
  "SortKey":0,
  "Name":""
},
{
  "Id":44,
  "Image":0,
  "FontColor":0,
  "UnlockCondition":0,
  "SortKey":0,
  "Name":""
},
{
  "Id":45,
  "Image":0,
  "FontColor":0,
  "UnlockCondition":0,
  "SortKey":0,
  "Name":""
},
{
  "Id":46,
  "Image":0,
  "FontColor":0,
  "UnlockCondition":0,
  "SortKey":0,
  "Name":""
},
{
  "Id":47,
  "Image":0,
  "FontColor":0,
  "UnlockCondition":0,
  "SortKey":0,
  "Name":""
},
{
  "Id":48,
  "Image":0,
  "FontColor":0,
  "UnlockCondition":0,
  "SortKey":0,
  "Name":""
},
{
  "Id":49,
  "Image":0,
  "FontColor":0,
  "UnlockCondition":0,
  "SortKey":0,
  "Name":""
},
{
  "Id":50,
  "Image":0,
  "FontColor":0,
  "UnlockCondition":0,
  "SortKey":0,
  "Name":""
},
{
  "Id":51,
  "Image":0,
  "FontColor":0,
  "UnlockCondition":0,
  "SortKey":0,
  "Name":""
},
{
  "Id":52,
  "Image":193901,
  "FontColor":1,
  "UnlockCondition":154,
  "SortKey":4000,
  "Name":"Companion-App 1"
},
{
  "Id":53,
  "Image":193902,
  "FontColor":1,
  "UnlockCondition":155,
  "SortKey":4001,
  "Name":"Companion-App 2"
},
{
  "Id":54,
  "Image":193701,
  "FontColor":1,
  "UnlockCondition":319,
  "SortKey":2500,
  "Name":"Schatten von Bahamut (fatal)"
},
{
  "Id":55,
  "Image":193702,
  "FontColor":1,
  "UnlockCondition":320,
  "SortKey":2501,
  "Name":"Heldenlied von Ultima (fatal)"
},
{
  "Id":56,
  "Image":193703,
  "FontColor":2,
  "UnlockCondition":321,
  "SortKey":2502,
  "Name":"Alexander (fatal)"
},
{
  "Id":57,
  "Image":193704,
  "FontColor":1,
  "UnlockCondition":322,
  "SortKey":2503,
  "Name":"Drachenkrieg (fatal)"
},
{
  "Id":58,
  "Image":193966,
  "FontColor":1,
  "UnlockCondition":344,
  "SortKey":2310,
  "Name":"Aufträge der Omikron"
},
{
  "Id":59,
  "Image":193012,
  "FontColor":1,
  "UnlockCondition":1,
  "SortKey":11,
  "Name":"Kaffeepause"
},
{
  "Id":60,
  "Image":193013,
  "FontColor":1,
  "UnlockCondition":1,
  "SortKey":12,
  "Name":"Geometrisch: Kreise"
},
{
  "Id":61,
  "Image":193014,
  "FontColor":1,
  "UnlockCondition":347,
  "SortKey":13,
  "Name":"Musik"
},
{
  "Id":62,
  "Image":193015,
  "FontColor":1,
  "UnlockCondition":1,
  "SortKey":14,
  "Name":"Fernöstlich"
},
{
  "Id":63,
  "Image":193962,
  "FontColor":1,
  "UnlockCondition":429,
  "SortKey":2306,
  "Name":"Aufträge der Pixies"
},
{
  "Id":64,
  "Image":193963,
  "FontColor":1,
  "UnlockCondition":430,
  "SortKey":2307,
  "Name":"Aufträge der Qitari"
},
{
  "Id":65,
  "Image":193964,
  "FontColor":1,
  "UnlockCondition":431,
  "SortKey":2308,
  "Name":"Aufträge der Zwerge"
},
{
  "Id":66,
  "Image":193965,
  "FontColor":1,
  "UnlockCondition":432,
  "SortKey":2309,
  "Name":"Aufträge der Arkasodara"
},
{
  "Id":67,
  "Image":193967,
  "FontColor":1,
  "UnlockCondition":433,
  "SortKey":2311,
  "Name":"Aufträge der Loporrit"
},
{
  "Id":68,
  "Image":193705,
  "FontColor":1,
  "UnlockCondition":434,
  "SortKey":2504,
  "Name":"Omega (fatal)"
},
{
  "Id":69,
  "Image":193710,
  "FontColor":1,
  "UnlockCondition":465,
  "SortKey":2354,
  "Name":"Tiefes Gewölbe: Eureka Orthos 1"
},
{
  "Id":70,
  "Image":193711,
  "FontColor":1,
  "UnlockCondition":466,
  "SortKey":2355,
  "Name":"Tiefes Gewölbe: Eureka Orthos 2"
},
{
  "Id":71,
  "Image":193712,
  "FontColor":2,
  "UnlockCondition":467,
  "SortKey":2251,
  "Name":"Die vier Tierheiligen"
},
{
  "Id":72,
  "Image":193713,
  "FontColor":2,
  "UnlockCondition":468,
  "SortKey":2340,
  "Name":"Inselparadies 1"
},
{
  "Id":73,
  "Image":193714,
  "FontColor":1,
  "UnlockCondition":469,
  "SortKey":2341,
  "Name":"Inselparadies 2"
},
{
  "Id":74,
  "Image":193960,
  "FontColor":1,
  "UnlockCondition":524,
  "SortKey":2303,
  "Name":"Aufträge der Kojin"
},
{
  "Id":75,
  "Image":193959,
  "FontColor":1,
  "UnlockCondition":525,
  "SortKey":2304,
  "Name":"Aufträge der Ananta"
},
{
  "Id":76,
  "Image":193961,
  "FontColor":1,
  "UnlockCondition":526,
  "SortKey":2305,
  "Name":"Aufträge der Namazuo"
},
{
  "Id":77,
  "Image":193715,
  "FontColor":1,
  "UnlockCondition":527,
  "SortKey":2250,
  "Name":"Das Ende einer Ära"
},
{
  "Id":78,
  "Image":193716,
  "FontColor":1,
  "UnlockCondition":523,
  "SortKey":3950,
  "Name":"10. Jubiläum"
},
{
  "Id":79,
  "Image":193717,
  "FontColor":1,
  "UnlockCondition":529,
  "SortKey":2342,
  "Name":"Fischer auf großer Fahrt"
},
{
  "Id":80,
  "Image":193718,
  "FontColor":1,
  "UnlockCondition":530,
  "SortKey":2343,
  "Name":"Kapitalbeschaffung"
},
{
  "Id":81,
  "Image":193719,
  "FontColor":1,
  "UnlockCondition":531,
  "SortKey":2350,
  "Name":"Mahjong-Profi"
},
{
  "Id":82,
  "Image":193956,
  "FontColor":1,
  "UnlockCondition":567,
  "SortKey":2300,
  "Name":"Aufträge der Vanu Vanu"
},
{
  "Id":83,
  "Image":193957,
  "FontColor":1,
  "UnlockCondition":568,
  "SortKey":2301,
  "Name":"Aufträge der Gnath"
},
{
  "Id":84,
  "Image":193958,
  "FontColor":1,
  "UnlockCondition":569,
  "SortKey":2302,
  "Name":"Aufträge der Mogrys"
},
{
  "Id":85,
  "Image":193723,
  "FontColor":1,
  "UnlockCondition":572,
  "SortKey":2252,
  "Name":"Mythen Eorzeas: Halone"
},
{
  "Id":86,
  "Image":193724,
  "FontColor":1,
  "UnlockCondition":572,
  "SortKey":2253,
  "Name":"Mythen Eorzeas: Menphina"
},
{
  "Id":87,
  "Image":193725,
  "FontColor":1,
  "UnlockCondition":572,
  "SortKey":2254,
  "Name":"Mythen Eorzeas: Thaliak"
},
{
  "Id":88,
  "Image":193726,
  "FontColor":1,
  "UnlockCondition":572,
  "SortKey":2255,
  "Name":"Mythen Eorzeas: Nymeia"
},
{
  "Id":89,
  "Image":193727,
  "FontColor":1,
  "UnlockCondition":572,
  "SortKey":2256,
  "Name":"Mythen Eorzeas: Llymlaen"
},
{
  "Id":90,
  "Image":193728,
  "FontColor":1,
  "UnlockCondition":572,
  "SortKey":2257,
  "Name":"Mythen Eorzeas: Oschon"
},
{
  "Id":91,
  "Image":193729,
  "FontColor":1,
  "UnlockCondition":572,
  "SortKey":2258,
  "Name":"Mythen Eorzeas: Byregot"
},
{
  "Id":92,
  "Image":193730,
  "FontColor":1,
  "UnlockCondition":572,
  "SortKey":2259,
  "Name":"Mythen Eorzeas: Rhalgr"
},
{
  "Id":93,
  "Image":193731,
  "FontColor":1,
  "UnlockCondition":572,
  "SortKey":2260,
  "Name":"Mythen Eorzeas: Azeyma"
},
{
  "Id":94,
  "Image":193732,
  "FontColor":1,
  "UnlockCondition":572,
  "SortKey":2261,
  "Name":"Mythen Eorzeas: Nald'thal"
},
{
  "Id":95,
  "Image":193733,
  "FontColor":1,
  "UnlockCondition":572,
  "SortKey":2262,
  "Name":"Mythen Eorzeas: Nophica"
},
{
  "Id":96,
  "Image":193734,
  "FontColor":1,
  "UnlockCondition":572,
  "SortKey":2263,
  "Name":"Mythen Eorzeas: Althyk"
},
{
  "Id":97,
  "Image":193722,
  "FontColor":1,
  "UnlockCondition":573,
  "SortKey":2242,
  "Name":"Tatarus Wohlstandsmanufaktur"
},
{
  "Id":98,
  "Image":193720,
  "FontColor":2,
  "UnlockCondition":570,
  "SortKey":2600,
  "Name":"Khloes Abenteueralbum"
},
{
  "Id":99,
  "Image":193721,
  "FontColor":1,
  "UnlockCondition":571,
  "SortKey":2601,
  "Name":"Traumtafel"
},
{
  "Id":100,
  "Image":193735,
  "FontColor":1,
  "UnlockCondition":575,
  "SortKey":2700,
  "Name":"Stolperville 1"
},
{
  "Id":101,
  "Image":193736,
  "FontColor":1,
  "UnlockCondition":576,
  "SortKey":2701,
  "Name":"Stolperville 2"
},
{
  "Id":102,
  "Image":193737,
  "FontColor":1,
  "UnlockCondition":577,
  "SortKey":2702,
  "Name":"Stolperville 3"
},
{
  "Id":103,
  "Image":193738,
  "FontColor":1,
  "UnlockCondition":607,
  "SortKey":2703,
  "Name":"Yo-kai Watch"
},
{
  "Id":104,
  "Image":0,
  "FontColor":0,
  "UnlockCondition":0,
  "SortKey":0,
  "Name":""
},
{
  "Id":105,
  "Image":0,
  "FontColor":0,
  "UnlockCondition":0,
  "SortKey":0,
  "Name":""
},
{
  "Id":106,
  "Image":0,
  "FontColor":0,
  "UnlockCondition":0,
  "SortKey":0,
  "Name":""
},
{
  "Id":107,
  "Image":0,
  "FontColor":0,
  "UnlockCondition":0,
  "SortKey":0,
  "Name":""
},
{
  "Id":108,
  "Image":0,
  "FontColor":0,
  "UnlockCondition":0,
  "SortKey":0,
  "Name":""
},
{
  "Id":109,
  "Image":0,
  "FontColor":0,
  "UnlockCondition":0,
  "SortKey":0,
  "Name":""
},
{
  "Id":110,
  "Image":0,
  "FontColor":0,
  "UnlockCondition":0,
  "SortKey":0,
  "Name":""
}
]
