﻿[
{
  "Id":0,
  "Category":0,
  "Image":0,
  "UnlockCondition":1,
  "SortKey":0,
  "Name":"Nichts"
},
{
  "Id":1,
  "Category":2,
  "Image":194002,
  "UnlockCondition":1,
  "SortKey":1,
  "Name":"Glanz"
},
{
  "Id":2,
  "Category":2,
  "Image":194003,
  "UnlockCondition":1,
  "SortKey":6,
  "Name":"Vierecke"
},
{
  "Id":3,
  "Category":2,
  "Image":194004,
  "UnlockCondition":1,
  "SortKey":7,
  "Name":"Wassertropfen"
},
{
  "Id":4,
  "Category":2,
  "Image":194005,
  "UnlockCondition":1,
  "SortKey":8,
  "Name":"Schachbrett"
},
{
  "Id":5,
  "Category":2,
  "Image":194006,
  "UnlockCondition":1,
  "SortKey":2,
  "Name":"Gittermuster"
},
{
  "Id":6,
  "Category":2,
  "Image":194007,
  "UnlockCondition":1,
  "SortKey":3,
  "Name":"Schrägstriche"
},
{
  "Id":7,
  "Category":2,
  "Image":194008,
  "UnlockCondition":1,
  "SortKey":4,
  "Name":"Diagonale Trennung"
},
{
  "Id":8,
  "Category":2,
  "Image":194009,
  "UnlockCondition":1,
  "SortKey":5,
  "Name":"Dreiecke"
},
{
  "Id":9,
  "Category":2,
  "Image":194010,
  "UnlockCondition":1,
  "SortKey":10,
  "Name":"Pergament"
},
{
  "Id":10,
  "Category":2,
  "Image":194011,
  "UnlockCondition":1,
  "SortKey":9,
  "Name":"Verzierte Ecken"
},
{
  "Id":11,
  "Category":1,
  "Image":195002,
  "UnlockCondition":1,
  "SortKey":1,
  "Name":"Schattierung"
},
{
  "Id":12,
  "Category":1,
  "Image":195003,
  "UnlockCondition":1,
  "SortKey":2,
  "Name":"Leuchtender Rand"
},
{
  "Id":13,
  "Category":1,
  "Image":195004,
  "UnlockCondition":1,
  "SortKey":3,
  "Name":"Violette Tupfen"
},
{
  "Id":14,
  "Category":1,
  "Image":195005,
  "UnlockCondition":1,
  "SortKey":4,
  "Name":"Notizbuch"
},
{
  "Id":15,
  "Category":1,
  "Image":195006,
  "UnlockCondition":1,
  "SortKey":5,
  "Name":"Unordnung"
},
{
  "Id":16,
  "Category":1,
  "Image":195007,
  "UnlockCondition":1,
  "SortKey":6,
  "Name":"Äthergramme"
},
{
  "Id":17,
  "Category":1,
  "Image":195008,
  "UnlockCondition":1,
  "SortKey":7,
  "Name":"Pergament"
},
{
  "Id":18,
  "Category":1,
  "Image":195009,
  "UnlockCondition":1,
  "SortKey":8,
  "Name":"Pinselstriche"
},
{
  "Id":19,
  "Category":1,
  "Image":195010,
  "UnlockCondition":1,
  "SortKey":9,
  "Name":"Metallplatte"
},
{
  "Id":20,
  "Category":1,
  "Image":195011,
  "UnlockCondition":1,
  "SortKey":10,
  "Name":"Schriften"
},
{
  "Id":21,
  "Category":3,
  "Image":197002,
  "UnlockCondition":1,
  "SortKey":3,
  "Name":"Banner"
},
{
  "Id":22,
  "Category":3,
  "Image":197003,
  "UnlockCondition":1,
  "SortKey":4,
  "Name":"Erinnerung"
},
{
  "Id":23,
  "Category":3,
  "Image":197004,
  "UnlockCondition":1,
  "SortKey":5,
  "Name":"Metallkreis"
},
{
  "Id":24,
  "Category":3,
  "Image":197005,
  "UnlockCondition":1,
  "SortKey":6,
  "Name":"Verteidiger-Banner"
},
{
  "Id":25,
  "Category":3,
  "Image":197006,
  "UnlockCondition":1,
  "SortKey":8,
  "Name":"Angreifer-Banner"
},
{
  "Id":26,
  "Category":3,
  "Image":197007,
  "UnlockCondition":1,
  "SortKey":7,
  "Name":"Heiler-Banner"
},
{
  "Id":27,
  "Category":3,
  "Image":197008,
  "UnlockCondition":1,
  "SortKey":1,
  "Name":"Brauner Rahmen"
},
{
  "Id":28,
  "Category":3,
  "Image":197009,
  "UnlockCondition":1,
  "SortKey":2,
  "Name":"Geprägter Rahmen"
},
{
  "Id":29,
  "Category":3,
  "Image":197010,
  "UnlockCondition":1,
  "SortKey":9,
  "Name":"Memo"
},
{
  "Id":30,
  "Category":3,
  "Image":197011,
  "UnlockCondition":1,
  "SortKey":10,
  "Name":"Unordnung"
},
{
  "Id":31,
  "Category":4,
  "Image":198002,
  "UnlockCondition":1,
  "SortKey":3,
  "Name":"Schwarz"
},
{
  "Id":32,
  "Category":4,
  "Image":198003,
  "UnlockCondition":1,
  "SortKey":2,
  "Name":"Weiß"
},
{
  "Id":33,
  "Category":4,
  "Image":198004,
  "UnlockCondition":1,
  "SortKey":5,
  "Name":"Geprägte Edelsteine"
},
{
  "Id":34,
  "Category":4,
  "Image":198005,
  "UnlockCondition":1,
  "SortKey":4,
  "Name":"Einfache Edelsteine"
},
{
  "Id":35,
  "Category":4,
  "Image":198006,
  "UnlockCondition":1,
  "SortKey":6,
  "Name":"Limsa Lominsa"
},
{
  "Id":36,
  "Category":4,
  "Image":198007,
  "UnlockCondition":1,
  "SortKey":7,
  "Name":"Gridania"
},
{
  "Id":37,
  "Category":4,
  "Image":198008,
  "UnlockCondition":1,
  "SortKey":8,
  "Name":"Ul'dah"
},
{
  "Id":38,
  "Category":4,
  "Image":198009,
  "UnlockCondition":1,
  "SortKey":1,
  "Name":"Metall"
},
{
  "Id":39,
  "Category":4,
  "Image":198010,
  "UnlockCondition":298,
  "SortKey":10,
  "Name":"Triple Triad EX"
},
{
  "Id":40,
  "Category":4,
  "Image":198011,
  "UnlockCondition":298,
  "SortKey":9,
  "Name":"Triple Triad"
},
{
  "Id":41,
  "Category":5,
  "Image":199002,
  "UnlockCondition":1,
  "SortKey":1,
  "Name":"Gil"
},
{
  "Id":42,
  "Category":5,
  "Image":199003,
  "UnlockCondition":1,
  "SortKey":2,
  "Name":"Feder"
},
{
  "Id":43,
  "Category":5,
  "Image":199004,
  "UnlockCondition":1,
  "SortKey":3,
  "Name":"Aufkleber"
},
{
  "Id":44,
  "Category":5,
  "Image":199005,
  "UnlockCondition":1,
  "SortKey":4,
  "Name":"Karte"
},
{
  "Id":45,
  "Category":5,
  "Image":199006,
  "UnlockCondition":1,
  "SortKey":5,
  "Name":"Schleife"
},
{
  "Id":46,
  "Category":5,
  "Image":199007,
  "UnlockCondition":1,
  "SortKey":6,
  "Name":"Brief"
},
{
  "Id":47,
  "Category":5,
  "Image":199008,
  "UnlockCondition":1,
  "SortKey":7,
  "Name":"Musiknote"
},
{
  "Id":48,
  "Category":5,
  "Image":199009,
  "UnlockCondition":1,
  "SortKey":8,
  "Name":"Blumenstrauß"
},
{
  "Id":49,
  "Category":5,
  "Image":199010,
  "UnlockCondition":1,
  "SortKey":9,
  "Name":"Memo"
},
{
  "Id":50,
  "Category":5,
  "Image":199011,
  "UnlockCondition":1,
  "SortKey":10,
  "Name":"Briefmarke"
},
{
  "Id":51,
  "Category":2,
  "Image":194201,
  "UnlockCondition":156,
  "SortKey":950,
  "Name":"Gladiator"
},
{
  "Id":52,
  "Category":2,
  "Image":194202,
  "UnlockCondition":157,
  "SortKey":951,
  "Name":"Marodeur"
},
{
  "Id":53,
  "Category":2,
  "Image":194203,
  "UnlockCondition":158,
  "SortKey":952,
  "Name":"Druide"
},
{
  "Id":54,
  "Category":2,
  "Image":194204,
  "UnlockCondition":159,
  "SortKey":953,
  "Name":"Faustkämpfer"
},
{
  "Id":55,
  "Category":2,
  "Image":194205,
  "UnlockCondition":160,
  "SortKey":954,
  "Name":"Pikenier"
},
{
  "Id":56,
  "Category":2,
  "Image":194206,
  "UnlockCondition":161,
  "SortKey":955,
  "Name":"Schurke"
},
{
  "Id":57,
  "Category":2,
  "Image":194207,
  "UnlockCondition":162,
  "SortKey":956,
  "Name":"Waldläufer"
},
{
  "Id":58,
  "Category":2,
  "Image":194208,
  "UnlockCondition":163,
  "SortKey":957,
  "Name":"Thaumaturg"
},
{
  "Id":59,
  "Category":2,
  "Image":194209,
  "UnlockCondition":164,
  "SortKey":958,
  "Name":"Hermetiker"
},
{
  "Id":60,
  "Category":2,
  "Image":194210,
  "UnlockCondition":300,
  "SortKey":1000,
  "Name":"Paladin"
},
{
  "Id":61,
  "Category":2,
  "Image":194211,
  "UnlockCondition":301,
  "SortKey":1001,
  "Name":"Krieger"
},
{
  "Id":62,
  "Category":2,
  "Image":194212,
  "UnlockCondition":302,
  "SortKey":1002,
  "Name":"Dunkelritter"
},
{
  "Id":63,
  "Category":2,
  "Image":194213,
  "UnlockCondition":303,
  "SortKey":1003,
  "Name":"Revolverklinge"
},
{
  "Id":64,
  "Category":2,
  "Image":194214,
  "UnlockCondition":304,
  "SortKey":1004,
  "Name":"Weißmagier"
},
{
  "Id":65,
  "Category":2,
  "Image":194215,
  "UnlockCondition":305,
  "SortKey":1005,
  "Name":"Gelehrter"
},
{
  "Id":66,
  "Category":2,
  "Image":194216,
  "UnlockCondition":306,
  "SortKey":1006,
  "Name":"Astrologe"
},
{
  "Id":67,
  "Category":2,
  "Image":194217,
  "UnlockCondition":307,
  "SortKey":1007,
  "Name":"Weiser"
},
{
  "Id":68,
  "Category":2,
  "Image":194218,
  "UnlockCondition":308,
  "SortKey":1008,
  "Name":"Mönch"
},
{
  "Id":69,
  "Category":2,
  "Image":194219,
  "UnlockCondition":309,
  "SortKey":1009,
  "Name":"Dragoon"
},
{
  "Id":70,
  "Category":2,
  "Image":194220,
  "UnlockCondition":310,
  "SortKey":1010,
  "Name":"Ninja"
},
{
  "Id":71,
  "Category":2,
  "Image":194221,
  "UnlockCondition":311,
  "SortKey":1011,
  "Name":"Samurai"
},
{
  "Id":72,
  "Category":2,
  "Image":194222,
  "UnlockCondition":312,
  "SortKey":1012,
  "Name":"Schnitter"
},
{
  "Id":73,
  "Category":2,
  "Image":194223,
  "UnlockCondition":313,
  "SortKey":1013,
  "Name":"Barde"
},
{
  "Id":74,
  "Category":2,
  "Image":194224,
  "UnlockCondition":314,
  "SortKey":1014,
  "Name":"Maschinist"
},
{
  "Id":75,
  "Category":2,
  "Image":194225,
  "UnlockCondition":315,
  "SortKey":1015,
  "Name":"Tänzer"
},
{
  "Id":76,
  "Category":2,
  "Image":194226,
  "UnlockCondition":316,
  "SortKey":1016,
  "Name":"Schwarzmagier"
},
{
  "Id":77,
  "Category":2,
  "Image":194227,
  "UnlockCondition":317,
  "SortKey":1017,
  "Name":"Beschwörer"
},
{
  "Id":78,
  "Category":2,
  "Image":194228,
  "UnlockCondition":318,
  "SortKey":1018,
  "Name":"Rotmagier"
},
{
  "Id":79,
  "Category":2,
  "Image":194229,
  "UnlockCondition":232,
  "SortKey":1019,
  "Name":"Blaumagier"
},
{
  "Id":80,
  "Category":2,
  "Image":194230,
  "UnlockCondition":268,
  "SortKey":1100,
  "Name":"Zimmerer"
},
{
  "Id":81,
  "Category":2,
  "Image":194231,
  "UnlockCondition":269,
  "SortKey":1101,
  "Name":"Grobschmied"
},
{
  "Id":82,
  "Category":2,
  "Image":194232,
  "UnlockCondition":270,
  "SortKey":1102,
  "Name":"Plattner"
},
{
  "Id":83,
  "Category":2,
  "Image":194233,
  "UnlockCondition":271,
  "SortKey":1103,
  "Name":"Goldschmied"
},
{
  "Id":84,
  "Category":2,
  "Image":194234,
  "UnlockCondition":272,
  "SortKey":1104,
  "Name":"Gerber"
},
{
  "Id":85,
  "Category":2,
  "Image":194235,
  "UnlockCondition":273,
  "SortKey":1105,
  "Name":"Weber"
},
{
  "Id":86,
  "Category":2,
  "Image":194236,
  "UnlockCondition":274,
  "SortKey":1106,
  "Name":"Alchemist"
},
{
  "Id":87,
  "Category":2,
  "Image":194237,
  "UnlockCondition":275,
  "SortKey":1107,
  "Name":"Gourmet"
},
{
  "Id":88,
  "Category":2,
  "Image":194238,
  "UnlockCondition":285,
  "SortKey":1108,
  "Name":"Minenarbeiter"
},
{
  "Id":89,
  "Category":2,
  "Image":194239,
  "UnlockCondition":286,
  "SortKey":1109,
  "Name":"Gärtner"
},
{
  "Id":90,
  "Category":2,
  "Image":194240,
  "UnlockCondition":287,
  "SortKey":1110,
  "Name":"Fischer"
},
{
  "Id":91,
  "Category":0,
  "Image":0,
  "UnlockCondition":0,
  "SortKey":0,
  "Name":""
},
{
  "Id":92,
  "Category":0,
  "Image":0,
  "UnlockCondition":0,
  "SortKey":0,
  "Name":""
},
{
  "Id":93,
  "Category":0,
  "Image":0,
  "UnlockCondition":0,
  "SortKey":0,
  "Name":""
},
{
  "Id":94,
  "Category":0,
  "Image":0,
  "UnlockCondition":0,
  "SortKey":0,
  "Name":""
},
{
  "Id":95,
  "Category":0,
  "Image":0,
  "UnlockCondition":0,
  "SortKey":0,
  "Name":""
},
{
  "Id":96,
  "Category":0,
  "Image":0,
  "UnlockCondition":0,
  "SortKey":0,
  "Name":""
},
{
  "Id":97,
  "Category":0,
  "Image":0,
  "UnlockCondition":0,
  "SortKey":0,
  "Name":""
},
{
  "Id":98,
  "Category":0,
  "Image":0,
  "UnlockCondition":0,
  "SortKey":0,
  "Name":""
},
{
  "Id":99,
  "Category":0,
  "Image":0,
  "UnlockCondition":0,
  "SortKey":0,
  "Name":""
},
{
  "Id":100,
  "Category":0,
  "Image":0,
  "UnlockCondition":0,
  "SortKey":0,
  "Name":""
},
{
  "Id":101,
  "Category":0,
  "Image":0,
  "UnlockCondition":0,
  "SortKey":0,
  "Name":""
},
{
  "Id":102,
  "Category":0,
  "Image":0,
  "UnlockCondition":0,
  "SortKey":0,
  "Name":""
},
{
  "Id":103,
  "Category":0,
  "Image":0,
  "UnlockCondition":0,
  "SortKey":0,
  "Name":""
},
{
  "Id":104,
  "Category":0,
  "Image":0,
  "UnlockCondition":0,
  "SortKey":0,
  "Name":""
},
{
  "Id":105,
  "Category":0,
  "Image":0,
  "UnlockCondition":0,
  "SortKey":0,
  "Name":""
},
{
  "Id":106,
  "Category":0,
  "Image":0,
  "UnlockCondition":0,
  "SortKey":0,
  "Name":""
},
{
  "Id":107,
  "Category":0,
  "Image":0,
  "UnlockCondition":0,
  "SortKey":0,
  "Name":""
},
{
  "Id":108,
  "Category":0,
  "Image":0,
  "UnlockCondition":0,
  "SortKey":0,
  "Name":""
},
{
  "Id":109,
  "Category":0,
  "Image":0,
  "UnlockCondition":0,
  "SortKey":0,
  "Name":""
},
{
  "Id":110,
  "Category":0,
  "Image":0,
  "UnlockCondition":0,
  "SortKey":0,
  "Name":""
},
{
  "Id":111,
  "Category":0,
  "Image":0,
  "UnlockCondition":0,
  "SortKey":0,
  "Name":""
},
{
  "Id":112,
  "Category":0,
  "Image":0,
  "UnlockCondition":0,
  "SortKey":0,
  "Name":""
},
{
  "Id":113,
  "Category":0,
  "Image":0,
  "UnlockCondition":0,
  "SortKey":0,
  "Name":""
},
{
  "Id":114,
  "Category":0,
  "Image":0,
  "UnlockCondition":0,
  "SortKey":0,
  "Name":""
},
{
  "Id":115,
  "Category":0,
  "Image":0,
  "UnlockCondition":0,
  "SortKey":0,
  "Name":""
},
{
  "Id":116,
  "Category":0,
  "Image":0,
  "UnlockCondition":0,
  "SortKey":0,
  "Name":""
},
{
  "Id":117,
  "Category":0,
  "Image":0,
  "UnlockCondition":0,
  "SortKey":0,
  "Name":""
},
{
  "Id":118,
  "Category":0,
  "Image":0,
  "UnlockCondition":0,
  "SortKey":0,
  "Name":""
},
{
  "Id":119,
  "Category":0,
  "Image":0,
  "UnlockCondition":0,
  "SortKey":0,
  "Name":""
},
{
  "Id":120,
  "Category":0,
  "Image":0,
  "UnlockCondition":0,
  "SortKey":0,
  "Name":""
},
{
  "Id":121,
  "Category":0,
  "Image":0,
  "UnlockCondition":0,
  "SortKey":0,
  "Name":""
},
{
  "Id":122,
  "Category":0,
  "Image":0,
  "UnlockCondition":0,
  "SortKey":0,
  "Name":""
},
{
  "Id":123,
  "Category":0,
  "Image":0,
  "UnlockCondition":0,
  "SortKey":0,
  "Name":""
},
{
  "Id":124,
  "Category":0,
  "Image":0,
  "UnlockCondition":0,
  "SortKey":0,
  "Name":""
},
{
  "Id":125,
  "Category":0,
  "Image":0,
  "UnlockCondition":0,
  "SortKey":0,
  "Name":""
},
{
  "Id":126,
  "Category":0,
  "Image":0,
  "UnlockCondition":0,
  "SortKey":0,
  "Name":""
},
{
  "Id":127,
  "Category":0,
  "Image":0,
  "UnlockCondition":0,
  "SortKey":0,
  "Name":""
},
{
  "Id":128,
  "Category":0,
  "Image":0,
  "UnlockCondition":0,
  "SortKey":0,
  "Name":""
},
{
  "Id":129,
  "Category":0,
  "Image":0,
  "UnlockCondition":0,
  "SortKey":0,
  "Name":""
},
{
  "Id":130,
  "Category":0,
  "Image":0,
  "UnlockCondition":0,
  "SortKey":0,
  "Name":""
},
{
  "Id":131,
  "Category":0,
  "Image":0,
  "UnlockCondition":0,
  "SortKey":0,
  "Name":""
},
{
  "Id":132,
  "Category":0,
  "Image":0,
  "UnlockCondition":0,
  "SortKey":0,
  "Name":""
},
{
  "Id":133,
  "Category":0,
  "Image":0,
  "UnlockCondition":0,
  "SortKey":0,
  "Name":""
},
{
  "Id":134,
  "Category":0,
  "Image":0,
  "UnlockCondition":0,
  "SortKey":0,
  "Name":""
},
{
  "Id":135,
  "Category":0,
  "Image":0,
  "UnlockCondition":0,
  "SortKey":0,
  "Name":""
},
{
  "Id":136,
  "Category":0,
  "Image":0,
  "UnlockCondition":0,
  "SortKey":0,
  "Name":""
},
{
  "Id":137,
  "Category":0,
  "Image":0,
  "UnlockCondition":0,
  "SortKey":0,
  "Name":""
},
{
  "Id":138,
  "Category":0,
  "Image":0,
  "UnlockCondition":0,
  "SortKey":0,
  "Name":""
},
{
  "Id":139,
  "Category":0,
  "Image":0,
  "UnlockCondition":0,
  "SortKey":0,
  "Name":""
},
{
  "Id":140,
  "Category":0,
  "Image":0,
  "UnlockCondition":0,
  "SortKey":0,
  "Name":""
},
{
  "Id":141,
  "Category":0,
  "Image":0,
  "UnlockCondition":0,
  "SortKey":0,
  "Name":""
},
{
  "Id":142,
  "Category":0,
  "Image":0,
  "UnlockCondition":0,
  "SortKey":0,
  "Name":""
},
{
  "Id":143,
  "Category":0,
  "Image":0,
  "UnlockCondition":0,
  "SortKey":0,
  "Name":""
},
{
  "Id":144,
  "Category":0,
  "Image":0,
  "UnlockCondition":0,
  "SortKey":0,
  "Name":""
},
{
  "Id":145,
  "Category":0,
  "Image":0,
  "UnlockCondition":0,
  "SortKey":0,
  "Name":""
},
{
  "Id":146,
  "Category":0,
  "Image":0,
  "UnlockCondition":0,
  "SortKey":0,
  "Name":""
},
{
  "Id":147,
  "Category":0,
  "Image":0,
  "UnlockCondition":0,
  "SortKey":0,
  "Name":""
},
{
  "Id":148,
  "Category":0,
  "Image":0,
  "UnlockCondition":0,
  "SortKey":0,
  "Name":""
},
{
  "Id":149,
  "Category":0,
  "Image":0,
  "UnlockCondition":0,
  "SortKey":0,
  "Name":""
},
{
  "Id":150,
  "Category":0,
  "Image":0,
  "UnlockCondition":0,
  "SortKey":0,
  "Name":""
},
{
  "Id":151,
  "Category":0,
  "Image":0,
  "UnlockCondition":0,
  "SortKey":0,
  "Name":""
},
{
  "Id":152,
  "Category":3,
  "Image":197901,
  "UnlockCondition":154,
  "SortKey":4000,
  "Name":"Companion-App 1"
},
{
  "Id":153,
  "Category":3,
  "Image":197902,
  "UnlockCondition":155,
  "SortKey":4001,
  "Name":"Companion-App 2"
},
{
  "Id":154,
  "Category":4,
  "Image":198901,
  "UnlockCondition":154,
  "SortKey":4000,
  "Name":"Companion-App 1"
},
{
  "Id":155,
  "Category":4,
  "Image":198902,
  "UnlockCondition":155,
  "SortKey":4001,
  "Name":"Companion-App 2"
},
{
  "Id":156,
  "Category":5,
  "Image":199901,
  "UnlockCondition":154,
  "SortKey":4000,
  "Name":"Companion-App 1"
},
{
  "Id":157,
  "Category":5,
  "Image":199902,
  "UnlockCondition":155,
  "SortKey":4001,
  "Name":"Companion-App 2"
},
{
  "Id":158,
  "Category":1,
  "Image":195901,
  "UnlockCondition":154,
  "SortKey":4000,
  "Name":"Companion-App 1"
},
{
  "Id":159,
  "Category":1,
  "Image":195902,
  "UnlockCondition":155,
  "SortKey":4001,
  "Name":"Companion-App 2"
},
{
  "Id":160,
  "Category":1,
  "Image":195701,
  "UnlockCondition":319,
  "SortKey":2500,
  "Name":"Schatten von Bahamut (fatal)"
},
{
  "Id":161,
  "Category":3,
  "Image":197701,
  "UnlockCondition":319,
  "SortKey":2500,
  "Name":"Schatten von Bahamut (fatal)"
},
{
  "Id":162,
  "Category":4,
  "Image":198701,
  "UnlockCondition":319,
  "SortKey":2500,
  "Name":"Schatten von Bahamut (fatal)"
},
{
  "Id":163,
  "Category":5,
  "Image":199701,
  "UnlockCondition":319,
  "SortKey":2500,
  "Name":"Schatten von Bahamut (fatal)"
},
{
  "Id":164,
  "Category":1,
  "Image":195702,
  "UnlockCondition":320,
  "SortKey":2501,
  "Name":"Heldenlied von Ultima (fatal)"
},
{
  "Id":165,
  "Category":3,
  "Image":197702,
  "UnlockCondition":320,
  "SortKey":2501,
  "Name":"Heldenlied von Ultima (fatal)"
},
{
  "Id":166,
  "Category":4,
  "Image":198702,
  "UnlockCondition":320,
  "SortKey":2501,
  "Name":"Heldenlied von Ultima (fatal)"
},
{
  "Id":167,
  "Category":5,
  "Image":199702,
  "UnlockCondition":320,
  "SortKey":2501,
  "Name":"Heldenlied von Ultima (fatal)"
},
{
  "Id":168,
  "Category":1,
  "Image":195703,
  "UnlockCondition":321,
  "SortKey":2502,
  "Name":"Alexander (fatal)"
},
{
  "Id":169,
  "Category":3,
  "Image":197703,
  "UnlockCondition":321,
  "SortKey":2502,
  "Name":"Alexander (fatal)"
},
{
  "Id":170,
  "Category":4,
  "Image":198703,
  "UnlockCondition":321,
  "SortKey":2502,
  "Name":"Alexander (fatal)"
},
{
  "Id":171,
  "Category":5,
  "Image":199703,
  "UnlockCondition":321,
  "SortKey":2502,
  "Name":"Alexander (fatal)"
},
{
  "Id":172,
  "Category":1,
  "Image":195704,
  "UnlockCondition":322,
  "SortKey":2503,
  "Name":"Drachenkrieg (fatal)"
},
{
  "Id":173,
  "Category":3,
  "Image":197704,
  "UnlockCondition":322,
  "SortKey":2503,
  "Name":"Drachenkrieg (fatal)"
},
{
  "Id":174,
  "Category":4,
  "Image":198704,
  "UnlockCondition":322,
  "SortKey":2503,
  "Name":"Drachenkrieg (fatal)"
},
{
  "Id":175,
  "Category":5,
  "Image":199704,
  "UnlockCondition":322,
  "SortKey":2503,
  "Name":"Drachenkrieg (fatal)"
},
{
  "Id":176,
  "Category":2,
  "Image":194701,
  "UnlockCondition":343,
  "SortKey":2400,
  "Name":"Unstetes Gewölbe: Die Unterstadt von Sil'dih"
},
{
  "Id":177,
  "Category":3,
  "Image":197705,
  "UnlockCondition":343,
  "SortKey":2400,
  "Name":"Unstetes Gewölbe: Die Unterstadt von Sil'dih"
},
{
  "Id":178,
  "Category":0,
  "Image":0,
  "UnlockCondition":0,
  "SortKey":0,
  "Name":""
},
{
  "Id":179,
  "Category":5,
  "Image":199966,
  "UnlockCondition":344,
  "SortKey":2310,
  "Name":"Aufträge der Omikron"
},
{
  "Id":180,
  "Category":2,
  "Image":194012,
  "UnlockCondition":1,
  "SortKey":11,
  "Name":"Café"
},
{
  "Id":181,
  "Category":2,
  "Image":194013,
  "UnlockCondition":1,
  "SortKey":12,
  "Name":"Karo"
},
{
  "Id":182,
  "Category":2,
  "Image":194014,
  "UnlockCondition":1,
  "SortKey":13,
  "Name":"Funkelnd"
},
{
  "Id":183,
  "Category":2,
  "Image":194015,
  "UnlockCondition":1,
  "SortKey":14,
  "Name":"Vertikale Streifen"
},
{
  "Id":184,
  "Category":2,
  "Image":194016,
  "UnlockCondition":1,
  "SortKey":15,
  "Name":"Horizontale Streifen"
},
{
  "Id":185,
  "Category":2,
  "Image":194017,
  "UnlockCondition":1,
  "SortKey":16,
  "Name":"Herzen"
},
{
  "Id":186,
  "Category":2,
  "Image":194018,
  "UnlockCondition":1,
  "SortKey":17,
  "Name":"Chevronstreifen "
},
{
  "Id":187,
  "Category":2,
  "Image":194019,
  "UnlockCondition":1,
  "SortKey":18,
  "Name":"Hanfblattmuster"
},
{
  "Id":188,
  "Category":2,
  "Image":194020,
  "UnlockCondition":1,
  "SortKey":19,
  "Name":"Gingham-Muster "
},
{
  "Id":189,
  "Category":2,
  "Image":194021,
  "UnlockCondition":1,
  "SortKey":20,
  "Name":"Kristall"
},
{
  "Id":190,
  "Category":1,
  "Image":195012,
  "UnlockCondition":1,
  "SortKey":11,
  "Name":"Fernöstlich"
},
{
  "Id":191,
  "Category":4,
  "Image":198012,
  "UnlockCondition":1,
  "SortKey":11,
  "Name":"Zickzack"
},
{
  "Id":192,
  "Category":4,
  "Image":198013,
  "UnlockCondition":1,
  "SortKey":12,
  "Name":"Deko-Tape: Warme Farbtöne"
},
{
  "Id":193,
  "Category":4,
  "Image":198014,
  "UnlockCondition":1,
  "SortKey":13,
  "Name":"Deko-Tape: Kalte Farbtöne"
},
{
  "Id":194,
  "Category":5,
  "Image":199012,
  "UnlockCondition":1,
  "SortKey":11,
  "Name":"Café"
},
{
  "Id":195,
  "Category":5,
  "Image":199013,
  "UnlockCondition":347,
  "SortKey":13,
  "Name":"Plektren"
},
{
  "Id":196,
  "Category":5,
  "Image":199014,
  "UnlockCondition":347,
  "SortKey":12,
  "Name":"Geige"
},
{
  "Id":197,
  "Category":5,
  "Image":76701,
  "UnlockCondition":348,
  "SortKey":5650,
  "Name":"Marionette Nr. 001"
},
{
  "Id":198,
  "Category":5,
  "Image":76702,
  "UnlockCondition":349,
  "SortKey":5000,
  "Name":"Chocobo-Küken"
},
{
  "Id":199,
  "Category":5,
  "Image":76703,
  "UnlockCondition":350,
  "SortKey":5050,
  "Name":"Kirschbomber"
},
{
  "Id":200,
  "Category":5,
  "Image":76704,
  "UnlockCondition":351,
  "SortKey":5051,
  "Name":"Baby-Behemoth"
},
{
  "Id":201,
  "Category":5,
  "Image":76705,
  "UnlockCondition":352,
  "SortKey":5052,
  "Name":"Morbol-Knolle"
},
{
  "Id":202,
  "Category":5,
  "Image":76706,
  "UnlockCondition":353,
  "SortKey":5056,
  "Name":"Staubhäschen"
},
{
  "Id":203,
  "Category":5,
  "Image":76707,
  "UnlockCondition":354,
  "SortKey":5057,
  "Name":"Kaktorfigur"
},
{
  "Id":204,
  "Category":5,
  "Image":76708,
  "UnlockCondition":355,
  "SortKey":5058,
  "Name":"Mini-Krabbe"
},
{
  "Id":205,
  "Category":5,
  "Image":76709,
  "UnlockCondition":356,
  "SortKey":5069,
  "Name":"Baby-Goobbue"
},
{
  "Id":206,
  "Category":5,
  "Image":76710,
  "UnlockCondition":357,
  "SortKey":5070,
  "Name":"Dämonenwürfel"
},
{
  "Id":207,
  "Category":5,
  "Image":76711,
  "UnlockCondition":358,
  "SortKey":5702,
  "Name":"Zeigerhändchen"
},
{
  "Id":208,
  "Category":5,
  "Image":76712,
  "UnlockCondition":359,
  "SortKey":5350,
  "Name":"Qiqirn-Stofftier"
},
{
  "Id":209,
  "Category":5,
  "Image":76713,
  "UnlockCondition":360,
  "SortKey":5059,
  "Name":"Wolfshundwelpe"
},
{
  "Id":210,
  "Category":5,
  "Image":76714,
  "UnlockCondition":361,
  "SortKey":5053,
  "Name":"Mini-Coeurl"
},
{
  "Id":211,
  "Category":5,
  "Image":76715,
  "UnlockCondition":362,
  "SortKey":5055,
  "Name":"Tomberry-Stofftier"
},
{
  "Id":212,
  "Category":5,
  "Image":76716,
  "UnlockCondition":363,
  "SortKey":5703,
  "Name":"Emsiger Besen"
},
{
  "Id":213,
  "Category":5,
  "Image":76717,
  "UnlockCondition":364,
  "SortKey":5002,
  "Name":"Mogry-Stofftier"
},
{
  "Id":214,
  "Category":5,
  "Image":76718,
  "UnlockCondition":365,
  "SortKey":5251,
  "Name":"Nussfresser"
},
{
  "Id":215,
  "Category":5,
  "Image":76719,
  "UnlockCondition":366,
  "SortKey":5252,
  "Name":"Dicke Katze"
},
{
  "Id":216,
  "Category":5,
  "Image":76720,
  "UnlockCondition":367,
  "SortKey":5751,
  "Name":"Flusskobold"
},
{
  "Id":217,
  "Category":5,
  "Image":76721,
  "UnlockCondition":368,
  "SortKey":5700,
  "Name":"Begleitmodul"
},
{
  "Id":218,
  "Category":5,
  "Image":76722,
  "UnlockCondition":369,
  "SortKey":5081,
  "Name":"Paissa-Fratz"
},
{
  "Id":219,
  "Category":5,
  "Image":76723,
  "UnlockCondition":370,
  "SortKey":5083,
  "Name":"Korpokkur-Pflänzchen"
},
{
  "Id":220,
  "Category":5,
  "Image":76724,
  "UnlockCondition":371,
  "SortKey":5301,
  "Name":"Obskurer Otter"
},
{
  "Id":221,
  "Category":5,
  "Image":76725,
  "UnlockCondition":372,
  "SortKey":5351,
  "Name":"Aufzieh-Namazuo"
},
{
  "Id":222,
  "Category":5,
  "Image":76726,
  "UnlockCondition":373,
  "SortKey":5530,
  "Name":"Khloe-Puppe"
},
{
  "Id":223,
  "Category":5,
  "Image":76727,
  "UnlockCondition":374,
  "SortKey":5257,
  "Name":"Mameshiba"
},
{
  "Id":224,
  "Category":5,
  "Image":76728,
  "UnlockCondition":375,
  "SortKey":5262,
  "Name":"Kleine Schlange von Ronka"
},
{
  "Id":225,
  "Category":5,
  "Image":76729,
  "UnlockCondition":376,
  "SortKey":5352,
  "Name":"Riesenbiber"
},
{
  "Id":226,
  "Category":5,
  "Image":76730,
  "UnlockCondition":377,
  "SortKey":5306,
  "Name":"Haikrieger"
},
{
  "Id":227,
  "Category":5,
  "Image":76731,
  "UnlockCondition":378,
  "SortKey":5651,
  "Name":"Cait Sith-Puppe"
},
{
  "Id":228,
  "Category":5,
  "Image":76732,
  "UnlockCondition":379,
  "SortKey":5308,
  "Name":"Blaues Vögelchen"
},
{
  "Id":229,
  "Category":5,
  "Image":76733,
  "UnlockCondition":380,
  "SortKey":5060,
  "Name":"Dodo-Küken"
},
{
  "Id":230,
  "Category":5,
  "Image":76734,
  "UnlockCondition":381,
  "SortKey":5068,
  "Name":"Apkallu-Küken"
},
{
  "Id":231,
  "Category":5,
  "Image":76735,
  "UnlockCondition":382,
  "SortKey":5071,
  "Name":"Schäfchen"
},
{
  "Id":232,
  "Category":5,
  "Image":76736,
  "UnlockCondition":383,
  "SortKey":5061,
  "Name":"Kindragora"
},
{
  "Id":233,
  "Category":5,
  "Image":76737,
  "UnlockCondition":384,
  "SortKey":5073,
  "Name":"Schnatterfauler Kolibri"
},
{
  "Id":234,
  "Category":5,
  "Image":76738,
  "UnlockCondition":385,
  "SortKey":5075,
  "Name":"Sukkubus-Puppe"
},
{
  "Id":235,
  "Category":5,
  "Image":76739,
  "UnlockCondition":386,
  "SortKey":5600,
  "Name":"Aufzieh-Gilgamesch"
},
{
  "Id":236,
  "Category":5,
  "Image":76740,
  "UnlockCondition":387,
  "SortKey":5062,
  "Name":"Prinz Zwiebel"
},
{
  "Id":237,
  "Category":5,
  "Image":76741,
  "UnlockCondition":388,
  "SortKey":5063,
  "Name":"Ritter Aubergine"
},
{
  "Id":238,
  "Category":5,
  "Image":76742,
  "UnlockCondition":389,
  "SortKey":5064,
  "Name":"Sir Knoblauch"
},
{
  "Id":239,
  "Category":5,
  "Image":76743,
  "UnlockCondition":390,
  "SortKey":5065,
  "Name":"König Tomate"
},
{
  "Id":240,
  "Category":5,
  "Image":76744,
  "UnlockCondition":391,
  "SortKey":5066,
  "Name":"Königin Mandragora"
},
{
  "Id":241,
  "Category":5,
  "Image":76745,
  "UnlockCondition":392,
  "SortKey":5602,
  "Name":"Aufzieh-Ultros"
},
{
  "Id":242,
  "Category":5,
  "Image":76746,
  "UnlockCondition":393,
  "SortKey":5601,
  "Name":"Aufzieh-Enkidu"
},
{
  "Id":243,
  "Category":5,
  "Image":76747,
  "UnlockCondition":394,
  "SortKey":5078,
  "Name":"Mini-Atomos"
},
{
  "Id":244,
  "Category":5,
  "Image":76748,
  "UnlockCondition":395,
  "SortKey":5079,
  "Name":"Geira-Kätzchen"
},
{
  "Id":245,
  "Category":5,
  "Image":76749,
  "UnlockCondition":396,
  "SortKey":5253,
  "Name":"Rotpanda-Stofftier"
},
{
  "Id":246,
  "Category":5,
  "Image":76750,
  "UnlockCondition":397,
  "SortKey":5312,
  "Name":"Pinguinprinz"
},
{
  "Id":247,
  "Category":5,
  "Image":76751,
  "UnlockCondition":398,
  "SortKey":5752,
  "Name":"Ferkelchen"
},
{
  "Id":248,
  "Category":5,
  "Image":76752,
  "UnlockCondition":399,
  "SortKey":5087,
  "Name":"Frischling"
},
{
  "Id":249,
  "Category":5,
  "Image":76753,
  "UnlockCondition":400,
  "SortKey":5313,
  "Name":"Straßenspatz"
},
{
  "Id":250,
  "Category":5,
  "Image":76754,
  "UnlockCondition":401,
  "SortKey":5652,
  "Name":"Aufzieh-Chimära"
},
{
  "Id":251,
  "Category":5,
  "Image":76755,
  "UnlockCondition":402,
  "SortKey":5088,
  "Name":"Schnee-Korpokkur"
},
{
  "Id":252,
  "Category":5,
  "Image":76756,
  "UnlockCondition":403,
  "SortKey":5255,
  "Name":"Fuchswelpe"
},
{
  "Id":253,
  "Category":5,
  "Image":76757,
  "UnlockCondition":404,
  "SortKey":5314,
  "Name":"Schuhschnäbelchen"
},
{
  "Id":254,
  "Category":5,
  "Image":76758,
  "UnlockCondition":405,
  "SortKey":5089,
  "Name":"Mini-Quiexie"
},
{
  "Id":255,
  "Category":5,
  "Image":76759,
  "UnlockCondition":406,
  "SortKey":5264,
  "Name":"Sandfuchs"
},
{
  "Id":256,
  "Category":5,
  "Image":76760,
  "UnlockCondition":407,
  "SortKey":5307,
  "Name":"Anhänglicher Momora Mora"
},
{
  "Id":257,
  "Category":5,
  "Image":199962,
  "UnlockCondition":429,
  "SortKey":2306,
  "Name":"Aufträge der Pixies"
},
{
  "Id":258,
  "Category":5,
  "Image":199963,
  "UnlockCondition":430,
  "SortKey":2307,
  "Name":"Aufträge der Qitari"
},
{
  "Id":259,
  "Category":5,
  "Image":199964,
  "UnlockCondition":431,
  "SortKey":2308,
  "Name":"Aufträge der Zwerge"
},
{
  "Id":260,
  "Category":5,
  "Image":199965,
  "UnlockCondition":432,
  "SortKey":2309,
  "Name":"Aufträge der Arkasodara"
},
{
  "Id":261,
  "Category":5,
  "Image":199967,
  "UnlockCondition":433,
  "SortKey":2311,
  "Name":"Aufträge der Loporrit"
},
{
  "Id":262,
  "Category":1,
  "Image":195705,
  "UnlockCondition":434,
  "SortKey":2504,
  "Name":"Omega (fatal)"
},
{
  "Id":263,
  "Category":3,
  "Image":197706,
  "UnlockCondition":434,
  "SortKey":2504,
  "Name":"Omega (fatal)"
},
{
  "Id":264,
  "Category":4,
  "Image":198705,
  "UnlockCondition":434,
  "SortKey":2504,
  "Name":"Omega (fatal)"
},
{
  "Id":265,
  "Category":5,
  "Image":199705,
  "UnlockCondition":434,
  "SortKey":2504,
  "Name":"Omega (fatal)"
},
{
  "Id":266,
  "Category":5,
  "Image":76761,
  "UnlockCondition":435,
  "SortKey":5001,
  "Name":"Chocopummelchen"
},
{
  "Id":267,
  "Category":5,
  "Image":76762,
  "UnlockCondition":436,
  "SortKey":5072,
  "Name":"Schleimpfütze"
},
{
  "Id":268,
  "Category":5,
  "Image":76763,
  "UnlockCondition":437,
  "SortKey":5074,
  "Name":"Stoff-Opo-Opo"
},
{
  "Id":269,
  "Category":5,
  "Image":76764,
  "UnlockCondition":438,
  "SortKey":5076,
  "Name":"Kleinfuß"
},
{
  "Id":270,
  "Category":5,
  "Image":76765,
  "UnlockCondition":439,
  "SortKey":5082,
  "Name":"Stumpfauge"
},
{
  "Id":271,
  "Category":5,
  "Image":76766,
  "UnlockCondition":440,
  "SortKey":5084,
  "Name":"Morpho"
},
{
  "Id":272,
  "Category":5,
  "Image":76767,
  "UnlockCondition":441,
  "SortKey":5085,
  "Name":"Poro Roggo"
},
{
  "Id":273,
  "Category":5,
  "Image":76768,
  "UnlockCondition":442,
  "SortKey":5091,
  "Name":"Tröpfel"
},
{
  "Id":274,
  "Category":5,
  "Image":76769,
  "UnlockCondition":443,
  "SortKey":5256,
  "Name":"Bom Boko"
},
{
  "Id":275,
  "Category":5,
  "Image":76770,
  "UnlockCondition":444,
  "SortKey":5261,
  "Name":"Igel"
},
{
  "Id":276,
  "Category":5,
  "Image":76771,
  "UnlockCondition":445,
  "SortKey":5266,
  "Name":"Flughörnchen"
},
{
  "Id":277,
  "Category":5,
  "Image":76772,
  "UnlockCondition":446,
  "SortKey":5302,
  "Name":"Ghido"
},
{
  "Id":278,
  "Category":5,
  "Image":76773,
  "UnlockCondition":447,
  "SortKey":5303,
  "Name":"Gomashio-Seehund"
},
{
  "Id":279,
  "Category":5,
  "Image":76774,
  "UnlockCondition":448,
  "SortKey":5304,
  "Name":"Axolotl-Molch"
},
{
  "Id":280,
  "Category":5,
  "Image":76775,
  "UnlockCondition":449,
  "SortKey":5305,
  "Name":"Baby-Schnabeltier"
},
{
  "Id":281,
  "Category":5,
  "Image":76776,
  "UnlockCondition":450,
  "SortKey":5310,
  "Name":"Hässliches Entlein"
},
{
  "Id":282,
  "Category":5,
  "Image":76777,
  "UnlockCondition":451,
  "SortKey":5450,
  "Name":"Byakko-Jungtier"
},
{
  "Id":283,
  "Category":5,
  "Image":76778,
  "UnlockCondition":452,
  "SortKey":5451,
  "Name":"Feuerpfau"
},
{
  "Id":284,
  "Category":5,
  "Image":76779,
  "UnlockCondition":453,
  "SortKey":5452,
  "Name":"Seitei"
},
{
  "Id":285,
  "Category":5,
  "Image":76780,
  "UnlockCondition":454,
  "SortKey":5500,
  "Name":"Y'shtola-Puppe"
},
{
  "Id":286,
  "Category":5,
  "Image":76781,
  "UnlockCondition":455,
  "SortKey":5502,
  "Name":"Minfilia-Puppe"
},
{
  "Id":287,
  "Category":5,
  "Image":76782,
  "UnlockCondition":456,
  "SortKey":5503,
  "Name":"Thancred-Puppe"
},
{
  "Id":288,
  "Category":5,
  "Image":76783,
  "UnlockCondition":457,
  "SortKey":5505,
  "Name":"Yda-Puppe"
},
{
  "Id":289,
  "Category":5,
  "Image":76784,
  "UnlockCondition":458,
  "SortKey":5506,
  "Name":"Papalymo-Puppe"
},
{
  "Id":290,
  "Category":5,
  "Image":76785,
  "UnlockCondition":459,
  "SortKey":5507,
  "Name":"Urianger-Puppe"
},
{
  "Id":291,
  "Category":5,
  "Image":76786,
  "UnlockCondition":460,
  "SortKey":5509,
  "Name":"Aufzieh-Alphinaud"
},
{
  "Id":292,
  "Category":5,
  "Image":76787,
  "UnlockCondition":461,
  "SortKey":5510,
  "Name":"Aufzieh-Alisaie"
},
{
  "Id":293,
  "Category":5,
  "Image":76788,
  "UnlockCondition":462,
  "SortKey":5512,
  "Name":"Tataru-Puppe"
},
{
  "Id":294,
  "Category":5,
  "Image":76789,
  "UnlockCondition":463,
  "SortKey":5513,
  "Name":"Cid-Puppe"
},
{
  "Id":295,
  "Category":5,
  "Image":76790,
  "UnlockCondition":464,
  "SortKey":5653,
  "Name":"Miaurizius-Puppe"
},
{
  "Id":296,
  "Category":3,
  "Image":197711,
  "UnlockCondition":465,
  "SortKey":2354,
  "Name":"Tiefes Gewölbe: Eureka Orthos 1"
},
{
  "Id":297,
  "Category":3,
  "Image":197712,
  "UnlockCondition":466,
  "SortKey":2355,
  "Name":"Tiefes Gewölbe: Eureka Orthos 2"
},
{
  "Id":298,
  "Category":4,
  "Image":198706,
  "UnlockCondition":467,
  "SortKey":2251,
  "Name":"Die vier Tierheiligen"
},
{
  "Id":299,
  "Category":4,
  "Image":198707,
  "UnlockCondition":468,
  "SortKey":2340,
  "Name":"Inselparadies 1"
},
{
  "Id":300,
  "Category":4,
  "Image":198708,
  "UnlockCondition":469,
  "SortKey":2341,
  "Name":"Inselparadies 2"
},
{
  "Id":301,
  "Category":5,
  "Image":199706,
  "UnlockCondition":468,
  "SortKey":2340,
  "Name":"Inselparadies 1"
},
{
  "Id":302,
  "Category":5,
  "Image":199707,
  "UnlockCondition":469,
  "SortKey":2341,
  "Name":"Inselparadies 2"
},
{
  "Id":303,
  "Category":5,
  "Image":76791,
  "UnlockCondition":472,
  "SortKey":5093,
  "Name":"Silkie-Schwämmchen"
},
{
  "Id":304,
  "Category":5,
  "Image":76792,
  "UnlockCondition":473,
  "SortKey":5267,
  "Name":"Chiwauwau"
},
{
  "Id":305,
  "Category":5,
  "Image":76793,
  "UnlockCondition":474,
  "SortKey":5080,
  "Name":"Geira-Flauschekatze"
},
{
  "Id":306,
  "Category":5,
  "Image":76794,
  "UnlockCondition":475,
  "SortKey":5250,
  "Name":"Nana-Stoffbär"
},
{
  "Id":307,
  "Category":5,
  "Image":76795,
  "UnlockCondition":476,
  "SortKey":5258,
  "Name":"Schwarzer Shiba-Welpe"
},
{
  "Id":308,
  "Category":5,
  "Image":76796,
  "UnlockCondition":477,
  "SortKey":5259,
  "Name":"Koala-Bärchen"
},
{
  "Id":309,
  "Category":5,
  "Image":76797,
  "UnlockCondition":478,
  "SortKey":5260,
  "Name":"Capybara-Jungtier"
},
{
  "Id":310,
  "Category":5,
  "Image":76798,
  "UnlockCondition":479,
  "SortKey":5265,
  "Name":"Fähnchen"
},
{
  "Id":311,
  "Category":5,
  "Image":76799,
  "UnlockCondition":480,
  "SortKey":5268,
  "Name":"Corgi"
},
{
  "Id":312,
  "Category":5,
  "Image":76601,
  "UnlockCondition":481,
  "SortKey":5315,
  "Name":"Langschwanzmeise"
},
{
  "Id":313,
  "Category":5,
  "Image":76602,
  "UnlockCondition":482,
  "SortKey":5092,
  "Name":"Laub-Klauber"
},
{
  "Id":314,
  "Category":5,
  "Image":76603,
  "UnlockCondition":483,
  "SortKey":5400,
  "Name":"Arkasodara-Puppe"
},
{
  "Id":315,
  "Category":5,
  "Image":76604,
  "UnlockCondition":484,
  "SortKey":5353,
  "Name":"Grebuloff-Puppe"
},
{
  "Id":316,
  "Category":5,
  "Image":76605,
  "UnlockCondition":485,
  "SortKey":5354,
  "Name":"Findingway"
},
{
  "Id":317,
  "Category":5,
  "Image":76606,
  "UnlockCondition":486,
  "SortKey":5701,
  "Name":"Optimus Omikron"
},
{
  "Id":318,
  "Category":5,
  "Image":76607,
  "UnlockCondition":487,
  "SortKey":5150,
  "Name":"Männliche Omega-Puppe"
},
{
  "Id":319,
  "Category":5,
  "Image":76608,
  "UnlockCondition":488,
  "SortKey":5151,
  "Name":"Weibliche Omega-Puppe"
},
{
  "Id":320,
  "Category":5,
  "Image":76609,
  "UnlockCondition":489,
  "SortKey":5152,
  "Name":"Mini-Omega"
},
{
  "Id":321,
  "Category":5,
  "Image":76610,
  "UnlockCondition":490,
  "SortKey":5606,
  "Name":"Alpha-Puppe"
},
{
  "Id":322,
  "Category":5,
  "Image":76611,
  "UnlockCondition":491,
  "SortKey":5514,
  "Name":"Krile-Puppe"
},
{
  "Id":323,
  "Category":5,
  "Image":76612,
  "UnlockCondition":492,
  "SortKey":5515,
  "Name":"Moenbryda-Puppe"
},
{
  "Id":324,
  "Category":5,
  "Image":76613,
  "UnlockCondition":493,
  "SortKey":5516,
  "Name":"Hildibrand-Puppe"
},
{
  "Id":325,
  "Category":5,
  "Image":76614,
  "UnlockCondition":494,
  "SortKey":5521,
  "Name":"Nanamo-Puppe"
},
{
  "Id":326,
  "Category":5,
  "Image":76616,
  "UnlockCondition":495,
  "SortKey":5524,
  "Name":"Haurchefant-Puppe"
},
{
  "Id":327,
  "Category":5,
  "Image":76617,
  "UnlockCondition":496,
  "SortKey":5526,
  "Name":"Aymeric-Puppe"
},
{
  "Id":328,
  "Category":5,
  "Image":76618,
  "UnlockCondition":497,
  "SortKey":5528,
  "Name":"Estinien-Puppe"
},
{
  "Id":329,
  "Category":5,
  "Image":76619,
  "UnlockCondition":498,
  "SortKey":5525,
  "Name":"Nero-Puppe"
},
{
  "Id":330,
  "Category":5,
  "Image":76615,
  "UnlockCondition":499,
  "SortKey":5520,
  "Name":"Aufzieh-Raubahn"
},
{
  "Id":331,
  "Category":5,
  "Image":76620,
  "UnlockCondition":500,
  "SortKey":5519,
  "Name":"Aufzieh-Kan-E"
},
{
  "Id":332,
  "Category":5,
  "Image":76621,
  "UnlockCondition":501,
  "SortKey":5518,
  "Name":"Aufzieh-Merlwyb"
},
{
  "Id":333,
  "Category":5,
  "Image":199960,
  "UnlockCondition":524,
  "SortKey":2303,
  "Name":"Aufträge der Kojin"
},
{
  "Id":334,
  "Category":5,
  "Image":199959,
  "UnlockCondition":525,
  "SortKey":2304,
  "Name":"Aufträge der Ananta"
},
{
  "Id":335,
  "Category":5,
  "Image":199961,
  "UnlockCondition":526,
  "SortKey":2305,
  "Name":"Aufträge der Namazuo"
},
{
  "Id":336,
  "Category":3,
  "Image":197713,
  "UnlockCondition":527,
  "SortKey":2250,
  "Name":"Das Ende einer Ära"
},
{
  "Id":337,
  "Category":4,
  "Image":198709,
  "UnlockCondition":527,
  "SortKey":2250,
  "Name":"Das Ende einer Ära"
},
{
  "Id":338,
  "Category":5,
  "Image":199708,
  "UnlockCondition":527,
  "SortKey":2250,
  "Name":"Das Ende einer Ära"
},
{
  "Id":339,
  "Category":4,
  "Image":198710,
  "UnlockCondition":523,
  "SortKey":3950,
  "Name":"10. Jubiläum"
},
{
  "Id":340,
  "Category":5,
  "Image":199709,
  "UnlockCondition":523,
  "SortKey":3950,
  "Name":"10. Jubiläum"
},
{
  "Id":341,
  "Category":2,
  "Image":194702,
  "UnlockCondition":528,
  "SortKey":2401,
  "Name":"Unstetes Gewölbe: Der Rokkon"
},
{
  "Id":342,
  "Category":3,
  "Image":197714,
  "UnlockCondition":528,
  "SortKey":2401,
  "Name":"Unstetes Gewölbe: Der Rokkon"
},
{
  "Id":343,
  "Category":1,
  "Image":195706,
  "UnlockCondition":529,
  "SortKey":2342,
  "Name":"Fischer auf großer Fahrt"
},
{
  "Id":344,
  "Category":3,
  "Image":197715,
  "UnlockCondition":529,
  "SortKey":2342,
  "Name":"Fischer auf großer Fahrt"
},
{
  "Id":345,
  "Category":4,
  "Image":198711,
  "UnlockCondition":529,
  "SortKey":2342,
  "Name":"Fischer auf großer Fahrt"
},
{
  "Id":346,
  "Category":5,
  "Image":199710,
  "UnlockCondition":529,
  "SortKey":2342,
  "Name":"Fischer auf großer Fahrt"
},
{
  "Id":347,
  "Category":1,
  "Image":195707,
  "UnlockCondition":530,
  "SortKey":2343,
  "Name":"Kapitalbeschaffung"
},
{
  "Id":348,
  "Category":3,
  "Image":197716,
  "UnlockCondition":530,
  "SortKey":2343,
  "Name":"Kapitalbeschaffung"
},
{
  "Id":349,
  "Category":4,
  "Image":198712,
  "UnlockCondition":530,
  "SortKey":2343,
  "Name":"Kapitalbeschaffung"
},
{
  "Id":350,
  "Category":5,
  "Image":199711,
  "UnlockCondition":530,
  "SortKey":2343,
  "Name":"Kapitalbeschaffung"
},
{
  "Id":351,
  "Category":1,
  "Image":195708,
  "UnlockCondition":531,
  "SortKey":2350,
  "Name":"Mahjong-Profi"
},
{
  "Id":352,
  "Category":4,
  "Image":198713,
  "UnlockCondition":531,
  "SortKey":2350,
  "Name":"Mahjong-Profi"
},
{
  "Id":353,
  "Category":5,
  "Image":199712,
  "UnlockCondition":531,
  "SortKey":2350,
  "Name":"Mahjong-Profi"
},
{
  "Id":354,
  "Category":1,
  "Image":195709,
  "UnlockCondition":527,
  "SortKey":2250,
  "Name":"Das Ende einer Ära"
},
{
  "Id":355,
  "Category":5,
  "Image":76622,
  "UnlockCondition":534,
  "SortKey":5067,
  "Name":"Privat-Pachypodium"
},
{
  "Id":356,
  "Category":5,
  "Image":76623,
  "UnlockCondition":535,
  "SortKey":5269,
  "Name":"Shiromaru"
},
{
  "Id":357,
  "Category":5,
  "Image":76624,
  "UnlockCondition":536,
  "SortKey":5270,
  "Name":"Kuromaru"
},
{
  "Id":358,
  "Category":5,
  "Image":76625,
  "UnlockCondition":537,
  "SortKey":5704,
  "Name":"Moai-Statuette"
},
{
  "Id":359,
  "Category":5,
  "Image":76626,
  "UnlockCondition":538,
  "SortKey":5200,
  "Name":"Azeyma-Puppe"
},
{
  "Id":360,
  "Category":5,
  "Image":76627,
  "UnlockCondition":539,
  "SortKey":5201,
  "Name":"Aufzieh-Halone"
},
{
  "Id":361,
  "Category":5,
  "Image":76628,
  "UnlockCondition":540,
  "SortKey":5202,
  "Name":"Aufzieh-Oschon"
},
{
  "Id":362,
  "Category":5,
  "Image":76629,
  "UnlockCondition":541,
  "SortKey":5054,
  "Name":"Kiesgolem"
},
{
  "Id":363,
  "Category":5,
  "Image":76630,
  "UnlockCondition":542,
  "SortKey":5077,
  "Name":"Mini-Mumie"
},
{
  "Id":364,
  "Category":5,
  "Image":76631,
  "UnlockCondition":543,
  "SortKey":5086,
  "Name":"Fenrir-Welpe"
},
{
  "Id":365,
  "Category":5,
  "Image":76632,
  "UnlockCondition":544,
  "SortKey":5090,
  "Name":"Kleine Leanan"
},
{
  "Id":366,
  "Category":5,
  "Image":76633,
  "UnlockCondition":545,
  "SortKey":5254,
  "Name":"Zwergkaninchen"
},
{
  "Id":367,
  "Category":5,
  "Image":76634,
  "UnlockCondition":546,
  "SortKey":5263,
  "Name":"Erdmännchen"
},
{
  "Id":368,
  "Category":5,
  "Image":76635,
  "UnlockCondition":547,
  "SortKey":5300,
  "Name":"Fliegender Kampffisch"
},
{
  "Id":369,
  "Category":5,
  "Image":76636,
  "UnlockCondition":548,
  "SortKey":5309,
  "Name":"Eulette"
},
{
  "Id":370,
  "Category":5,
  "Image":76637,
  "UnlockCondition":549,
  "SortKey":5311,
  "Name":"Jagdfalke"
},
{
  "Id":371,
  "Category":5,
  "Image":76638,
  "UnlockCondition":550,
  "SortKey":5316,
  "Name":"Blaufußtölpel"
},
{
  "Id":372,
  "Category":5,
  "Image":76639,
  "UnlockCondition":551,
  "SortKey":5501,
  "Name":"Neue Y'shtola-Puppe"
},
{
  "Id":373,
  "Category":5,
  "Image":76640,
  "UnlockCondition":552,
  "SortKey":5504,
  "Name":"Neue Thancred-Puppe"
},
{
  "Id":374,
  "Category":5,
  "Image":76641,
  "UnlockCondition":553,
  "SortKey":5508,
  "Name":"Aufzieh-Louisoix"
},
{
  "Id":375,
  "Category":5,
  "Image":76642,
  "UnlockCondition":554,
  "SortKey":5511,
  "Name":"Neue Alisaie-Puppe"
},
{
  "Id":376,
  "Category":5,
  "Image":76643,
  "UnlockCondition":555,
  "SortKey":5517,
  "Name":"Aufzieh-Godbert"
},
{
  "Id":377,
  "Category":5,
  "Image":76644,
  "UnlockCondition":556,
  "SortKey":5522,
  "Name":"Eisherz-Puppe"
},
{
  "Id":378,
  "Category":5,
  "Image":76645,
  "UnlockCondition":557,
  "SortKey":5523,
  "Name":"Yugiri-Puppe"
},
{
  "Id":379,
  "Category":5,
  "Image":76646,
  "UnlockCondition":558,
  "SortKey":5527,
  "Name":"Edda-Puppe"
},
{
  "Id":380,
  "Category":5,
  "Image":76647,
  "UnlockCondition":559,
  "SortKey":5529,
  "Name":"Zhloe-Puppe"
},
{
  "Id":381,
  "Category":5,
  "Image":76648,
  "UnlockCondition":560,
  "SortKey":5531,
  "Name":"G'raha Tia-Puppe"
},
{
  "Id":382,
  "Category":5,
  "Image":76649,
  "UnlockCondition":561,
  "SortKey":5603,
  "Name":"Midgardsormr"
},
{
  "Id":383,
  "Category":5,
  "Image":76650,
  "UnlockCondition":562,
  "SortKey":5604,
  "Name":"Hraesvelgr-Stofftier"
},
{
  "Id":384,
  "Category":5,
  "Image":76651,
  "UnlockCondition":563,
  "SortKey":5605,
  "Name":"Nidhogg-Stofftier"
},
{
  "Id":385,
  "Category":5,
  "Image":76653,
  "UnlockCondition":564,
  "SortKey":5800,
  "Name":"Pinke Bohne"
},
{
  "Id":386,
  "Category":5,
  "Image":76654,
  "UnlockCondition":565,
  "SortKey":5801,
  "Name":"Pegwin"
},
{
  "Id":387,
  "Category":5,
  "Image":76652,
  "UnlockCondition":566,
  "SortKey":5750,
  "Name":"Kleiner Torgal"
},
{
  "Id":388,
  "Category":5,
  "Image":199956,
  "UnlockCondition":567,
  "SortKey":2300,
  "Name":"Aufträge der Vanu Vanu"
},
{
  "Id":389,
  "Category":5,
  "Image":199957,
  "UnlockCondition":568,
  "SortKey":2301,
  "Name":"Aufträge der Gnath"
},
{
  "Id":390,
  "Category":5,
  "Image":199958,
  "UnlockCondition":569,
  "SortKey":2302,
  "Name":"Aufträge der Mogrys"
},
{
  "Id":391,
  "Category":3,
  "Image":197720,
  "UnlockCondition":572,
  "SortKey":2252,
  "Name":"Mythen Eorzeas"
},
{
  "Id":392,
  "Category":4,
  "Image":198717,
  "UnlockCondition":572,
  "SortKey":2252,
  "Name":"Mythen Eorzeas"
},
{
  "Id":393,
  "Category":5,
  "Image":199715,
  "UnlockCondition":572,
  "SortKey":2252,
  "Name":"Mythen Eorzeas"
},
{
  "Id":394,
  "Category":3,
  "Image":197719,
  "UnlockCondition":573,
  "SortKey":2242,
  "Name":"Tatarus Wohlstandsmanufaktur"
},
{
  "Id":395,
  "Category":4,
  "Image":198716,
  "UnlockCondition":573,
  "SortKey":2242,
  "Name":"Tatarus Wohlstandsmanufaktur"
},
{
  "Id":396,
  "Category":2,
  "Image":194703,
  "UnlockCondition":574,
  "SortKey":2402,
  "Name":"Unstetes Gewölbe: Aloalo"
},
{
  "Id":397,
  "Category":3,
  "Image":197721,
  "UnlockCondition":574,
  "SortKey":2402,
  "Name":"Unstetes Gewölbe: Aloalo"
},
{
  "Id":398,
  "Category":1,
  "Image":195710,
  "UnlockCondition":570,
  "SortKey":2600,
  "Name":"Khloes Abenteueralbum"
},
{
  "Id":399,
  "Category":3,
  "Image":197717,
  "UnlockCondition":570,
  "SortKey":2600,
  "Name":"Khloes Abenteueralbum"
},
{
  "Id":400,
  "Category":4,
  "Image":198714,
  "UnlockCondition":570,
  "SortKey":2600,
  "Name":"Khloes Abenteueralbum"
},
{
  "Id":401,
  "Category":5,
  "Image":199713,
  "UnlockCondition":570,
  "SortKey":2600,
  "Name":"Khloes Abenteueralbum"
},
{
  "Id":402,
  "Category":1,
  "Image":195711,
  "UnlockCondition":571,
  "SortKey":2601,
  "Name":"Traumtafel"
},
{
  "Id":403,
  "Category":3,
  "Image":197718,
  "UnlockCondition":571,
  "SortKey":2601,
  "Name":"Traumtafel"
},
{
  "Id":404,
  "Category":4,
  "Image":198715,
  "UnlockCondition":571,
  "SortKey":2601,
  "Name":"Traumtafel"
},
{
  "Id":405,
  "Category":5,
  "Image":199714,
  "UnlockCondition":571,
  "SortKey":2601,
  "Name":"Traumtafel"
},
{
  "Id":406,
  "Category":1,
  "Image":195712,
  "UnlockCondition":575,
  "SortKey":2700,
  "Name":"Stolperville 1"
},
{
  "Id":407,
  "Category":1,
  "Image":195713,
  "UnlockCondition":576,
  "SortKey":2701,
  "Name":"Stolperville 2"
},
{
  "Id":408,
  "Category":1,
  "Image":195714,
  "UnlockCondition":577,
  "SortKey":2702,
  "Name":"Stolperville 3"
},
{
  "Id":409,
  "Category":1,
  "Image":195715,
  "UnlockCondition":607,
  "SortKey":2703,
  "Name":"Yo-kai Watch"
},
{
  "Id":410,
  "Category":4,
  "Image":198718,
  "UnlockCondition":607,
  "SortKey":2703,
  "Name":"Yo-kai Watch"
},
{
  "Id":411,
  "Category":5,
  "Image":199716,
  "UnlockCondition":607,
  "SortKey":2703,
  "Name":"Yo-kai Watch"
},
{
  "Id":412,
  "Category":0,
  "Image":0,
  "UnlockCondition":0,
  "SortKey":0,
  "Name":""
},
{
  "Id":413,
  "Category":0,
  "Image":0,
  "UnlockCondition":0,
  "SortKey":0,
  "Name":""
},
{
  "Id":414,
  "Category":0,
  "Image":0,
  "UnlockCondition":0,
  "SortKey":0,
  "Name":""
},
{
  "Id":415,
  "Category":0,
  "Image":0,
  "UnlockCondition":0,
  "SortKey":0,
  "Name":""
},
{
  "Id":416,
  "Category":0,
  "Image":0,
  "UnlockCondition":0,
  "SortKey":0,
  "Name":""
},
{
  "Id":417,
  "Category":0,
  "Image":0,
  "UnlockCondition":0,
  "SortKey":0,
  "Name":""
},
{
  "Id":418,
  "Category":0,
  "Image":0,
  "UnlockCondition":0,
  "SortKey":0,
  "Name":""
},
{
  "Id":419,
  "Category":0,
  "Image":0,
  "UnlockCondition":0,
  "SortKey":0,
  "Name":""
},
{
  "Id":420,
  "Category":0,
  "Image":0,
  "UnlockCondition":0,
  "SortKey":0,
  "Name":""
},
{
  "Id":421,
  "Category":0,
  "Image":0,
  "UnlockCondition":0,
  "SortKey":0,
  "Name":""
},
{
  "Id":422,
  "Category":0,
  "Image":0,
  "UnlockCondition":0,
  "SortKey":0,
  "Name":""
},
{
  "Id":423,
  "Category":0,
  "Image":0,
  "UnlockCondition":0,
  "SortKey":0,
  "Name":""
},
{
  "Id":424,
  "Category":0,
  "Image":0,
  "UnlockCondition":0,
  "SortKey":0,
  "Name":""
},
{
  "Id":425,
  "Category":0,
  "Image":0,
  "UnlockCondition":0,
  "SortKey":0,
  "Name":""
},
{
  "Id":426,
  "Category":0,
  "Image":0,
  "UnlockCondition":0,
  "SortKey":0,
  "Name":""
},
{
  "Id":427,
  "Category":0,
  "Image":0,
  "UnlockCondition":0,
  "SortKey":0,
  "Name":""
},
{
  "Id":428,
  "Category":0,
  "Image":0,
  "UnlockCondition":0,
  "SortKey":0,
  "Name":""
},
{
  "Id":429,
  "Category":0,
  "Image":0,
  "UnlockCondition":0,
  "SortKey":0,
  "Name":""
},
{
  "Id":430,
  "Category":0,
  "Image":0,
  "UnlockCondition":0,
  "SortKey":0,
  "Name":""
},
{
  "Id":431,
  "Category":0,
  "Image":0,
  "UnlockCondition":0,
  "SortKey":0,
  "Name":""
},
{
  "Id":432,
  "Category":0,
  "Image":0,
  "UnlockCondition":0,
  "SortKey":0,
  "Name":""
},
{
  "Id":433,
  "Category":0,
  "Image":0,
  "UnlockCondition":0,
  "SortKey":0,
  "Name":""
},
{
  "Id":434,
  "Category":0,
  "Image":0,
  "UnlockCondition":0,
  "SortKey":0,
  "Name":""
},
{
  "Id":435,
  "Category":0,
  "Image":0,
  "UnlockCondition":0,
  "SortKey":0,
  "Name":""
},
{
  "Id":436,
  "Category":0,
  "Image":0,
  "UnlockCondition":0,
  "SortKey":0,
  "Name":""
},
{
  "Id":437,
  "Category":0,
  "Image":0,
  "UnlockCondition":0,
  "SortKey":0,
  "Name":""
},
{
  "Id":438,
  "Category":0,
  "Image":0,
  "UnlockCondition":0,
  "SortKey":0,
  "Name":""
},
{
  "Id":439,
  "Category":0,
  "Image":0,
  "UnlockCondition":0,
  "SortKey":0,
  "Name":""
},
{
  "Id":440,
  "Category":0,
  "Image":0,
  "UnlockCondition":0,
  "SortKey":0,
  "Name":""
},
{
  "Id":441,
  "Category":0,
  "Image":0,
  "UnlockCondition":0,
  "SortKey":0,
  "Name":""
},
{
  "Id":442,
  "Category":0,
  "Image":0,
  "UnlockCondition":0,
  "SortKey":0,
  "Name":""
},
{
  "Id":443,
  "Category":0,
  "Image":0,
  "UnlockCondition":0,
  "SortKey":0,
  "Name":""
},
{
  "Id":444,
  "Category":0,
  "Image":0,
  "UnlockCondition":0,
  "SortKey":0,
  "Name":""
},
{
  "Id":445,
  "Category":0,
  "Image":0,
  "UnlockCondition":0,
  "SortKey":0,
  "Name":""
},
{
  "Id":446,
  "Category":0,
  "Image":0,
  "UnlockCondition":0,
  "SortKey":0,
  "Name":""
},
{
  "Id":447,
  "Category":0,
  "Image":0,
  "UnlockCondition":0,
  "SortKey":0,
  "Name":""
},
{
  "Id":448,
  "Category":0,
  "Image":0,
  "UnlockCondition":0,
  "SortKey":0,
  "Name":""
},
{
  "Id":449,
  "Category":0,
  "Image":0,
  "UnlockCondition":0,
  "SortKey":0,
  "Name":""
},
{
  "Id":450,
  "Category":0,
  "Image":0,
  "UnlockCondition":0,
  "SortKey":0,
  "Name":""
},
{
  "Id":451,
  "Category":0,
  "Image":0,
  "UnlockCondition":0,
  "SortKey":0,
  "Name":""
},
{
  "Id":452,
  "Category":0,
  "Image":0,
  "UnlockCondition":0,
  "SortKey":0,
  "Name":""
},
{
  "Id":453,
  "Category":0,
  "Image":0,
  "UnlockCondition":0,
  "SortKey":0,
  "Name":""
},
{
  "Id":454,
  "Category":0,
  "Image":0,
  "UnlockCondition":0,
  "SortKey":0,
  "Name":""
},
{
  "Id":455,
  "Category":0,
  "Image":0,
  "UnlockCondition":0,
  "SortKey":0,
  "Name":""
},
{
  "Id":456,
  "Category":0,
  "Image":0,
  "UnlockCondition":0,
  "SortKey":0,
  "Name":""
},
{
  "Id":457,
  "Category":0,
  "Image":0,
  "UnlockCondition":0,
  "SortKey":0,
  "Name":""
},
{
  "Id":458,
  "Category":0,
  "Image":0,
  "UnlockCondition":0,
  "SortKey":0,
  "Name":""
},
{
  "Id":459,
  "Category":0,
  "Image":0,
  "UnlockCondition":0,
  "SortKey":0,
  "Name":""
},
{
  "Id":460,
  "Category":0,
  "Image":0,
  "UnlockCondition":0,
  "SortKey":0,
  "Name":""
},
{
  "Id":461,
  "Category":0,
  "Image":0,
  "UnlockCondition":0,
  "SortKey":0,
  "Name":""
},
{
  "Id":462,
  "Category":0,
  "Image":0,
  "UnlockCondition":0,
  "SortKey":0,
  "Name":""
},
{
  "Id":463,
  "Category":0,
  "Image":0,
  "UnlockCondition":0,
  "SortKey":0,
  "Name":""
},
{
  "Id":464,
  "Category":0,
  "Image":0,
  "UnlockCondition":0,
  "SortKey":0,
  "Name":""
},
{
  "Id":465,
  "Category":0,
  "Image":0,
  "UnlockCondition":0,
  "SortKey":0,
  "Name":""
},
{
  "Id":466,
  "Category":0,
  "Image":0,
  "UnlockCondition":0,
  "SortKey":0,
  "Name":""
},
{
  "Id":467,
  "Category":0,
  "Image":0,
  "UnlockCondition":0,
  "SortKey":0,
  "Name":""
},
{
  "Id":468,
  "Category":0,
  "Image":0,
  "UnlockCondition":0,
  "SortKey":0,
  "Name":""
},
{
  "Id":469,
  "Category":0,
  "Image":0,
  "UnlockCondition":0,
  "SortKey":0,
  "Name":""
},
{
  "Id":470,
  "Category":0,
  "Image":0,
  "UnlockCondition":0,
  "SortKey":0,
  "Name":""
},
{
  "Id":471,
  "Category":0,
  "Image":0,
  "UnlockCondition":0,
  "SortKey":0,
  "Name":""
},
{
  "Id":472,
  "Category":0,
  "Image":0,
  "UnlockCondition":0,
  "SortKey":0,
  "Name":""
},
{
  "Id":473,
  "Category":0,
  "Image":0,
  "UnlockCondition":0,
  "SortKey":0,
  "Name":""
},
{
  "Id":474,
  "Category":0,
  "Image":0,
  "UnlockCondition":0,
  "SortKey":0,
  "Name":""
},
{
  "Id":475,
  "Category":0,
  "Image":0,
  "UnlockCondition":0,
  "SortKey":0,
  "Name":""
},
{
  "Id":476,
  "Category":0,
  "Image":0,
  "UnlockCondition":0,
  "SortKey":0,
  "Name":""
},
{
  "Id":477,
  "Category":0,
  "Image":0,
  "UnlockCondition":0,
  "SortKey":0,
  "Name":""
},
{
  "Id":478,
  "Category":0,
  "Image":0,
  "UnlockCondition":0,
  "SortKey":0,
  "Name":""
},
{
  "Id":479,
  "Category":0,
  "Image":0,
  "UnlockCondition":0,
  "SortKey":0,
  "Name":""
},
{
  "Id":480,
  "Category":0,
  "Image":0,
  "UnlockCondition":0,
  "SortKey":0,
  "Name":""
},
{
  "Id":481,
  "Category":0,
  "Image":0,
  "UnlockCondition":0,
  "SortKey":0,
  "Name":""
},
{
  "Id":482,
  "Category":0,
  "Image":0,
  "UnlockCondition":0,
  "SortKey":0,
  "Name":""
},
{
  "Id":483,
  "Category":0,
  "Image":0,
  "UnlockCondition":0,
  "SortKey":0,
  "Name":""
},
{
  "Id":484,
  "Category":0,
  "Image":0,
  "UnlockCondition":0,
  "SortKey":0,
  "Name":""
},
{
  "Id":485,
  "Category":0,
  "Image":0,
  "UnlockCondition":0,
  "SortKey":0,
  "Name":""
},
{
  "Id":486,
  "Category":0,
  "Image":0,
  "UnlockCondition":0,
  "SortKey":0,
  "Name":""
},
{
  "Id":487,
  "Category":0,
  "Image":0,
  "UnlockCondition":0,
  "SortKey":0,
  "Name":""
},
{
  "Id":488,
  "Category":0,
  "Image":0,
  "UnlockCondition":0,
  "SortKey":0,
  "Name":""
},
{
  "Id":489,
  "Category":0,
  "Image":0,
  "UnlockCondition":0,
  "SortKey":0,
  "Name":""
},
{
  "Id":490,
  "Category":0,
  "Image":0,
  "UnlockCondition":0,
  "SortKey":0,
  "Name":""
},
{
  "Id":491,
  "Category":0,
  "Image":0,
  "UnlockCondition":0,
  "SortKey":0,
  "Name":""
},
{
  "Id":492,
  "Category":0,
  "Image":0,
  "UnlockCondition":0,
  "SortKey":0,
  "Name":""
},
{
  "Id":493,
  "Category":0,
  "Image":0,
  "UnlockCondition":0,
  "SortKey":0,
  "Name":""
},
{
  "Id":494,
  "Category":0,
  "Image":0,
  "UnlockCondition":0,
  "SortKey":0,
  "Name":""
},
{
  "Id":495,
  "Category":0,
  "Image":0,
  "UnlockCondition":0,
  "SortKey":0,
  "Name":""
},
{
  "Id":496,
  "Category":0,
  "Image":0,
  "UnlockCondition":0,
  "SortKey":0,
  "Name":""
},
{
  "Id":497,
  "Category":0,
  "Image":0,
  "UnlockCondition":0,
  "SortKey":0,
  "Name":""
},
{
  "Id":498,
  "Category":0,
  "Image":0,
  "UnlockCondition":0,
  "SortKey":0,
  "Name":""
},
{
  "Id":499,
  "Category":0,
  "Image":0,
  "UnlockCondition":0,
  "SortKey":0,
  "Name":""
},
{
  "Id":500,
  "Category":0,
  "Image":0,
  "UnlockCondition":0,
  "SortKey":0,
  "Name":""
}
]
