﻿[
{
  "Id":0,
  "TopImage":196001,
  "BottomImage":196251,
  "FontColor":0,
  "UnlockCondition":1,
  "SortKey":0,
  "Name":"なし"
},
{
  "Id":1,
  "TopImage":196002,
  "BottomImage":196252,
  "FontColor":1,
  "UnlockCondition":1,
  "SortKey":3,
  "Name":"半透明：ブラック"
},
{
  "Id":2,
  "TopImage":196003,
  "BottomImage":196253,
  "FontColor":1,
  "UnlockCondition":1,
  "SortKey":1,
  "Name":"グラデーション：グレー"
},
{
  "Id":3,
  "TopImage":196004,
  "BottomImage":196254,
  "FontColor":1,
  "UnlockCondition":1,
  "SortKey":2,
  "Name":"グラデーション：パープル"
},
{
  "Id":4,
  "TopImage":196005,
  "BottomImage":196255,
  "FontColor":2,
  "UnlockCondition":1,
  "SortKey":5,
  "Name":"アイボリー"
},
{
  "Id":5,
  "TopImage":196006,
  "BottomImage":196256,
  "FontColor":1,
  "UnlockCondition":1,
  "SortKey":9,
  "Name":"スピア"
},
{
  "Id":6,
  "TopImage":196007,
  "BottomImage":196257,
  "FontColor":1,
  "UnlockCondition":1,
  "SortKey":10,
  "Name":"クラシック"
},
{
  "Id":7,
  "TopImage":196008,
  "BottomImage":196258,
  "FontColor":2,
  "UnlockCondition":1,
  "SortKey":7,
  "Name":"ウッドボード"
},
{
  "Id":8,
  "TopImage":196009,
  "BottomImage":196259,
  "FontColor":1,
  "UnlockCondition":1,
  "SortKey":4,
  "Name":"半透明：ダークブルー"
},
{
  "Id":9,
  "TopImage":196010,
  "BottomImage":196260,
  "FontColor":1,
  "UnlockCondition":1,
  "SortKey":6,
  "Name":"ウッドパターン"
},
{
  "Id":10,
  "TopImage":196011,
  "BottomImage":196261,
  "FontColor":1,
  "UnlockCondition":1,
  "SortKey":8,
  "Name":"スクロール"
},
{
  "Id":11,
  "TopImage":196101,
  "BottomImage":0,
  "FontColor":1,
  "UnlockCondition":319,
  "SortKey":100,
  "Name":"絶バハムート討滅戦"
},
{
  "Id":12,
  "TopImage":196102,
  "BottomImage":0,
  "FontColor":1,
  "UnlockCondition":320,
  "SortKey":101,
  "Name":"絶アルテマウェポン破壊作戦"
},
{
  "Id":13,
  "TopImage":196103,
  "BottomImage":0,
  "FontColor":1,
  "UnlockCondition":321,
  "SortKey":102,
  "Name":"絶アレキサンダー討滅戦"
},
{
  "Id":14,
  "TopImage":196104,
  "BottomImage":0,
  "FontColor":1,
  "UnlockCondition":322,
  "SortKey":103,
  "Name":"絶竜詩戦争"
},
{
  "Id":15,
  "TopImage":196216,
  "BottomImage":196466,
  "FontColor":1,
  "UnlockCondition":344,
  "SortKey":90,
  "Name":"友好部族クエスト：オミクロン族"
},
{
  "Id":16,
  "TopImage":196012,
  "BottomImage":196262,
  "FontColor":1,
  "UnlockCondition":347,
  "SortKey":14,
  "Name":"ミュージック"
},
{
  "Id":17,
  "TopImage":196013,
  "BottomImage":196263,
  "FontColor":1,
  "UnlockCondition":1,
  "SortKey":15,
  "Name":"東方風"
},
{
  "Id":18,
  "TopImage":196014,
  "BottomImage":196264,
  "FontColor":1,
  "UnlockCondition":346,
  "SortKey":11,
  "Name":"マスキングテープ：リムサ・ロミンサ"
},
{
  "Id":19,
  "TopImage":196015,
  "BottomImage":196265,
  "FontColor":1,
  "UnlockCondition":346,
  "SortKey":12,
  "Name":"マスキングテープ：グリダニア"
},
{
  "Id":20,
  "TopImage":196016,
  "BottomImage":196266,
  "FontColor":1,
  "UnlockCondition":346,
  "SortKey":13,
  "Name":"マスキングテープ：ウルダハ"
},
{
  "Id":21,
  "TopImage":196212,
  "BottomImage":196462,
  "FontColor":1,
  "UnlockCondition":429,
  "SortKey":86,
  "Name":"友好部族クエスト：ピクシー族"
},
{
  "Id":22,
  "TopImage":196213,
  "BottomImage":196463,
  "FontColor":1,
  "UnlockCondition":430,
  "SortKey":87,
  "Name":"友好部族クエスト：キタリ族"
},
{
  "Id":23,
  "TopImage":196214,
  "BottomImage":196464,
  "FontColor":1,
  "UnlockCondition":431,
  "SortKey":88,
  "Name":"友好部族クエスト：ドワーフ族"
},
{
  "Id":24,
  "TopImage":196215,
  "BottomImage":196465,
  "FontColor":1,
  "UnlockCondition":432,
  "SortKey":89,
  "Name":"友好部族クエスト：アルカソーダラ族"
},
{
  "Id":25,
  "TopImage":196217,
  "BottomImage":196467,
  "FontColor":1,
  "UnlockCondition":433,
  "SortKey":91,
  "Name":"友好部族クエスト：レポリット族"
},
{
  "Id":26,
  "TopImage":196105,
  "BottomImage":0,
  "FontColor":1,
  "UnlockCondition":434,
  "SortKey":104,
  "Name":"絶オメガ検証戦"
},
{
  "Id":27,
  "TopImage":196210,
  "BottomImage":196460,
  "FontColor":1,
  "UnlockCondition":524,
  "SortKey":83,
  "Name":"友好部族クエスト：コウジン族"
},
{
  "Id":28,
  "TopImage":196209,
  "BottomImage":196459,
  "FontColor":2,
  "UnlockCondition":525,
  "SortKey":84,
  "Name":"友好部族クエスト：アナンタ族"
},
{
  "Id":29,
  "TopImage":196211,
  "BottomImage":196461,
  "FontColor":1,
  "UnlockCondition":526,
  "SortKey":85,
  "Name":"友好部族クエスト：ナマズオ族"
},
{
  "Id":30,
  "TopImage":196106,
  "BottomImage":0,
  "FontColor":1,
  "UnlockCondition":523,
  "SortKey":120,
  "Name":"10周年記念"
},
{
  "Id":31,
  "TopImage":196107,
  "BottomImage":0,
  "FontColor":1,
  "UnlockCondition":529,
  "SortKey":95,
  "Name":"世界を釣る者"
},
{
  "Id":32,
  "TopImage":196108,
  "BottomImage":0,
  "FontColor":1,
  "UnlockCondition":530,
  "SortKey":96,
  "Name":"太公望への道"
},
{
  "Id":33,
  "TopImage":196109,
  "BottomImage":196351,
  "FontColor":1,
  "UnlockCondition":531,
  "SortKey":97,
  "Name":"月下の雀士"
},
{
  "Id":34,
  "TopImage":196206,
  "BottomImage":196456,
  "FontColor":1,
  "UnlockCondition":567,
  "SortKey":80,
  "Name":"友好部族クエスト：バヌバヌ族"
},
{
  "Id":35,
  "TopImage":196207,
  "BottomImage":196457,
  "FontColor":1,
  "UnlockCondition":568,
  "SortKey":81,
  "Name":"友好部族クエスト：グナース族"
},
{
  "Id":36,
  "TopImage":196208,
  "BottomImage":196458,
  "FontColor":1,
  "UnlockCondition":569,
  "SortKey":82,
  "Name":"友好部族クエスト：モーグリ族"
},
{
  "Id":37,
  "TopImage":196113,
  "BottomImage":0,
  "FontColor":1,
  "UnlockCondition":572,
  "SortKey":71,
  "Name":"ミソロジー・オブ・エオルゼア"
},
{
  "Id":38,
  "TopImage":196112,
  "BottomImage":0,
  "FontColor":1,
  "UnlockCondition":573,
  "SortKey":70,
  "Name":"タタルの大繁盛商店"
},
{
  "Id":39,
  "TopImage":196110,
  "BottomImage":0,
  "FontColor":2,
  "UnlockCondition":570,
  "SortKey":110,
  "Name":"クロの空想帳"
},
{
  "Id":40,
  "TopImage":196111,
  "BottomImage":0,
  "FontColor":1,
  "UnlockCondition":571,
  "SortKey":111,
  "Name":"ソーチョーの幻想盤"
},
{
  "Id":41,
  "TopImage":196114,
  "BottomImage":0,
  "FontColor":1,
  "UnlockCondition":575,
  "SortKey":115,
  "Name":"ブランダーヴィル1"
},
{
  "Id":42,
  "TopImage":196115,
  "BottomImage":0,
  "FontColor":1,
  "UnlockCondition":576,
  "SortKey":116,
  "Name":"ブランダーヴィル2"
},
{
  "Id":43,
  "TopImage":196116,
  "BottomImage":0,
  "FontColor":1,
  "UnlockCondition":577,
  "SortKey":117,
  "Name":"ブランダーヴィル3"
},
{
  "Id":44,
  "TopImage":196117,
  "BottomImage":0,
  "FontColor":1,
  "UnlockCondition":607,
  "SortKey":118,
  "Name":"妖怪ウォッチ ぷにぷに"
},
{
  "Id":45,
  "TopImage":0,
  "BottomImage":0,
  "FontColor":0,
  "UnlockCondition":0,
  "SortKey":0,
  "Name":""
},
{
  "Id":46,
  "TopImage":0,
  "BottomImage":0,
  "FontColor":0,
  "UnlockCondition":0,
  "SortKey":0,
  "Name":""
},
{
  "Id":47,
  "TopImage":0,
  "BottomImage":0,
  "FontColor":0,
  "UnlockCondition":0,
  "SortKey":0,
  "Name":""
},
{
  "Id":48,
  "TopImage":0,
  "BottomImage":0,
  "FontColor":0,
  "UnlockCondition":0,
  "SortKey":0,
  "Name":""
},
{
  "Id":49,
  "TopImage":0,
  "BottomImage":0,
  "FontColor":0,
  "UnlockCondition":0,
  "SortKey":0,
  "Name":""
},
{
  "Id":50,
  "TopImage":0,
  "BottomImage":0,
  "FontColor":0,
  "UnlockCondition":0,
  "SortKey":0,
  "Name":""
}
]
