﻿[
{
  "Id":0,
  "Icon":61762,
  "SortKey":0,
  "Name":"Nicht festgelegt"
},
{
  "Id":1,
  "Icon":61801,
  "SortKey":20,
  "Name":"Dungeons"
},
{
  "Id":2,
  "Icon":61804,
  "SortKey":21,
  "Name":"Prüfungen"
},
{
  "Id":3,
  "Icon":61802,
  "SortKey":22,
  "Name":"Raids"
},
{
  "Id":4,
  "Icon":61832,
  "SortKey":23,
  "Name":"Fatale Raids"
},
{
  "Id":5,
  "Icon":61824,
  "SortKey":30,
  "Name":"Tiefe Gewölbe"
},
{
  "Id":6,
  "Icon":61837,
  "SortKey":31,
  "Name":"Feldexkursionen"
},
{
  "Id":7,
  "Icon":61806,
  "SortKey":40,
  "Name":"PvP"
},
{
  "Id":8,
  "Icon":61836,
  "SortKey":51,
  "Name":"Blaumagier"
},
{
  "Id":9,
  "Icon":61808,
  "SortKey":52,
  "Name":"Schatzsuche"
},
{
  "Id":10,
  "Icon":61819,
  "SortKey":53,
  "Name":"Hohe Jagd"
},
{
  "Id":11,
  "Icon":61816,
  "SortKey":100,
  "Name":"Handwerk"
},
{
  "Id":12,
  "Icon":61755,
  "SortKey":101,
  "Name":"Sammeln"
},
{
  "Id":13,
  "Icon":61756,
  "SortKey":102,
  "Name":"Angeln"
},
{
  "Id":14,
  "Icon":61757,
  "SortKey":10,
  "Name":"Hauptszenario"
},
{
  "Id":15,
  "Icon":61820,
  "SortKey":54,
  "Name":"Gold Saucer"
},
{
  "Id":16,
  "Icon":61807,
  "SortKey":50,
  "Name":"Zufallsinhalte"
},
{
  "Id":17,
  "Icon":61752,
  "SortKey":150,
  "Name":"Stufenaufstieg"
},
{
  "Id":18,
  "Icon":61751,
  "SortKey":151,
  "Name":"Rollenspiel"
},
{
  "Id":19,
  "Icon":61754,
  "SortKey":153,
  "Name":"Hardcore"
},
{
  "Id":20,
  "Icon":61753,
  "SortKey":152,
  "Name":"Casual"
},
{
  "Id":21,
  "Icon":61823,
  "SortKey":154,
  "Name":"Anfänger"
},
{
  "Id":22,
  "Icon":61760,
  "SortKey":155,
  "Name":"Mentor"
},
{
  "Id":23,
  "Icon":61758,
  "SortKey":200,
  "Name":"Reichtümer anhäufen"
},
{
  "Id":24,
  "Icon":61764,
  "SortKey":205,
  "Name":"Gruppenfotos"
},
{
  "Id":25,
  "Icon":61759,
  "SortKey":204,
  "Name":"Projektionen"
},
{
  "Id":26,
  "Icon":61763,
  "SortKey":203,
  "Name":"Musik"
},
{
  "Id":27,
  "Icon":61765,
  "SortKey":206,
  "Name":"Chat"
},
{
  "Id":28,
  "Icon":61761,
  "SortKey":202,
  "Name":"Housing"
},
{
  "Id":29,
  "Icon":61766,
  "SortKey":207,
  "Name":"Spieler-Events"
},
{
  "Id":30,
  "Icon":61767,
  "SortKey":201,
  "Name":"Errungenschaften"
},
{
  "Id":31,
  "Icon":61846,
  "SortKey":32,
  "Name":"Gewölbesuche"
},
{
  "Id":32,
  "Icon":61768,
  "SortKey":55,
  "Name":"Domanisches Mahjong"
},
{
  "Id":33,
  "Icon":61847,
  "SortKey":56,
  "Name":"Inselparadies"
}
]
