﻿[
{
  "Id":0,
  "Name":"aventurier",
  "Abbreviation":"AVN",
  "ClassJobCategory":30,
  "ExpArrayIndex":-1,
  "BattleClassIndex":-1,
  "JobIndex":0,
  "DohDolJobIndex":-1,
  "Modifier{HitPoints}":100,
  "Modifier{ManaPoints}":100,
  "Modifier{Strength}":100,
  "Modifier{Vitality}":100,
  "Modifier{Dexterity}":100,
  "Modifier{Intelligence}":100,
  "Modifier{Mind}":100,
  "Modifier{Piety}":100,
  "PvPActionSortRow":0,
  "ClassJob{Parent}":0,
  "Name{English}":"Adventurer",
  "Item{StartingWeapon}":0,
  "Role":0,
  "StartingTown":0,
  "MonsterNote":127,
  "PrimaryStat":0,
  "LimitBreak1":0,
  "LimitBreak2":0,
  "LimitBreak3":0,
  "UIPriority":0,
  "Item{SoulCrystal}":0,
  "UnlockQuest":0,
  "RelicQuest":0,
  "Prerequisite":0,
  "StartingLevel":1,
  "PartyBonus":0,
  "IsLimitedJob":false,
  "CanQueueForDuty":false
},
{
  "Id":1,
  "Name":"gladiateur",
  "Abbreviation":"GLA",
  "ClassJobCategory":30,
  "ExpArrayIndex":1,
  "BattleClassIndex":0,
  "JobIndex":0,
  "DohDolJobIndex":-1,
  "Modifier{HitPoints}":130,
  "Modifier{ManaPoints}":100,
  "Modifier{Strength}":95,
  "Modifier{Vitality}":100,
  "Modifier{Dexterity}":90,
  "Modifier{Intelligence}":50,
  "Modifier{Mind}":95,
  "Modifier{Piety}":100,
  "PvPActionSortRow":0,
  "ClassJob{Parent}":1,
  "Name{English}":"Gladiator",
  "Item{StartingWeapon}":1601,
  "Role":1,
  "StartingTown":3,
  "MonsterNote":0,
  "PrimaryStat":1,
  "LimitBreak1":197,
  "LimitBreak2":198,
  "LimitBreak3":199,
  "UIPriority":2,
  "Item{SoulCrystal}":0,
  "UnlockQuest":0,
  "RelicQuest":0,
  "Prerequisite":0,
  "StartingLevel":1,
  "PartyBonus":1,
  "IsLimitedJob":false,
  "CanQueueForDuty":true
},
{
  "Id":2,
  "Name":"pugiliste",
  "Abbreviation":"PGL",
  "ClassJobCategory":30,
  "ExpArrayIndex":0,
  "BattleClassIndex":1,
  "JobIndex":0,
  "DohDolJobIndex":-1,
  "Modifier{HitPoints}":105,
  "Modifier{ManaPoints}":100,
  "Modifier{Strength}":100,
  "Modifier{Vitality}":95,
  "Modifier{Dexterity}":100,
  "Modifier{Intelligence}":45,
  "Modifier{Mind}":85,
  "Modifier{Piety}":100,
  "PvPActionSortRow":0,
  "ClassJob{Parent}":2,
  "Name{English}":"Pugilist",
  "Item{StartingWeapon}":1680,
  "Role":2,
  "StartingTown":3,
  "MonsterNote":1,
  "PrimaryStat":1,
  "LimitBreak1":200,
  "LimitBreak2":201,
  "LimitBreak3":202,
  "UIPriority":22,
  "Item{SoulCrystal}":0,
  "UnlockQuest":0,
  "RelicQuest":0,
  "Prerequisite":0,
  "StartingLevel":1,
  "PartyBonus":3,
  "IsLimitedJob":false,
  "CanQueueForDuty":true
},
{
  "Id":3,
  "Name":"maraudeur",
  "Abbreviation":"MRD",
  "ClassJobCategory":30,
  "ExpArrayIndex":2,
  "BattleClassIndex":2,
  "JobIndex":0,
  "DohDolJobIndex":-1,
  "Modifier{HitPoints}":135,
  "Modifier{ManaPoints}":100,
  "Modifier{Strength}":100,
  "Modifier{Vitality}":100,
  "Modifier{Dexterity}":90,
  "Modifier{Intelligence}":30,
  "Modifier{Mind}":50,
  "Modifier{Piety}":100,
  "PvPActionSortRow":0,
  "ClassJob{Parent}":3,
  "Name{English}":"Marauder",
  "Item{StartingWeapon}":1749,
  "Role":1,
  "StartingTown":1,
  "MonsterNote":2,
  "PrimaryStat":1,
  "LimitBreak1":197,
  "LimitBreak2":198,
  "LimitBreak3":4240,
  "UIPriority":4,
  "Item{SoulCrystal}":0,
  "UnlockQuest":0,
  "RelicQuest":0,
  "Prerequisite":0,
  "StartingLevel":1,
  "PartyBonus":1,
  "IsLimitedJob":false,
  "CanQueueForDuty":true
},
{
  "Id":4,
  "Name":"maître d'hast",
  "Abbreviation":"HAS",
  "ClassJobCategory":30,
  "ExpArrayIndex":4,
  "BattleClassIndex":3,
  "JobIndex":0,
  "DohDolJobIndex":-1,
  "Modifier{HitPoints}":110,
  "Modifier{ManaPoints}":100,
  "Modifier{Strength}":105,
  "Modifier{Vitality}":100,
  "Modifier{Dexterity}":95,
  "Modifier{Intelligence}":40,
  "Modifier{Mind}":60,
  "Modifier{Piety}":100,
  "PvPActionSortRow":0,
  "ClassJob{Parent}":4,
  "Name{English}":"Lancer",
  "Item{StartingWeapon}":1819,
  "Role":2,
  "StartingTown":2,
  "MonsterNote":3,
  "PrimaryStat":1,
  "LimitBreak1":200,
  "LimitBreak2":201,
  "LimitBreak3":4242,
  "UIPriority":24,
  "Item{SoulCrystal}":0,
  "UnlockQuest":0,
  "RelicQuest":0,
  "Prerequisite":0,
  "StartingLevel":1,
  "PartyBonus":3,
  "IsLimitedJob":false,
  "CanQueueForDuty":true
},
{
  "Id":5,
  "Name":"archer",
  "Abbreviation":"ARC",
  "ClassJobCategory":30,
  "ExpArrayIndex":3,
  "BattleClassIndex":4,
  "JobIndex":0,
  "DohDolJobIndex":-1,
  "Modifier{HitPoints}":100,
  "Modifier{ManaPoints}":100,
  "Modifier{Strength}":85,
  "Modifier{Vitality}":95,
  "Modifier{Dexterity}":105,
  "Modifier{Intelligence}":80,
  "Modifier{Mind}":75,
  "Modifier{Piety}":100,
  "PvPActionSortRow":0,
  "ClassJob{Parent}":5,
  "Name{English}":"Archer",
  "Item{StartingWeapon}":1889,
  "Role":3,
  "StartingTown":2,
  "MonsterNote":4,
  "PrimaryStat":2,
  "LimitBreak1":4238,
  "LimitBreak2":4239,
  "LimitBreak3":4244,
  "UIPriority":32,
  "Item{SoulCrystal}":0,
  "UnlockQuest":0,
  "RelicQuest":0,
  "Prerequisite":0,
  "StartingLevel":1,
  "PartyBonus":4,
  "IsLimitedJob":false,
  "CanQueueForDuty":true
},
{
  "Id":6,
  "Name":"élémentaliste",
  "Abbreviation":"ÉLM",
  "ClassJobCategory":31,
  "ExpArrayIndex":6,
  "BattleClassIndex":5,
  "JobIndex":0,
  "DohDolJobIndex":-1,
  "Modifier{HitPoints}":100,
  "Modifier{ManaPoints}":100,
  "Modifier{Strength}":50,
  "Modifier{Vitality}":95,
  "Modifier{Dexterity}":100,
  "Modifier{Intelligence}":100,
  "Modifier{Mind}":105,
  "Modifier{Piety}":100,
  "PvPActionSortRow":0,
  "ClassJob{Parent}":6,
  "Name{English}":"Conjurer",
  "Item{StartingWeapon}":1995,
  "Role":4,
  "StartingTown":2,
  "MonsterNote":5,
  "PrimaryStat":5,
  "LimitBreak1":206,
  "LimitBreak2":207,
  "LimitBreak3":208,
  "UIPriority":12,
  "Item{SoulCrystal}":0,
  "UnlockQuest":0,
  "RelicQuest":0,
  "Prerequisite":0,
  "StartingLevel":1,
  "PartyBonus":2,
  "IsLimitedJob":false,
  "CanQueueForDuty":true
},
{
  "Id":7,
  "Name":"occultiste",
  "Abbreviation":"OCC",
  "ClassJobCategory":31,
  "ExpArrayIndex":5,
  "BattleClassIndex":6,
  "JobIndex":0,
  "DohDolJobIndex":-1,
  "Modifier{HitPoints}":100,
  "Modifier{ManaPoints}":100,
  "Modifier{Strength}":40,
  "Modifier{Vitality}":95,
  "Modifier{Dexterity}":95,
  "Modifier{Intelligence}":105,
  "Modifier{Mind}":70,
  "Modifier{Piety}":100,
  "PvPActionSortRow":0,
  "ClassJob{Parent}":7,
  "Name{English}":"Thaumaturge",
  "Item{StartingWeapon}":2055,
  "Role":3,
  "StartingTown":3,
  "MonsterNote":6,
  "PrimaryStat":4,
  "LimitBreak1":203,
  "LimitBreak2":204,
  "LimitBreak3":205,
  "UIPriority":42,
  "Item{SoulCrystal}":0,
  "UnlockQuest":0,
  "RelicQuest":0,
  "Prerequisite":0,
  "StartingLevel":1,
  "PartyBonus":5,
  "IsLimitedJob":false,
  "CanQueueForDuty":true
},
{
  "Id":8,
  "Name":"menuisier",
  "Abbreviation":"MEN",
  "ClassJobCategory":33,
  "ExpArrayIndex":7,
  "BattleClassIndex":-1,
  "JobIndex":0,
  "DohDolJobIndex":0,
  "Modifier{HitPoints}":100,
  "Modifier{ManaPoints}":100,
  "Modifier{Strength}":90,
  "Modifier{Vitality}":105,
  "Modifier{Dexterity}":100,
  "Modifier{Intelligence}":90,
  "Modifier{Mind}":90,
  "Modifier{Piety}":100,
  "PvPActionSortRow":0,
  "ClassJob{Parent}":8,
  "Name{English}":"Carpenter",
  "Item{StartingWeapon}":0,
  "Role":0,
  "StartingTown":0,
  "MonsterNote":127,
  "PrimaryStat":0,
  "LimitBreak1":0,
  "LimitBreak2":0,
  "LimitBreak3":0,
  "UIPriority":101,
  "Item{SoulCrystal}":10337,
  "UnlockQuest":0,
  "RelicQuest":0,
  "Prerequisite":0,
  "StartingLevel":1,
  "PartyBonus":7,
  "IsLimitedJob":false,
  "CanQueueForDuty":false
},
{
  "Id":9,
  "Name":"forgeron",
  "Abbreviation":"FRG",
  "ClassJobCategory":33,
  "ExpArrayIndex":8,
  "BattleClassIndex":-1,
  "JobIndex":0,
  "DohDolJobIndex":1,
  "Modifier{HitPoints}":100,
  "Modifier{ManaPoints}":100,
  "Modifier{Strength}":105,
  "Modifier{Vitality}":90,
  "Modifier{Dexterity}":90,
  "Modifier{Intelligence}":90,
  "Modifier{Mind}":100,
  "Modifier{Piety}":100,
  "PvPActionSortRow":0,
  "ClassJob{Parent}":9,
  "Name{English}":"Blacksmith",
  "Item{StartingWeapon}":0,
  "Role":0,
  "StartingTown":0,
  "MonsterNote":127,
  "PrimaryStat":0,
  "LimitBreak1":0,
  "LimitBreak2":0,
  "LimitBreak3":0,
  "UIPriority":102,
  "Item{SoulCrystal}":10338,
  "UnlockQuest":0,
  "RelicQuest":0,
  "Prerequisite":0,
  "StartingLevel":1,
  "PartyBonus":7,
  "IsLimitedJob":false,
  "CanQueueForDuty":false
},
{
  "Id":10,
  "Name":"armurier",
  "Abbreviation":"ARM",
  "ClassJobCategory":33,
  "ExpArrayIndex":9,
  "BattleClassIndex":-1,
  "JobIndex":0,
  "DohDolJobIndex":2,
  "Modifier{HitPoints}":100,
  "Modifier{ManaPoints}":100,
  "Modifier{Strength}":100,
  "Modifier{Vitality}":105,
  "Modifier{Dexterity}":90,
  "Modifier{Intelligence}":90,
  "Modifier{Mind}":90,
  "Modifier{Piety}":100,
  "PvPActionSortRow":0,
  "ClassJob{Parent}":10,
  "Name{English}":"Armorer",
  "Item{StartingWeapon}":0,
  "Role":0,
  "StartingTown":0,
  "MonsterNote":127,
  "PrimaryStat":0,
  "LimitBreak1":0,
  "LimitBreak2":0,
  "LimitBreak3":0,
  "UIPriority":103,
  "Item{SoulCrystal}":10339,
  "UnlockQuest":0,
  "RelicQuest":0,
  "Prerequisite":0,
  "StartingLevel":1,
  "PartyBonus":7,
  "IsLimitedJob":false,
  "CanQueueForDuty":false
},
{
  "Id":11,
  "Name":"orfèvre",
  "Abbreviation":"ORF",
  "ClassJobCategory":33,
  "ExpArrayIndex":10,
  "BattleClassIndex":-1,
  "JobIndex":0,
  "DohDolJobIndex":3,
  "Modifier{HitPoints}":100,
  "Modifier{ManaPoints}":100,
  "Modifier{Strength}":90,
  "Modifier{Vitality}":90,
  "Modifier{Dexterity}":105,
  "Modifier{Intelligence}":100,
  "Modifier{Mind}":90,
  "Modifier{Piety}":100,
  "PvPActionSortRow":0,
  "ClassJob{Parent}":11,
  "Name{English}":"Goldsmith",
  "Item{StartingWeapon}":0,
  "Role":0,
  "StartingTown":0,
  "MonsterNote":127,
  "PrimaryStat":0,
  "LimitBreak1":0,
  "LimitBreak2":0,
  "LimitBreak3":0,
  "UIPriority":104,
  "Item{SoulCrystal}":10340,
  "UnlockQuest":0,
  "RelicQuest":0,
  "Prerequisite":0,
  "StartingLevel":1,
  "PartyBonus":7,
  "IsLimitedJob":false,
  "CanQueueForDuty":false
},
{
  "Id":12,
  "Name":"tanneur",
  "Abbreviation":"TAN",
  "ClassJobCategory":33,
  "ExpArrayIndex":11,
  "BattleClassIndex":-1,
  "JobIndex":0,
  "DohDolJobIndex":4,
  "Modifier{HitPoints}":100,
  "Modifier{ManaPoints}":100,
  "Modifier{Strength}":90,
  "Modifier{Vitality}":105,
  "Modifier{Dexterity}":90,
  "Modifier{Intelligence}":100,
  "Modifier{Mind}":90,
  "Modifier{Piety}":100,
  "PvPActionSortRow":0,
  "ClassJob{Parent}":12,
  "Name{English}":"Leatherworker",
  "Item{StartingWeapon}":0,
  "Role":0,
  "StartingTown":0,
  "MonsterNote":127,
  "PrimaryStat":0,
  "LimitBreak1":0,
  "LimitBreak2":0,
  "LimitBreak3":0,
  "UIPriority":105,
  "Item{SoulCrystal}":10341,
  "UnlockQuest":0,
  "RelicQuest":0,
  "Prerequisite":0,
  "StartingLevel":1,
  "PartyBonus":7,
  "IsLimitedJob":false,
  "CanQueueForDuty":false
},
{
  "Id":13,
  "Name":"couturier",
  "Abbreviation":"COU",
  "ClassJobCategory":33,
  "ExpArrayIndex":12,
  "BattleClassIndex":-1,
  "JobIndex":0,
  "DohDolJobIndex":5,
  "Modifier{HitPoints}":100,
  "Modifier{ManaPoints}":100,
  "Modifier{Strength}":90,
  "Modifier{Vitality}":90,
  "Modifier{Dexterity}":105,
  "Modifier{Intelligence}":90,
  "Modifier{Mind}":100,
  "Modifier{Piety}":100,
  "PvPActionSortRow":0,
  "ClassJob{Parent}":13,
  "Name{English}":"Weaver",
  "Item{StartingWeapon}":0,
  "Role":0,
  "StartingTown":0,
  "MonsterNote":127,
  "PrimaryStat":0,
  "LimitBreak1":0,
  "LimitBreak2":0,
  "LimitBreak3":0,
  "UIPriority":106,
  "Item{SoulCrystal}":10342,
  "UnlockQuest":0,
  "RelicQuest":0,
  "Prerequisite":0,
  "StartingLevel":1,
  "PartyBonus":7,
  "IsLimitedJob":false,
  "CanQueueForDuty":false
},
{
  "Id":14,
  "Name":"alchimiste",
  "Abbreviation":"ALC",
  "ClassJobCategory":33,
  "ExpArrayIndex":13,
  "BattleClassIndex":-1,
  "JobIndex":0,
  "DohDolJobIndex":6,
  "Modifier{HitPoints}":100,
  "Modifier{ManaPoints}":100,
  "Modifier{Strength}":90,
  "Modifier{Vitality}":90,
  "Modifier{Dexterity}":90,
  "Modifier{Intelligence}":105,
  "Modifier{Mind}":90,
  "Modifier{Piety}":100,
  "PvPActionSortRow":0,
  "ClassJob{Parent}":14,
  "Name{English}":"Alchemist",
  "Item{StartingWeapon}":0,
  "Role":0,
  "StartingTown":0,
  "MonsterNote":127,
  "PrimaryStat":0,
  "LimitBreak1":0,
  "LimitBreak2":0,
  "LimitBreak3":0,
  "UIPriority":107,
  "Item{SoulCrystal}":10343,
  "UnlockQuest":0,
  "RelicQuest":0,
  "Prerequisite":0,
  "StartingLevel":1,
  "PartyBonus":7,
  "IsLimitedJob":false,
  "CanQueueForDuty":false
},
{
  "Id":15,
  "Name":"cuisinier",
  "Abbreviation":"CUI",
  "ClassJobCategory":33,
  "ExpArrayIndex":14,
  "BattleClassIndex":-1,
  "JobIndex":0,
  "DohDolJobIndex":7,
  "Modifier{HitPoints}":100,
  "Modifier{ManaPoints}":100,
  "Modifier{Strength}":90,
  "Modifier{Vitality}":90,
  "Modifier{Dexterity}":90,
  "Modifier{Intelligence}":90,
  "Modifier{Mind}":105,
  "Modifier{Piety}":100,
  "PvPActionSortRow":0,
  "ClassJob{Parent}":15,
  "Name{English}":"Culinarian",
  "Item{StartingWeapon}":0,
  "Role":0,
  "StartingTown":0,
  "MonsterNote":127,
  "PrimaryStat":0,
  "LimitBreak1":0,
  "LimitBreak2":0,
  "LimitBreak3":0,
  "UIPriority":108,
  "Item{SoulCrystal}":10344,
  "UnlockQuest":0,
  "RelicQuest":0,
  "Prerequisite":0,
  "StartingLevel":1,
  "PartyBonus":7,
  "IsLimitedJob":false,
  "CanQueueForDuty":false
},
{
  "Id":16,
  "Name":"mineur",
  "Abbreviation":"MIN",
  "ClassJobCategory":32,
  "ExpArrayIndex":15,
  "BattleClassIndex":-1,
  "JobIndex":0,
  "DohDolJobIndex":0,
  "Modifier{HitPoints}":100,
  "Modifier{ManaPoints}":100,
  "Modifier{Strength}":100,
  "Modifier{Vitality}":90,
  "Modifier{Dexterity}":90,
  "Modifier{Intelligence}":90,
  "Modifier{Mind}":100,
  "Modifier{Piety}":100,
  "PvPActionSortRow":0,
  "ClassJob{Parent}":16,
  "Name{English}":"Miner",
  "Item{StartingWeapon}":0,
  "Role":0,
  "StartingTown":0,
  "MonsterNote":127,
  "PrimaryStat":0,
  "LimitBreak1":0,
  "LimitBreak2":0,
  "LimitBreak3":0,
  "UIPriority":201,
  "Item{SoulCrystal}":0,
  "UnlockQuest":0,
  "RelicQuest":0,
  "Prerequisite":0,
  "StartingLevel":1,
  "PartyBonus":6,
  "IsLimitedJob":false,
  "CanQueueForDuty":false
},
{
  "Id":17,
  "Name":"botaniste",
  "Abbreviation":"BTN",
  "ClassJobCategory":32,
  "ExpArrayIndex":16,
  "BattleClassIndex":-1,
  "JobIndex":0,
  "DohDolJobIndex":1,
  "Modifier{HitPoints}":100,
  "Modifier{ManaPoints}":100,
  "Modifier{Strength}":90,
  "Modifier{Vitality}":90,
  "Modifier{Dexterity}":100,
  "Modifier{Intelligence}":100,
  "Modifier{Mind}":90,
  "Modifier{Piety}":100,
  "PvPActionSortRow":0,
  "ClassJob{Parent}":17,
  "Name{English}":"Botanist",
  "Item{StartingWeapon}":0,
  "Role":0,
  "StartingTown":0,
  "MonsterNote":127,
  "PrimaryStat":0,
  "LimitBreak1":0,
  "LimitBreak2":0,
  "LimitBreak3":0,
  "UIPriority":202,
  "Item{SoulCrystal}":0,
  "UnlockQuest":0,
  "RelicQuest":0,
  "Prerequisite":0,
  "StartingLevel":1,
  "PartyBonus":6,
  "IsLimitedJob":false,
  "CanQueueForDuty":false
},
{
  "Id":18,
  "Name":"pêcheur",
  "Abbreviation":"PÊC",
  "ClassJobCategory":32,
  "ExpArrayIndex":17,
  "BattleClassIndex":-1,
  "JobIndex":0,
  "DohDolJobIndex":2,
  "Modifier{HitPoints}":100,
  "Modifier{ManaPoints}":100,
  "Modifier{Strength}":100,
  "Modifier{Vitality}":100,
  "Modifier{Dexterity}":100,
  "Modifier{Intelligence}":100,
  "Modifier{Mind}":100,
  "Modifier{Piety}":100,
  "PvPActionSortRow":0,
  "ClassJob{Parent}":18,
  "Name{English}":"Fisher",
  "Item{StartingWeapon}":0,
  "Role":0,
  "StartingTown":0,
  "MonsterNote":127,
  "PrimaryStat":0,
  "LimitBreak1":0,
  "LimitBreak2":0,
  "LimitBreak3":0,
  "UIPriority":203,
  "Item{SoulCrystal}":0,
  "UnlockQuest":0,
  "RelicQuest":0,
  "Prerequisite":0,
  "StartingLevel":1,
  "PartyBonus":6,
  "IsLimitedJob":false,
  "CanQueueForDuty":false
},
{
  "Id":19,
  "Name":"paladin",
  "Abbreviation":"PLD",
  "ClassJobCategory":30,
  "ExpArrayIndex":1,
  "BattleClassIndex":-1,
  "JobIndex":1,
  "DohDolJobIndex":-1,
  "Modifier{HitPoints}":140,
  "Modifier{ManaPoints}":100,
  "Modifier{Strength}":100,
  "Modifier{Vitality}":110,
  "Modifier{Dexterity}":95,
  "Modifier{Intelligence}":60,
  "Modifier{Mind}":100,
  "Modifier{Piety}":100,
  "PvPActionSortRow":1,
  "ClassJob{Parent}":1,
  "Name{English}":"Paladin",
  "Item{StartingWeapon}":0,
  "Role":1,
  "StartingTown":0,
  "MonsterNote":0,
  "PrimaryStat":1,
  "LimitBreak1":197,
  "LimitBreak2":198,
  "LimitBreak3":199,
  "UIPriority":1,
  "Item{SoulCrystal}":4542,
  "UnlockQuest":66591,
  "RelicQuest":66656,
  "Prerequisite":66596,
  "StartingLevel":1,
  "PartyBonus":1,
  "IsLimitedJob":false,
  "CanQueueForDuty":true
},
{
  "Id":20,
  "Name":"moine",
  "Abbreviation":"MOI",
  "ClassJobCategory":30,
  "ExpArrayIndex":0,
  "BattleClassIndex":-1,
  "JobIndex":2,
  "DohDolJobIndex":-1,
  "Modifier{HitPoints}":110,
  "Modifier{ManaPoints}":100,
  "Modifier{Strength}":110,
  "Modifier{Vitality}":100,
  "Modifier{Dexterity}":105,
  "Modifier{Intelligence}":50,
  "Modifier{Mind}":90,
  "Modifier{Piety}":100,
  "PvPActionSortRow":4,
  "ClassJob{Parent}":2,
  "Name{English}":"Monk",
  "Item{StartingWeapon}":0,
  "Role":2,
  "StartingTown":0,
  "MonsterNote":1,
  "PrimaryStat":1,
  "LimitBreak1":200,
  "LimitBreak2":201,
  "LimitBreak3":202,
  "UIPriority":21,
  "Item{SoulCrystal}":4543,
  "UnlockQuest":66597,
  "RelicQuest":66657,
  "Prerequisite":66602,
  "StartingLevel":1,
  "PartyBonus":3,
  "IsLimitedJob":false,
  "CanQueueForDuty":true
},
{
  "Id":21,
  "Name":"guerrier",
  "Abbreviation":"GUE",
  "ClassJobCategory":30,
  "ExpArrayIndex":2,
  "BattleClassIndex":-1,
  "JobIndex":3,
  "DohDolJobIndex":-1,
  "Modifier{HitPoints}":145,
  "Modifier{ManaPoints}":100,
  "Modifier{Strength}":105,
  "Modifier{Vitality}":110,
  "Modifier{Dexterity}":95,
  "Modifier{Intelligence}":40,
  "Modifier{Mind}":55,
  "Modifier{Piety}":100,
  "PvPActionSortRow":2,
  "ClassJob{Parent}":3,
  "Name{English}":"Warrior",
  "Item{StartingWeapon}":0,
  "Role":1,
  "StartingTown":0,
  "MonsterNote":2,
  "PrimaryStat":1,
  "LimitBreak1":197,
  "LimitBreak2":198,
  "LimitBreak3":4240,
  "UIPriority":3,
  "Item{SoulCrystal}":4544,
  "UnlockQuest":66585,
  "RelicQuest":66655,
  "Prerequisite":66590,
  "StartingLevel":1,
  "PartyBonus":1,
  "IsLimitedJob":false,
  "CanQueueForDuty":true
},
{
  "Id":22,
  "Name":"chevalier dragon",
  "Abbreviation":"DRG",
  "ClassJobCategory":30,
  "ExpArrayIndex":4,
  "BattleClassIndex":-1,
  "JobIndex":4,
  "DohDolJobIndex":-1,
  "Modifier{HitPoints}":115,
  "Modifier{ManaPoints}":100,
  "Modifier{Strength}":115,
  "Modifier{Vitality}":105,
  "Modifier{Dexterity}":100,
  "Modifier{Intelligence}":45,
  "Modifier{Mind}":65,
  "Modifier{Piety}":100,
  "PvPActionSortRow":5,
  "ClassJob{Parent}":4,
  "Name{English}":"Dragoon",
  "Item{StartingWeapon}":0,
  "Role":2,
  "StartingTown":0,
  "MonsterNote":3,
  "PrimaryStat":1,
  "LimitBreak1":200,
  "LimitBreak2":201,
  "LimitBreak3":4242,
  "UIPriority":23,
  "Item{SoulCrystal}":4545,
  "UnlockQuest":66603,
  "RelicQuest":66658,
  "Prerequisite":66608,
  "StartingLevel":1,
  "PartyBonus":3,
  "IsLimitedJob":false,
  "CanQueueForDuty":true
},
{
  "Id":23,
  "Name":"barde",
  "Abbreviation":"BRD",
  "ClassJobCategory":30,
  "ExpArrayIndex":3,
  "BattleClassIndex":-1,
  "JobIndex":5,
  "DohDolJobIndex":-1,
  "Modifier{HitPoints}":105,
  "Modifier{ManaPoints}":100,
  "Modifier{Strength}":90,
  "Modifier{Vitality}":100,
  "Modifier{Dexterity}":115,
  "Modifier{Intelligence}":85,
  "Modifier{Mind}":80,
  "Modifier{Piety}":100,
  "PvPActionSortRow":8,
  "ClassJob{Parent}":5,
  "Name{English}":"Bard",
  "Item{StartingWeapon}":0,
  "Role":3,
  "StartingTown":0,
  "MonsterNote":4,
  "PrimaryStat":2,
  "LimitBreak1":4238,
  "LimitBreak2":4239,
  "LimitBreak3":4244,
  "UIPriority":31,
  "Item{SoulCrystal}":4546,
  "UnlockQuest":66621,
  "RelicQuest":66661,
  "Prerequisite":66626,
  "StartingLevel":1,
  "PartyBonus":4,
  "IsLimitedJob":false,
  "CanQueueForDuty":true
},
{
  "Id":24,
  "Name":"mage blanc",
  "Abbreviation":"MBL",
  "ClassJobCategory":31,
  "ExpArrayIndex":6,
  "BattleClassIndex":-1,
  "JobIndex":6,
  "DohDolJobIndex":-1,
  "Modifier{HitPoints}":105,
  "Modifier{ManaPoints}":100,
  "Modifier{Strength}":55,
  "Modifier{Vitality}":100,
  "Modifier{Dexterity}":105,
  "Modifier{Intelligence}":105,
  "Modifier{Mind}":115,
  "Modifier{Piety}":100,
  "PvPActionSortRow":13,
  "ClassJob{Parent}":6,
  "Name{English}":"White Mage",
  "Item{StartingWeapon}":0,
  "Role":4,
  "StartingTown":0,
  "MonsterNote":5,
  "PrimaryStat":5,
  "LimitBreak1":206,
  "LimitBreak2":207,
  "LimitBreak3":208,
  "UIPriority":11,
  "Item{SoulCrystal}":4547,
  "UnlockQuest":66615,
  "RelicQuest":66660,
  "Prerequisite":66620,
  "StartingLevel":1,
  "PartyBonus":2,
  "IsLimitedJob":false,
  "CanQueueForDuty":true
},
{
  "Id":25,
  "Name":"mage noir",
  "Abbreviation":"MNO",
  "ClassJobCategory":31,
  "ExpArrayIndex":5,
  "BattleClassIndex":-1,
  "JobIndex":7,
  "DohDolJobIndex":-1,
  "Modifier{HitPoints}":105,
  "Modifier{ManaPoints}":100,
  "Modifier{Strength}":45,
  "Modifier{Vitality}":100,
  "Modifier{Dexterity}":100,
  "Modifier{Intelligence}":115,
  "Modifier{Mind}":75,
  "Modifier{Piety}":100,
  "PvPActionSortRow":10,
  "ClassJob{Parent}":7,
  "Name{English}":"Black Mage",
  "Item{StartingWeapon}":0,
  "Role":3,
  "StartingTown":0,
  "MonsterNote":6,
  "PrimaryStat":4,
  "LimitBreak1":203,
  "LimitBreak2":204,
  "LimitBreak3":205,
  "UIPriority":41,
  "Item{SoulCrystal}":4548,
  "UnlockQuest":66609,
  "RelicQuest":66659,
  "Prerequisite":66614,
  "StartingLevel":1,
  "PartyBonus":5,
  "IsLimitedJob":false,
  "CanQueueForDuty":true
},
{
  "Id":26,
  "Name":"arcaniste",
  "Abbreviation":"ACN",
  "ClassJobCategory":31,
  "ExpArrayIndex":18,
  "BattleClassIndex":7,
  "JobIndex":0,
  "DohDolJobIndex":-1,
  "Modifier{HitPoints}":100,
  "Modifier{ManaPoints}":100,
  "Modifier{Strength}":85,
  "Modifier{Vitality}":95,
  "Modifier{Dexterity}":95,
  "Modifier{Intelligence}":105,
  "Modifier{Mind}":75,
  "Modifier{Piety}":100,
  "PvPActionSortRow":0,
  "ClassJob{Parent}":26,
  "Name{English}":"Arcanist",
  "Item{StartingWeapon}":2142,
  "Role":3,
  "StartingTown":1,
  "MonsterNote":7,
  "PrimaryStat":4,
  "LimitBreak1":203,
  "LimitBreak2":204,
  "LimitBreak3":4246,
  "UIPriority":44,
  "Item{SoulCrystal}":0,
  "UnlockQuest":0,
  "RelicQuest":0,
  "Prerequisite":0,
  "StartingLevel":1,
  "PartyBonus":5,
  "IsLimitedJob":false,
  "CanQueueForDuty":true
},
{
  "Id":27,
  "Name":"invocateur",
  "Abbreviation":"INV",
  "ClassJobCategory":31,
  "ExpArrayIndex":18,
  "BattleClassIndex":-1,
  "JobIndex":8,
  "DohDolJobIndex":-1,
  "Modifier{HitPoints}":105,
  "Modifier{ManaPoints}":100,
  "Modifier{Strength}":90,
  "Modifier{Vitality}":100,
  "Modifier{Dexterity}":100,
  "Modifier{Intelligence}":115,
  "Modifier{Mind}":80,
  "Modifier{Piety}":100,
  "PvPActionSortRow":11,
  "ClassJob{Parent}":26,
  "Name{English}":"Summoner",
  "Item{StartingWeapon}":0,
  "Role":3,
  "StartingTown":0,
  "MonsterNote":7,
  "PrimaryStat":4,
  "LimitBreak1":203,
  "LimitBreak2":204,
  "LimitBreak3":4246,
  "UIPriority":43,
  "Item{SoulCrystal}":4549,
  "UnlockQuest":66627,
  "RelicQuest":66662,
  "Prerequisite":66632,
  "StartingLevel":1,
  "PartyBonus":5,
  "IsLimitedJob":false,
  "CanQueueForDuty":true
},
{
  "Id":28,
  "Name":"érudit",
  "Abbreviation":"ÉRU",
  "ClassJobCategory":31,
  "ExpArrayIndex":18,
  "BattleClassIndex":-1,
  "JobIndex":9,
  "DohDolJobIndex":-1,
  "Modifier{HitPoints}":105,
  "Modifier{ManaPoints}":100,
  "Modifier{Strength}":90,
  "Modifier{Vitality}":100,
  "Modifier{Dexterity}":100,
  "Modifier{Intelligence}":105,
  "Modifier{Mind}":115,
  "Modifier{Piety}":100,
  "PvPActionSortRow":14,
  "ClassJob{Parent}":26,
  "Name{English}":"Scholar",
  "Item{StartingWeapon}":0,
  "Role":4,
  "StartingTown":0,
  "MonsterNote":7,
  "PrimaryStat":5,
  "LimitBreak1":206,
  "LimitBreak2":207,
  "LimitBreak3":4247,
  "UIPriority":13,
  "Item{SoulCrystal}":4550,
  "UnlockQuest":66633,
  "RelicQuest":66663,
  "Prerequisite":66638,
  "StartingLevel":1,
  "PartyBonus":2,
  "IsLimitedJob":false,
  "CanQueueForDuty":true
},
{
  "Id":29,
  "Name":"surineur",
  "Abbreviation":"SUR",
  "ClassJobCategory":30,
  "ExpArrayIndex":19,
  "BattleClassIndex":8,
  "JobIndex":0,
  "DohDolJobIndex":-1,
  "Modifier{HitPoints}":103,
  "Modifier{ManaPoints}":100,
  "Modifier{Strength}":80,
  "Modifier{Vitality}":95,
  "Modifier{Dexterity}":100,
  "Modifier{Intelligence}":60,
  "Modifier{Mind}":70,
  "Modifier{Piety}":100,
  "PvPActionSortRow":0,
  "ClassJob{Parent}":29,
  "Name{English}":"Rogue",
  "Item{StartingWeapon}":0,
  "Role":2,
  "StartingTown":0,
  "MonsterNote":11,
  "PrimaryStat":2,
  "LimitBreak1":200,
  "LimitBreak2":201,
  "LimitBreak3":4243,
  "UIPriority":26,
  "Item{SoulCrystal}":0,
  "UnlockQuest":0,
  "RelicQuest":0,
  "Prerequisite":0,
  "StartingLevel":1,
  "PartyBonus":4,
  "IsLimitedJob":false,
  "CanQueueForDuty":true
},
{
  "Id":30,
  "Name":"ninja",
  "Abbreviation":"NIN",
  "ClassJobCategory":30,
  "ExpArrayIndex":19,
  "BattleClassIndex":-1,
  "JobIndex":10,
  "DohDolJobIndex":-1,
  "Modifier{HitPoints}":108,
  "Modifier{ManaPoints}":100,
  "Modifier{Strength}":85,
  "Modifier{Vitality}":100,
  "Modifier{Dexterity}":110,
  "Modifier{Intelligence}":65,
  "Modifier{Mind}":75,
  "Modifier{Piety}":100,
  "PvPActionSortRow":6,
  "ClassJob{Parent}":29,
  "Name{English}":"Ninja",
  "Item{StartingWeapon}":0,
  "Role":2,
  "StartingTown":0,
  "MonsterNote":11,
  "PrimaryStat":2,
  "LimitBreak1":200,
  "LimitBreak2":201,
  "LimitBreak3":4243,
  "UIPriority":25,
  "Item{SoulCrystal}":7886,
  "UnlockQuest":65748,
  "RelicQuest":67115,
  "Prerequisite":65770,
  "StartingLevel":1,
  "PartyBonus":4,
  "IsLimitedJob":false,
  "CanQueueForDuty":true
},
{
  "Id":31,
  "Name":"machiniste",
  "Abbreviation":"MCH",
  "ClassJobCategory":30,
  "ExpArrayIndex":20,
  "BattleClassIndex":9,
  "JobIndex":11,
  "DohDolJobIndex":-1,
  "Modifier{HitPoints}":105,
  "Modifier{ManaPoints}":100,
  "Modifier{Strength}":85,
  "Modifier{Vitality}":100,
  "Modifier{Dexterity}":115,
  "Modifier{Intelligence}":80,
  "Modifier{Mind}":85,
  "Modifier{Piety}":100,
  "PvPActionSortRow":9,
  "ClassJob{Parent}":31,
  "Name{English}":"Machinist",
  "Item{StartingWeapon}":0,
  "Role":3,
  "StartingTown":0,
  "MonsterNote":-1,
  "PrimaryStat":2,
  "LimitBreak1":4238,
  "LimitBreak2":4239,
  "LimitBreak3":4245,
  "UIPriority":33,
  "Item{SoulCrystal}":8574,
  "UnlockQuest":67232,
  "RelicQuest":0,
  "Prerequisite":0,
  "StartingLevel":30,
  "PartyBonus":4,
  "IsLimitedJob":false,
  "CanQueueForDuty":true
},
{
  "Id":32,
  "Name":"chevalier noir",
  "Abbreviation":"CHN",
  "ClassJobCategory":30,
  "ExpArrayIndex":21,
  "BattleClassIndex":10,
  "JobIndex":12,
  "DohDolJobIndex":-1,
  "Modifier{HitPoints}":140,
  "Modifier{ManaPoints}":100,
  "Modifier{Strength}":105,
  "Modifier{Vitality}":110,
  "Modifier{Dexterity}":95,
  "Modifier{Intelligence}":60,
  "Modifier{Mind}":40,
  "Modifier{Piety}":100,
  "PvPActionSortRow":3,
  "ClassJob{Parent}":32,
  "Name{English}":"Dark Knight",
  "Item{StartingWeapon}":0,
  "Role":1,
  "StartingTown":0,
  "MonsterNote":-1,
  "PrimaryStat":1,
  "LimitBreak1":197,
  "LimitBreak2":198,
  "LimitBreak3":4241,
  "UIPriority":5,
  "Item{SoulCrystal}":8839,
  "UnlockQuest":67589,
  "RelicQuest":0,
  "Prerequisite":0,
  "StartingLevel":30,
  "PartyBonus":1,
  "IsLimitedJob":false,
  "CanQueueForDuty":true
},
{
  "Id":33,
  "Name":"astromancien",
  "Abbreviation":"AST",
  "ClassJobCategory":31,
  "ExpArrayIndex":22,
  "BattleClassIndex":11,
  "JobIndex":13,
  "DohDolJobIndex":-1,
  "Modifier{HitPoints}":105,
  "Modifier{ManaPoints}":100,
  "Modifier{Strength}":50,
  "Modifier{Vitality}":100,
  "Modifier{Dexterity}":100,
  "Modifier{Intelligence}":105,
  "Modifier{Mind}":115,
  "Modifier{Piety}":100,
  "PvPActionSortRow":15,
  "ClassJob{Parent}":33,
  "Name{English}":"Astrologian",
  "Item{StartingWeapon}":0,
  "Role":4,
  "StartingTown":0,
  "MonsterNote":-1,
  "PrimaryStat":5,
  "LimitBreak1":206,
  "LimitBreak2":207,
  "LimitBreak3":4248,
  "UIPriority":14,
  "Item{SoulCrystal}":8840,
  "UnlockQuest":67548,
  "RelicQuest":0,
  "Prerequisite":0,
  "StartingLevel":30,
  "PartyBonus":2,
  "IsLimitedJob":false,
  "CanQueueForDuty":true
},
{
  "Id":34,
  "Name":"samouraï",
  "Abbreviation":"SAM",
  "ClassJobCategory":30,
  "ExpArrayIndex":23,
  "BattleClassIndex":12,
  "JobIndex":14,
  "DohDolJobIndex":-1,
  "Modifier{HitPoints}":109,
  "Modifier{ManaPoints}":100,
  "Modifier{Strength}":112,
  "Modifier{Vitality}":100,
  "Modifier{Dexterity}":108,
  "Modifier{Intelligence}":60,
  "Modifier{Mind}":50,
  "Modifier{Piety}":100,
  "PvPActionSortRow":7,
  "ClassJob{Parent}":34,
  "Name{English}":"Samurai",
  "Item{StartingWeapon}":0,
  "Role":2,
  "StartingTown":0,
  "MonsterNote":-1,
  "PrimaryStat":1,
  "LimitBreak1":200,
  "LimitBreak2":201,
  "LimitBreak3":7861,
  "UIPriority":27,
  "Item{SoulCrystal}":17741,
  "UnlockQuest":68095,
  "RelicQuest":0,
  "Prerequisite":0,
  "StartingLevel":50,
  "PartyBonus":3,
  "IsLimitedJob":false,
  "CanQueueForDuty":true
},
{
  "Id":35,
  "Name":"mage rouge",
  "Abbreviation":"MRG",
  "ClassJobCategory":31,
  "ExpArrayIndex":24,
  "BattleClassIndex":13,
  "JobIndex":15,
  "DohDolJobIndex":-1,
  "Modifier{HitPoints}":105,
  "Modifier{ManaPoints}":100,
  "Modifier{Strength}":55,
  "Modifier{Vitality}":100,
  "Modifier{Dexterity}":105,
  "Modifier{Intelligence}":115,
  "Modifier{Mind}":110,
  "Modifier{Piety}":100,
  "PvPActionSortRow":12,
  "ClassJob{Parent}":35,
  "Name{English}":"Red Mage",
  "Item{StartingWeapon}":0,
  "Role":3,
  "StartingTown":0,
  "MonsterNote":-1,
  "PrimaryStat":4,
  "LimitBreak1":203,
  "LimitBreak2":204,
  "LimitBreak3":7862,
  "UIPriority":45,
  "Item{SoulCrystal}":17740,
  "UnlockQuest":68112,
  "RelicQuest":0,
  "Prerequisite":0,
  "StartingLevel":50,
  "PartyBonus":5,
  "IsLimitedJob":false,
  "CanQueueForDuty":true
},
{
  "Id":36,
  "Name":"mage bleu",
  "Abbreviation":"MBU",
  "ClassJobCategory":31,
  "ExpArrayIndex":25,
  "BattleClassIndex":14,
  "JobIndex":16,
  "DohDolJobIndex":-1,
  "Modifier{HitPoints}":105,
  "Modifier{ManaPoints}":100,
  "Modifier{Strength}":70,
  "Modifier{Vitality}":100,
  "Modifier{Dexterity}":110,
  "Modifier{Intelligence}":115,
  "Modifier{Mind}":105,
  "Modifier{Piety}":100,
  "PvPActionSortRow":0,
  "ClassJob{Parent}":36,
  "Name{English}":"Blue Mage",
  "Item{StartingWeapon}":0,
  "Role":3,
  "StartingTown":0,
  "MonsterNote":-1,
  "PrimaryStat":4,
  "LimitBreak1":0,
  "LimitBreak2":0,
  "LimitBreak3":0,
  "UIPriority":46,
  "Item{SoulCrystal}":22747,
  "UnlockQuest":68728,
  "RelicQuest":0,
  "Prerequisite":0,
  "StartingLevel":1,
  "PartyBonus":5,
  "IsLimitedJob":true,
  "CanQueueForDuty":false
},
{
  "Id":37,
  "Name":"pistosabreur",
  "Abbreviation":"PSB",
  "ClassJobCategory":30,
  "ExpArrayIndex":26,
  "BattleClassIndex":15,
  "JobIndex":17,
  "DohDolJobIndex":-1,
  "Modifier{HitPoints}":140,
  "Modifier{ManaPoints}":100,
  "Modifier{Strength}":100,
  "Modifier{Vitality}":110,
  "Modifier{Dexterity}":95,
  "Modifier{Intelligence}":60,
  "Modifier{Mind}":100,
  "Modifier{Piety}":100,
  "PvPActionSortRow":21,
  "ClassJob{Parent}":37,
  "Name{English}":"Gunbreaker",
  "Item{StartingWeapon}":0,
  "Role":1,
  "StartingTown":0,
  "MonsterNote":-1,
  "PrimaryStat":1,
  "LimitBreak1":197,
  "LimitBreak2":198,
  "LimitBreak3":17105,
  "UIPriority":6,
  "Item{SoulCrystal}":25216,
  "UnlockQuest":68797,
  "RelicQuest":0,
  "Prerequisite":0,
  "StartingLevel":60,
  "PartyBonus":1,
  "IsLimitedJob":false,
  "CanQueueForDuty":false
},
{
  "Id":38,
  "Name":"danseur",
  "Abbreviation":"DNS",
  "ClassJobCategory":30,
  "ExpArrayIndex":27,
  "BattleClassIndex":16,
  "JobIndex":18,
  "DohDolJobIndex":-1,
  "Modifier{HitPoints}":105,
  "Modifier{ManaPoints}":100,
  "Modifier{Strength}":90,
  "Modifier{Vitality}":100,
  "Modifier{Dexterity}":115,
  "Modifier{Intelligence}":85,
  "Modifier{Mind}":80,
  "Modifier{Piety}":100,
  "PvPActionSortRow":22,
  "ClassJob{Parent}":38,
  "Name{English}":"Dancer",
  "Item{StartingWeapon}":0,
  "Role":3,
  "StartingTown":0,
  "MonsterNote":-1,
  "PrimaryStat":2,
  "LimitBreak1":4238,
  "LimitBreak2":4239,
  "LimitBreak3":17106,
  "UIPriority":34,
  "Item{SoulCrystal}":25217,
  "UnlockQuest":68785,
  "RelicQuest":0,
  "Prerequisite":0,
  "StartingLevel":60,
  "PartyBonus":4,
  "IsLimitedJob":false,
  "CanQueueForDuty":false
},
{
  "Id":39,
  "Name":"faucheur",
  "Abbreviation":"FCH",
  "ClassJobCategory":30,
  "ExpArrayIndex":28,
  "BattleClassIndex":17,
  "JobIndex":19,
  "DohDolJobIndex":-1,
  "Modifier{HitPoints}":115,
  "Modifier{ManaPoints}":100,
  "Modifier{Strength}":115,
  "Modifier{Vitality}":105,
  "Modifier{Dexterity}":100,
  "Modifier{Intelligence}":80,
  "Modifier{Mind}":40,
  "Modifier{Piety}":100,
  "PvPActionSortRow":23,
  "ClassJob{Parent}":39,
  "Name{English}":"Reaper",
  "Item{StartingWeapon}":0,
  "Role":2,
  "StartingTown":0,
  "MonsterNote":-1,
  "PrimaryStat":1,
  "LimitBreak1":200,
  "LimitBreak2":201,
  "LimitBreak3":24858,
  "UIPriority":28,
  "Item{SoulCrystal}":33354,
  "UnlockQuest":69609,
  "RelicQuest":0,
  "Prerequisite":0,
  "StartingLevel":70,
  "PartyBonus":3,
  "IsLimitedJob":false,
  "CanQueueForDuty":false
},
{
  "Id":40,
  "Name":"sage",
  "Abbreviation":"SAG",
  "ClassJobCategory":31,
  "ExpArrayIndex":29,
  "BattleClassIndex":18,
  "JobIndex":20,
  "DohDolJobIndex":-1,
  "Modifier{HitPoints}":105,
  "Modifier{ManaPoints}":100,
  "Modifier{Strength}":60,
  "Modifier{Vitality}":100,
  "Modifier{Dexterity}":100,
  "Modifier{Intelligence}":115,
  "Modifier{Mind}":115,
  "Modifier{Piety}":100,
  "PvPActionSortRow":24,
  "ClassJob{Parent}":40,
  "Name{English}":"Sage",
  "Item{StartingWeapon}":0,
  "Role":4,
  "StartingTown":0,
  "MonsterNote":-1,
  "PrimaryStat":5,
  "LimitBreak1":206,
  "LimitBreak2":207,
  "LimitBreak3":24859,
  "UIPriority":15,
  "Item{SoulCrystal}":33355,
  "UnlockQuest":69603,
  "RelicQuest":0,
  "Prerequisite":0,
  "StartingLevel":70,
  "PartyBonus":2,
  "IsLimitedJob":false,
  "CanQueueForDuty":false
},
{
  "Id":41,
  "Name":"",
  "Abbreviation":"",
  "ClassJobCategory":0,
  "ExpArrayIndex":0,
  "BattleClassIndex":0,
  "JobIndex":0,
  "DohDolJobIndex":0,
  "Modifier{HitPoints}":0,
  "Modifier{ManaPoints}":0,
  "Modifier{Strength}":0,
  "Modifier{Vitality}":0,
  "Modifier{Dexterity}":0,
  "Modifier{Intelligence}":0,
  "Modifier{Mind}":0,
  "Modifier{Piety}":0,
  "PvPActionSortRow":0,
  "ClassJob{Parent}":0,
  "Name{English}":"",
  "Item{StartingWeapon}":0,
  "Role":0,
  "StartingTown":0,
  "MonsterNote":0,
  "PrimaryStat":0,
  "LimitBreak1":0,
  "LimitBreak2":0,
  "LimitBreak3":0,
  "UIPriority":0,
  "Item{SoulCrystal}":0,
  "UnlockQuest":0,
  "RelicQuest":0,
  "Prerequisite":0,
  "StartingLevel":0,
  "PartyBonus":0,
  "IsLimitedJob":false,
  "CanQueueForDuty":false
},
{
  "Id":42,
  "Name":"",
  "Abbreviation":"",
  "ClassJobCategory":0,
  "ExpArrayIndex":0,
  "BattleClassIndex":0,
  "JobIndex":0,
  "DohDolJobIndex":0,
  "Modifier{HitPoints}":0,
  "Modifier{ManaPoints}":0,
  "Modifier{Strength}":0,
  "Modifier{Vitality}":0,
  "Modifier{Dexterity}":0,
  "Modifier{Intelligence}":0,
  "Modifier{Mind}":0,
  "Modifier{Piety}":0,
  "PvPActionSortRow":0,
  "ClassJob{Parent}":0,
  "Name{English}":"",
  "Item{StartingWeapon}":0,
  "Role":0,
  "StartingTown":0,
  "MonsterNote":0,
  "PrimaryStat":0,
  "LimitBreak1":0,
  "LimitBreak2":0,
  "LimitBreak3":0,
  "UIPriority":0,
  "Item{SoulCrystal}":0,
  "UnlockQuest":0,
  "RelicQuest":0,
  "Prerequisite":0,
  "StartingLevel":0,
  "PartyBonus":0,
  "IsLimitedJob":false,
  "CanQueueForDuty":false
}
]
