﻿[
{
  "Id":0,
  "Item":0,
  "Limit":0
},
{
  "Id":1,
  "Item":10309,
  "Limit":2000
},
{
  "Id":2,
  "Item":17833,
  "Limit":2000
},
{
  "Id":3,
  "Item":10311,
  "Limit":2000
},
{
  "Id":4,
  "Item":17834,
  "Limit":2000
},
{
  "Id":5,
  "Item":10307,
  "Limit":4000
},
{
  "Id":6,
  "Item":25199,
  "Limit":2000
},
{
  "Id":7,
  "Item":25200,
  "Limit":2000
},
{
  "Id":8,
  "Item":21072,
  "Limit":65000
},
{
  "Id":9,
  "Item":21073,
  "Limit":65000
},
{
  "Id":10,
  "Item":21074,
  "Limit":65000
},
{
  "Id":11,
  "Item":21075,
  "Limit":65000
},
{
  "Id":12,
  "Item":21076,
  "Limit":65000
},
{
  "Id":13,
  "Item":21077,
  "Limit":65000
},
{
  "Id":14,
  "Item":21078,
  "Limit":65000
},
{
  "Id":15,
  "Item":21079,
  "Limit":65000
},
{
  "Id":16,
  "Item":21080,
  "Limit":65000
},
{
  "Id":17,
  "Item":21081,
  "Limit":65000
},
{
  "Id":18,
  "Item":21172,
  "Limit":65000
},
{
  "Id":19,
  "Item":21173,
  "Limit":65000
},
{
  "Id":20,
  "Item":21935,
  "Limit":65000
},
{
  "Id":21,
  "Item":22525,
  "Limit":65000
},
{
  "Id":22,
  "Item":26533,
  "Limit":4000
},
{
  "Id":23,
  "Item":26807,
  "Limit":1000
},
{
  "Id":24,
  "Item":28063,
  "Limit":10000
},
{
  "Id":25,
  "Item":28186,
  "Limit":65000
},
{
  "Id":26,
  "Item":28187,
  "Limit":65000
},
{
  "Id":27,
  "Item":28188,
  "Limit":65000
},
{
  "Id":28,
  "Item":30341,
  "Limit":1000
}
]
