﻿[
{
  "Id":0,
  "EventType":0,
  "EnemyType":0,
  "LGBEventObject":0,
  "LGBMapRange":0,
  "Quest":0,
  "SingleBattle":0,
  "Announce":0,
  "Name":"",
  "Description":""
},
{
  "Id":1,
  "EventType":1,
  "EnemyType":4,
  "LGBEventObject":8373717,
  "LGBMapRange":8511877,
  "Quest":69477,
  "SingleBattle":0,
  "Announce":0,
  "Name":"Peeriefool, das faule Gemüse",
  "Description":"Die schillernde Clarricie vom Bestientrupp hat faulendes Gemüse auf dem Schlachtfeld ausgesetzt. Räume den Unrat weg."
},
{
  "Id":2,
  "EventType":1,
  "EnemyType":2,
  "LGBEventObject":8374110,
  "LGBMapRange":8511881,
  "Quest":69477,
  "SingleBattle":0,
  "Announce":0,
  "Name":"Die drei Mäuler des Canis dirus",
  "Description":"Um Chaos in den Kampfreihen zu stiften, hat das Spezialbataillon einen dreiköpfigen Hund losgelassen. Besiege den Kläffer."
},
{
  "Id":3,
  "EventType":1,
  "EnemyType":1,
  "LGBEventObject":8367113,
  "LGBMapRange":8511882,
  "Quest":69477,
  "SingleBattle":0,
  "Announce":0,
  "Name":"Vigil, Feuerkraft hoch zehn",
  "Description":"Magitek-Soldat Dabog steuert ein neues Modell des Wachskorpions aufs Schlachtfeld. Schicke es unverzüglich zurück."
},
{
  "Id":4,
  "EventType":2,
  "EnemyType":3,
  "LGBEventObject":8367033,
  "LGBMapRange":8511886,
  "Quest":69477,
  "SingleBattle":1,
  "Announce":0,
  "Name":"Gabriel, die stählerne Schwinge",
  "Description":"Magitek-Soldat Dabog steuert eine neuartige Flugmaschine aufs Schlachtfeld. Bringe sie zu Fall."
},
{
  "Id":5,
  "EventType":1,
  "EnemyType":4,
  "LGBEventObject":8342248,
  "LGBMapRange":8511887,
  "Quest":69477,
  "SingleBattle":0,
  "Announce":0,
  "Name":"Akbaba, Tod von oben",
  "Description":"Abgerichtete Flugungeheuer reißen tiefe Lücken in die Reihen des Widerstands. Besiege das schrecklichste von ihnen: Akbaba."
},
{
  "Id":6,
  "EventType":1,
  "EnemyType":5,
  "LGBEventObject":8367316,
  "LGBMapRange":8511891,
  "Quest":69481,
  "SingleBattle":0,
  "Announce":0,
  "Name":"Spartoi der Gefürchtete",
  "Description":"Llofii, Elitesoldatin und Überläuferin, hat ihr Monozeros aus den Laboren der Garlear gerettet. Besiege den gefürchteten Geist Spartoi, der sich ihnen in den Weg stellt."
},
{
  "Id":7,
  "EventType":1,
  "EnemyType":4,
  "LGBEventObject":8374867,
  "LGBMapRange":8511892,
  "Quest":69481,
  "SingleBattle":0,
  "Announce":0,
  "Name":"Der Rote Meteor und seine Meute",
  "Description":"Eine Meute roter Chocobos macht sich an der Front breit. Besiege das Leittier, den Roten Meteor."
},
{
  "Id":8,
  "EventType":2,
  "EnemyType":3,
  "LGBEventObject":8374963,
  "LGBMapRange":8511893,
  "Quest":69481,
  "SingleBattle":2,
  "Announce":0,
  "Name":"Lyon der Bestienkönig",
  "Description":"Lyon, Anführer des Bestientrupps, fordert dich zum Duell heraus."
},
{
  "Id":9,
  "EventType":3,
  "EnemyType":2,
  "LGBEventObject":8375462,
  "LGBMapRange":8511895,
  "Quest":69481,
  "SingleBattle":0,
  "Announce":0,
  "Name":"Die Flammenden Hundert",
  "Description":"Die Flammenden Hundert stürmen über das Schlachtfeld und haben Pyroboli dabei! Besiege die Einheit und halte den Ansturm auf."
},
{
  "Id":10,
  "EventType":1,
  "EnemyType":1,
  "LGBEventObject":8374781,
  "LGBMapRange":8511898,
  "Quest":69481,
  "SingleBattle":0,
  "Announce":0,
  "Name":"Verteidigungsmaschine Patriot",
  "Description":"Die mobile Infanterie hat ihre Verteidigung mit einer neuartigen Konstruktion befestigt. Zerstöre die Patriot-Maschine."
},
{
  "Id":11,
  "EventType":1,
  "EnemyType":2,
  "LGBEventObject":8377121,
  "LGBMapRange":8511901,
  "Quest":69484,
  "SingleBattle":0,
  "Announce":0,
  "Name":"Die bösen Blicke der Eale",
  "Description":"Die Magier des Spezialbataillons haben eine mysteriöse Kreatur beschworen. Besiege die Eale, doch hüte dich vor ihren Blicken!"
},
{
  "Id":12,
  "EventType":2,
  "EnemyType":3,
  "LGBEventObject":8374538,
  "LGBMapRange":8511905,
  "Quest":69484,
  "SingleBattle":3,
  "Announce":0,
  "Name":"Sartauvoir Eisenfeuer",
  "Description":"Sartauvoir quo Soranus, hochrangiger Anführer des Spezialbataillons, spielt mit dem Feuer. Fordere ihn zum Duell heraus."
},
{
  "Id":13,
  "EventType":1,
  "EnemyType":1,
  "LGBEventObject":8367337,
  "LGBMapRange":8511910,
  "Quest":69484,
  "SingleBattle":0,
  "Announce":0,
  "Name":"Dáinsleif, Bestie aus Eisen",
  "Description":"Magitechnicus Sicinius von der mobilen Infanterie hat einen neuen Prototypen in den Kampf geschickt. Besiege Dáinsleif, die Bestie aus Eisen."
},
{
  "Id":14,
  "EventType":1,
  "EnemyType":1,
  "LGBEventObject":8377886,
  "LGBMapRange":8511912,
  "Quest":69484,
  "SingleBattle":0,
  "Announce":0,
  "Name":"Im Schatten von Modell X",
  "Description":"Magitechnicus Sicinius von der mobilen Infanterie hat die Arbeitsmaschine Modell X zu einer riesigen Waffe umfunktioniert. Verwandle sie in Altmetall."
},
{
  "Id":15,
  "EventType":1,
  "EnemyType":5,
  "LGBEventObject":8367328,
  "LGBMapRange":8511913,
  "Quest":69484,
  "SingleBattle":0,
  "Announce":0,
  "Name":"Der untote Chlevnik",
  "Description":"Mit einer geheimen Tinktur hat der Bestientrupp ein totes Ungeheuer zum Leben erweckt. Töte den gehörnten Chlevnik ein weiteres Mal!"
},
{
  "Id":16,
  "EventType":4,
  "EnemyType":6,
  "LGBEventObject":0,
  "LGBMapRange":0,
  "Quest":69487,
  "SingleBattle":0,
  "Announce":9626,
  "Name":"Sturm auf Castrum Lacus Litore",
  "Description":"Die Zeit ist reif: Erobere den Stützpunkt der IV. Legion und verjage die garleischen Besatzer aus Bozja!"
},
{
  "Id":17,
  "EventType":3,
  "EnemyType":2,
  "LGBEventObject":8664684,
  "LGBMapRange":8664761,
  "Quest":69620,
  "SingleBattle":0,
  "Announce":0,
  "Name":"Der Geistertrupp",
  "Description":"Eine neue Spezialeinheit der IV. Legion ist auf dem Schlachtfeld erschienen! Die Magier des Geistertrupps kontrollieren Zirnitras und müssen schnellstens in ihre Schranken gewiesen werden."
},
{
  "Id":18,
  "EventType":1,
  "EnemyType":1,
  "LGBEventObject":8664685,
  "LGBMapRange":8664762,
  "Quest":69629,
  "SingleBattle":0,
  "Announce":0,
  "Name":"Schwarzbrands Testflug",
  "Description":"Gerüchteweise ist dieser Prototyp einer fliegenden Magitek-Maschine ein Nebenprodukt aus der Entwicklungsarbeit zum Höllentaucher. Bereite dem Testflug ein jähes Ende!"
},
{
  "Id":19,
  "EventType":2,
  "EnemyType":3,
  "LGBEventObject":8664686,
  "LGBMapRange":8664763,
  "Quest":69620,
  "SingleBattle":4,
  "Announce":0,
  "Name":"Hyper-Dabog, Stärkster unter Stärksten",
  "Description":"Der Ehrgeiz der garleischen Ingenieure kennt keine Grenzen. Wieder haben sie den Magitek-Soldaten Dabog einer Überarbeitung unterzogen. Kann die Hypervariante überhaupt besiegt werden?"
},
{
  "Id":20,
  "EventType":1,
  "EnemyType":8,
  "LGBEventObject":8664687,
  "LGBMapRange":8664764,
  "Quest":69620,
  "SingleBattle":0,
  "Announce":0,
  "Name":"Shemhazai der Verräter",
  "Description":"Die Jünger, eine ketzerische Randgruppe der IV. Legion, haben ihr Leben riskiert und die Macht eines Auracitensplitters entfesselt. Das Ergebnis dieses Frevels darf nicht länger existieren."
},
{
  "Id":21,
  "EventType":1,
  "EnemyType":4,
  "LGBEventObject":8664688,
  "LGBMapRange":8664765,
  "Quest":69620,
  "SingleBattle":0,
  "Announce":0,
  "Name":"Hedetet, Stachel des Karglands",
  "Description":"Ein mutiger Bändiger des Bestientrupps hat im Kargland einen außergewöhnlichen Fang gemacht. Mach dem Skorpionweibchen klar, dass es in Zadnor nicht willkommen ist."
},
{
  "Id":22,
  "EventType":3,
  "EnemyType":7,
  "LGBEventObject":8664689,
  "LGBMapRange":8664766,
  "Quest":69628,
  "SingleBattle":0,
  "Announce":0,
  "Name":"Halb Pferd, halb Garlear",
  "Description":"Die Magitek-Reiter, automatische Waffen aus den Schmieden der Legionsingenieure, galoppieren über das Schlachtfeld und müssen dringend aufgehalten werden."
},
{
  "Id":23,
  "EventType":2,
  "EnemyType":3,
  "LGBEventObject":8664690,
  "LGBMapRange":8664767,
  "Quest":69628,
  "SingleBattle":5,
  "Announce":0,
  "Name":"Menenius, Tribunus der IV. Legion",
  "Description":"Der Kommandant der garleischen Besatzungsmacht schreitet über bozianischen Boden, als sei es sein Geburtsrecht. Zeige ihm, was der Widerstand von seiner Anwesenheit hält!"
},
{
  "Id":24,
  "EventType":1,
  "EnemyType":2,
  "LGBEventObject":8664691,
  "LGBMapRange":8664768,
  "Quest":69628,
  "SingleBattle":0,
  "Announce":0,
  "Name":"Hanbi, König im Exil",
  "Description":"Unausprechliche Rituale des Spezialbataillons haben einen König aus dem Nichts gerufen, der nur einen Tribut kennt: Blut. Schicke den ungebetenen Gast zurück in seine Dimension. "
},
{
  "Id":25,
  "EventType":1,
  "EnemyType":2,
  "LGBEventObject":8664692,
  "LGBMapRange":8664769,
  "Quest":69628,
  "SingleBattle":0,
  "Announce":0,
  "Name":"Eiswolf Hrodvitnir",
  "Description":"Die Beschwörer des Spezialbataillons haben den grimmigen Eiswolf in einer frostigen Nacht gerufen. Bereite ihm ein heißes Abschiedsfest."
},
{
  "Id":26,
  "EventType":1,
  "EnemyType":8,
  "LGBEventObject":8664693,
  "LGBMapRange":8664770,
  "Quest":69628,
  "SingleBattle":0,
  "Announce":0,
  "Name":"Dämonid Belias",
  "Description":"Die Jünger, eine ketzerische Randgruppe der IV. Legion, haben ihr Leben riskiert und die Macht eines Auracitensplitters entfesselt. Lösche den Herrscher über die lodernden Flammenmeere umgehend aus!"
},
{
  "Id":27,
  "EventType":3,
  "EnemyType":1,
  "LGBEventObject":8664694,
  "LGBMapRange":8664771,
  "Quest":69629,
  "SingleBattle":0,
  "Announce":0,
  "Name":"Die Gepanzerte Zenturie",
  "Description":"Magitechnicus Sicinius hat eine neue Kampfeinheit ins Feld geschickt. Schicke sie gleich weiter auf den Schrottplatz!"
},
{
  "Id":28,
  "EventType":1,
  "EnemyType":4,
  "LGBEventObject":8664695,
  "LGBMapRange":8664772,
  "Quest":69629,
  "SingleBattle":0,
  "Announce":0,
  "Name":"Alkonost, schrecklich und gefiedert",
  "Description":"Der Bestientrupp hat in Zusammenarbeit mit dem Spezialbataillon Alkonost, einen mythischen Vogel von schrecklicher Gestalt, entfesselt. Rupf die Bestie!"
},
{
  "Id":29,
  "EventType":1,
  "EnemyType":8,
  "LGBEventObject":8664696,
  "LGBMapRange":8664773,
  "Quest":69620,
  "SingleBattle":0,
  "Announce":0,
  "Name":"Hashmallim der Einiger",
  "Description":"Die Jünger, eine ketzerische Randgruppe der IV. Legion, haben ihr Leben riskiert und die Macht eines Auracitensplitters entfesselt. Besiege den Einiger, der nicht sein darf!"
},
{
  "Id":30,
  "EventType":1,
  "EnemyType":2,
  "LGBEventObject":8664697,
  "LGBMapRange":8664774,
  "Quest":69629,
  "SingleBattle":0,
  "Announce":0,
  "Name":"Regenbogenschlange Ayida",
  "Description":"Eifrige Magier des Spezialbataillons haben eine neue Kreatur beschworen. Bereite dem schillernden Wesen ein farbloses Ende!"
},
{
  "Id":31,
  "EventType":2,
  "EnemyType":3,
  "LGBEventObject":8664698,
  "LGBMapRange":8664775,
  "Quest":69629,
  "SingleBattle":6,
  "Announce":0,
  "Name":"Revanche: Lyon der Bestienkönig",
  "Description":"Der Anführer des Bestientrupps würde nichts lieber tun, als dich zu zähmen. Nimm die Herausforderung an und beweise ihm deine Wildheit!"
},
{
  "Id":32,
  "EventType":4,
  "EnemyType":6,
  "LGBEventObject":0,
  "LGBMapRange":0,
  "Quest":69624,
  "SingleBattle":0,
  "Announce":9678,
  "Name":"Sturm auf die Dalriada",
  "Description":"Das Flaggschiff liegt antriebslos am Boden. Einen besseren Moment, in sein Inneres einzudringen und mit der Führung der IV. Legion aufzuräumen, wird es nicht geben."
}
]
