﻿[
{
  "Id":0.0,
  "Item":0,
  "Required{GrandCompanyRank}":0,
  "Cost{GCSeals}":0,
  "SortKey":0
},
{
  "Id":1.0,
  "Item":5594,
  "Required{GrandCompanyRank}":1,
  "Cost{GCSeals}":12,
  "SortKey":50
},
{
  "Id":1.1,
  "Item":5595,
  "Required{GrandCompanyRank}":1,
  "Cost{GCSeals}":34,
  "SortKey":50
},
{
  "Id":1.2,
  "Item":5596,
  "Required{GrandCompanyRank}":1,
  "Cost{GCSeals}":70,
  "SortKey":50
},
{
  "Id":1.3,
  "Item":4564,
  "Required{GrandCompanyRank}":1,
  "Cost{GCSeals}":120,
  "SortKey":50
},
{
  "Id":1.4,
  "Item":4566,
  "Required{GrandCompanyRank}":1,
  "Cost{GCSeals}":290,
  "SortKey":50
},
{
  "Id":1.5,
  "Item":21072,
  "Required{GrandCompanyRank}":1,
  "Cost{GCSeals}":200,
  "SortKey":40
},
{
  "Id":1.6,
  "Item":6017,
  "Required{GrandCompanyRank}":1,
  "Cost{GCSeals}":200,
  "SortKey":50
},
{
  "Id":1.7,
  "Item":15855,
  "Required{GrandCompanyRank}":1,
  "Cost{GCSeals}":500,
  "SortKey":50
},
{
  "Id":1.8,
  "Item":15856,
  "Required{GrandCompanyRank}":1,
  "Cost{GCSeals}":500,
  "SortKey":50
},
{
  "Id":1.9,
  "Item":4568,
  "Required{GrandCompanyRank}":2,
  "Cost{GCSeals}":1010,
  "SortKey":100
},
{
  "Id":1.10,
  "Item":4567,
  "Required{GrandCompanyRank}":2,
  "Cost{GCSeals}":1710,
  "SortKey":100
},
{
  "Id":1.11,
  "Item":4632,
  "Required{GrandCompanyRank}":3,
  "Cost{GCSeals}":1440,
  "SortKey":150
},
{
  "Id":1.12,
  "Item":4633,
  "Required{GrandCompanyRank}":3,
  "Cost{GCSeals}":1440,
  "SortKey":150
},
{
  "Id":1.13,
  "Item":5597,
  "Required{GrandCompanyRank}":4,
  "Cost{GCSeals}":138,
  "SortKey":200
},
{
  "Id":1.14,
  "Item":5598,
  "Required{GrandCompanyRank}":4,
  "Cost{GCSeals}":230,
  "SortKey":200
},
{
  "Id":1.15,
  "Item":0,
  "Required{GrandCompanyRank}":0,
  "Cost{GCSeals}":0,
  "SortKey":0
},
{
  "Id":2.0,
  "Item":1619,
  "Required{GrandCompanyRank}":1,
  "Cost{GCSeals}":1060,
  "SortKey":50
},
{
  "Id":2.1,
  "Item":1691,
  "Required{GrandCompanyRank}":1,
  "Cost{GCSeals}":1060,
  "SortKey":50
},
{
  "Id":2.2,
  "Item":1761,
  "Required{GrandCompanyRank}":1,
  "Cost{GCSeals}":1060,
  "SortKey":50
},
{
  "Id":2.3,
  "Item":1830,
  "Required{GrandCompanyRank}":1,
  "Cost{GCSeals}":1060,
  "SortKey":50
},
{
  "Id":2.4,
  "Item":1903,
  "Required{GrandCompanyRank}":1,
  "Cost{GCSeals}":1060,
  "SortKey":50
},
{
  "Id":2.5,
  "Item":2008,
  "Required{GrandCompanyRank}":1,
  "Cost{GCSeals}":1060,
  "SortKey":50
},
{
  "Id":2.6,
  "Item":2114,
  "Required{GrandCompanyRank}":1,
  "Cost{GCSeals}":1060,
  "SortKey":50
},
{
  "Id":2.7,
  "Item":2154,
  "Required{GrandCompanyRank}":1,
  "Cost{GCSeals}":1060,
  "SortKey":50
},
{
  "Id":2.8,
  "Item":9191,
  "Required{GrandCompanyRank}":1,
  "Cost{GCSeals}":1060,
  "SortKey":50
},
{
  "Id":2.9,
  "Item":1630,
  "Required{GrandCompanyRank}":4,
  "Cost{GCSeals}":1770,
  "SortKey":200
},
{
  "Id":2.10,
  "Item":1703,
  "Required{GrandCompanyRank}":4,
  "Cost{GCSeals}":1770,
  "SortKey":200
},
{
  "Id":2.11,
  "Item":1773,
  "Required{GrandCompanyRank}":4,
  "Cost{GCSeals}":1770,
  "SortKey":200
},
{
  "Id":2.12,
  "Item":1842,
  "Required{GrandCompanyRank}":4,
  "Cost{GCSeals}":1770,
  "SortKey":200
},
{
  "Id":2.13,
  "Item":1912,
  "Required{GrandCompanyRank}":4,
  "Cost{GCSeals}":1770,
  "SortKey":200
},
{
  "Id":2.14,
  "Item":2018,
  "Required{GrandCompanyRank}":4,
  "Cost{GCSeals}":1770,
  "SortKey":200
},
{
  "Id":2.15,
  "Item":2074,
  "Required{GrandCompanyRank}":4,
  "Cost{GCSeals}":1770,
  "SortKey":200
},
{
  "Id":2.16,
  "Item":2163,
  "Required{GrandCompanyRank}":4,
  "Cost{GCSeals}":1770,
  "SortKey":200
},
{
  "Id":2.17,
  "Item":9200,
  "Required{GrandCompanyRank}":4,
  "Cost{GCSeals}":1770,
  "SortKey":200
},
{
  "Id":2.18,
  "Item":10420,
  "Required{GrandCompanyRank}":4,
  "Cost{GCSeals}":1770,
  "SortKey":200
},
{
  "Id":2.19,
  "Item":10482,
  "Required{GrandCompanyRank}":4,
  "Cost{GCSeals}":1770,
  "SortKey":200
},
{
  "Id":2.20,
  "Item":10544,
  "Required{GrandCompanyRank}":4,
  "Cost{GCSeals}":1770,
  "SortKey":200
},
{
  "Id":2.21,
  "Item":0,
  "Required{GrandCompanyRank}":0,
  "Cost{GCSeals}":0,
  "SortKey":0
},
{
  "Id":3.0,
  "Item":2716,
  "Required{GrandCompanyRank}":1,
  "Cost{GCSeals}":680,
  "SortKey":50
},
{
  "Id":3.1,
  "Item":3048,
  "Required{GrandCompanyRank}":1,
  "Cost{GCSeals}":1040,
  "SortKey":50
},
{
  "Id":3.2,
  "Item":3566,
  "Required{GrandCompanyRank}":1,
  "Cost{GCSeals}":660,
  "SortKey":50
},
{
  "Id":3.3,
  "Item":3797,
  "Required{GrandCompanyRank}":1,
  "Cost{GCSeals}":730,
  "SortKey":50
},
{
  "Id":3.4,
  "Item":3073,
  "Required{GrandCompanyRank}":2,
  "Cost{GCSeals}":1390,
  "SortKey":100
},
{
  "Id":3.5,
  "Item":3072,
  "Required{GrandCompanyRank}":2,
  "Cost{GCSeals}":1390,
  "SortKey":100
},
{
  "Id":3.6,
  "Item":3815,
  "Required{GrandCompanyRank}":2,
  "Cost{GCSeals}":970,
  "SortKey":100
},
{
  "Id":3.7,
  "Item":3814,
  "Required{GrandCompanyRank}":2,
  "Cost{GCSeals}":970,
  "SortKey":100
},
{
  "Id":3.8,
  "Item":3816,
  "Required{GrandCompanyRank}":2,
  "Cost{GCSeals}":970,
  "SortKey":100
},
{
  "Id":3.9,
  "Item":4437,
  "Required{GrandCompanyRank}":2,
  "Cost{GCSeals}":540,
  "SortKey":100
},
{
  "Id":3.10,
  "Item":2253,
  "Required{GrandCompanyRank}":3,
  "Cost{GCSeals}":1520,
  "SortKey":150
},
{
  "Id":3.11,
  "Item":3084,
  "Required{GrandCompanyRank}":3,
  "Cost{GCSeals}":1470,
  "SortKey":150
},
{
  "Id":3.12,
  "Item":3082,
  "Required{GrandCompanyRank}":3,
  "Cost{GCSeals}":1470,
  "SortKey":150
},
{
  "Id":3.13,
  "Item":3085,
  "Required{GrandCompanyRank}":3,
  "Cost{GCSeals}":1470,
  "SortKey":150
},
{
  "Id":3.14,
  "Item":3083,
  "Required{GrandCompanyRank}":3,
  "Cost{GCSeals}":1470,
  "SortKey":150
},
{
  "Id":3.15,
  "Item":3592,
  "Required{GrandCompanyRank}":3,
  "Cost{GCSeals}":1050,
  "SortKey":150
},
{
  "Id":3.16,
  "Item":3359,
  "Required{GrandCompanyRank}":3,
  "Cost{GCSeals}":1080,
  "SortKey":150
},
{
  "Id":3.17,
  "Item":3360,
  "Required{GrandCompanyRank}":3,
  "Cost{GCSeals}":1080,
  "SortKey":150
},
{
  "Id":3.18,
  "Item":4319,
  "Required{GrandCompanyRank}":3,
  "Cost{GCSeals}":720,
  "SortKey":150
},
{
  "Id":3.19,
  "Item":3593,
  "Required{GrandCompanyRank}":3,
  "Cost{GCSeals}":1050,
  "SortKey":150
},
{
  "Id":3.20,
  "Item":3591,
  "Required{GrandCompanyRank}":3,
  "Cost{GCSeals}":1050,
  "SortKey":150
},
{
  "Id":3.21,
  "Item":2761,
  "Required{GrandCompanyRank}":4,
  "Cost{GCSeals}":1280,
  "SortKey":200
},
{
  "Id":3.22,
  "Item":3113,
  "Required{GrandCompanyRank}":4,
  "Cost{GCSeals}":1960,
  "SortKey":200
},
{
  "Id":3.23,
  "Item":3114,
  "Required{GrandCompanyRank}":4,
  "Cost{GCSeals}":1960,
  "SortKey":200
},
{
  "Id":3.24,
  "Item":3112,
  "Required{GrandCompanyRank}":4,
  "Cost{GCSeals}":1960,
  "SortKey":200
},
{
  "Id":3.25,
  "Item":3375,
  "Required{GrandCompanyRank}":4,
  "Cost{GCSeals}":1360,
  "SortKey":200
},
{
  "Id":3.26,
  "Item":4123,
  "Required{GrandCompanyRank}":4,
  "Cost{GCSeals}":1210,
  "SortKey":200
},
{
  "Id":3.27,
  "Item":0,
  "Required{GrandCompanyRank}":0,
  "Cost{GCSeals}":0,
  "SortKey":0
},
{
  "Id":4.0,
  "Item":6020,
  "Required{GrandCompanyRank}":5,
  "Cost{GCSeals}":4000,
  "SortKey":50
},
{
  "Id":4.1,
  "Item":4561,
  "Required{GrandCompanyRank}":5,
  "Cost{GCSeals}":2850,
  "SortKey":50
},
{
  "Id":4.2,
  "Item":6021,
  "Required{GrandCompanyRank}":6,
  "Cost{GCSeals}":6000,
  "SortKey":100
},
{
  "Id":4.3,
  "Item":4634,
  "Required{GrandCompanyRank}":7,
  "Cost{GCSeals}":2300,
  "SortKey":150
},
{
  "Id":4.4,
  "Item":4635,
  "Required{GrandCompanyRank}":7,
  "Cost{GCSeals}":2300,
  "SortKey":150
},
{
  "Id":4.5,
  "Item":4636,
  "Required{GrandCompanyRank}":8,
  "Cost{GCSeals}":2730,
  "SortKey":200
},
{
  "Id":4.6,
  "Item":6022,
  "Required{GrandCompanyRank}":8,
  "Cost{GCSeals}":8000,
  "SortKey":200
},
{
  "Id":4.7,
  "Item":6141,
  "Required{GrandCompanyRank}":8,
  "Cost{GCSeals}":500,
  "SortKey":200
},
{
  "Id":4.8,
  "Item":7060,
  "Required{GrandCompanyRank}":8,
  "Cost{GCSeals}":1000,
  "SortKey":200
},
{
  "Id":4.9,
  "Item":7059,
  "Required{GrandCompanyRank}":8,
  "Cost{GCSeals}":1500,
  "SortKey":200
},
{
  "Id":4.10,
  "Item":6526,
  "Required{GrandCompanyRank}":8,
  "Cost{GCSeals}":5050,
  "SortKey":200
},
{
  "Id":4.11,
  "Item":6553,
  "Required{GrandCompanyRank}":8,
  "Cost{GCSeals}":6900,
  "SortKey":200
},
{
  "Id":4.12,
  "Item":6538,
  "Required{GrandCompanyRank}":8,
  "Cost{GCSeals}":8300,
  "SortKey":200
},
{
  "Id":4.13,
  "Item":6556,
  "Required{GrandCompanyRank}":8,
  "Cost{GCSeals}":6700,
  "SortKey":200
},
{
  "Id":4.14,
  "Item":6545,
  "Required{GrandCompanyRank}":8,
  "Cost{GCSeals}":9070,
  "SortKey":200
},
{
  "Id":4.15,
  "Item":6662,
  "Required{GrandCompanyRank}":8,
  "Cost{GCSeals}":1100,
  "SortKey":200
},
{
  "Id":4.16,
  "Item":6656,
  "Required{GrandCompanyRank}":8,
  "Cost{GCSeals}":4900,
  "SortKey":200
},
{
  "Id":4.17,
  "Item":6470,
  "Required{GrandCompanyRank}":8,
  "Cost{GCSeals}":6800,
  "SortKey":200
},
{
  "Id":4.18,
  "Item":7621,
  "Required{GrandCompanyRank}":8,
  "Cost{GCSeals}":200,
  "SortKey":200
},
{
  "Id":4.19,
  "Item":21800,
  "Required{GrandCompanyRank}":8,
  "Cost{GCSeals}":200,
  "SortKey":200
},
{
  "Id":4.20,
  "Item":0,
  "Required{GrandCompanyRank}":0,
  "Cost{GCSeals}":0,
  "SortKey":0
},
{
  "Id":4.21,
  "Item":0,
  "Required{GrandCompanyRank}":0,
  "Cost{GCSeals}":0,
  "SortKey":0
},
{
  "Id":4.22,
  "Item":0,
  "Required{GrandCompanyRank}":0,
  "Cost{GCSeals}":0,
  "SortKey":0
},
{
  "Id":4.23,
  "Item":0,
  "Required{GrandCompanyRank}":0,
  "Cost{GCSeals}":0,
  "SortKey":0
},
{
  "Id":4.24,
  "Item":0,
  "Required{GrandCompanyRank}":0,
  "Cost{GCSeals}":0,
  "SortKey":0
},
{
  "Id":4.25,
  "Item":0,
  "Required{GrandCompanyRank}":0,
  "Cost{GCSeals}":0,
  "SortKey":0
},
{
  "Id":4.26,
  "Item":0,
  "Required{GrandCompanyRank}":0,
  "Cost{GCSeals}":0,
  "SortKey":0
},
{
  "Id":5.0,
  "Item":1646,
  "Required{GrandCompanyRank}":6,
  "Cost{GCSeals}":2970,
  "SortKey":100
},
{
  "Id":5.1,
  "Item":1714,
  "Required{GrandCompanyRank}":6,
  "Cost{GCSeals}":2970,
  "SortKey":100
},
{
  "Id":5.2,
  "Item":1784,
  "Required{GrandCompanyRank}":6,
  "Cost{GCSeals}":2970,
  "SortKey":100
},
{
  "Id":5.3,
  "Item":1853,
  "Required{GrandCompanyRank}":6,
  "Cost{GCSeals}":2970,
  "SortKey":100
},
{
  "Id":5.4,
  "Item":1923,
  "Required{GrandCompanyRank}":6,
  "Cost{GCSeals}":2970,
  "SortKey":100
},
{
  "Id":5.5,
  "Item":2029,
  "Required{GrandCompanyRank}":6,
  "Cost{GCSeals}":2970,
  "SortKey":100
},
{
  "Id":5.6,
  "Item":2127,
  "Required{GrandCompanyRank}":6,
  "Cost{GCSeals}":2970,
  "SortKey":100
},
{
  "Id":5.7,
  "Item":2172,
  "Required{GrandCompanyRank}":6,
  "Cost{GCSeals}":2970,
  "SortKey":100
},
{
  "Id":5.8,
  "Item":9207,
  "Required{GrandCompanyRank}":6,
  "Cost{GCSeals}":2970,
  "SortKey":100
},
{
  "Id":5.9,
  "Item":10423,
  "Required{GrandCompanyRank}":6,
  "Cost{GCSeals}":2970,
  "SortKey":100
},
{
  "Id":5.10,
  "Item":10485,
  "Required{GrandCompanyRank}":6,
  "Cost{GCSeals}":2970,
  "SortKey":100
},
{
  "Id":5.11,
  "Item":10547,
  "Required{GrandCompanyRank}":6,
  "Cost{GCSeals}":2970,
  "SortKey":100
},
{
  "Id":5.12,
  "Item":1654,
  "Required{GrandCompanyRank}":7,
  "Cost{GCSeals}":3530,
  "SortKey":150
},
{
  "Id":5.13,
  "Item":1721,
  "Required{GrandCompanyRank}":7,
  "Cost{GCSeals}":3530,
  "SortKey":150
},
{
  "Id":5.14,
  "Item":1791,
  "Required{GrandCompanyRank}":7,
  "Cost{GCSeals}":3530,
  "SortKey":150
},
{
  "Id":5.15,
  "Item":1790,
  "Required{GrandCompanyRank}":7,
  "Cost{GCSeals}":3530,
  "SortKey":150
},
{
  "Id":5.16,
  "Item":1859,
  "Required{GrandCompanyRank}":7,
  "Cost{GCSeals}":3530,
  "SortKey":150
},
{
  "Id":5.17,
  "Item":1860,
  "Required{GrandCompanyRank}":7,
  "Cost{GCSeals}":3530,
  "SortKey":150
},
{
  "Id":5.18,
  "Item":1929,
  "Required{GrandCompanyRank}":7,
  "Cost{GCSeals}":3530,
  "SortKey":150
},
{
  "Id":5.19,
  "Item":2034,
  "Required{GrandCompanyRank}":7,
  "Cost{GCSeals}":3530,
  "SortKey":150
},
{
  "Id":5.20,
  "Item":2085,
  "Required{GrandCompanyRank}":7,
  "Cost{GCSeals}":3530,
  "SortKey":150
},
{
  "Id":5.21,
  "Item":2086,
  "Required{GrandCompanyRank}":7,
  "Cost{GCSeals}":3530,
  "SortKey":150
},
{
  "Id":5.22,
  "Item":2179,
  "Required{GrandCompanyRank}":7,
  "Cost{GCSeals}":3530,
  "SortKey":150
},
{
  "Id":5.23,
  "Item":9212,
  "Required{GrandCompanyRank}":7,
  "Cost{GCSeals}":3530,
  "SortKey":150
},
{
  "Id":5.24,
  "Item":10426,
  "Required{GrandCompanyRank}":7,
  "Cost{GCSeals}":3530,
  "SortKey":150
},
{
  "Id":5.25,
  "Item":10488,
  "Required{GrandCompanyRank}":7,
  "Cost{GCSeals}":3530,
  "SortKey":150
},
{
  "Id":5.26,
  "Item":10550,
  "Required{GrandCompanyRank}":7,
  "Cost{GCSeals}":3530,
  "SortKey":150
},
{
  "Id":5.27,
  "Item":1726,
  "Required{GrandCompanyRank}":8,
  "Cost{GCSeals}":4200,
  "SortKey":200
},
{
  "Id":5.28,
  "Item":1794,
  "Required{GrandCompanyRank}":8,
  "Cost{GCSeals}":4200,
  "SortKey":200
},
{
  "Id":5.29,
  "Item":1865,
  "Required{GrandCompanyRank}":8,
  "Cost{GCSeals}":4200,
  "SortKey":200
},
{
  "Id":5.30,
  "Item":1935,
  "Required{GrandCompanyRank}":8,
  "Cost{GCSeals}":4200,
  "SortKey":200
},
{
  "Id":5.31,
  "Item":2037,
  "Required{GrandCompanyRank}":8,
  "Cost{GCSeals}":4200,
  "SortKey":200
},
{
  "Id":5.32,
  "Item":2091,
  "Required{GrandCompanyRank}":8,
  "Cost{GCSeals}":4200,
  "SortKey":200
},
{
  "Id":5.33,
  "Item":2182,
  "Required{GrandCompanyRank}":8,
  "Cost{GCSeals}":4200,
  "SortKey":200
},
{
  "Id":5.34,
  "Item":9217,
  "Required{GrandCompanyRank}":8,
  "Cost{GCSeals}":4200,
  "SortKey":200
},
{
  "Id":5.35,
  "Item":10429,
  "Required{GrandCompanyRank}":8,
  "Cost{GCSeals}":4200,
  "SortKey":200
},
{
  "Id":5.36,
  "Item":10491,
  "Required{GrandCompanyRank}":8,
  "Cost{GCSeals}":4200,
  "SortKey":200
},
{
  "Id":5.37,
  "Item":10553,
  "Required{GrandCompanyRank}":8,
  "Cost{GCSeals}":4200,
  "SortKey":200
},
{
  "Id":5.38,
  "Item":0,
  "Required{GrandCompanyRank}":0,
  "Cost{GCSeals}":0,
  "SortKey":0
},
{
  "Id":6.0,
  "Item":3393,
  "Required{GrandCompanyRank}":5,
  "Cost{GCSeals}":1620,
  "SortKey":50
},
{
  "Id":6.1,
  "Item":3392,
  "Required{GrandCompanyRank}":5,
  "Cost{GCSeals}":1620,
  "SortKey":50
},
{
  "Id":6.2,
  "Item":3391,
  "Required{GrandCompanyRank}":5,
  "Cost{GCSeals}":1620,
  "SortKey":50
},
{
  "Id":6.3,
  "Item":4229,
  "Required{GrandCompanyRank}":5,
  "Cost{GCSeals}":1190,
  "SortKey":50
},
{
  "Id":6.4,
  "Item":2266,
  "Required{GrandCompanyRank}":6,
  "Cost{GCSeals}":2540,
  "SortKey":100
},
{
  "Id":6.5,
  "Item":3633,
  "Required{GrandCompanyRank}":6,
  "Cost{GCSeals}":1960,
  "SortKey":100
},
{
  "Id":6.6,
  "Item":3635,
  "Required{GrandCompanyRank}":6,
  "Cost{GCSeals}":1960,
  "SortKey":100
},
{
  "Id":6.7,
  "Item":3634,
  "Required{GrandCompanyRank}":6,
  "Cost{GCSeals}":1960,
  "SortKey":100
},
{
  "Id":6.8,
  "Item":4128,
  "Required{GrandCompanyRank}":6,
  "Cost{GCSeals}":1710,
  "SortKey":100
},
{
  "Id":6.9,
  "Item":2275,
  "Required{GrandCompanyRank}":7,
  "Cost{GCSeals}":3380,
  "SortKey":150
},
{
  "Id":6.10,
  "Item":3156,
  "Required{GrandCompanyRank}":7,
  "Cost{GCSeals}":3280,
  "SortKey":150
},
{
  "Id":6.11,
  "Item":3155,
  "Required{GrandCompanyRank}":7,
  "Cost{GCSeals}":3280,
  "SortKey":150
},
{
  "Id":6.12,
  "Item":3154,
  "Required{GrandCompanyRank}":7,
  "Cost{GCSeals}":3280,
  "SortKey":150
},
{
  "Id":6.13,
  "Item":3876,
  "Required{GrandCompanyRank}":7,
  "Cost{GCSeals}":2710,
  "SortKey":150
},
{
  "Id":6.14,
  "Item":3877,
  "Required{GrandCompanyRank}":7,
  "Cost{GCSeals}":2710,
  "SortKey":150
},
{
  "Id":6.15,
  "Item":3875,
  "Required{GrandCompanyRank}":7,
  "Cost{GCSeals}":2710,
  "SortKey":150
},
{
  "Id":6.16,
  "Item":4355,
  "Required{GrandCompanyRank}":7,
  "Cost{GCSeals}":1710,
  "SortKey":150
},
{
  "Id":6.17,
  "Item":2283,
  "Required{GrandCompanyRank}":8,
  "Cost{GCSeals}":4020,
  "SortKey":200
},
{
  "Id":6.18,
  "Item":2284,
  "Required{GrandCompanyRank}":8,
  "Cost{GCSeals}":4020,
  "SortKey":200
},
{
  "Id":6.19,
  "Item":2843,
  "Required{GrandCompanyRank}":8,
  "Cost{GCSeals}":2860,
  "SortKey":200
},
{
  "Id":6.20,
  "Item":2842,
  "Required{GrandCompanyRank}":8,
  "Cost{GCSeals}":2860,
  "SortKey":200
},
{
  "Id":6.21,
  "Item":2845,
  "Required{GrandCompanyRank}":8,
  "Cost{GCSeals}":2860,
  "SortKey":200
},
{
  "Id":6.22,
  "Item":2844,
  "Required{GrandCompanyRank}":8,
  "Cost{GCSeals}":2860,
  "SortKey":200
},
{
  "Id":6.23,
  "Item":3437,
  "Required{GrandCompanyRank}":8,
  "Cost{GCSeals}":3040,
  "SortKey":200
},
{
  "Id":6.24,
  "Item":3436,
  "Required{GrandCompanyRank}":8,
  "Cost{GCSeals}":3040,
  "SortKey":200
},
{
  "Id":6.25,
  "Item":3438,
  "Required{GrandCompanyRank}":8,
  "Cost{GCSeals}":3040,
  "SortKey":200
},
{
  "Id":6.26,
  "Item":4252,
  "Required{GrandCompanyRank}":8,
  "Cost{GCSeals}":2500,
  "SortKey":200
},
{
  "Id":6.27,
  "Item":4490,
  "Required{GrandCompanyRank}":8,
  "Cost{GCSeals}":1900,
  "SortKey":200
},
{
  "Id":6.28,
  "Item":4491,
  "Required{GrandCompanyRank}":8,
  "Cost{GCSeals}":1900,
  "SortKey":200
},
{
  "Id":6.29,
  "Item":4495,
  "Required{GrandCompanyRank}":8,
  "Cost{GCSeals}":2010,
  "SortKey":200
},
{
  "Id":6.30,
  "Item":0,
  "Required{GrandCompanyRank}":0,
  "Cost{GCSeals}":0,
  "SortKey":0
},
{
  "Id":7.0,
  "Item":10386,
  "Required{GrandCompanyRank}":9,
  "Cost{GCSeals}":345,
  "SortKey":10
},
{
  "Id":7.1,
  "Item":6170,
  "Required{GrandCompanyRank}":9,
  "Cost{GCSeals}":20000,
  "SortKey":90
},
{
  "Id":7.2,
  "Item":7799,
  "Required{GrandCompanyRank}":9,
  "Cost{GCSeals}":48000,
  "SortKey":90
},
{
  "Id":7.3,
  "Item":7095,
  "Required{GrandCompanyRank}":9,
  "Cost{GCSeals}":19150,
  "SortKey":90
},
{
  "Id":7.4,
  "Item":7133,
  "Required{GrandCompanyRank}":9,
  "Cost{GCSeals}":10950,
  "SortKey":90
},
{
  "Id":7.5,
  "Item":7143,
  "Required{GrandCompanyRank}":9,
  "Cost{GCSeals}":10950,
  "SortKey":90
},
{
  "Id":7.6,
  "Item":6600,
  "Required{GrandCompanyRank}":9,
  "Cost{GCSeals}":14470,
  "SortKey":90
},
{
  "Id":7.7,
  "Item":9539,
  "Required{GrandCompanyRank}":9,
  "Cost{GCSeals}":20000,
  "SortKey":30
},
{
  "Id":7.8,
  "Item":10124,
  "Required{GrandCompanyRank}":9,
  "Cost{GCSeals}":4000,
  "SortKey":40
},
{
  "Id":7.9,
  "Item":10120,
  "Required{GrandCompanyRank}":9,
  "Cost{GCSeals}":600,
  "SortKey":50
},
{
  "Id":7.10,
  "Item":10121,
  "Required{GrandCompanyRank}":9,
  "Cost{GCSeals}":600,
  "SortKey":50
},
{
  "Id":7.11,
  "Item":10122,
  "Required{GrandCompanyRank}":9,
  "Cost{GCSeals}":600,
  "SortKey":50
},
{
  "Id":7.12,
  "Item":13589,
  "Required{GrandCompanyRank}":9,
  "Cost{GCSeals}":5000,
  "SortKey":20
},
{
  "Id":7.13,
  "Item":13591,
  "Required{GrandCompanyRank}":9,
  "Cost{GCSeals}":5000,
  "SortKey":20
},
{
  "Id":7.14,
  "Item":13593,
  "Required{GrandCompanyRank}":9,
  "Cost{GCSeals}":5000,
  "SortKey":20
},
{
  "Id":7.15,
  "Item":13595,
  "Required{GrandCompanyRank}":9,
  "Cost{GCSeals}":5000,
  "SortKey":20
},
{
  "Id":7.16,
  "Item":14945,
  "Required{GrandCompanyRank}":10,
  "Cost{GCSeals}":2000,
  "SortKey":100
},
{
  "Id":7.17,
  "Item":15772,
  "Required{GrandCompanyRank}":10,
  "Cost{GCSeals}":3000,
  "SortKey":100
},
{
  "Id":7.18,
  "Item":15773,
  "Required{GrandCompanyRank}":10,
  "Cost{GCSeals}":3000,
  "SortKey":100
},
{
  "Id":7.19,
  "Item":15774,
  "Required{GrandCompanyRank}":10,
  "Cost{GCSeals}":3000,
  "SortKey":100
},
{
  "Id":7.20,
  "Item":17837,
  "Required{GrandCompanyRank}":9,
  "Cost{GCSeals}":575,
  "SortKey":10
},
{
  "Id":7.21,
  "Item":20790,
  "Required{GrandCompanyRank}":10,
  "Cost{GCSeals}":500,
  "SortKey":100
},
{
  "Id":7.22,
  "Item":21069,
  "Required{GrandCompanyRank}":10,
  "Cost{GCSeals}":2000,
  "SortKey":95
},
{
  "Id":7.23,
  "Item":12858,
  "Required{GrandCompanyRank}":9,
  "Cost{GCSeals}":600,
  "SortKey":15
},
{
  "Id":7.24,
  "Item":13743,
  "Required{GrandCompanyRank}":9,
  "Cost{GCSeals}":550,
  "SortKey":15
},
{
  "Id":7.25,
  "Item":12844,
  "Required{GrandCompanyRank}":9,
  "Cost{GCSeals}":900,
  "SortKey":15
},
{
  "Id":7.26,
  "Item":12849,
  "Required{GrandCompanyRank}":9,
  "Cost{GCSeals}":550,
  "SortKey":15
},
{
  "Id":7.27,
  "Item":12847,
  "Required{GrandCompanyRank}":9,
  "Cost{GCSeals}":700,
  "SortKey":15
},
{
  "Id":7.28,
  "Item":12854,
  "Required{GrandCompanyRank}":9,
  "Cost{GCSeals}":800,
  "SortKey":15
},
{
  "Id":7.29,
  "Item":4720,
  "Required{GrandCompanyRank}":9,
  "Cost{GCSeals}":500,
  "SortKey":15
},
{
  "Id":7.30,
  "Item":4715,
  "Required{GrandCompanyRank}":9,
  "Cost{GCSeals}":500,
  "SortKey":15
},
{
  "Id":7.31,
  "Item":21319,
  "Required{GrandCompanyRank}":9,
  "Cost{GCSeals}":40000,
  "SortKey":93
},
{
  "Id":7.32,
  "Item":21320,
  "Required{GrandCompanyRank}":9,
  "Cost{GCSeals}":40000,
  "SortKey":93
},
{
  "Id":7.33,
  "Item":22498,
  "Required{GrandCompanyRank}":9,
  "Cost{GCSeals}":10000,
  "SortKey":93
},
{
  "Id":7.34,
  "Item":33916,
  "Required{GrandCompanyRank}":9,
  "Cost{GCSeals}":600,
  "SortKey":10
},
{
  "Id":7.35,
  "Item":36635,
  "Required{GrandCompanyRank}":11,
  "Cost{GCSeals}":20000,
  "SortKey":200
},
{
  "Id":7.36,
  "Item":36636,
  "Required{GrandCompanyRank}":11,
  "Cost{GCSeals}":20000,
  "SortKey":200
},
{
  "Id":7.37,
  "Item":38642,
  "Required{GrandCompanyRank}":11,
  "Cost{GCSeals}":40000,
  "SortKey":95
},
{
  "Id":7.38,
  "Item":38645,
  "Required{GrandCompanyRank}":11,
  "Cost{GCSeals}":40000,
  "SortKey":95
},
{
  "Id":7.39,
  "Item":0,
  "Required{GrandCompanyRank}":0,
  "Cost{GCSeals}":0,
  "SortKey":0
},
{
  "Id":8.0,
  "Item":1668,
  "Required{GrandCompanyRank}":9,
  "Cost{GCSeals}":7040,
  "SortKey":50
},
{
  "Id":8.1,
  "Item":1738,
  "Required{GrandCompanyRank}":9,
  "Cost{GCSeals}":7040,
  "SortKey":50
},
{
  "Id":8.2,
  "Item":1808,
  "Required{GrandCompanyRank}":9,
  "Cost{GCSeals}":7040,
  "SortKey":50
},
{
  "Id":8.3,
  "Item":1877,
  "Required{GrandCompanyRank}":9,
  "Cost{GCSeals}":7040,
  "SortKey":50
},
{
  "Id":8.4,
  "Item":1947,
  "Required{GrandCompanyRank}":9,
  "Cost{GCSeals}":7040,
  "SortKey":50
},
{
  "Id":8.5,
  "Item":1990,
  "Required{GrandCompanyRank}":9,
  "Cost{GCSeals}":7040,
  "SortKey":50
},
{
  "Id":8.6,
  "Item":2100,
  "Required{GrandCompanyRank}":9,
  "Cost{GCSeals}":7040,
  "SortKey":50
},
{
  "Id":8.7,
  "Item":2197,
  "Required{GrandCompanyRank}":9,
  "Cost{GCSeals}":7040,
  "SortKey":50
},
{
  "Id":8.8,
  "Item":2198,
  "Required{GrandCompanyRank}":9,
  "Cost{GCSeals}":7040,
  "SortKey":50
},
{
  "Id":8.9,
  "Item":9222,
  "Required{GrandCompanyRank}":9,
  "Cost{GCSeals}":7040,
  "SortKey":50
},
{
  "Id":8.10,
  "Item":10432,
  "Required{GrandCompanyRank}":9,
  "Cost{GCSeals}":7040,
  "SortKey":50
},
{
  "Id":8.11,
  "Item":10494,
  "Required{GrandCompanyRank}":9,
  "Cost{GCSeals}":7040,
  "SortKey":50
},
{
  "Id":8.12,
  "Item":10556,
  "Required{GrandCompanyRank}":9,
  "Cost{GCSeals}":7040,
  "SortKey":50
},
{
  "Id":8.13,
  "Item":7523,
  "Required{GrandCompanyRank}":9,
  "Cost{GCSeals}":7500,
  "SortKey":80
},
{
  "Id":8.14,
  "Item":7524,
  "Required{GrandCompanyRank}":9,
  "Cost{GCSeals}":7500,
  "SortKey":80
},
{
  "Id":8.15,
  "Item":7525,
  "Required{GrandCompanyRank}":9,
  "Cost{GCSeals}":7500,
  "SortKey":80
},
{
  "Id":8.16,
  "Item":7526,
  "Required{GrandCompanyRank}":9,
  "Cost{GCSeals}":7500,
  "SortKey":80
},
{
  "Id":8.17,
  "Item":7527,
  "Required{GrandCompanyRank}":9,
  "Cost{GCSeals}":7500,
  "SortKey":80
},
{
  "Id":8.18,
  "Item":7528,
  "Required{GrandCompanyRank}":9,
  "Cost{GCSeals}":7500,
  "SortKey":80
},
{
  "Id":8.19,
  "Item":7529,
  "Required{GrandCompanyRank}":9,
  "Cost{GCSeals}":7500,
  "SortKey":80
},
{
  "Id":8.20,
  "Item":7530,
  "Required{GrandCompanyRank}":9,
  "Cost{GCSeals}":7500,
  "SortKey":80
},
{
  "Id":8.21,
  "Item":7531,
  "Required{GrandCompanyRank}":9,
  "Cost{GCSeals}":7500,
  "SortKey":80
},
{
  "Id":8.22,
  "Item":7532,
  "Required{GrandCompanyRank}":9,
  "Cost{GCSeals}":7500,
  "SortKey":80
},
{
  "Id":8.23,
  "Item":7533,
  "Required{GrandCompanyRank}":9,
  "Cost{GCSeals}":7500,
  "SortKey":80
},
{
  "Id":8.24,
  "Item":23918,
  "Required{GrandCompanyRank}":11,
  "Cost{GCSeals}":35000,
  "SortKey":90
},
{
  "Id":8.25,
  "Item":23921,
  "Required{GrandCompanyRank}":11,
  "Cost{GCSeals}":35000,
  "SortKey":90
},
{
  "Id":8.26,
  "Item":23924,
  "Required{GrandCompanyRank}":11,
  "Cost{GCSeals}":35000,
  "SortKey":90
},
{
  "Id":8.27,
  "Item":23927,
  "Required{GrandCompanyRank}":11,
  "Cost{GCSeals}":35000,
  "SortKey":90
},
{
  "Id":8.28,
  "Item":23930,
  "Required{GrandCompanyRank}":11,
  "Cost{GCSeals}":35000,
  "SortKey":90
},
{
  "Id":8.29,
  "Item":23933,
  "Required{GrandCompanyRank}":11,
  "Cost{GCSeals}":35000,
  "SortKey":90
},
{
  "Id":8.30,
  "Item":23936,
  "Required{GrandCompanyRank}":11,
  "Cost{GCSeals}":35000,
  "SortKey":90
},
{
  "Id":8.31,
  "Item":23939,
  "Required{GrandCompanyRank}":11,
  "Cost{GCSeals}":35000,
  "SortKey":90
},
{
  "Id":8.32,
  "Item":23942,
  "Required{GrandCompanyRank}":11,
  "Cost{GCSeals}":35000,
  "SortKey":90
},
{
  "Id":8.33,
  "Item":23945,
  "Required{GrandCompanyRank}":11,
  "Cost{GCSeals}":35000,
  "SortKey":90
},
{
  "Id":8.34,
  "Item":23948,
  "Required{GrandCompanyRank}":11,
  "Cost{GCSeals}":35000,
  "SortKey":90
},
{
  "Id":8.35,
  "Item":23951,
  "Required{GrandCompanyRank}":11,
  "Cost{GCSeals}":35000,
  "SortKey":90
},
{
  "Id":8.36,
  "Item":23954,
  "Required{GrandCompanyRank}":11,
  "Cost{GCSeals}":35000,
  "SortKey":90
},
{
  "Id":8.37,
  "Item":23957,
  "Required{GrandCompanyRank}":11,
  "Cost{GCSeals}":35000,
  "SortKey":90
},
{
  "Id":8.38,
  "Item":23960,
  "Required{GrandCompanyRank}":11,
  "Cost{GCSeals}":35000,
  "SortKey":90
},
{
  "Id":8.39,
  "Item":0,
  "Required{GrandCompanyRank}":0,
  "Cost{GCSeals}":0,
  "SortKey":0
},
{
  "Id":9.0,
  "Item":2917,
  "Required{GrandCompanyRank}":9,
  "Cost{GCSeals}":4800,
  "SortKey":50
},
{
  "Id":9.1,
  "Item":3246,
  "Required{GrandCompanyRank}":9,
  "Cost{GCSeals}":7340,
  "SortKey":50
},
{
  "Id":9.2,
  "Item":3703,
  "Required{GrandCompanyRank}":9,
  "Cost{GCSeals}":4650,
  "SortKey":50
},
{
  "Id":9.3,
  "Item":3924,
  "Required{GrandCompanyRank}":9,
  "Cost{GCSeals}":5100,
  "SortKey":50
},
{
  "Id":9.4,
  "Item":15495,
  "Required{GrandCompanyRank}":10,
  "Cost{GCSeals}":12000,
  "SortKey":100
},
{
  "Id":9.5,
  "Item":15496,
  "Required{GrandCompanyRank}":10,
  "Cost{GCSeals}":21000,
  "SortKey":100
},
{
  "Id":9.6,
  "Item":7521,
  "Required{GrandCompanyRank}":9,
  "Cost{GCSeals}":5000,
  "SortKey":80
},
{
  "Id":9.7,
  "Item":7522,
  "Required{GrandCompanyRank}":9,
  "Cost{GCSeals}":5000,
  "SortKey":80
},
{
  "Id":9.8,
  "Item":10047,
  "Required{GrandCompanyRank}":9,
  "Cost{GCSeals}":5000,
  "SortKey":80
},
{
  "Id":9.9,
  "Item":10048,
  "Required{GrandCompanyRank}":9,
  "Cost{GCSeals}":5000,
  "SortKey":80
},
{
  "Id":9.10,
  "Item":10053,
  "Required{GrandCompanyRank}":9,
  "Cost{GCSeals}":6500,
  "SortKey":80
},
{
  "Id":9.11,
  "Item":10145,
  "Required{GrandCompanyRank}":9,
  "Cost{GCSeals}":5000,
  "SortKey":80
},
{
  "Id":9.12,
  "Item":0,
  "Required{GrandCompanyRank}":0,
  "Cost{GCSeals}":0,
  "SortKey":0
},
{
  "Id":10.0,
  "Item":5594,
  "Required{GrandCompanyRank}":1,
  "Cost{GCSeals}":12,
  "SortKey":50
},
{
  "Id":10.1,
  "Item":5595,
  "Required{GrandCompanyRank}":1,
  "Cost{GCSeals}":34,
  "SortKey":50
},
{
  "Id":10.2,
  "Item":5596,
  "Required{GrandCompanyRank}":1,
  "Cost{GCSeals}":70,
  "SortKey":50
},
{
  "Id":10.3,
  "Item":4564,
  "Required{GrandCompanyRank}":1,
  "Cost{GCSeals}":120,
  "SortKey":50
},
{
  "Id":10.4,
  "Item":4566,
  "Required{GrandCompanyRank}":1,
  "Cost{GCSeals}":290,
  "SortKey":50
},
{
  "Id":10.5,
  "Item":21072,
  "Required{GrandCompanyRank}":1,
  "Cost{GCSeals}":200,
  "SortKey":40
},
{
  "Id":10.6,
  "Item":6018,
  "Required{GrandCompanyRank}":1,
  "Cost{GCSeals}":200,
  "SortKey":50
},
{
  "Id":10.7,
  "Item":15855,
  "Required{GrandCompanyRank}":1,
  "Cost{GCSeals}":500,
  "SortKey":50
},
{
  "Id":10.8,
  "Item":15856,
  "Required{GrandCompanyRank}":1,
  "Cost{GCSeals}":500,
  "SortKey":50
},
{
  "Id":10.9,
  "Item":4568,
  "Required{GrandCompanyRank}":2,
  "Cost{GCSeals}":1010,
  "SortKey":100
},
{
  "Id":10.10,
  "Item":4567,
  "Required{GrandCompanyRank}":2,
  "Cost{GCSeals}":1710,
  "SortKey":100
},
{
  "Id":10.11,
  "Item":4632,
  "Required{GrandCompanyRank}":3,
  "Cost{GCSeals}":1440,
  "SortKey":150
},
{
  "Id":10.12,
  "Item":4633,
  "Required{GrandCompanyRank}":3,
  "Cost{GCSeals}":1440,
  "SortKey":150
},
{
  "Id":10.13,
  "Item":5597,
  "Required{GrandCompanyRank}":4,
  "Cost{GCSeals}":138,
  "SortKey":200
},
{
  "Id":10.14,
  "Item":5598,
  "Required{GrandCompanyRank}":4,
  "Cost{GCSeals}":230,
  "SortKey":200
},
{
  "Id":10.15,
  "Item":0,
  "Required{GrandCompanyRank}":0,
  "Cost{GCSeals}":0,
  "SortKey":0
},
{
  "Id":11.0,
  "Item":1618,
  "Required{GrandCompanyRank}":1,
  "Cost{GCSeals}":1060,
  "SortKey":50
},
{
  "Id":11.1,
  "Item":1690,
  "Required{GrandCompanyRank}":1,
  "Cost{GCSeals}":1060,
  "SortKey":50
},
{
  "Id":11.2,
  "Item":1760,
  "Required{GrandCompanyRank}":1,
  "Cost{GCSeals}":1060,
  "SortKey":50
},
{
  "Id":11.3,
  "Item":1829,
  "Required{GrandCompanyRank}":1,
  "Cost{GCSeals}":1060,
  "SortKey":50
},
{
  "Id":11.4,
  "Item":1902,
  "Required{GrandCompanyRank}":1,
  "Cost{GCSeals}":1060,
  "SortKey":50
},
{
  "Id":11.5,
  "Item":2007,
  "Required{GrandCompanyRank}":1,
  "Cost{GCSeals}":1060,
  "SortKey":50
},
{
  "Id":11.6,
  "Item":2113,
  "Required{GrandCompanyRank}":1,
  "Cost{GCSeals}":1060,
  "SortKey":50
},
{
  "Id":11.7,
  "Item":2153,
  "Required{GrandCompanyRank}":1,
  "Cost{GCSeals}":1060,
  "SortKey":50
},
{
  "Id":11.8,
  "Item":9190,
  "Required{GrandCompanyRank}":1,
  "Cost{GCSeals}":1060,
  "SortKey":50
},
{
  "Id":11.9,
  "Item":1629,
  "Required{GrandCompanyRank}":4,
  "Cost{GCSeals}":1770,
  "SortKey":200
},
{
  "Id":11.10,
  "Item":1702,
  "Required{GrandCompanyRank}":4,
  "Cost{GCSeals}":1770,
  "SortKey":200
},
{
  "Id":11.11,
  "Item":1772,
  "Required{GrandCompanyRank}":4,
  "Cost{GCSeals}":1770,
  "SortKey":200
},
{
  "Id":11.12,
  "Item":1841,
  "Required{GrandCompanyRank}":4,
  "Cost{GCSeals}":1770,
  "SortKey":200
},
{
  "Id":11.13,
  "Item":1911,
  "Required{GrandCompanyRank}":4,
  "Cost{GCSeals}":1770,
  "SortKey":200
},
{
  "Id":11.14,
  "Item":2017,
  "Required{GrandCompanyRank}":4,
  "Cost{GCSeals}":1770,
  "SortKey":200
},
{
  "Id":11.15,
  "Item":2073,
  "Required{GrandCompanyRank}":4,
  "Cost{GCSeals}":1770,
  "SortKey":200
},
{
  "Id":11.16,
  "Item":2162,
  "Required{GrandCompanyRank}":4,
  "Cost{GCSeals}":1770,
  "SortKey":200
},
{
  "Id":11.17,
  "Item":9199,
  "Required{GrandCompanyRank}":4,
  "Cost{GCSeals}":1770,
  "SortKey":200
},
{
  "Id":11.18,
  "Item":10419,
  "Required{GrandCompanyRank}":4,
  "Cost{GCSeals}":1770,
  "SortKey":200
},
{
  "Id":11.19,
  "Item":10481,
  "Required{GrandCompanyRank}":4,
  "Cost{GCSeals}":1770,
  "SortKey":200
},
{
  "Id":11.20,
  "Item":10543,
  "Required{GrandCompanyRank}":4,
  "Cost{GCSeals}":1770,
  "SortKey":200
},
{
  "Id":11.21,
  "Item":0,
  "Required{GrandCompanyRank}":0,
  "Cost{GCSeals}":0,
  "SortKey":0
},
{
  "Id":12.0,
  "Item":2715,
  "Required{GrandCompanyRank}":1,
  "Cost{GCSeals}":680,
  "SortKey":50
},
{
  "Id":12.1,
  "Item":3047,
  "Required{GrandCompanyRank}":1,
  "Cost{GCSeals}":1040,
  "SortKey":50
},
{
  "Id":12.2,
  "Item":3565,
  "Required{GrandCompanyRank}":1,
  "Cost{GCSeals}":660,
  "SortKey":50
},
{
  "Id":12.3,
  "Item":3796,
  "Required{GrandCompanyRank}":1,
  "Cost{GCSeals}":730,
  "SortKey":50
},
{
  "Id":12.4,
  "Item":3071,
  "Required{GrandCompanyRank}":2,
  "Cost{GCSeals}":1390,
  "SortKey":100
},
{
  "Id":12.5,
  "Item":3070,
  "Required{GrandCompanyRank}":2,
  "Cost{GCSeals}":1390,
  "SortKey":100
},
{
  "Id":12.6,
  "Item":3812,
  "Required{GrandCompanyRank}":2,
  "Cost{GCSeals}":970,
  "SortKey":100
},
{
  "Id":12.7,
  "Item":3811,
  "Required{GrandCompanyRank}":2,
  "Cost{GCSeals}":970,
  "SortKey":100
},
{
  "Id":12.8,
  "Item":3813,
  "Required{GrandCompanyRank}":2,
  "Cost{GCSeals}":970,
  "SortKey":100
},
{
  "Id":12.9,
  "Item":4436,
  "Required{GrandCompanyRank}":2,
  "Cost{GCSeals}":540,
  "SortKey":100
},
{
  "Id":12.10,
  "Item":2252,
  "Required{GrandCompanyRank}":3,
  "Cost{GCSeals}":1520,
  "SortKey":150
},
{
  "Id":12.11,
  "Item":3080,
  "Required{GrandCompanyRank}":3,
  "Cost{GCSeals}":1470,
  "SortKey":150
},
{
  "Id":12.12,
  "Item":3081,
  "Required{GrandCompanyRank}":3,
  "Cost{GCSeals}":1470,
  "SortKey":150
},
{
  "Id":12.13,
  "Item":3078,
  "Required{GrandCompanyRank}":3,
  "Cost{GCSeals}":1470,
  "SortKey":150
},
{
  "Id":12.14,
  "Item":3079,
  "Required{GrandCompanyRank}":3,
  "Cost{GCSeals}":1470,
  "SortKey":150
},
{
  "Id":12.15,
  "Item":3589,
  "Required{GrandCompanyRank}":3,
  "Cost{GCSeals}":1050,
  "SortKey":150
},
{
  "Id":12.16,
  "Item":3588,
  "Required{GrandCompanyRank}":3,
  "Cost{GCSeals}":1050,
  "SortKey":150
},
{
  "Id":12.17,
  "Item":3590,
  "Required{GrandCompanyRank}":3,
  "Cost{GCSeals}":1050,
  "SortKey":150
},
{
  "Id":12.18,
  "Item":3357,
  "Required{GrandCompanyRank}":3,
  "Cost{GCSeals}":1080,
  "SortKey":150
},
{
  "Id":12.19,
  "Item":3358,
  "Required{GrandCompanyRank}":3,
  "Cost{GCSeals}":1080,
  "SortKey":150
},
{
  "Id":12.20,
  "Item":4319,
  "Required{GrandCompanyRank}":3,
  "Cost{GCSeals}":720,
  "SortKey":150
},
{
  "Id":12.21,
  "Item":2760,
  "Required{GrandCompanyRank}":4,
  "Cost{GCSeals}":1280,
  "SortKey":200
},
{
  "Id":12.22,
  "Item":3110,
  "Required{GrandCompanyRank}":4,
  "Cost{GCSeals}":1960,
  "SortKey":200
},
{
  "Id":12.23,
  "Item":3109,
  "Required{GrandCompanyRank}":4,
  "Cost{GCSeals}":1960,
  "SortKey":200
},
{
  "Id":12.24,
  "Item":3111,
  "Required{GrandCompanyRank}":4,
  "Cost{GCSeals}":1960,
  "SortKey":200
},
{
  "Id":12.25,
  "Item":3374,
  "Required{GrandCompanyRank}":4,
  "Cost{GCSeals}":1360,
  "SortKey":200
},
{
  "Id":12.26,
  "Item":4123,
  "Required{GrandCompanyRank}":4,
  "Cost{GCSeals}":1210,
  "SortKey":200
},
{
  "Id":12.27,
  "Item":0,
  "Required{GrandCompanyRank}":0,
  "Cost{GCSeals}":0,
  "SortKey":0
},
{
  "Id":13.0,
  "Item":6023,
  "Required{GrandCompanyRank}":5,
  "Cost{GCSeals}":4000,
  "SortKey":50
},
{
  "Id":13.1,
  "Item":4562,
  "Required{GrandCompanyRank}":5,
  "Cost{GCSeals}":2850,
  "SortKey":50
},
{
  "Id":13.2,
  "Item":6024,
  "Required{GrandCompanyRank}":6,
  "Cost{GCSeals}":6000,
  "SortKey":100
},
{
  "Id":13.3,
  "Item":4634,
  "Required{GrandCompanyRank}":7,
  "Cost{GCSeals}":2300,
  "SortKey":150
},
{
  "Id":13.4,
  "Item":4635,
  "Required{GrandCompanyRank}":7,
  "Cost{GCSeals}":2300,
  "SortKey":150
},
{
  "Id":13.5,
  "Item":4636,
  "Required{GrandCompanyRank}":8,
  "Cost{GCSeals}":2730,
  "SortKey":200
},
{
  "Id":13.6,
  "Item":6025,
  "Required{GrandCompanyRank}":8,
  "Cost{GCSeals}":8000,
  "SortKey":200
},
{
  "Id":13.7,
  "Item":6141,
  "Required{GrandCompanyRank}":8,
  "Cost{GCSeals}":500,
  "SortKey":200
},
{
  "Id":13.8,
  "Item":7060,
  "Required{GrandCompanyRank}":8,
  "Cost{GCSeals}":1000,
  "SortKey":200
},
{
  "Id":13.9,
  "Item":7059,
  "Required{GrandCompanyRank}":8,
  "Cost{GCSeals}":1500,
  "SortKey":200
},
{
  "Id":13.10,
  "Item":6528,
  "Required{GrandCompanyRank}":8,
  "Cost{GCSeals}":5050,
  "SortKey":200
},
{
  "Id":13.11,
  "Item":6554,
  "Required{GrandCompanyRank}":8,
  "Cost{GCSeals}":6900,
  "SortKey":200
},
{
  "Id":13.12,
  "Item":6539,
  "Required{GrandCompanyRank}":8,
  "Cost{GCSeals}":8300,
  "SortKey":200
},
{
  "Id":13.13,
  "Item":6557,
  "Required{GrandCompanyRank}":8,
  "Cost{GCSeals}":6700,
  "SortKey":200
},
{
  "Id":13.14,
  "Item":6546,
  "Required{GrandCompanyRank}":8,
  "Cost{GCSeals}":9070,
  "SortKey":200
},
{
  "Id":13.15,
  "Item":6662,
  "Required{GrandCompanyRank}":8,
  "Cost{GCSeals}":1100,
  "SortKey":200
},
{
  "Id":13.16,
  "Item":6657,
  "Required{GrandCompanyRank}":8,
  "Cost{GCSeals}":4900,
  "SortKey":200
},
{
  "Id":13.17,
  "Item":6472,
  "Required{GrandCompanyRank}":8,
  "Cost{GCSeals}":6800,
  "SortKey":200
},
{
  "Id":13.18,
  "Item":7621,
  "Required{GrandCompanyRank}":8,
  "Cost{GCSeals}":200,
  "SortKey":200
},
{
  "Id":13.19,
  "Item":21800,
  "Required{GrandCompanyRank}":8,
  "Cost{GCSeals}":200,
  "SortKey":200
},
{
  "Id":13.20,
  "Item":0,
  "Required{GrandCompanyRank}":0,
  "Cost{GCSeals}":0,
  "SortKey":0
},
{
  "Id":13.21,
  "Item":0,
  "Required{GrandCompanyRank}":0,
  "Cost{GCSeals}":0,
  "SortKey":0
},
{
  "Id":13.22,
  "Item":0,
  "Required{GrandCompanyRank}":0,
  "Cost{GCSeals}":0,
  "SortKey":0
},
{
  "Id":13.23,
  "Item":0,
  "Required{GrandCompanyRank}":0,
  "Cost{GCSeals}":0,
  "SortKey":0
},
{
  "Id":13.24,
  "Item":0,
  "Required{GrandCompanyRank}":0,
  "Cost{GCSeals}":0,
  "SortKey":0
},
{
  "Id":13.25,
  "Item":0,
  "Required{GrandCompanyRank}":0,
  "Cost{GCSeals}":0,
  "SortKey":0
},
{
  "Id":13.26,
  "Item":0,
  "Required{GrandCompanyRank}":0,
  "Cost{GCSeals}":0,
  "SortKey":0
},
{
  "Id":14.0,
  "Item":1645,
  "Required{GrandCompanyRank}":6,
  "Cost{GCSeals}":2970,
  "SortKey":100
},
{
  "Id":14.1,
  "Item":1713,
  "Required{GrandCompanyRank}":6,
  "Cost{GCSeals}":2970,
  "SortKey":100
},
{
  "Id":14.2,
  "Item":1783,
  "Required{GrandCompanyRank}":6,
  "Cost{GCSeals}":2970,
  "SortKey":100
},
{
  "Id":14.3,
  "Item":1852,
  "Required{GrandCompanyRank}":6,
  "Cost{GCSeals}":2970,
  "SortKey":100
},
{
  "Id":14.4,
  "Item":1922,
  "Required{GrandCompanyRank}":6,
  "Cost{GCSeals}":2970,
  "SortKey":100
},
{
  "Id":14.5,
  "Item":2028,
  "Required{GrandCompanyRank}":6,
  "Cost{GCSeals}":2970,
  "SortKey":100
},
{
  "Id":14.6,
  "Item":2081,
  "Required{GrandCompanyRank}":6,
  "Cost{GCSeals}":2970,
  "SortKey":100
},
{
  "Id":14.7,
  "Item":2171,
  "Required{GrandCompanyRank}":6,
  "Cost{GCSeals}":2970,
  "SortKey":100
},
{
  "Id":14.8,
  "Item":9206,
  "Required{GrandCompanyRank}":6,
  "Cost{GCSeals}":2970,
  "SortKey":100
},
{
  "Id":14.9,
  "Item":10422,
  "Required{GrandCompanyRank}":6,
  "Cost{GCSeals}":2970,
  "SortKey":100
},
{
  "Id":14.10,
  "Item":10484,
  "Required{GrandCompanyRank}":6,
  "Cost{GCSeals}":2970,
  "SortKey":100
},
{
  "Id":14.11,
  "Item":10546,
  "Required{GrandCompanyRank}":6,
  "Cost{GCSeals}":2970,
  "SortKey":100
},
{
  "Id":14.12,
  "Item":1653,
  "Required{GrandCompanyRank}":7,
  "Cost{GCSeals}":3530,
  "SortKey":150
},
{
  "Id":14.13,
  "Item":1720,
  "Required{GrandCompanyRank}":7,
  "Cost{GCSeals}":3530,
  "SortKey":150
},
{
  "Id":14.14,
  "Item":1719,
  "Required{GrandCompanyRank}":7,
  "Cost{GCSeals}":3530,
  "SortKey":150
},
{
  "Id":14.15,
  "Item":1789,
  "Required{GrandCompanyRank}":7,
  "Cost{GCSeals}":3530,
  "SortKey":150
},
{
  "Id":14.16,
  "Item":1858,
  "Required{GrandCompanyRank}":7,
  "Cost{GCSeals}":3530,
  "SortKey":150
},
{
  "Id":14.17,
  "Item":1928,
  "Required{GrandCompanyRank}":7,
  "Cost{GCSeals}":3530,
  "SortKey":150
},
{
  "Id":14.18,
  "Item":1980,
  "Required{GrandCompanyRank}":7,
  "Cost{GCSeals}":3530,
  "SortKey":150
},
{
  "Id":14.19,
  "Item":2033,
  "Required{GrandCompanyRank}":7,
  "Cost{GCSeals}":3530,
  "SortKey":150
},
{
  "Id":14.20,
  "Item":2129,
  "Required{GrandCompanyRank}":7,
  "Cost{GCSeals}":3530,
  "SortKey":150
},
{
  "Id":14.21,
  "Item":2178,
  "Required{GrandCompanyRank}":7,
  "Cost{GCSeals}":3530,
  "SortKey":150
},
{
  "Id":14.22,
  "Item":9211,
  "Required{GrandCompanyRank}":7,
  "Cost{GCSeals}":3530,
  "SortKey":150
},
{
  "Id":14.23,
  "Item":10425,
  "Required{GrandCompanyRank}":7,
  "Cost{GCSeals}":3530,
  "SortKey":150
},
{
  "Id":14.24,
  "Item":10487,
  "Required{GrandCompanyRank}":7,
  "Cost{GCSeals}":3530,
  "SortKey":150
},
{
  "Id":14.25,
  "Item":10549,
  "Required{GrandCompanyRank}":7,
  "Cost{GCSeals}":3530,
  "SortKey":150
},
{
  "Id":14.26,
  "Item":1725,
  "Required{GrandCompanyRank}":8,
  "Cost{GCSeals}":4200,
  "SortKey":200
},
{
  "Id":14.27,
  "Item":1793,
  "Required{GrandCompanyRank}":8,
  "Cost{GCSeals}":4200,
  "SortKey":200
},
{
  "Id":14.28,
  "Item":1864,
  "Required{GrandCompanyRank}":8,
  "Cost{GCSeals}":4200,
  "SortKey":200
},
{
  "Id":14.29,
  "Item":1934,
  "Required{GrandCompanyRank}":8,
  "Cost{GCSeals}":4200,
  "SortKey":200
},
{
  "Id":14.30,
  "Item":2036,
  "Required{GrandCompanyRank}":8,
  "Cost{GCSeals}":4200,
  "SortKey":200
},
{
  "Id":14.31,
  "Item":2090,
  "Required{GrandCompanyRank}":8,
  "Cost{GCSeals}":4200,
  "SortKey":200
},
{
  "Id":14.32,
  "Item":2181,
  "Required{GrandCompanyRank}":8,
  "Cost{GCSeals}":4200,
  "SortKey":200
},
{
  "Id":14.33,
  "Item":9216,
  "Required{GrandCompanyRank}":8,
  "Cost{GCSeals}":4200,
  "SortKey":200
},
{
  "Id":14.34,
  "Item":10428,
  "Required{GrandCompanyRank}":8,
  "Cost{GCSeals}":4200,
  "SortKey":200
},
{
  "Id":14.35,
  "Item":10490,
  "Required{GrandCompanyRank}":8,
  "Cost{GCSeals}":4200,
  "SortKey":200
},
{
  "Id":14.36,
  "Item":10552,
  "Required{GrandCompanyRank}":8,
  "Cost{GCSeals}":4200,
  "SortKey":200
},
{
  "Id":14.37,
  "Item":0,
  "Required{GrandCompanyRank}":0,
  "Cost{GCSeals}":0,
  "SortKey":0
},
{
  "Id":15.0,
  "Item":3390,
  "Required{GrandCompanyRank}":5,
  "Cost{GCSeals}":1620,
  "SortKey":50
},
{
  "Id":15.1,
  "Item":3388,
  "Required{GrandCompanyRank}":5,
  "Cost{GCSeals}":1620,
  "SortKey":50
},
{
  "Id":15.2,
  "Item":3389,
  "Required{GrandCompanyRank}":5,
  "Cost{GCSeals}":1620,
  "SortKey":50
},
{
  "Id":15.3,
  "Item":4228,
  "Required{GrandCompanyRank}":5,
  "Cost{GCSeals}":1190,
  "SortKey":50
},
{
  "Id":15.4,
  "Item":2265,
  "Required{GrandCompanyRank}":6,
  "Cost{GCSeals}":2540,
  "SortKey":100
},
{
  "Id":15.5,
  "Item":3630,
  "Required{GrandCompanyRank}":6,
  "Cost{GCSeals}":1960,
  "SortKey":100
},
{
  "Id":15.6,
  "Item":3632,
  "Required{GrandCompanyRank}":6,
  "Cost{GCSeals}":1960,
  "SortKey":100
},
{
  "Id":15.7,
  "Item":3631,
  "Required{GrandCompanyRank}":6,
  "Cost{GCSeals}":1960,
  "SortKey":100
},
{
  "Id":15.8,
  "Item":4127,
  "Required{GrandCompanyRank}":6,
  "Cost{GCSeals}":1710,
  "SortKey":100
},
{
  "Id":15.9,
  "Item":2273,
  "Required{GrandCompanyRank}":7,
  "Cost{GCSeals}":3380,
  "SortKey":150
},
{
  "Id":15.10,
  "Item":2274,
  "Required{GrandCompanyRank}":7,
  "Cost{GCSeals}":3380,
  "SortKey":150
},
{
  "Id":15.11,
  "Item":3153,
  "Required{GrandCompanyRank}":7,
  "Cost{GCSeals}":3280,
  "SortKey":150
},
{
  "Id":15.12,
  "Item":3151,
  "Required{GrandCompanyRank}":7,
  "Cost{GCSeals}":3280,
  "SortKey":150
},
{
  "Id":15.13,
  "Item":3152,
  "Required{GrandCompanyRank}":7,
  "Cost{GCSeals}":3280,
  "SortKey":150
},
{
  "Id":15.14,
  "Item":3873,
  "Required{GrandCompanyRank}":7,
  "Cost{GCSeals}":2710,
  "SortKey":150
},
{
  "Id":15.15,
  "Item":3874,
  "Required{GrandCompanyRank}":7,
  "Cost{GCSeals}":2710,
  "SortKey":150
},
{
  "Id":15.16,
  "Item":3872,
  "Required{GrandCompanyRank}":7,
  "Cost{GCSeals}":2710,
  "SortKey":150
},
{
  "Id":15.17,
  "Item":4354,
  "Required{GrandCompanyRank}":7,
  "Cost{GCSeals}":1710,
  "SortKey":150
},
{
  "Id":15.18,
  "Item":2281,
  "Required{GrandCompanyRank}":8,
  "Cost{GCSeals}":4020,
  "SortKey":200
},
{
  "Id":15.19,
  "Item":2282,
  "Required{GrandCompanyRank}":8,
  "Cost{GCSeals}":4020,
  "SortKey":200
},
{
  "Id":15.20,
  "Item":2839,
  "Required{GrandCompanyRank}":8,
  "Cost{GCSeals}":2860,
  "SortKey":200
},
{
  "Id":15.21,
  "Item":2838,
  "Required{GrandCompanyRank}":8,
  "Cost{GCSeals}":2860,
  "SortKey":200
},
{
  "Id":15.22,
  "Item":2841,
  "Required{GrandCompanyRank}":8,
  "Cost{GCSeals}":2860,
  "SortKey":200
},
{
  "Id":15.23,
  "Item":2840,
  "Required{GrandCompanyRank}":8,
  "Cost{GCSeals}":2860,
  "SortKey":200
},
{
  "Id":15.24,
  "Item":3434,
  "Required{GrandCompanyRank}":8,
  "Cost{GCSeals}":3040,
  "SortKey":200
},
{
  "Id":15.25,
  "Item":3433,
  "Required{GrandCompanyRank}":8,
  "Cost{GCSeals}":3040,
  "SortKey":200
},
{
  "Id":15.26,
  "Item":3435,
  "Required{GrandCompanyRank}":8,
  "Cost{GCSeals}":3040,
  "SortKey":200
},
{
  "Id":15.27,
  "Item":4251,
  "Required{GrandCompanyRank}":8,
  "Cost{GCSeals}":2500,
  "SortKey":200
},
{
  "Id":15.28,
  "Item":4488,
  "Required{GrandCompanyRank}":8,
  "Cost{GCSeals}":1900,
  "SortKey":200
},
{
  "Id":15.29,
  "Item":4489,
  "Required{GrandCompanyRank}":8,
  "Cost{GCSeals}":1900,
  "SortKey":200
},
{
  "Id":15.30,
  "Item":4494,
  "Required{GrandCompanyRank}":8,
  "Cost{GCSeals}":2010,
  "SortKey":200
},
{
  "Id":15.31,
  "Item":0,
  "Required{GrandCompanyRank}":0,
  "Cost{GCSeals}":0,
  "SortKey":0
},
{
  "Id":16.0,
  "Item":10386,
  "Required{GrandCompanyRank}":9,
  "Cost{GCSeals}":345,
  "SortKey":10
},
{
  "Id":16.1,
  "Item":6171,
  "Required{GrandCompanyRank}":9,
  "Cost{GCSeals}":20000,
  "SortKey":90
},
{
  "Id":16.2,
  "Item":7799,
  "Required{GrandCompanyRank}":9,
  "Cost{GCSeals}":48000,
  "SortKey":90
},
{
  "Id":16.3,
  "Item":7097,
  "Required{GrandCompanyRank}":9,
  "Cost{GCSeals}":19150,
  "SortKey":90
},
{
  "Id":16.4,
  "Item":7134,
  "Required{GrandCompanyRank}":9,
  "Cost{GCSeals}":10950,
  "SortKey":90
},
{
  "Id":16.5,
  "Item":7144,
  "Required{GrandCompanyRank}":9,
  "Cost{GCSeals}":10950,
  "SortKey":90
},
{
  "Id":16.6,
  "Item":6600,
  "Required{GrandCompanyRank}":9,
  "Cost{GCSeals}":14470,
  "SortKey":90
},
{
  "Id":16.7,
  "Item":9539,
  "Required{GrandCompanyRank}":9,
  "Cost{GCSeals}":20000,
  "SortKey":30
},
{
  "Id":16.8,
  "Item":10124,
  "Required{GrandCompanyRank}":9,
  "Cost{GCSeals}":4000,
  "SortKey":40
},
{
  "Id":16.9,
  "Item":10120,
  "Required{GrandCompanyRank}":9,
  "Cost{GCSeals}":600,
  "SortKey":50
},
{
  "Id":16.10,
  "Item":10121,
  "Required{GrandCompanyRank}":9,
  "Cost{GCSeals}":600,
  "SortKey":50
},
{
  "Id":16.11,
  "Item":10122,
  "Required{GrandCompanyRank}":9,
  "Cost{GCSeals}":600,
  "SortKey":50
},
{
  "Id":16.12,
  "Item":13589,
  "Required{GrandCompanyRank}":9,
  "Cost{GCSeals}":5000,
  "SortKey":20
},
{
  "Id":16.13,
  "Item":13591,
  "Required{GrandCompanyRank}":9,
  "Cost{GCSeals}":5000,
  "SortKey":20
},
{
  "Id":16.14,
  "Item":13593,
  "Required{GrandCompanyRank}":9,
  "Cost{GCSeals}":5000,
  "SortKey":20
},
{
  "Id":16.15,
  "Item":13595,
  "Required{GrandCompanyRank}":9,
  "Cost{GCSeals}":5000,
  "SortKey":20
},
{
  "Id":16.16,
  "Item":14945,
  "Required{GrandCompanyRank}":10,
  "Cost{GCSeals}":2000,
  "SortKey":100
},
{
  "Id":16.17,
  "Item":15772,
  "Required{GrandCompanyRank}":10,
  "Cost{GCSeals}":3000,
  "SortKey":100
},
{
  "Id":16.18,
  "Item":15773,
  "Required{GrandCompanyRank}":10,
  "Cost{GCSeals}":3000,
  "SortKey":100
},
{
  "Id":16.19,
  "Item":15774,
  "Required{GrandCompanyRank}":10,
  "Cost{GCSeals}":3000,
  "SortKey":100
},
{
  "Id":16.20,
  "Item":17837,
  "Required{GrandCompanyRank}":9,
  "Cost{GCSeals}":575,
  "SortKey":10
},
{
  "Id":16.21,
  "Item":20790,
  "Required{GrandCompanyRank}":10,
  "Cost{GCSeals}":500,
  "SortKey":100
},
{
  "Id":16.22,
  "Item":21070,
  "Required{GrandCompanyRank}":10,
  "Cost{GCSeals}":2000,
  "SortKey":95
},
{
  "Id":16.23,
  "Item":12858,
  "Required{GrandCompanyRank}":9,
  "Cost{GCSeals}":600,
  "SortKey":15
},
{
  "Id":16.24,
  "Item":13743,
  "Required{GrandCompanyRank}":9,
  "Cost{GCSeals}":550,
  "SortKey":15
},
{
  "Id":16.25,
  "Item":12844,
  "Required{GrandCompanyRank}":9,
  "Cost{GCSeals}":900,
  "SortKey":15
},
{
  "Id":16.26,
  "Item":12849,
  "Required{GrandCompanyRank}":9,
  "Cost{GCSeals}":550,
  "SortKey":15
},
{
  "Id":16.27,
  "Item":12847,
  "Required{GrandCompanyRank}":9,
  "Cost{GCSeals}":700,
  "SortKey":15
},
{
  "Id":16.28,
  "Item":12854,
  "Required{GrandCompanyRank}":9,
  "Cost{GCSeals}":800,
  "SortKey":15
},
{
  "Id":16.29,
  "Item":4720,
  "Required{GrandCompanyRank}":9,
  "Cost{GCSeals}":500,
  "SortKey":15
},
{
  "Id":16.30,
  "Item":4715,
  "Required{GrandCompanyRank}":9,
  "Cost{GCSeals}":500,
  "SortKey":15
},
{
  "Id":16.31,
  "Item":21319,
  "Required{GrandCompanyRank}":9,
  "Cost{GCSeals}":40000,
  "SortKey":93
},
{
  "Id":16.32,
  "Item":21320,
  "Required{GrandCompanyRank}":9,
  "Cost{GCSeals}":40000,
  "SortKey":93
},
{
  "Id":16.33,
  "Item":22498,
  "Required{GrandCompanyRank}":9,
  "Cost{GCSeals}":10000,
  "SortKey":93
},
{
  "Id":16.34,
  "Item":33916,
  "Required{GrandCompanyRank}":9,
  "Cost{GCSeals}":600,
  "SortKey":10
},
{
  "Id":16.35,
  "Item":36635,
  "Required{GrandCompanyRank}":11,
  "Cost{GCSeals}":20000,
  "SortKey":200
},
{
  "Id":16.36,
  "Item":36636,
  "Required{GrandCompanyRank}":11,
  "Cost{GCSeals}":20000,
  "SortKey":200
},
{
  "Id":16.37,
  "Item":38641,
  "Required{GrandCompanyRank}":11,
  "Cost{GCSeals}":40000,
  "SortKey":95
},
{
  "Id":16.38,
  "Item":38644,
  "Required{GrandCompanyRank}":11,
  "Cost{GCSeals}":40000,
  "SortKey":95
},
{
  "Id":16.39,
  "Item":0,
  "Required{GrandCompanyRank}":0,
  "Cost{GCSeals}":0,
  "SortKey":0
},
{
  "Id":17.0,
  "Item":1667,
  "Required{GrandCompanyRank}":9,
  "Cost{GCSeals}":7040,
  "SortKey":50
},
{
  "Id":17.1,
  "Item":1737,
  "Required{GrandCompanyRank}":9,
  "Cost{GCSeals}":7040,
  "SortKey":50
},
{
  "Id":17.2,
  "Item":1807,
  "Required{GrandCompanyRank}":9,
  "Cost{GCSeals}":7040,
  "SortKey":50
},
{
  "Id":17.3,
  "Item":1876,
  "Required{GrandCompanyRank}":9,
  "Cost{GCSeals}":7040,
  "SortKey":50
},
{
  "Id":17.4,
  "Item":1946,
  "Required{GrandCompanyRank}":9,
  "Cost{GCSeals}":7040,
  "SortKey":50
},
{
  "Id":17.5,
  "Item":1989,
  "Required{GrandCompanyRank}":9,
  "Cost{GCSeals}":7040,
  "SortKey":50
},
{
  "Id":17.6,
  "Item":2099,
  "Required{GrandCompanyRank}":9,
  "Cost{GCSeals}":7040,
  "SortKey":50
},
{
  "Id":17.7,
  "Item":2195,
  "Required{GrandCompanyRank}":9,
  "Cost{GCSeals}":7040,
  "SortKey":50
},
{
  "Id":17.8,
  "Item":2196,
  "Required{GrandCompanyRank}":9,
  "Cost{GCSeals}":7040,
  "SortKey":50
},
{
  "Id":17.9,
  "Item":9221,
  "Required{GrandCompanyRank}":9,
  "Cost{GCSeals}":7040,
  "SortKey":50
},
{
  "Id":17.10,
  "Item":10431,
  "Required{GrandCompanyRank}":9,
  "Cost{GCSeals}":7040,
  "SortKey":50
},
{
  "Id":17.11,
  "Item":10493,
  "Required{GrandCompanyRank}":9,
  "Cost{GCSeals}":7040,
  "SortKey":50
},
{
  "Id":17.12,
  "Item":10555,
  "Required{GrandCompanyRank}":9,
  "Cost{GCSeals}":7040,
  "SortKey":50
},
{
  "Id":17.13,
  "Item":7523,
  "Required{GrandCompanyRank}":9,
  "Cost{GCSeals}":7500,
  "SortKey":80
},
{
  "Id":17.14,
  "Item":7524,
  "Required{GrandCompanyRank}":9,
  "Cost{GCSeals}":7500,
  "SortKey":80
},
{
  "Id":17.15,
  "Item":7525,
  "Required{GrandCompanyRank}":9,
  "Cost{GCSeals}":7500,
  "SortKey":80
},
{
  "Id":17.16,
  "Item":7526,
  "Required{GrandCompanyRank}":9,
  "Cost{GCSeals}":7500,
  "SortKey":80
},
{
  "Id":17.17,
  "Item":7527,
  "Required{GrandCompanyRank}":9,
  "Cost{GCSeals}":7500,
  "SortKey":80
},
{
  "Id":17.18,
  "Item":7528,
  "Required{GrandCompanyRank}":9,
  "Cost{GCSeals}":7500,
  "SortKey":80
},
{
  "Id":17.19,
  "Item":7529,
  "Required{GrandCompanyRank}":9,
  "Cost{GCSeals}":7500,
  "SortKey":80
},
{
  "Id":17.20,
  "Item":7530,
  "Required{GrandCompanyRank}":9,
  "Cost{GCSeals}":7500,
  "SortKey":80
},
{
  "Id":17.21,
  "Item":7531,
  "Required{GrandCompanyRank}":9,
  "Cost{GCSeals}":7500,
  "SortKey":80
},
{
  "Id":17.22,
  "Item":7532,
  "Required{GrandCompanyRank}":9,
  "Cost{GCSeals}":7500,
  "SortKey":80
},
{
  "Id":17.23,
  "Item":7533,
  "Required{GrandCompanyRank}":9,
  "Cost{GCSeals}":7500,
  "SortKey":80
},
{
  "Id":17.24,
  "Item":23917,
  "Required{GrandCompanyRank}":11,
  "Cost{GCSeals}":35000,
  "SortKey":90
},
{
  "Id":17.25,
  "Item":23920,
  "Required{GrandCompanyRank}":11,
  "Cost{GCSeals}":35000,
  "SortKey":90
},
{
  "Id":17.26,
  "Item":23923,
  "Required{GrandCompanyRank}":11,
  "Cost{GCSeals}":35000,
  "SortKey":90
},
{
  "Id":17.27,
  "Item":23926,
  "Required{GrandCompanyRank}":11,
  "Cost{GCSeals}":35000,
  "SortKey":90
},
{
  "Id":17.28,
  "Item":23929,
  "Required{GrandCompanyRank}":11,
  "Cost{GCSeals}":35000,
  "SortKey":90
},
{
  "Id":17.29,
  "Item":23932,
  "Required{GrandCompanyRank}":11,
  "Cost{GCSeals}":35000,
  "SortKey":90
},
{
  "Id":17.30,
  "Item":23935,
  "Required{GrandCompanyRank}":11,
  "Cost{GCSeals}":35000,
  "SortKey":90
},
{
  "Id":17.31,
  "Item":23938,
  "Required{GrandCompanyRank}":11,
  "Cost{GCSeals}":35000,
  "SortKey":90
},
{
  "Id":17.32,
  "Item":23941,
  "Required{GrandCompanyRank}":11,
  "Cost{GCSeals}":35000,
  "SortKey":90
},
{
  "Id":17.33,
  "Item":23944,
  "Required{GrandCompanyRank}":11,
  "Cost{GCSeals}":35000,
  "SortKey":90
},
{
  "Id":17.34,
  "Item":23947,
  "Required{GrandCompanyRank}":11,
  "Cost{GCSeals}":35000,
  "SortKey":90
},
{
  "Id":17.35,
  "Item":23950,
  "Required{GrandCompanyRank}":11,
  "Cost{GCSeals}":35000,
  "SortKey":90
},
{
  "Id":17.36,
  "Item":23953,
  "Required{GrandCompanyRank}":11,
  "Cost{GCSeals}":35000,
  "SortKey":90
},
{
  "Id":17.37,
  "Item":23956,
  "Required{GrandCompanyRank}":11,
  "Cost{GCSeals}":35000,
  "SortKey":90
},
{
  "Id":17.38,
  "Item":23959,
  "Required{GrandCompanyRank}":11,
  "Cost{GCSeals}":35000,
  "SortKey":90
},
{
  "Id":17.39,
  "Item":0,
  "Required{GrandCompanyRank}":0,
  "Cost{GCSeals}":0,
  "SortKey":0
},
{
  "Id":18.0,
  "Item":2916,
  "Required{GrandCompanyRank}":9,
  "Cost{GCSeals}":4800,
  "SortKey":50
},
{
  "Id":18.1,
  "Item":3245,
  "Required{GrandCompanyRank}":9,
  "Cost{GCSeals}":7340,
  "SortKey":50
},
{
  "Id":18.2,
  "Item":3702,
  "Required{GrandCompanyRank}":9,
  "Cost{GCSeals}":4650,
  "SortKey":50
},
{
  "Id":18.3,
  "Item":3923,
  "Required{GrandCompanyRank}":9,
  "Cost{GCSeals}":5100,
  "SortKey":50
},
{
  "Id":18.4,
  "Item":15499,
  "Required{GrandCompanyRank}":10,
  "Cost{GCSeals}":12000,
  "SortKey":100
},
{
  "Id":18.5,
  "Item":15500,
  "Required{GrandCompanyRank}":10,
  "Cost{GCSeals}":21000,
  "SortKey":100
},
{
  "Id":18.6,
  "Item":7521,
  "Required{GrandCompanyRank}":9,
  "Cost{GCSeals}":5000,
  "SortKey":80
},
{
  "Id":18.7,
  "Item":7522,
  "Required{GrandCompanyRank}":9,
  "Cost{GCSeals}":5000,
  "SortKey":80
},
{
  "Id":18.8,
  "Item":10047,
  "Required{GrandCompanyRank}":9,
  "Cost{GCSeals}":5000,
  "SortKey":80
},
{
  "Id":18.9,
  "Item":10048,
  "Required{GrandCompanyRank}":9,
  "Cost{GCSeals}":5000,
  "SortKey":80
},
{
  "Id":18.10,
  "Item":10053,
  "Required{GrandCompanyRank}":9,
  "Cost{GCSeals}":6500,
  "SortKey":80
},
{
  "Id":18.11,
  "Item":10145,
  "Required{GrandCompanyRank}":9,
  "Cost{GCSeals}":5000,
  "SortKey":80
},
{
  "Id":18.12,
  "Item":0,
  "Required{GrandCompanyRank}":0,
  "Cost{GCSeals}":0,
  "SortKey":0
},
{
  "Id":19.0,
  "Item":5594,
  "Required{GrandCompanyRank}":1,
  "Cost{GCSeals}":12,
  "SortKey":50
},
{
  "Id":19.1,
  "Item":5595,
  "Required{GrandCompanyRank}":1,
  "Cost{GCSeals}":34,
  "SortKey":50
},
{
  "Id":19.2,
  "Item":5596,
  "Required{GrandCompanyRank}":1,
  "Cost{GCSeals}":70,
  "SortKey":50
},
{
  "Id":19.3,
  "Item":4564,
  "Required{GrandCompanyRank}":1,
  "Cost{GCSeals}":120,
  "SortKey":50
},
{
  "Id":19.4,
  "Item":4566,
  "Required{GrandCompanyRank}":1,
  "Cost{GCSeals}":290,
  "SortKey":50
},
{
  "Id":19.5,
  "Item":21072,
  "Required{GrandCompanyRank}":1,
  "Cost{GCSeals}":200,
  "SortKey":40
},
{
  "Id":19.6,
  "Item":6019,
  "Required{GrandCompanyRank}":1,
  "Cost{GCSeals}":200,
  "SortKey":50
},
{
  "Id":19.7,
  "Item":15855,
  "Required{GrandCompanyRank}":1,
  "Cost{GCSeals}":500,
  "SortKey":50
},
{
  "Id":19.8,
  "Item":15856,
  "Required{GrandCompanyRank}":1,
  "Cost{GCSeals}":500,
  "SortKey":50
},
{
  "Id":19.9,
  "Item":4568,
  "Required{GrandCompanyRank}":2,
  "Cost{GCSeals}":1010,
  "SortKey":100
},
{
  "Id":19.10,
  "Item":4567,
  "Required{GrandCompanyRank}":2,
  "Cost{GCSeals}":1710,
  "SortKey":100
},
{
  "Id":19.11,
  "Item":4632,
  "Required{GrandCompanyRank}":3,
  "Cost{GCSeals}":1440,
  "SortKey":150
},
{
  "Id":19.12,
  "Item":4633,
  "Required{GrandCompanyRank}":3,
  "Cost{GCSeals}":1440,
  "SortKey":150
},
{
  "Id":19.13,
  "Item":5597,
  "Required{GrandCompanyRank}":4,
  "Cost{GCSeals}":138,
  "SortKey":200
},
{
  "Id":19.14,
  "Item":5598,
  "Required{GrandCompanyRank}":4,
  "Cost{GCSeals}":230,
  "SortKey":200
},
{
  "Id":19.15,
  "Item":0,
  "Required{GrandCompanyRank}":0,
  "Cost{GCSeals}":0,
  "SortKey":0
},
{
  "Id":20.0,
  "Item":1620,
  "Required{GrandCompanyRank}":1,
  "Cost{GCSeals}":1060,
  "SortKey":50
},
{
  "Id":20.1,
  "Item":1692,
  "Required{GrandCompanyRank}":1,
  "Cost{GCSeals}":1060,
  "SortKey":50
},
{
  "Id":20.2,
  "Item":1762,
  "Required{GrandCompanyRank}":1,
  "Cost{GCSeals}":1060,
  "SortKey":50
},
{
  "Id":20.3,
  "Item":1831,
  "Required{GrandCompanyRank}":1,
  "Cost{GCSeals}":1060,
  "SortKey":50
},
{
  "Id":20.4,
  "Item":1904,
  "Required{GrandCompanyRank}":1,
  "Cost{GCSeals}":1060,
  "SortKey":50
},
{
  "Id":20.5,
  "Item":2009,
  "Required{GrandCompanyRank}":1,
  "Cost{GCSeals}":1060,
  "SortKey":50
},
{
  "Id":20.6,
  "Item":2115,
  "Required{GrandCompanyRank}":1,
  "Cost{GCSeals}":1060,
  "SortKey":50
},
{
  "Id":20.7,
  "Item":2155,
  "Required{GrandCompanyRank}":1,
  "Cost{GCSeals}":1060,
  "SortKey":50
},
{
  "Id":20.8,
  "Item":9192,
  "Required{GrandCompanyRank}":1,
  "Cost{GCSeals}":1060,
  "SortKey":50
},
{
  "Id":20.9,
  "Item":1631,
  "Required{GrandCompanyRank}":4,
  "Cost{GCSeals}":1770,
  "SortKey":200
},
{
  "Id":20.10,
  "Item":1704,
  "Required{GrandCompanyRank}":4,
  "Cost{GCSeals}":1770,
  "SortKey":200
},
{
  "Id":20.11,
  "Item":1774,
  "Required{GrandCompanyRank}":4,
  "Cost{GCSeals}":1770,
  "SortKey":200
},
{
  "Id":20.12,
  "Item":1843,
  "Required{GrandCompanyRank}":4,
  "Cost{GCSeals}":1770,
  "SortKey":200
},
{
  "Id":20.13,
  "Item":1913,
  "Required{GrandCompanyRank}":4,
  "Cost{GCSeals}":1770,
  "SortKey":200
},
{
  "Id":20.14,
  "Item":2019,
  "Required{GrandCompanyRank}":4,
  "Cost{GCSeals}":1770,
  "SortKey":200
},
{
  "Id":20.15,
  "Item":2075,
  "Required{GrandCompanyRank}":4,
  "Cost{GCSeals}":1770,
  "SortKey":200
},
{
  "Id":20.16,
  "Item":2164,
  "Required{GrandCompanyRank}":4,
  "Cost{GCSeals}":1770,
  "SortKey":200
},
{
  "Id":20.17,
  "Item":9201,
  "Required{GrandCompanyRank}":4,
  "Cost{GCSeals}":1770,
  "SortKey":200
},
{
  "Id":20.18,
  "Item":10421,
  "Required{GrandCompanyRank}":4,
  "Cost{GCSeals}":1770,
  "SortKey":200
},
{
  "Id":20.19,
  "Item":10483,
  "Required{GrandCompanyRank}":4,
  "Cost{GCSeals}":1770,
  "SortKey":200
},
{
  "Id":20.20,
  "Item":10545,
  "Required{GrandCompanyRank}":4,
  "Cost{GCSeals}":1770,
  "SortKey":200
},
{
  "Id":20.21,
  "Item":0,
  "Required{GrandCompanyRank}":0,
  "Cost{GCSeals}":0,
  "SortKey":0
},
{
  "Id":21.0,
  "Item":2717,
  "Required{GrandCompanyRank}":1,
  "Cost{GCSeals}":680,
  "SortKey":50
},
{
  "Id":21.1,
  "Item":3049,
  "Required{GrandCompanyRank}":1,
  "Cost{GCSeals}":1040,
  "SortKey":50
},
{
  "Id":21.2,
  "Item":3567,
  "Required{GrandCompanyRank}":1,
  "Cost{GCSeals}":660,
  "SortKey":50
},
{
  "Id":21.3,
  "Item":3798,
  "Required{GrandCompanyRank}":1,
  "Cost{GCSeals}":730,
  "SortKey":50
},
{
  "Id":21.4,
  "Item":3074,
  "Required{GrandCompanyRank}":2,
  "Cost{GCSeals}":1390,
  "SortKey":100
},
{
  "Id":21.5,
  "Item":3075,
  "Required{GrandCompanyRank}":2,
  "Cost{GCSeals}":1390,
  "SortKey":100
},
{
  "Id":21.6,
  "Item":3818,
  "Required{GrandCompanyRank}":2,
  "Cost{GCSeals}":970,
  "SortKey":100
},
{
  "Id":21.7,
  "Item":3819,
  "Required{GrandCompanyRank}":2,
  "Cost{GCSeals}":970,
  "SortKey":100
},
{
  "Id":21.8,
  "Item":3820,
  "Required{GrandCompanyRank}":2,
  "Cost{GCSeals}":970,
  "SortKey":100
},
{
  "Id":21.9,
  "Item":3817,
  "Required{GrandCompanyRank}":2,
  "Cost{GCSeals}":970,
  "SortKey":100
},
{
  "Id":21.10,
  "Item":4438,
  "Required{GrandCompanyRank}":2,
  "Cost{GCSeals}":540,
  "SortKey":100
},
{
  "Id":21.11,
  "Item":2254,
  "Required{GrandCompanyRank}":3,
  "Cost{GCSeals}":1520,
  "SortKey":150
},
{
  "Id":21.12,
  "Item":3088,
  "Required{GrandCompanyRank}":3,
  "Cost{GCSeals}":1470,
  "SortKey":150
},
{
  "Id":21.13,
  "Item":3089,
  "Required{GrandCompanyRank}":3,
  "Cost{GCSeals}":1470,
  "SortKey":150
},
{
  "Id":21.14,
  "Item":3087,
  "Required{GrandCompanyRank}":3,
  "Cost{GCSeals}":1470,
  "SortKey":150
},
{
  "Id":21.15,
  "Item":3086,
  "Required{GrandCompanyRank}":3,
  "Cost{GCSeals}":1470,
  "SortKey":150
},
{
  "Id":21.16,
  "Item":3595,
  "Required{GrandCompanyRank}":3,
  "Cost{GCSeals}":1050,
  "SortKey":150
},
{
  "Id":21.17,
  "Item":3594,
  "Required{GrandCompanyRank}":3,
  "Cost{GCSeals}":1050,
  "SortKey":150
},
{
  "Id":21.18,
  "Item":3596,
  "Required{GrandCompanyRank}":3,
  "Cost{GCSeals}":1050,
  "SortKey":150
},
{
  "Id":21.19,
  "Item":3362,
  "Required{GrandCompanyRank}":3,
  "Cost{GCSeals}":1080,
  "SortKey":150
},
{
  "Id":21.20,
  "Item":3361,
  "Required{GrandCompanyRank}":3,
  "Cost{GCSeals}":1080,
  "SortKey":150
},
{
  "Id":21.21,
  "Item":4319,
  "Required{GrandCompanyRank}":3,
  "Cost{GCSeals}":720,
  "SortKey":150
},
{
  "Id":21.22,
  "Item":2762,
  "Required{GrandCompanyRank}":4,
  "Cost{GCSeals}":1280,
  "SortKey":200
},
{
  "Id":21.23,
  "Item":3116,
  "Required{GrandCompanyRank}":4,
  "Cost{GCSeals}":1960,
  "SortKey":200
},
{
  "Id":21.24,
  "Item":3115,
  "Required{GrandCompanyRank}":4,
  "Cost{GCSeals}":1960,
  "SortKey":200
},
{
  "Id":21.25,
  "Item":3117,
  "Required{GrandCompanyRank}":4,
  "Cost{GCSeals}":1960,
  "SortKey":200
},
{
  "Id":21.26,
  "Item":3376,
  "Required{GrandCompanyRank}":4,
  "Cost{GCSeals}":1360,
  "SortKey":200
},
{
  "Id":21.27,
  "Item":4123,
  "Required{GrandCompanyRank}":4,
  "Cost{GCSeals}":1210,
  "SortKey":200
},
{
  "Id":21.28,
  "Item":0,
  "Required{GrandCompanyRank}":0,
  "Cost{GCSeals}":0,
  "SortKey":0
},
{
  "Id":22.0,
  "Item":6026,
  "Required{GrandCompanyRank}":5,
  "Cost{GCSeals}":4000,
  "SortKey":50
},
{
  "Id":22.1,
  "Item":4563,
  "Required{GrandCompanyRank}":5,
  "Cost{GCSeals}":2850,
  "SortKey":50
},
{
  "Id":22.2,
  "Item":6027,
  "Required{GrandCompanyRank}":6,
  "Cost{GCSeals}":6000,
  "SortKey":100
},
{
  "Id":22.3,
  "Item":4634,
  "Required{GrandCompanyRank}":7,
  "Cost{GCSeals}":2300,
  "SortKey":150
},
{
  "Id":22.4,
  "Item":4635,
  "Required{GrandCompanyRank}":7,
  "Cost{GCSeals}":2300,
  "SortKey":150
},
{
  "Id":22.5,
  "Item":4636,
  "Required{GrandCompanyRank}":8,
  "Cost{GCSeals}":2730,
  "SortKey":200
},
{
  "Id":22.6,
  "Item":6028,
  "Required{GrandCompanyRank}":8,
  "Cost{GCSeals}":8000,
  "SortKey":200
},
{
  "Id":22.7,
  "Item":6141,
  "Required{GrandCompanyRank}":8,
  "Cost{GCSeals}":500,
  "SortKey":200
},
{
  "Id":22.8,
  "Item":7060,
  "Required{GrandCompanyRank}":8,
  "Cost{GCSeals}":1000,
  "SortKey":200
},
{
  "Id":22.9,
  "Item":7059,
  "Required{GrandCompanyRank}":8,
  "Cost{GCSeals}":1500,
  "SortKey":200
},
{
  "Id":22.10,
  "Item":6527,
  "Required{GrandCompanyRank}":8,
  "Cost{GCSeals}":5050,
  "SortKey":200
},
{
  "Id":22.11,
  "Item":6555,
  "Required{GrandCompanyRank}":8,
  "Cost{GCSeals}":6900,
  "SortKey":200
},
{
  "Id":22.12,
  "Item":6540,
  "Required{GrandCompanyRank}":8,
  "Cost{GCSeals}":8300,
  "SortKey":200
},
{
  "Id":22.13,
  "Item":6558,
  "Required{GrandCompanyRank}":8,
  "Cost{GCSeals}":6700,
  "SortKey":200
},
{
  "Id":22.14,
  "Item":6547,
  "Required{GrandCompanyRank}":8,
  "Cost{GCSeals}":9070,
  "SortKey":200
},
{
  "Id":22.15,
  "Item":6662,
  "Required{GrandCompanyRank}":8,
  "Cost{GCSeals}":1100,
  "SortKey":200
},
{
  "Id":22.16,
  "Item":6658,
  "Required{GrandCompanyRank}":8,
  "Cost{GCSeals}":4900,
  "SortKey":200
},
{
  "Id":22.17,
  "Item":6471,
  "Required{GrandCompanyRank}":8,
  "Cost{GCSeals}":6800,
  "SortKey":200
},
{
  "Id":22.18,
  "Item":7621,
  "Required{GrandCompanyRank}":8,
  "Cost{GCSeals}":200,
  "SortKey":200
},
{
  "Id":22.19,
  "Item":21800,
  "Required{GrandCompanyRank}":8,
  "Cost{GCSeals}":200,
  "SortKey":200
},
{
  "Id":22.20,
  "Item":0,
  "Required{GrandCompanyRank}":0,
  "Cost{GCSeals}":0,
  "SortKey":0
},
{
  "Id":22.21,
  "Item":0,
  "Required{GrandCompanyRank}":0,
  "Cost{GCSeals}":0,
  "SortKey":0
},
{
  "Id":22.22,
  "Item":0,
  "Required{GrandCompanyRank}":0,
  "Cost{GCSeals}":0,
  "SortKey":0
},
{
  "Id":22.23,
  "Item":0,
  "Required{GrandCompanyRank}":0,
  "Cost{GCSeals}":0,
  "SortKey":0
},
{
  "Id":22.24,
  "Item":0,
  "Required{GrandCompanyRank}":0,
  "Cost{GCSeals}":0,
  "SortKey":0
},
{
  "Id":22.25,
  "Item":0,
  "Required{GrandCompanyRank}":0,
  "Cost{GCSeals}":0,
  "SortKey":0
},
{
  "Id":22.26,
  "Item":0,
  "Required{GrandCompanyRank}":0,
  "Cost{GCSeals}":0,
  "SortKey":0
},
{
  "Id":23.0,
  "Item":1647,
  "Required{GrandCompanyRank}":6,
  "Cost{GCSeals}":2970,
  "SortKey":100
},
{
  "Id":23.1,
  "Item":1715,
  "Required{GrandCompanyRank}":6,
  "Cost{GCSeals}":2970,
  "SortKey":100
},
{
  "Id":23.2,
  "Item":1785,
  "Required{GrandCompanyRank}":6,
  "Cost{GCSeals}":2970,
  "SortKey":100
},
{
  "Id":23.3,
  "Item":1854,
  "Required{GrandCompanyRank}":6,
  "Cost{GCSeals}":2970,
  "SortKey":100
},
{
  "Id":23.4,
  "Item":1924,
  "Required{GrandCompanyRank}":6,
  "Cost{GCSeals}":2970,
  "SortKey":100
},
{
  "Id":23.5,
  "Item":1973,
  "Required{GrandCompanyRank}":6,
  "Cost{GCSeals}":2970,
  "SortKey":100
},
{
  "Id":23.6,
  "Item":2082,
  "Required{GrandCompanyRank}":6,
  "Cost{GCSeals}":2970,
  "SortKey":100
},
{
  "Id":23.7,
  "Item":2173,
  "Required{GrandCompanyRank}":6,
  "Cost{GCSeals}":2970,
  "SortKey":100
},
{
  "Id":23.8,
  "Item":9208,
  "Required{GrandCompanyRank}":6,
  "Cost{GCSeals}":2970,
  "SortKey":100
},
{
  "Id":23.9,
  "Item":10424,
  "Required{GrandCompanyRank}":6,
  "Cost{GCSeals}":2970,
  "SortKey":100
},
{
  "Id":23.10,
  "Item":10486,
  "Required{GrandCompanyRank}":6,
  "Cost{GCSeals}":2970,
  "SortKey":100
},
{
  "Id":23.11,
  "Item":10548,
  "Required{GrandCompanyRank}":6,
  "Cost{GCSeals}":2970,
  "SortKey":100
},
{
  "Id":23.12,
  "Item":1655,
  "Required{GrandCompanyRank}":7,
  "Cost{GCSeals}":3530,
  "SortKey":150
},
{
  "Id":23.13,
  "Item":1656,
  "Required{GrandCompanyRank}":7,
  "Cost{GCSeals}":3530,
  "SortKey":150
},
{
  "Id":23.14,
  "Item":1722,
  "Required{GrandCompanyRank}":7,
  "Cost{GCSeals}":3530,
  "SortKey":150
},
{
  "Id":23.15,
  "Item":1792,
  "Required{GrandCompanyRank}":7,
  "Cost{GCSeals}":3530,
  "SortKey":150
},
{
  "Id":23.16,
  "Item":1861,
  "Required{GrandCompanyRank}":7,
  "Cost{GCSeals}":3530,
  "SortKey":150
},
{
  "Id":23.17,
  "Item":1931,
  "Required{GrandCompanyRank}":7,
  "Cost{GCSeals}":3530,
  "SortKey":150
},
{
  "Id":23.18,
  "Item":1930,
  "Required{GrandCompanyRank}":7,
  "Cost{GCSeals}":3530,
  "SortKey":150
},
{
  "Id":23.19,
  "Item":2035,
  "Required{GrandCompanyRank}":7,
  "Cost{GCSeals}":3530,
  "SortKey":150
},
{
  "Id":23.20,
  "Item":2087,
  "Required{GrandCompanyRank}":7,
  "Cost{GCSeals}":3530,
  "SortKey":150
},
{
  "Id":23.21,
  "Item":2180,
  "Required{GrandCompanyRank}":7,
  "Cost{GCSeals}":3530,
  "SortKey":150
},
{
  "Id":23.22,
  "Item":9213,
  "Required{GrandCompanyRank}":7,
  "Cost{GCSeals}":3530,
  "SortKey":150
},
{
  "Id":23.23,
  "Item":10427,
  "Required{GrandCompanyRank}":7,
  "Cost{GCSeals}":3530,
  "SortKey":150
},
{
  "Id":23.24,
  "Item":10489,
  "Required{GrandCompanyRank}":7,
  "Cost{GCSeals}":3530,
  "SortKey":150
},
{
  "Id":23.25,
  "Item":10551,
  "Required{GrandCompanyRank}":7,
  "Cost{GCSeals}":3530,
  "SortKey":150
},
{
  "Id":23.26,
  "Item":1727,
  "Required{GrandCompanyRank}":8,
  "Cost{GCSeals}":4200,
  "SortKey":200
},
{
  "Id":23.27,
  "Item":1795,
  "Required{GrandCompanyRank}":8,
  "Cost{GCSeals}":4200,
  "SortKey":200
},
{
  "Id":23.28,
  "Item":1866,
  "Required{GrandCompanyRank}":8,
  "Cost{GCSeals}":4200,
  "SortKey":200
},
{
  "Id":23.29,
  "Item":1936,
  "Required{GrandCompanyRank}":8,
  "Cost{GCSeals}":4200,
  "SortKey":200
},
{
  "Id":23.30,
  "Item":2038,
  "Required{GrandCompanyRank}":8,
  "Cost{GCSeals}":4200,
  "SortKey":200
},
{
  "Id":23.31,
  "Item":2092,
  "Required{GrandCompanyRank}":8,
  "Cost{GCSeals}":4200,
  "SortKey":200
},
{
  "Id":23.32,
  "Item":2183,
  "Required{GrandCompanyRank}":8,
  "Cost{GCSeals}":4200,
  "SortKey":200
},
{
  "Id":23.33,
  "Item":9218,
  "Required{GrandCompanyRank}":8,
  "Cost{GCSeals}":4200,
  "SortKey":200
},
{
  "Id":23.34,
  "Item":10430,
  "Required{GrandCompanyRank}":8,
  "Cost{GCSeals}":4200,
  "SortKey":200
},
{
  "Id":23.35,
  "Item":10492,
  "Required{GrandCompanyRank}":8,
  "Cost{GCSeals}":4200,
  "SortKey":200
},
{
  "Id":23.36,
  "Item":10554,
  "Required{GrandCompanyRank}":8,
  "Cost{GCSeals}":4200,
  "SortKey":200
},
{
  "Id":23.37,
  "Item":0,
  "Required{GrandCompanyRank}":0,
  "Cost{GCSeals}":0,
  "SortKey":0
},
{
  "Id":24.0,
  "Item":3396,
  "Required{GrandCompanyRank}":5,
  "Cost{GCSeals}":1620,
  "SortKey":50
},
{
  "Id":24.1,
  "Item":3394,
  "Required{GrandCompanyRank}":5,
  "Cost{GCSeals}":1620,
  "SortKey":50
},
{
  "Id":24.2,
  "Item":3395,
  "Required{GrandCompanyRank}":5,
  "Cost{GCSeals}":1620,
  "SortKey":50
},
{
  "Id":24.3,
  "Item":4230,
  "Required{GrandCompanyRank}":5,
  "Cost{GCSeals}":1190,
  "SortKey":50
},
{
  "Id":24.4,
  "Item":2267,
  "Required{GrandCompanyRank}":6,
  "Cost{GCSeals}":2540,
  "SortKey":100
},
{
  "Id":24.5,
  "Item":3636,
  "Required{GrandCompanyRank}":6,
  "Cost{GCSeals}":1960,
  "SortKey":100
},
{
  "Id":24.6,
  "Item":3638,
  "Required{GrandCompanyRank}":6,
  "Cost{GCSeals}":1960,
  "SortKey":100
},
{
  "Id":24.7,
  "Item":3637,
  "Required{GrandCompanyRank}":6,
  "Cost{GCSeals}":1960,
  "SortKey":100
},
{
  "Id":24.8,
  "Item":4129,
  "Required{GrandCompanyRank}":6,
  "Cost{GCSeals}":1710,
  "SortKey":100
},
{
  "Id":24.9,
  "Item":2276,
  "Required{GrandCompanyRank}":7,
  "Cost{GCSeals}":3380,
  "SortKey":150
},
{
  "Id":24.10,
  "Item":2277,
  "Required{GrandCompanyRank}":7,
  "Cost{GCSeals}":3380,
  "SortKey":150
},
{
  "Id":24.11,
  "Item":3159,
  "Required{GrandCompanyRank}":7,
  "Cost{GCSeals}":3280,
  "SortKey":150
},
{
  "Id":24.12,
  "Item":3157,
  "Required{GrandCompanyRank}":7,
  "Cost{GCSeals}":3280,
  "SortKey":150
},
{
  "Id":24.13,
  "Item":3158,
  "Required{GrandCompanyRank}":7,
  "Cost{GCSeals}":3280,
  "SortKey":150
},
{
  "Id":24.14,
  "Item":3878,
  "Required{GrandCompanyRank}":7,
  "Cost{GCSeals}":2710,
  "SortKey":150
},
{
  "Id":24.15,
  "Item":3880,
  "Required{GrandCompanyRank}":7,
  "Cost{GCSeals}":2710,
  "SortKey":150
},
{
  "Id":24.16,
  "Item":3879,
  "Required{GrandCompanyRank}":7,
  "Cost{GCSeals}":2710,
  "SortKey":150
},
{
  "Id":24.17,
  "Item":4356,
  "Required{GrandCompanyRank}":7,
  "Cost{GCSeals}":1710,
  "SortKey":150
},
{
  "Id":24.18,
  "Item":2285,
  "Required{GrandCompanyRank}":8,
  "Cost{GCSeals}":4020,
  "SortKey":200
},
{
  "Id":24.19,
  "Item":2286,
  "Required{GrandCompanyRank}":8,
  "Cost{GCSeals}":4020,
  "SortKey":200
},
{
  "Id":24.20,
  "Item":2847,
  "Required{GrandCompanyRank}":8,
  "Cost{GCSeals}":2860,
  "SortKey":200
},
{
  "Id":24.21,
  "Item":2846,
  "Required{GrandCompanyRank}":8,
  "Cost{GCSeals}":2860,
  "SortKey":200
},
{
  "Id":24.22,
  "Item":2849,
  "Required{GrandCompanyRank}":8,
  "Cost{GCSeals}":2860,
  "SortKey":200
},
{
  "Id":24.23,
  "Item":2848,
  "Required{GrandCompanyRank}":8,
  "Cost{GCSeals}":2860,
  "SortKey":200
},
{
  "Id":24.24,
  "Item":3439,
  "Required{GrandCompanyRank}":8,
  "Cost{GCSeals}":3040,
  "SortKey":200
},
{
  "Id":24.25,
  "Item":3440,
  "Required{GrandCompanyRank}":8,
  "Cost{GCSeals}":3040,
  "SortKey":200
},
{
  "Id":24.26,
  "Item":3441,
  "Required{GrandCompanyRank}":8,
  "Cost{GCSeals}":3040,
  "SortKey":200
},
{
  "Id":24.27,
  "Item":4253,
  "Required{GrandCompanyRank}":8,
  "Cost{GCSeals}":2500,
  "SortKey":200
},
{
  "Id":24.28,
  "Item":4492,
  "Required{GrandCompanyRank}":8,
  "Cost{GCSeals}":1900,
  "SortKey":200
},
{
  "Id":24.29,
  "Item":4493,
  "Required{GrandCompanyRank}":8,
  "Cost{GCSeals}":1900,
  "SortKey":200
},
{
  "Id":24.30,
  "Item":4496,
  "Required{GrandCompanyRank}":8,
  "Cost{GCSeals}":2010,
  "SortKey":200
},
{
  "Id":24.31,
  "Item":0,
  "Required{GrandCompanyRank}":0,
  "Cost{GCSeals}":0,
  "SortKey":0
},
{
  "Id":25.0,
  "Item":10386,
  "Required{GrandCompanyRank}":9,
  "Cost{GCSeals}":345,
  "SortKey":10
},
{
  "Id":25.1,
  "Item":6172,
  "Required{GrandCompanyRank}":9,
  "Cost{GCSeals}":20000,
  "SortKey":90
},
{
  "Id":25.2,
  "Item":7799,
  "Required{GrandCompanyRank}":9,
  "Cost{GCSeals}":48000,
  "SortKey":90
},
{
  "Id":25.3,
  "Item":7152,
  "Required{GrandCompanyRank}":9,
  "Cost{GCSeals}":19150,
  "SortKey":90
},
{
  "Id":25.4,
  "Item":7096,
  "Required{GrandCompanyRank}":9,
  "Cost{GCSeals}":19150,
  "SortKey":90
},
{
  "Id":25.5,
  "Item":7135,
  "Required{GrandCompanyRank}":9,
  "Cost{GCSeals}":10950,
  "SortKey":90
},
{
  "Id":25.6,
  "Item":7145,
  "Required{GrandCompanyRank}":9,
  "Cost{GCSeals}":10950,
  "SortKey":90
},
{
  "Id":25.7,
  "Item":6600,
  "Required{GrandCompanyRank}":9,
  "Cost{GCSeals}":14470,
  "SortKey":90
},
{
  "Id":25.8,
  "Item":9539,
  "Required{GrandCompanyRank}":9,
  "Cost{GCSeals}":20000,
  "SortKey":30
},
{
  "Id":25.9,
  "Item":10124,
  "Required{GrandCompanyRank}":9,
  "Cost{GCSeals}":4000,
  "SortKey":40
},
{
  "Id":25.10,
  "Item":10120,
  "Required{GrandCompanyRank}":9,
  "Cost{GCSeals}":600,
  "SortKey":50
},
{
  "Id":25.11,
  "Item":10121,
  "Required{GrandCompanyRank}":9,
  "Cost{GCSeals}":600,
  "SortKey":50
},
{
  "Id":25.12,
  "Item":10122,
  "Required{GrandCompanyRank}":9,
  "Cost{GCSeals}":600,
  "SortKey":50
},
{
  "Id":25.13,
  "Item":13589,
  "Required{GrandCompanyRank}":9,
  "Cost{GCSeals}":5000,
  "SortKey":20
},
{
  "Id":25.14,
  "Item":13591,
  "Required{GrandCompanyRank}":9,
  "Cost{GCSeals}":5000,
  "SortKey":20
},
{
  "Id":25.15,
  "Item":13593,
  "Required{GrandCompanyRank}":9,
  "Cost{GCSeals}":5000,
  "SortKey":20
},
{
  "Id":25.16,
  "Item":13595,
  "Required{GrandCompanyRank}":9,
  "Cost{GCSeals}":5000,
  "SortKey":20
},
{
  "Id":25.17,
  "Item":14945,
  "Required{GrandCompanyRank}":10,
  "Cost{GCSeals}":2000,
  "SortKey":100
},
{
  "Id":25.18,
  "Item":15772,
  "Required{GrandCompanyRank}":10,
  "Cost{GCSeals}":3000,
  "SortKey":100
},
{
  "Id":25.19,
  "Item":15773,
  "Required{GrandCompanyRank}":10,
  "Cost{GCSeals}":3000,
  "SortKey":100
},
{
  "Id":25.20,
  "Item":15774,
  "Required{GrandCompanyRank}":10,
  "Cost{GCSeals}":3000,
  "SortKey":100
},
{
  "Id":25.21,
  "Item":17837,
  "Required{GrandCompanyRank}":9,
  "Cost{GCSeals}":575,
  "SortKey":10
},
{
  "Id":25.22,
  "Item":20790,
  "Required{GrandCompanyRank}":10,
  "Cost{GCSeals}":500,
  "SortKey":100
},
{
  "Id":25.23,
  "Item":21071,
  "Required{GrandCompanyRank}":10,
  "Cost{GCSeals}":2000,
  "SortKey":95
},
{
  "Id":25.24,
  "Item":12858,
  "Required{GrandCompanyRank}":9,
  "Cost{GCSeals}":600,
  "SortKey":15
},
{
  "Id":25.25,
  "Item":13743,
  "Required{GrandCompanyRank}":9,
  "Cost{GCSeals}":550,
  "SortKey":15
},
{
  "Id":25.26,
  "Item":12844,
  "Required{GrandCompanyRank}":9,
  "Cost{GCSeals}":900,
  "SortKey":15
},
{
  "Id":25.27,
  "Item":12849,
  "Required{GrandCompanyRank}":9,
  "Cost{GCSeals}":550,
  "SortKey":15
},
{
  "Id":25.28,
  "Item":12847,
  "Required{GrandCompanyRank}":9,
  "Cost{GCSeals}":700,
  "SortKey":15
},
{
  "Id":25.29,
  "Item":12854,
  "Required{GrandCompanyRank}":9,
  "Cost{GCSeals}":800,
  "SortKey":15
},
{
  "Id":25.30,
  "Item":4720,
  "Required{GrandCompanyRank}":9,
  "Cost{GCSeals}":500,
  "SortKey":15
},
{
  "Id":25.31,
  "Item":4715,
  "Required{GrandCompanyRank}":9,
  "Cost{GCSeals}":500,
  "SortKey":15
},
{
  "Id":25.32,
  "Item":21319,
  "Required{GrandCompanyRank}":9,
  "Cost{GCSeals}":40000,
  "SortKey":93
},
{
  "Id":25.33,
  "Item":21320,
  "Required{GrandCompanyRank}":9,
  "Cost{GCSeals}":40000,
  "SortKey":93
},
{
  "Id":25.34,
  "Item":22498,
  "Required{GrandCompanyRank}":9,
  "Cost{GCSeals}":10000,
  "SortKey":93
},
{
  "Id":25.35,
  "Item":33916,
  "Required{GrandCompanyRank}":9,
  "Cost{GCSeals}":600,
  "SortKey":10
},
{
  "Id":25.36,
  "Item":36635,
  "Required{GrandCompanyRank}":11,
  "Cost{GCSeals}":20000,
  "SortKey":200
},
{
  "Id":25.37,
  "Item":36636,
  "Required{GrandCompanyRank}":11,
  "Cost{GCSeals}":20000,
  "SortKey":200
},
{
  "Id":25.38,
  "Item":38643,
  "Required{GrandCompanyRank}":11,
  "Cost{GCSeals}":40000,
  "SortKey":95
},
{
  "Id":25.39,
  "Item":38646,
  "Required{GrandCompanyRank}":11,
  "Cost{GCSeals}":40000,
  "SortKey":95
},
{
  "Id":25.40,
  "Item":0,
  "Required{GrandCompanyRank}":0,
  "Cost{GCSeals}":0,
  "SortKey":0
},
{
  "Id":26.0,
  "Item":1669,
  "Required{GrandCompanyRank}":9,
  "Cost{GCSeals}":7040,
  "SortKey":50
},
{
  "Id":26.1,
  "Item":1739,
  "Required{GrandCompanyRank}":9,
  "Cost{GCSeals}":7040,
  "SortKey":50
},
{
  "Id":26.2,
  "Item":1809,
  "Required{GrandCompanyRank}":9,
  "Cost{GCSeals}":7040,
  "SortKey":50
},
{
  "Id":26.3,
  "Item":1878,
  "Required{GrandCompanyRank}":9,
  "Cost{GCSeals}":7040,
  "SortKey":50
},
{
  "Id":26.4,
  "Item":1948,
  "Required{GrandCompanyRank}":9,
  "Cost{GCSeals}":7040,
  "SortKey":50
},
{
  "Id":26.5,
  "Item":1991,
  "Required{GrandCompanyRank}":9,
  "Cost{GCSeals}":7040,
  "SortKey":50
},
{
  "Id":26.6,
  "Item":2101,
  "Required{GrandCompanyRank}":9,
  "Cost{GCSeals}":7040,
  "SortKey":50
},
{
  "Id":26.7,
  "Item":2199,
  "Required{GrandCompanyRank}":9,
  "Cost{GCSeals}":7040,
  "SortKey":50
},
{
  "Id":26.8,
  "Item":2200,
  "Required{GrandCompanyRank}":9,
  "Cost{GCSeals}":7040,
  "SortKey":50
},
{
  "Id":26.9,
  "Item":9223,
  "Required{GrandCompanyRank}":9,
  "Cost{GCSeals}":7040,
  "SortKey":50
},
{
  "Id":26.10,
  "Item":10433,
  "Required{GrandCompanyRank}":9,
  "Cost{GCSeals}":7040,
  "SortKey":50
},
{
  "Id":26.11,
  "Item":10495,
  "Required{GrandCompanyRank}":9,
  "Cost{GCSeals}":7040,
  "SortKey":50
},
{
  "Id":26.12,
  "Item":10557,
  "Required{GrandCompanyRank}":9,
  "Cost{GCSeals}":7040,
  "SortKey":50
},
{
  "Id":26.13,
  "Item":7523,
  "Required{GrandCompanyRank}":9,
  "Cost{GCSeals}":7500,
  "SortKey":80
},
{
  "Id":26.14,
  "Item":7524,
  "Required{GrandCompanyRank}":9,
  "Cost{GCSeals}":7500,
  "SortKey":80
},
{
  "Id":26.15,
  "Item":7525,
  "Required{GrandCompanyRank}":9,
  "Cost{GCSeals}":7500,
  "SortKey":80
},
{
  "Id":26.16,
  "Item":7526,
  "Required{GrandCompanyRank}":9,
  "Cost{GCSeals}":7500,
  "SortKey":80
},
{
  "Id":26.17,
  "Item":7527,
  "Required{GrandCompanyRank}":9,
  "Cost{GCSeals}":7500,
  "SortKey":80
},
{
  "Id":26.18,
  "Item":7528,
  "Required{GrandCompanyRank}":9,
  "Cost{GCSeals}":7500,
  "SortKey":80
},
{
  "Id":26.19,
  "Item":7529,
  "Required{GrandCompanyRank}":9,
  "Cost{GCSeals}":7500,
  "SortKey":80
},
{
  "Id":26.20,
  "Item":7530,
  "Required{GrandCompanyRank}":9,
  "Cost{GCSeals}":7500,
  "SortKey":80
},
{
  "Id":26.21,
  "Item":7531,
  "Required{GrandCompanyRank}":9,
  "Cost{GCSeals}":7500,
  "SortKey":80
},
{
  "Id":26.22,
  "Item":7532,
  "Required{GrandCompanyRank}":9,
  "Cost{GCSeals}":7500,
  "SortKey":80
},
{
  "Id":26.23,
  "Item":7533,
  "Required{GrandCompanyRank}":9,
  "Cost{GCSeals}":7500,
  "SortKey":80
},
{
  "Id":26.24,
  "Item":23919,
  "Required{GrandCompanyRank}":11,
  "Cost{GCSeals}":35000,
  "SortKey":90
},
{
  "Id":26.25,
  "Item":23922,
  "Required{GrandCompanyRank}":11,
  "Cost{GCSeals}":35000,
  "SortKey":90
},
{
  "Id":26.26,
  "Item":23925,
  "Required{GrandCompanyRank}":11,
  "Cost{GCSeals}":35000,
  "SortKey":90
},
{
  "Id":26.27,
  "Item":23928,
  "Required{GrandCompanyRank}":11,
  "Cost{GCSeals}":35000,
  "SortKey":90
},
{
  "Id":26.28,
  "Item":23931,
  "Required{GrandCompanyRank}":11,
  "Cost{GCSeals}":35000,
  "SortKey":90
},
{
  "Id":26.29,
  "Item":23934,
  "Required{GrandCompanyRank}":11,
  "Cost{GCSeals}":35000,
  "SortKey":90
},
{
  "Id":26.30,
  "Item":23937,
  "Required{GrandCompanyRank}":11,
  "Cost{GCSeals}":35000,
  "SortKey":90
},
{
  "Id":26.31,
  "Item":23940,
  "Required{GrandCompanyRank}":11,
  "Cost{GCSeals}":35000,
  "SortKey":90
},
{
  "Id":26.32,
  "Item":23943,
  "Required{GrandCompanyRank}":11,
  "Cost{GCSeals}":35000,
  "SortKey":90
},
{
  "Id":26.33,
  "Item":23946,
  "Required{GrandCompanyRank}":11,
  "Cost{GCSeals}":35000,
  "SortKey":90
},
{
  "Id":26.34,
  "Item":23949,
  "Required{GrandCompanyRank}":11,
  "Cost{GCSeals}":35000,
  "SortKey":90
},
{
  "Id":26.35,
  "Item":23952,
  "Required{GrandCompanyRank}":11,
  "Cost{GCSeals}":35000,
  "SortKey":90
},
{
  "Id":26.36,
  "Item":23955,
  "Required{GrandCompanyRank}":11,
  "Cost{GCSeals}":35000,
  "SortKey":90
},
{
  "Id":26.37,
  "Item":23958,
  "Required{GrandCompanyRank}":11,
  "Cost{GCSeals}":35000,
  "SortKey":90
},
{
  "Id":26.38,
  "Item":23961,
  "Required{GrandCompanyRank}":11,
  "Cost{GCSeals}":35000,
  "SortKey":90
},
{
  "Id":26.39,
  "Item":0,
  "Required{GrandCompanyRank}":0,
  "Cost{GCSeals}":0,
  "SortKey":0
},
{
  "Id":27.0,
  "Item":2918,
  "Required{GrandCompanyRank}":9,
  "Cost{GCSeals}":4800,
  "SortKey":50
},
{
  "Id":27.1,
  "Item":3247,
  "Required{GrandCompanyRank}":9,
  "Cost{GCSeals}":7340,
  "SortKey":50
},
{
  "Id":27.2,
  "Item":3704,
  "Required{GrandCompanyRank}":9,
  "Cost{GCSeals}":4650,
  "SortKey":50
},
{
  "Id":27.3,
  "Item":3925,
  "Required{GrandCompanyRank}":9,
  "Cost{GCSeals}":5100,
  "SortKey":50
},
{
  "Id":27.4,
  "Item":15503,
  "Required{GrandCompanyRank}":10,
  "Cost{GCSeals}":12000,
  "SortKey":100
},
{
  "Id":27.5,
  "Item":15504,
  "Required{GrandCompanyRank}":10,
  "Cost{GCSeals}":21000,
  "SortKey":100
},
{
  "Id":27.6,
  "Item":7521,
  "Required{GrandCompanyRank}":9,
  "Cost{GCSeals}":5000,
  "SortKey":80
},
{
  "Id":27.7,
  "Item":7522,
  "Required{GrandCompanyRank}":9,
  "Cost{GCSeals}":5000,
  "SortKey":80
},
{
  "Id":27.8,
  "Item":10047,
  "Required{GrandCompanyRank}":9,
  "Cost{GCSeals}":5000,
  "SortKey":80
},
{
  "Id":27.9,
  "Item":10048,
  "Required{GrandCompanyRank}":9,
  "Cost{GCSeals}":5000,
  "SortKey":80
},
{
  "Id":27.10,
  "Item":10053,
  "Required{GrandCompanyRank}":9,
  "Cost{GCSeals}":6500,
  "SortKey":80
},
{
  "Id":27.11,
  "Item":10145,
  "Required{GrandCompanyRank}":9,
  "Cost{GCSeals}":5000,
  "SortKey":80
},
{
  "Id":27.12,
  "Item":0,
  "Required{GrandCompanyRank}":0,
  "Cost{GCSeals}":0,
  "SortKey":0
},
{
  "Id":28.0,
  "Item":5357,
  "Required{GrandCompanyRank}":4,
  "Cost{GCSeals}":200,
  "SortKey":200
},
{
  "Id":28.1,
  "Item":5358,
  "Required{GrandCompanyRank}":4,
  "Cost{GCSeals}":200,
  "SortKey":200
},
{
  "Id":28.2,
  "Item":5558,
  "Required{GrandCompanyRank}":4,
  "Cost{GCSeals}":200,
  "SortKey":200
},
{
  "Id":28.3,
  "Item":0,
  "Required{GrandCompanyRank}":0,
  "Cost{GCSeals}":0,
  "SortKey":0
},
{
  "Id":29.0,
  "Item":0,
  "Required{GrandCompanyRank}":0,
  "Cost{GCSeals}":0,
  "SortKey":0
},
{
  "Id":30.0,
  "Item":6151,
  "Required{GrandCompanyRank}":9,
  "Cost{GCSeals}":20,
  "SortKey":40
},
{
  "Id":30.1,
  "Item":6153,
  "Required{GrandCompanyRank}":9,
  "Cost{GCSeals}":20,
  "SortKey":40
},
{
  "Id":30.2,
  "Item":6154,
  "Required{GrandCompanyRank}":9,
  "Cost{GCSeals}":20,
  "SortKey":40
},
{
  "Id":30.3,
  "Item":5530,
  "Required{GrandCompanyRank}":9,
  "Cost{GCSeals}":200,
  "SortKey":40
},
{
  "Id":30.4,
  "Item":5531,
  "Required{GrandCompanyRank}":9,
  "Cost{GCSeals}":200,
  "SortKey":40
},
{
  "Id":30.5,
  "Item":5502,
  "Required{GrandCompanyRank}":9,
  "Cost{GCSeals}":200,
  "SortKey":40
},
{
  "Id":30.6,
  "Item":5501,
  "Required{GrandCompanyRank}":9,
  "Cost{GCSeals}":200,
  "SortKey":40
},
{
  "Id":30.7,
  "Item":5261,
  "Required{GrandCompanyRank}":9,
  "Cost{GCSeals}":200,
  "SortKey":40
},
{
  "Id":30.8,
  "Item":5119,
  "Required{GrandCompanyRank}":9,
  "Cost{GCSeals}":200,
  "SortKey":40
},
{
  "Id":30.9,
  "Item":5274,
  "Required{GrandCompanyRank}":9,
  "Cost{GCSeals}":200,
  "SortKey":40
},
{
  "Id":30.10,
  "Item":5532,
  "Required{GrandCompanyRank}":9,
  "Cost{GCSeals}":200,
  "SortKey":40
},
{
  "Id":30.11,
  "Item":7596,
  "Required{GrandCompanyRank}":9,
  "Cost{GCSeals}":1500,
  "SortKey":30
},
{
  "Id":30.12,
  "Item":7597,
  "Required{GrandCompanyRank}":9,
  "Cost{GCSeals}":1500,
  "SortKey":30
},
{
  "Id":30.13,
  "Item":7598,
  "Required{GrandCompanyRank}":9,
  "Cost{GCSeals}":1500,
  "SortKey":30
},
{
  "Id":30.14,
  "Item":7599,
  "Required{GrandCompanyRank}":9,
  "Cost{GCSeals}":1500,
  "SortKey":30
},
{
  "Id":30.15,
  "Item":7600,
  "Required{GrandCompanyRank}":9,
  "Cost{GCSeals}":1500,
  "SortKey":30
},
{
  "Id":30.16,
  "Item":7601,
  "Required{GrandCompanyRank}":9,
  "Cost{GCSeals}":1500,
  "SortKey":30
},
{
  "Id":30.17,
  "Item":7806,
  "Required{GrandCompanyRank}":9,
  "Cost{GCSeals}":450,
  "SortKey":30
},
{
  "Id":30.18,
  "Item":7602,
  "Required{GrandCompanyRank}":9,
  "Cost{GCSeals}":30,
  "SortKey":30
},
{
  "Id":30.19,
  "Item":7603,
  "Required{GrandCompanyRank}":9,
  "Cost{GCSeals}":30,
  "SortKey":30
},
{
  "Id":30.20,
  "Item":7604,
  "Required{GrandCompanyRank}":9,
  "Cost{GCSeals}":30,
  "SortKey":30
},
{
  "Id":30.21,
  "Item":7605,
  "Required{GrandCompanyRank}":9,
  "Cost{GCSeals}":30,
  "SortKey":30
},
{
  "Id":30.22,
  "Item":9367,
  "Required{GrandCompanyRank}":9,
  "Cost{GCSeals}":2250,
  "SortKey":20
},
{
  "Id":30.23,
  "Item":9368,
  "Required{GrandCompanyRank}":9,
  "Cost{GCSeals}":2250,
  "SortKey":20
},
{
  "Id":30.24,
  "Item":9370,
  "Required{GrandCompanyRank}":9,
  "Cost{GCSeals}":2250,
  "SortKey":20
},
{
  "Id":30.25,
  "Item":9366,
  "Required{GrandCompanyRank}":9,
  "Cost{GCSeals}":250,
  "SortKey":20
},
{
  "Id":30.26,
  "Item":9369,
  "Required{GrandCompanyRank}":9,
  "Cost{GCSeals}":250,
  "SortKey":20
},
{
  "Id":30.27,
  "Item":9371,
  "Required{GrandCompanyRank}":9,
  "Cost{GCSeals}":250,
  "SortKey":20
},
{
  "Id":30.28,
  "Item":9372,
  "Required{GrandCompanyRank}":9,
  "Cost{GCSeals}":250,
  "SortKey":20
},
{
  "Id":30.29,
  "Item":10112,
  "Required{GrandCompanyRank}":9,
  "Cost{GCSeals}":600,
  "SortKey":50
},
{
  "Id":30.30,
  "Item":10113,
  "Required{GrandCompanyRank}":9,
  "Cost{GCSeals}":600,
  "SortKey":51
},
{
  "Id":30.31,
  "Item":10114,
  "Required{GrandCompanyRank}":9,
  "Cost{GCSeals}":600,
  "SortKey":52
},
{
  "Id":30.32,
  "Item":10115,
  "Required{GrandCompanyRank}":9,
  "Cost{GCSeals}":600,
  "SortKey":53
},
{
  "Id":30.33,
  "Item":10116,
  "Required{GrandCompanyRank}":9,
  "Cost{GCSeals}":600,
  "SortKey":54
},
{
  "Id":30.34,
  "Item":10117,
  "Required{GrandCompanyRank}":9,
  "Cost{GCSeals}":600,
  "SortKey":55
},
{
  "Id":30.35,
  "Item":10118,
  "Required{GrandCompanyRank}":9,
  "Cost{GCSeals}":600,
  "SortKey":56
},
{
  "Id":30.36,
  "Item":10119,
  "Required{GrandCompanyRank}":9,
  "Cost{GCSeals}":600,
  "SortKey":57
},
{
  "Id":30.37,
  "Item":16933,
  "Required{GrandCompanyRank}":9,
  "Cost{GCSeals}":4000,
  "SortKey":10
},
{
  "Id":30.38,
  "Item":9356,
  "Required{GrandCompanyRank}":9,
  "Cost{GCSeals}":2300,
  "SortKey":15
},
{
  "Id":30.39,
  "Item":15649,
  "Required{GrandCompanyRank}":9,
  "Cost{GCSeals}":7000,
  "SortKey":15
},
{
  "Id":30.40,
  "Item":9357,
  "Required{GrandCompanyRank}":11,
  "Cost{GCSeals}":2500,
  "SortKey":60
},
{
  "Id":30.41,
  "Item":0,
  "Required{GrandCompanyRank}":0,
  "Cost{GCSeals}":0,
  "SortKey":0
},
{
  "Id":31.0,
  "Item":5357,
  "Required{GrandCompanyRank}":4,
  "Cost{GCSeals}":200,
  "SortKey":200
},
{
  "Id":31.1,
  "Item":5358,
  "Required{GrandCompanyRank}":4,
  "Cost{GCSeals}":200,
  "SortKey":200
},
{
  "Id":31.2,
  "Item":5558,
  "Required{GrandCompanyRank}":4,
  "Cost{GCSeals}":200,
  "SortKey":200
},
{
  "Id":31.3,
  "Item":0,
  "Required{GrandCompanyRank}":0,
  "Cost{GCSeals}":0,
  "SortKey":0
},
{
  "Id":32.0,
  "Item":0,
  "Required{GrandCompanyRank}":0,
  "Cost{GCSeals}":0,
  "SortKey":0
},
{
  "Id":33.0,
  "Item":6151,
  "Required{GrandCompanyRank}":9,
  "Cost{GCSeals}":20,
  "SortKey":40
},
{
  "Id":33.1,
  "Item":6153,
  "Required{GrandCompanyRank}":9,
  "Cost{GCSeals}":20,
  "SortKey":40
},
{
  "Id":33.2,
  "Item":6154,
  "Required{GrandCompanyRank}":9,
  "Cost{GCSeals}":20,
  "SortKey":40
},
{
  "Id":33.3,
  "Item":5530,
  "Required{GrandCompanyRank}":9,
  "Cost{GCSeals}":200,
  "SortKey":40
},
{
  "Id":33.4,
  "Item":5531,
  "Required{GrandCompanyRank}":9,
  "Cost{GCSeals}":200,
  "SortKey":40
},
{
  "Id":33.5,
  "Item":5502,
  "Required{GrandCompanyRank}":9,
  "Cost{GCSeals}":200,
  "SortKey":40
},
{
  "Id":33.6,
  "Item":5501,
  "Required{GrandCompanyRank}":9,
  "Cost{GCSeals}":200,
  "SortKey":40
},
{
  "Id":33.7,
  "Item":5261,
  "Required{GrandCompanyRank}":9,
  "Cost{GCSeals}":200,
  "SortKey":40
},
{
  "Id":33.8,
  "Item":5119,
  "Required{GrandCompanyRank}":9,
  "Cost{GCSeals}":200,
  "SortKey":40
},
{
  "Id":33.9,
  "Item":5274,
  "Required{GrandCompanyRank}":9,
  "Cost{GCSeals}":200,
  "SortKey":40
},
{
  "Id":33.10,
  "Item":5532,
  "Required{GrandCompanyRank}":9,
  "Cost{GCSeals}":200,
  "SortKey":40
},
{
  "Id":33.11,
  "Item":7596,
  "Required{GrandCompanyRank}":9,
  "Cost{GCSeals}":1500,
  "SortKey":30
},
{
  "Id":33.12,
  "Item":7597,
  "Required{GrandCompanyRank}":9,
  "Cost{GCSeals}":1500,
  "SortKey":30
},
{
  "Id":33.13,
  "Item":7598,
  "Required{GrandCompanyRank}":9,
  "Cost{GCSeals}":1500,
  "SortKey":30
},
{
  "Id":33.14,
  "Item":7599,
  "Required{GrandCompanyRank}":9,
  "Cost{GCSeals}":1500,
  "SortKey":30
},
{
  "Id":33.15,
  "Item":7600,
  "Required{GrandCompanyRank}":9,
  "Cost{GCSeals}":1500,
  "SortKey":30
},
{
  "Id":33.16,
  "Item":7601,
  "Required{GrandCompanyRank}":9,
  "Cost{GCSeals}":1500,
  "SortKey":30
},
{
  "Id":33.17,
  "Item":7806,
  "Required{GrandCompanyRank}":9,
  "Cost{GCSeals}":450,
  "SortKey":30
},
{
  "Id":33.18,
  "Item":7602,
  "Required{GrandCompanyRank}":9,
  "Cost{GCSeals}":30,
  "SortKey":30
},
{
  "Id":33.19,
  "Item":7603,
  "Required{GrandCompanyRank}":9,
  "Cost{GCSeals}":30,
  "SortKey":30
},
{
  "Id":33.20,
  "Item":7604,
  "Required{GrandCompanyRank}":9,
  "Cost{GCSeals}":30,
  "SortKey":30
},
{
  "Id":33.21,
  "Item":7605,
  "Required{GrandCompanyRank}":9,
  "Cost{GCSeals}":30,
  "SortKey":30
},
{
  "Id":33.22,
  "Item":9367,
  "Required{GrandCompanyRank}":9,
  "Cost{GCSeals}":2250,
  "SortKey":20
},
{
  "Id":33.23,
  "Item":9368,
  "Required{GrandCompanyRank}":9,
  "Cost{GCSeals}":2250,
  "SortKey":20
},
{
  "Id":33.24,
  "Item":9370,
  "Required{GrandCompanyRank}":9,
  "Cost{GCSeals}":2250,
  "SortKey":20
},
{
  "Id":33.25,
  "Item":9366,
  "Required{GrandCompanyRank}":9,
  "Cost{GCSeals}":250,
  "SortKey":20
},
{
  "Id":33.26,
  "Item":9369,
  "Required{GrandCompanyRank}":9,
  "Cost{GCSeals}":250,
  "SortKey":20
},
{
  "Id":33.27,
  "Item":9371,
  "Required{GrandCompanyRank}":9,
  "Cost{GCSeals}":250,
  "SortKey":20
},
{
  "Id":33.28,
  "Item":9372,
  "Required{GrandCompanyRank}":9,
  "Cost{GCSeals}":250,
  "SortKey":20
},
{
  "Id":33.29,
  "Item":10112,
  "Required{GrandCompanyRank}":9,
  "Cost{GCSeals}":600,
  "SortKey":50
},
{
  "Id":33.30,
  "Item":10113,
  "Required{GrandCompanyRank}":9,
  "Cost{GCSeals}":600,
  "SortKey":51
},
{
  "Id":33.31,
  "Item":10114,
  "Required{GrandCompanyRank}":9,
  "Cost{GCSeals}":600,
  "SortKey":52
},
{
  "Id":33.32,
  "Item":10115,
  "Required{GrandCompanyRank}":9,
  "Cost{GCSeals}":600,
  "SortKey":53
},
{
  "Id":33.33,
  "Item":10116,
  "Required{GrandCompanyRank}":9,
  "Cost{GCSeals}":600,
  "SortKey":54
},
{
  "Id":33.34,
  "Item":10117,
  "Required{GrandCompanyRank}":9,
  "Cost{GCSeals}":600,
  "SortKey":55
},
{
  "Id":33.35,
  "Item":10118,
  "Required{GrandCompanyRank}":9,
  "Cost{GCSeals}":600,
  "SortKey":56
},
{
  "Id":33.36,
  "Item":10119,
  "Required{GrandCompanyRank}":9,
  "Cost{GCSeals}":600,
  "SortKey":57
},
{
  "Id":33.37,
  "Item":16933,
  "Required{GrandCompanyRank}":9,
  "Cost{GCSeals}":4000,
  "SortKey":10
},
{
  "Id":33.38,
  "Item":9356,
  "Required{GrandCompanyRank}":9,
  "Cost{GCSeals}":2300,
  "SortKey":15
},
{
  "Id":33.39,
  "Item":15649,
  "Required{GrandCompanyRank}":9,
  "Cost{GCSeals}":7000,
  "SortKey":15
},
{
  "Id":33.40,
  "Item":9357,
  "Required{GrandCompanyRank}":11,
  "Cost{GCSeals}":2500,
  "SortKey":60
},
{
  "Id":33.41,
  "Item":0,
  "Required{GrandCompanyRank}":0,
  "Cost{GCSeals}":0,
  "SortKey":0
},
{
  "Id":34.0,
  "Item":5357,
  "Required{GrandCompanyRank}":4,
  "Cost{GCSeals}":200,
  "SortKey":200
},
{
  "Id":34.1,
  "Item":5358,
  "Required{GrandCompanyRank}":4,
  "Cost{GCSeals}":200,
  "SortKey":200
},
{
  "Id":34.2,
  "Item":5558,
  "Required{GrandCompanyRank}":4,
  "Cost{GCSeals}":200,
  "SortKey":200
},
{
  "Id":34.3,
  "Item":0,
  "Required{GrandCompanyRank}":0,
  "Cost{GCSeals}":0,
  "SortKey":0
},
{
  "Id":35.0,
  "Item":0,
  "Required{GrandCompanyRank}":0,
  "Cost{GCSeals}":0,
  "SortKey":0
},
{
  "Id":36.0,
  "Item":6151,
  "Required{GrandCompanyRank}":9,
  "Cost{GCSeals}":20,
  "SortKey":40
},
{
  "Id":36.1,
  "Item":6153,
  "Required{GrandCompanyRank}":9,
  "Cost{GCSeals}":20,
  "SortKey":40
},
{
  "Id":36.2,
  "Item":6154,
  "Required{GrandCompanyRank}":9,
  "Cost{GCSeals}":20,
  "SortKey":40
},
{
  "Id":36.3,
  "Item":5530,
  "Required{GrandCompanyRank}":9,
  "Cost{GCSeals}":200,
  "SortKey":40
},
{
  "Id":36.4,
  "Item":5531,
  "Required{GrandCompanyRank}":9,
  "Cost{GCSeals}":200,
  "SortKey":40
},
{
  "Id":36.5,
  "Item":5502,
  "Required{GrandCompanyRank}":9,
  "Cost{GCSeals}":200,
  "SortKey":40
},
{
  "Id":36.6,
  "Item":5501,
  "Required{GrandCompanyRank}":9,
  "Cost{GCSeals}":200,
  "SortKey":40
},
{
  "Id":36.7,
  "Item":5261,
  "Required{GrandCompanyRank}":9,
  "Cost{GCSeals}":200,
  "SortKey":40
},
{
  "Id":36.8,
  "Item":5119,
  "Required{GrandCompanyRank}":9,
  "Cost{GCSeals}":200,
  "SortKey":40
},
{
  "Id":36.9,
  "Item":5274,
  "Required{GrandCompanyRank}":9,
  "Cost{GCSeals}":200,
  "SortKey":40
},
{
  "Id":36.10,
  "Item":5532,
  "Required{GrandCompanyRank}":9,
  "Cost{GCSeals}":200,
  "SortKey":40
},
{
  "Id":36.11,
  "Item":7596,
  "Required{GrandCompanyRank}":9,
  "Cost{GCSeals}":1500,
  "SortKey":30
},
{
  "Id":36.12,
  "Item":7597,
  "Required{GrandCompanyRank}":9,
  "Cost{GCSeals}":1500,
  "SortKey":30
},
{
  "Id":36.13,
  "Item":7598,
  "Required{GrandCompanyRank}":9,
  "Cost{GCSeals}":1500,
  "SortKey":30
},
{
  "Id":36.14,
  "Item":7599,
  "Required{GrandCompanyRank}":9,
  "Cost{GCSeals}":1500,
  "SortKey":30
},
{
  "Id":36.15,
  "Item":7600,
  "Required{GrandCompanyRank}":9,
  "Cost{GCSeals}":1500,
  "SortKey":30
},
{
  "Id":36.16,
  "Item":7601,
  "Required{GrandCompanyRank}":9,
  "Cost{GCSeals}":1500,
  "SortKey":30
},
{
  "Id":36.17,
  "Item":7806,
  "Required{GrandCompanyRank}":9,
  "Cost{GCSeals}":450,
  "SortKey":30
},
{
  "Id":36.18,
  "Item":7602,
  "Required{GrandCompanyRank}":9,
  "Cost{GCSeals}":30,
  "SortKey":30
},
{
  "Id":36.19,
  "Item":7603,
  "Required{GrandCompanyRank}":9,
  "Cost{GCSeals}":30,
  "SortKey":30
},
{
  "Id":36.20,
  "Item":7604,
  "Required{GrandCompanyRank}":9,
  "Cost{GCSeals}":30,
  "SortKey":30
},
{
  "Id":36.21,
  "Item":7605,
  "Required{GrandCompanyRank}":9,
  "Cost{GCSeals}":30,
  "SortKey":30
},
{
  "Id":36.22,
  "Item":9367,
  "Required{GrandCompanyRank}":9,
  "Cost{GCSeals}":2250,
  "SortKey":20
},
{
  "Id":36.23,
  "Item":9368,
  "Required{GrandCompanyRank}":9,
  "Cost{GCSeals}":2250,
  "SortKey":20
},
{
  "Id":36.24,
  "Item":9370,
  "Required{GrandCompanyRank}":9,
  "Cost{GCSeals}":2250,
  "SortKey":20
},
{
  "Id":36.25,
  "Item":9366,
  "Required{GrandCompanyRank}":9,
  "Cost{GCSeals}":250,
  "SortKey":20
},
{
  "Id":36.26,
  "Item":9369,
  "Required{GrandCompanyRank}":9,
  "Cost{GCSeals}":250,
  "SortKey":20
},
{
  "Id":36.27,
  "Item":9371,
  "Required{GrandCompanyRank}":9,
  "Cost{GCSeals}":250,
  "SortKey":20
},
{
  "Id":36.28,
  "Item":9372,
  "Required{GrandCompanyRank}":9,
  "Cost{GCSeals}":250,
  "SortKey":20
},
{
  "Id":36.29,
  "Item":10112,
  "Required{GrandCompanyRank}":9,
  "Cost{GCSeals}":600,
  "SortKey":50
},
{
  "Id":36.30,
  "Item":10113,
  "Required{GrandCompanyRank}":9,
  "Cost{GCSeals}":600,
  "SortKey":51
},
{
  "Id":36.31,
  "Item":10114,
  "Required{GrandCompanyRank}":9,
  "Cost{GCSeals}":600,
  "SortKey":52
},
{
  "Id":36.32,
  "Item":10115,
  "Required{GrandCompanyRank}":9,
  "Cost{GCSeals}":600,
  "SortKey":53
},
{
  "Id":36.33,
  "Item":10116,
  "Required{GrandCompanyRank}":9,
  "Cost{GCSeals}":600,
  "SortKey":54
},
{
  "Id":36.34,
  "Item":10117,
  "Required{GrandCompanyRank}":9,
  "Cost{GCSeals}":600,
  "SortKey":55
},
{
  "Id":36.35,
  "Item":10118,
  "Required{GrandCompanyRank}":9,
  "Cost{GCSeals}":600,
  "SortKey":56
},
{
  "Id":36.36,
  "Item":10119,
  "Required{GrandCompanyRank}":9,
  "Cost{GCSeals}":600,
  "SortKey":57
},
{
  "Id":36.37,
  "Item":16933,
  "Required{GrandCompanyRank}":9,
  "Cost{GCSeals}":4000,
  "SortKey":10
},
{
  "Id":36.38,
  "Item":9356,
  "Required{GrandCompanyRank}":9,
  "Cost{GCSeals}":2300,
  "SortKey":15
},
{
  "Id":36.39,
  "Item":15649,
  "Required{GrandCompanyRank}":9,
  "Cost{GCSeals}":7000,
  "SortKey":15
},
{
  "Id":36.40,
  "Item":9357,
  "Required{GrandCompanyRank}":11,
  "Cost{GCSeals}":2500,
  "SortKey":60
},
{
  "Id":36.41,
  "Item":0,
  "Required{GrandCompanyRank}":0,
  "Cost{GCSeals}":0,
  "SortKey":0
}
]
