﻿[
{
  "Id":0,
  "Objective":"",
  "Requirement":"",
  "Image":0,
  "Order":0
},
{
  "Id":1,
  "Objective":"Small Fish in a Big Pond",
  "Requirement":"Requirement: Score 2,500 points or higher.",
  "Image":65901,
  "Order":4
},
{
  "Id":2,
  "Objective":"Big Fish in a Small Pond",
  "Requirement":"Requirement: Score 5,000 points or higher.",
  "Image":65902,
  "Order":5
},
{
  "Id":3,
  "Objective":"A Rare Catch",
  "Requirement":"Requirement: Catch a ★★★★ fish.",
  "Image":65903,
  "Order":6
},
{
  "Id":4,
  "Objective":"Catch of a Lifetime",
  "Requirement":"Requirement: Catch a ★★★★★ fish.",
  "Image":65904,
  "Order":7
},
{
  "Id":5,
  "Objective":"Give a Man a Fish",
  "Requirement":"Requirement: Catch 15 or more fish when a spectral current is present.",
  "Image":65905,
  "Order":8
},
{
  "Id":6,
  "Objective":"Teach a Man to Fish",
  "Requirement":"Requirement: Catch 35 or more fish when a spectral current is present.",
  "Image":65906,
  "Order":9
},
{
  "Id":7,
  "Objective":"Bream Team: Galadion Bay",
  "Requirement":"Requirement: As a party, catch 10 or more different fish in Galadion Bay.",
  "Image":65907,
  "Order":10
},
{
  "Id":8,
  "Objective":"Bream Team: Southern Strait of Merlthor",
  "Requirement":"Requirement: As a party, catch 10 or more different fish in the southern Strait of Merlthor.",
  "Image":65908,
  "Order":13
},
{
  "Id":9,
  "Objective":"Bream Team: Northern Strait of Merlthor",
  "Requirement":"Requirement: As a party, catch 10 or more different fish in the northern Strait of Merlthor.",
  "Image":65909,
  "Order":19
},
{
  "Id":10,
  "Objective":"Bream Team: Rhotano Sea",
  "Requirement":"Requirement: As a party, catch 10 or more different fish in the Rhotano Sea.",
  "Image":65910,
  "Order":22
},
{
  "Id":11,
  "Objective":"Fabled Fishers",
  "Requirement":"Requirement: As a party, catch 3 or more ★★★★★ fish.",
  "Image":65911,
  "Order":31
},
{
  "Id":12,
  "Objective":"Favored by Llymlaen",
  "Requirement":"Requirement: Cause a spectral current to occur.",
  "Image":65912,
  "Order":32
},
{
  "Id":13,
  "Objective":"Octopus Travelers",
  "Requirement":"Requirement: As a party, catch 150 or more octopodes.",
  "Image":65913,
  "Order":33
},
{
  "Id":14,
  "Objective":"Certifiable Shark Hunters",
  "Requirement":"Requirement: As a party, catch 200 or more sharks.",
  "Image":65914,
  "Order":34
},
{
  "Id":15,
  "Objective":"Jelled Together",
  "Requirement":"Requirement: As a party, catch 150 or more jellyfish.",
  "Image":65915,
  "Order":35
},
{
  "Id":16,
  "Objective":"Maritime Dragonslayers",
  "Requirement":"Requirement: As a party, catch 100 or more seahorses.",
  "Image":65916,
  "Order":36
},
{
  "Id":17,
  "Objective":"Ocean Fishing Amateur",
  "Requirement":"Requirement: Complete one mission during an ocean fishing voyage.",
  "Image":65923,
  "Order":1
},
{
  "Id":18,
  "Objective":"Ocean Fishing Enthusiast",
  "Requirement":"Requirement: Complete two missions during an ocean fishing voyage.",
  "Image":65924,
  "Order":2
},
{
  "Id":19,
  "Objective":"Ocean Fishing Fanatic",
  "Requirement":"Requirement: Complete three missions during an ocean fishing voyage.",
  "Image":65925,
  "Order":3
},
{
  "Id":20,
  "Objective":"Balloon Catchers",
  "Requirement":"Requirement: As a party, catch 250 or more fugu.",
  "Image":65917,
  "Order":37
},
{
  "Id":21,
  "Objective":"Crab Boat Crew",
  "Requirement":"Requirement: As a party, catch 250 or more crabs.",
  "Image":65918,
  "Order":38
},
{
  "Id":22,
  "Objective":"Sticking it to the Manta",
  "Requirement":"Requirement: As an individual, catch 25 or more mantas.",
  "Image":65919,
  "Order":39
},
{
  "Id":23,
  "Objective":"Bream Team: Galadion Bay",
  "Requirement":"Requirement: As a party, catch 9 or more different fish in Galadion Bay. (Target number adjusted for party size.)",
  "Image":65907,
  "Order":11
},
{
  "Id":24,
  "Objective":"Bream Team: Galadion Bay",
  "Requirement":"Requirement: As a party, catch 8 or more different fish in Galadion Bay. (Target number adjusted for party size.)",
  "Image":65907,
  "Order":12
},
{
  "Id":25,
  "Objective":"Bream Team: Southern Strait of Merlthor",
  "Requirement":"Requirement: As a party, catch 9 or more different fish in the southern Strait of Merlthor. (Target number adjusted for party size.)",
  "Image":65908,
  "Order":14
},
{
  "Id":26,
  "Objective":"Bream Team: Southern Strait of Merlthor",
  "Requirement":"Requirement: As a party, catch 8 or more different fish in the southern Strait of Merlthor. (Target number adjusted for party size.)",
  "Image":65908,
  "Order":15
},
{
  "Id":27,
  "Objective":"Bream Team: Northern Strait of Merlthor",
  "Requirement":"Requirement: As a party, catch 9 or more different fish in the northern Strait of Merlthor. (Target number adjusted for party size.)",
  "Image":65909,
  "Order":20
},
{
  "Id":28,
  "Objective":"Bream Team: Northern Strait of Merlthor",
  "Requirement":"Requirement: As a party, catch 8 or more different fish in the northern Strait of Merlthor. (Target number adjusted for party size.)",
  "Image":65909,
  "Order":21
},
{
  "Id":29,
  "Objective":"Bream Team: Rhotano Sea",
  "Requirement":"Requirement: As a party, catch 9 or more different fish in the Rhotano Sea. (Target number adjusted for party size.)",
  "Image":65910,
  "Order":23
},
{
  "Id":30,
  "Objective":"Bream Team: Rhotano Sea",
  "Requirement":"Requirement: As a party, catch 8 or more different fish in the Rhotano Sea. (Target number adjusted for party size.)",
  "Image":65910,
  "Order":24
},
{
  "Id":31,
  "Objective":"Bream Team: Cieldalaes",
  "Requirement":"Requirement: As a party, catch 10 or more different fish in the Cieldalaes.",
  "Image":65920,
  "Order":16
},
{
  "Id":32,
  "Objective":"Bream Team: Cieldalaes",
  "Requirement":"Requirement: As a party, catch 9 or more different fish in the Cieldalaes. (Target number adjusted for party size.)",
  "Image":65920,
  "Order":17
},
{
  "Id":33,
  "Objective":"Bream Team: Cieldalaes",
  "Requirement":"Requirement: As a party, catch 8 or more different fish in the Cieldalaes. (Target number adjusted for party size.)",
  "Image":65920,
  "Order":18
},
{
  "Id":34,
  "Objective":"Bream Team: Bloodbrine Sea",
  "Requirement":"Requirement: As a party, catch 10 or more different fish in the Bloodbrine Sea.",
  "Image":65921,
  "Order":25
},
{
  "Id":35,
  "Objective":"Bream Team: Bloodbrine Sea",
  "Requirement":"Requirement: As a party, catch 9 or more different fish in the Bloodbrine Sea. (Target number adjusted for party size.)",
  "Image":65921,
  "Order":26
},
{
  "Id":36,
  "Objective":"Bream Team: Bloodbrine Sea",
  "Requirement":"Requirement: As a party, catch 8 or more different fish in the Bloodbrine Sea. (Target number adjusted for party size.)",
  "Image":65921,
  "Order":27
},
{
  "Id":37,
  "Objective":"Bream Team: Rothlyt Sound",
  "Requirement":"Requirement: As a party, catch 10 or more different fish in Rothlyt Sound.",
  "Image":65922,
  "Order":28
},
{
  "Id":38,
  "Objective":"Bream Team: Rothlyt Sound",
  "Requirement":"Requirement: As a party, catch 9 or more different fish in Rothlyt Sound. (Target number adjusted for party size.)",
  "Image":65922,
  "Order":29
},
{
  "Id":39,
  "Objective":"Bream Team: Rothlyt Sound",
  "Requirement":"Requirement: As a party, catch 8 or more different fish in Rothlyt Sound. (Target number adjusted for party size.)",
  "Image":65922,
  "Order":30
},
{
  "Id":40,
  "Objective":"Maximum Mussel",
  "Requirement":"Requirement: As a party, catch 350 or more shellfish.",
  "Image":65930,
  "Order":52
},
{
  "Id":41,
  "Objective":"Squid Squadron",
  "Requirement":"Requirement: As a party, catch 400 or more squid.",
  "Image":65931,
  "Order":53
},
{
  "Id":42,
  "Objective":"Shrimp Smorgasbord",
  "Requirement":"Requirement: As an individual, catch 50 or more shrimp.",
  "Image":65932,
  "Order":54
},
{
  "Id":43,
  "Objective":"Bream Team: Sirensong Sea",
  "Requirement":"Requirement: As a party, catch 10 or more different fish in the Sirensong Sea.",
  "Image":65926,
  "Order":40
},
{
  "Id":44,
  "Objective":"Bream Team: Sirensong Sea",
  "Requirement":"Requirement: As a party, catch 9 or more different fish in the Sirensong Sea. (Target number adjusted for party size.)",
  "Image":65926,
  "Order":41
},
{
  "Id":45,
  "Objective":"Bream Team: Sirensong Sea",
  "Requirement":"Requirement: As a party, catch 8 or more different fish in the Sirensong Sea. (Target number adjusted for party size.)",
  "Image":65926,
  "Order":42
},
{
  "Id":46,
  "Objective":"Bream Team: Kugane Coast",
  "Requirement":"Requirement: As a party, catch 10 or more different fish at the Kugane coast.",
  "Image":65927,
  "Order":43
},
{
  "Id":47,
  "Objective":"Bream Team: Kugane Coast",
  "Requirement":"Requirement: As a party, catch 9 or more different fish at the Kugane coast. (Target number adjusted for party size.)",
  "Image":65927,
  "Order":44
},
{
  "Id":48,
  "Objective":"Bream Team: Kugane Coast",
  "Requirement":"Requirement: As a party, catch 8 or more different fish at the Kugane coast. (Target number adjusted for party size.)",
  "Image":65927,
  "Order":45
},
{
  "Id":49,
  "Objective":"Bream Team: Ruby Price",
  "Requirement":"Requirement: As a party, catch 10 or more different fish in the Ruby Price.",
  "Image":65928,
  "Order":46
},
{
  "Id":50,
  "Objective":"Bream Team: Ruby Price",
  "Requirement":"Requirement: As a party, catch 9 or more different fish in the Ruby Price. (Target number adjusted for party size.)",
  "Image":65928,
  "Order":47
},
{
  "Id":51,
  "Objective":"Bream Team: Ruby Price",
  "Requirement":"Requirement: As a party, catch 8 or more different fish in the Ruby Price. (Target number adjusted for party size.)",
  "Image":65928,
  "Order":48
},
{
  "Id":52,
  "Objective":"Bream Team: Lower One River",
  "Requirement":"Requirement: As a party, catch 10 or more different fish in the lower One River.",
  "Image":65929,
  "Order":49
},
{
  "Id":53,
  "Objective":"Bream Team: Lower One River",
  "Requirement":"Requirement: As a party, catch 9 or more different fish in the lower One River. (Target number adjusted for party size.)",
  "Image":65929,
  "Order":50
},
{
  "Id":54,
  "Objective":"Bream Team: Lower One River",
  "Requirement":"Requirement: As a party, catch 8 or more different fish in the lower One River. (Target number adjusted for party size.)",
  "Image":65929,
  "Order":51
}
]
