﻿[
{
  "Id":0,
  "Route":7
},
{
  "Id":1,
  "Route":10
},
{
  "Id":2,
  "Route":1
},
{
  "Id":3,
  "Route":4
},
{
  "Id":4,
  "Route":8
},
{
  "Id":5,
  "Route":11
},
{
  "Id":6,
  "Route":2
},
{
  "Id":7,
  "Route":5
},
{
  "Id":8,
  "Route":9
},
{
  "Id":9,
  "Route":12
},
{
  "Id":10,
  "Route":3
},
{
  "Id":11,
  "Route":6
},
{
  "Id":12,
  "Route":10
},
{
  "Id":13,
  "Route":1
},
{
  "Id":14,
  "Route":4
},
{
  "Id":15,
  "Route":8
},
{
  "Id":16,
  "Route":11
},
{
  "Id":17,
  "Route":2
},
{
  "Id":18,
  "Route":5
},
{
  "Id":19,
  "Route":9
},
{
  "Id":20,
  "Route":12
},
{
  "Id":21,
  "Route":3
},
{
  "Id":22,
  "Route":6
},
{
  "Id":23,
  "Route":7
},
{
  "Id":24,
  "Route":1
},
{
  "Id":25,
  "Route":4
},
{
  "Id":26,
  "Route":8
},
{
  "Id":27,
  "Route":11
},
{
  "Id":28,
  "Route":2
},
{
  "Id":29,
  "Route":5
},
{
  "Id":30,
  "Route":9
},
{
  "Id":31,
  "Route":12
},
{
  "Id":32,
  "Route":3
},
{
  "Id":33,
  "Route":6
},
{
  "Id":34,
  "Route":7
},
{
  "Id":35,
  "Route":10
},
{
  "Id":36,
  "Route":4
},
{
  "Id":37,
  "Route":8
},
{
  "Id":38,
  "Route":11
},
{
  "Id":39,
  "Route":2
},
{
  "Id":40,
  "Route":5
},
{
  "Id":41,
  "Route":9
},
{
  "Id":42,
  "Route":12
},
{
  "Id":43,
  "Route":3
},
{
  "Id":44,
  "Route":6
},
{
  "Id":45,
  "Route":7
},
{
  "Id":46,
  "Route":10
},
{
  "Id":47,
  "Route":1
},
{
  "Id":48,
  "Route":8
},
{
  "Id":49,
  "Route":11
},
{
  "Id":50,
  "Route":2
},
{
  "Id":51,
  "Route":5
},
{
  "Id":52,
  "Route":9
},
{
  "Id":53,
  "Route":12
},
{
  "Id":54,
  "Route":3
},
{
  "Id":55,
  "Route":6
},
{
  "Id":56,
  "Route":7
},
{
  "Id":57,
  "Route":10
},
{
  "Id":58,
  "Route":1
},
{
  "Id":59,
  "Route":4
},
{
  "Id":60,
  "Route":11
},
{
  "Id":61,
  "Route":2
},
{
  "Id":62,
  "Route":5
},
{
  "Id":63,
  "Route":9
},
{
  "Id":64,
  "Route":12
},
{
  "Id":65,
  "Route":3
},
{
  "Id":66,
  "Route":6
},
{
  "Id":67,
  "Route":7
},
{
  "Id":68,
  "Route":10
},
{
  "Id":69,
  "Route":1
},
{
  "Id":70,
  "Route":4
},
{
  "Id":71,
  "Route":8
},
{
  "Id":72,
  "Route":2
},
{
  "Id":73,
  "Route":5
},
{
  "Id":74,
  "Route":9
},
{
  "Id":75,
  "Route":12
},
{
  "Id":76,
  "Route":3
},
{
  "Id":77,
  "Route":6
},
{
  "Id":78,
  "Route":7
},
{
  "Id":79,
  "Route":10
},
{
  "Id":80,
  "Route":1
},
{
  "Id":81,
  "Route":4
},
{
  "Id":82,
  "Route":8
},
{
  "Id":83,
  "Route":11
},
{
  "Id":84,
  "Route":5
},
{
  "Id":85,
  "Route":9
},
{
  "Id":86,
  "Route":12
},
{
  "Id":87,
  "Route":3
},
{
  "Id":88,
  "Route":6
},
{
  "Id":89,
  "Route":7
},
{
  "Id":90,
  "Route":10
},
{
  "Id":91,
  "Route":1
},
{
  "Id":92,
  "Route":4
},
{
  "Id":93,
  "Route":8
},
{
  "Id":94,
  "Route":11
},
{
  "Id":95,
  "Route":2
},
{
  "Id":96,
  "Route":9
},
{
  "Id":97,
  "Route":12
},
{
  "Id":98,
  "Route":3
},
{
  "Id":99,
  "Route":6
},
{
  "Id":100,
  "Route":7
},
{
  "Id":101,
  "Route":10
},
{
  "Id":102,
  "Route":1
},
{
  "Id":103,
  "Route":4
},
{
  "Id":104,
  "Route":8
},
{
  "Id":105,
  "Route":11
},
{
  "Id":106,
  "Route":2
},
{
  "Id":107,
  "Route":5
},
{
  "Id":108,
  "Route":12
},
{
  "Id":109,
  "Route":3
},
{
  "Id":110,
  "Route":6
},
{
  "Id":111,
  "Route":7
},
{
  "Id":112,
  "Route":10
},
{
  "Id":113,
  "Route":1
},
{
  "Id":114,
  "Route":4
},
{
  "Id":115,
  "Route":8
},
{
  "Id":116,
  "Route":11
},
{
  "Id":117,
  "Route":2
},
{
  "Id":118,
  "Route":5
},
{
  "Id":119,
  "Route":9
},
{
  "Id":120,
  "Route":3
},
{
  "Id":121,
  "Route":6
},
{
  "Id":122,
  "Route":7
},
{
  "Id":123,
  "Route":10
},
{
  "Id":124,
  "Route":1
},
{
  "Id":125,
  "Route":4
},
{
  "Id":126,
  "Route":8
},
{
  "Id":127,
  "Route":11
},
{
  "Id":128,
  "Route":2
},
{
  "Id":129,
  "Route":5
},
{
  "Id":130,
  "Route":9
},
{
  "Id":131,
  "Route":12
},
{
  "Id":132,
  "Route":6
},
{
  "Id":133,
  "Route":7
},
{
  "Id":134,
  "Route":10
},
{
  "Id":135,
  "Route":1
},
{
  "Id":136,
  "Route":4
},
{
  "Id":137,
  "Route":8
},
{
  "Id":138,
  "Route":11
},
{
  "Id":139,
  "Route":2
},
{
  "Id":140,
  "Route":5
},
{
  "Id":141,
  "Route":9
},
{
  "Id":142,
  "Route":12
},
{
  "Id":143,
  "Route":3
}
]
