﻿[
{
  "Id":0,
  "Name":"",
  "Icon":0,
  "Category":0,
  "Order":0,
  "ClassJob":0
},
{
  "Id":1,
  "Name":"Arme principale",
  "Icon":60102,
  "Category":0,
  "Order":0,
  "ClassJob":0
},
{
  "Id":2,
  "Name":"Outil principal de synthèse",
  "Icon":60113,
  "Category":0,
  "Order":0,
  "ClassJob":0
},
{
  "Id":3,
  "Name":"Outil principal de récolte",
  "Icon":60120,
  "Category":0,
  "Order":0,
  "ClassJob":0
},
{
  "Id":4,
  "Name":"Armure",
  "Icon":60126,
  "Category":0,
  "Order":0,
  "ClassJob":0
},
{
  "Id":5,
  "Name":"Accessoire",
  "Icon":60135,
  "Category":0,
  "Order":0,
  "ClassJob":0
},
{
  "Id":6,
  "Name":"Consommable",
  "Icon":60136,
  "Category":0,
  "Order":0,
  "ClassJob":0
},
{
  "Id":7,
  "Name":"Matériau",
  "Icon":60137,
  "Category":0,
  "Order":0,
  "ClassJob":0
},
{
  "Id":8,
  "Name":"Autre",
  "Icon":60159,
  "Category":0,
  "Order":0,
  "ClassJob":0
},
{
  "Id":9,
  "Name":"Arme de pugiliste",
  "Icon":60101,
  "Category":1,
  "Order":6,
  "ClassJob":2
},
{
  "Id":10,
  "Name":"Arme de gladiateur",
  "Icon":60102,
  "Category":1,
  "Order":0,
  "ClassJob":1
},
{
  "Id":11,
  "Name":"Arme de maraudeur",
  "Icon":60103,
  "Category":1,
  "Order":1,
  "ClassJob":3
},
{
  "Id":12,
  "Name":"Arme d'archer",
  "Icon":60105,
  "Category":1,
  "Order":9,
  "ClassJob":5
},
{
  "Id":13,
  "Name":"Arme d'hast",
  "Icon":60104,
  "Category":1,
  "Order":4,
  "ClassJob":4
},
{
  "Id":14,
  "Name":"Arme d'occultiste",
  "Icon":60108,
  "Category":1,
  "Order":12,
  "ClassJob":7
},
{
  "Id":15,
  "Name":"Arme d'élémentaliste",
  "Icon":60107,
  "Category":1,
  "Order":15,
  "ClassJob":6
},
{
  "Id":16,
  "Name":"Arme d'arcaniste",
  "Icon":60109,
  "Category":1,
  "Order":13,
  "ClassJob":26
},
{
  "Id":17,
  "Name":"Bouclier",
  "Icon":60110,
  "Category":2,
  "Order":0,
  "ClassJob":0
},
{
  "Id":18,
  "Name":"Arme de jet",
  "Icon":60111,
  "Category":0,
  "Order":0,
  "ClassJob":0
},
{
  "Id":19,
  "Name":"Outil de menuisier",
  "Icon":60112,
  "Category":1,
  "Order":19,
  "ClassJob":8
},
{
  "Id":20,
  "Name":"Outil de forgeron",
  "Icon":60113,
  "Category":1,
  "Order":20,
  "ClassJob":9
},
{
  "Id":21,
  "Name":"Outil d'armurier",
  "Icon":60114,
  "Category":1,
  "Order":21,
  "ClassJob":10
},
{
  "Id":22,
  "Name":"Outil d'orfèvre",
  "Icon":60115,
  "Category":1,
  "Order":22,
  "ClassJob":11
},
{
  "Id":23,
  "Name":"Outil de tanneur",
  "Icon":60116,
  "Category":1,
  "Order":23,
  "ClassJob":12
},
{
  "Id":24,
  "Name":"Outil de couturier",
  "Icon":60117,
  "Category":1,
  "Order":24,
  "ClassJob":13
},
{
  "Id":25,
  "Name":"Outil d'alchimiste",
  "Icon":60118,
  "Category":1,
  "Order":25,
  "ClassJob":14
},
{
  "Id":26,
  "Name":"Outil de cuisinier",
  "Icon":60119,
  "Category":1,
  "Order":26,
  "ClassJob":15
},
{
  "Id":27,
  "Name":"Outil de mineur",
  "Icon":60120,
  "Category":1,
  "Order":27,
  "ClassJob":16
},
{
  "Id":28,
  "Name":"Outil de botaniste",
  "Icon":60121,
  "Category":1,
  "Order":28,
  "ClassJob":17
},
{
  "Id":29,
  "Name":"Outil de pêcheur",
  "Icon":60122,
  "Category":1,
  "Order":29,
  "ClassJob":18
},
{
  "Id":30,
  "Name":"Appât de pêche",
  "Icon":60123,
  "Category":1,
  "Order":30,
  "ClassJob":18
},
{
  "Id":31,
  "Name":"Tête",
  "Icon":60124,
  "Category":2,
  "Order":1,
  "ClassJob":0
},
{
  "Id":32,
  "Name":"Maillot",
  "Icon":60125,
  "Category":0,
  "Order":0,
  "ClassJob":0
},
{
  "Id":33,
  "Name":"Torse",
  "Icon":60126,
  "Category":2,
  "Order":2,
  "ClassJob":0
},
{
  "Id":34,
  "Name":"Sous-vêtement",
  "Icon":60127,
  "Category":0,
  "Order":0,
  "ClassJob":0
},
{
  "Id":35,
  "Name":"Jambes",
  "Icon":60128,
  "Category":2,
  "Order":4,
  "ClassJob":0
},
{
  "Id":36,
  "Name":"Mains",
  "Icon":60129,
  "Category":2,
  "Order":3,
  "ClassJob":0
},
{
  "Id":37,
  "Name":"Pieds",
  "Icon":60130,
  "Category":2,
  "Order":5,
  "ClassJob":0
},
{
  "Id":38,
  "Name":"Ceinture",
  "Icon":60131,
  "Category":0,
  "Order":0,
  "ClassJob":0
},
{
  "Id":39,
  "Name":"Collier",
  "Icon":60132,
  "Category":2,
  "Order":7,
  "ClassJob":0
},
{
  "Id":40,
  "Name":"Boucle d'oreille",
  "Icon":60133,
  "Category":2,
  "Order":6,
  "ClassJob":0
},
{
  "Id":41,
  "Name":"Bracelet",
  "Icon":60134,
  "Category":2,
  "Order":8,
  "ClassJob":0
},
{
  "Id":42,
  "Name":"Bague",
  "Icon":60135,
  "Category":2,
  "Order":9,
  "ClassJob":0
},
{
  "Id":43,
  "Name":"Médicament",
  "Icon":60136,
  "Category":3,
  "Order":0,
  "ClassJob":0
},
{
  "Id":44,
  "Name":"Ingrédient",
  "Icon":60137,
  "Category":3,
  "Order":1,
  "ClassJob":0
},
{
  "Id":45,
  "Name":"Plat ou boisson",
  "Icon":60146,
  "Category":3,
  "Order":2,
  "ClassJob":0
},
{
  "Id":46,
  "Name":"Produit de la pêche",
  "Icon":60138,
  "Category":3,
  "Order":3,
  "ClassJob":0
},
{
  "Id":47,
  "Name":"Pierre",
  "Icon":60139,
  "Category":3,
  "Order":4,
  "ClassJob":0
},
{
  "Id":48,
  "Name":"Métal",
  "Icon":60140,
  "Category":3,
  "Order":5,
  "ClassJob":0
},
{
  "Id":49,
  "Name":"Bois",
  "Icon":60141,
  "Category":3,
  "Order":6,
  "ClassJob":0
},
{
  "Id":50,
  "Name":"Tissu",
  "Icon":60142,
  "Category":3,
  "Order":7,
  "ClassJob":0
},
{
  "Id":51,
  "Name":"Cuir",
  "Icon":60143,
  "Category":3,
  "Order":8,
  "ClassJob":0
},
{
  "Id":52,
  "Name":"Os",
  "Icon":60144,
  "Category":3,
  "Order":9,
  "ClassJob":0
},
{
  "Id":53,
  "Name":"Réactif",
  "Icon":60145,
  "Category":3,
  "Order":10,
  "ClassJob":0
},
{
  "Id":54,
  "Name":"Teinture",
  "Icon":60147,
  "Category":3,
  "Order":11,
  "ClassJob":0
},
{
  "Id":55,
  "Name":"Composant",
  "Icon":60148,
  "Category":3,
  "Order":12,
  "ClassJob":0
},
{
  "Id":56,
  "Name":"Meuble",
  "Icon":60164,
  "Category":4,
  "Order":3,
  "ClassJob":0
},
{
  "Id":57,
  "Name":"Matéria",
  "Icon":60150,
  "Category":3,
  "Order":13,
  "ClassJob":0
},
{
  "Id":58,
  "Name":"Cristal",
  "Icon":60151,
  "Category":3,
  "Order":14,
  "ClassJob":0
},
{
  "Id":59,
  "Name":"Catalyseur",
  "Icon":60152,
  "Category":3,
  "Order":15,
  "ClassJob":0
},
{
  "Id":60,
  "Name":"Divers",
  "Icon":60153,
  "Category":3,
  "Order":16,
  "ClassJob":0
},
{
  "Id":61,
  "Name":"Cristal d'âme",
  "Icon":60157,
  "Category":0,
  "Order":0,
  "ClassJob":0
},
{
  "Id":62,
  "Name":"Flèche",
  "Icon":60153,
  "Category":0,
  "Order":0,
  "ClassJob":0
},
{
  "Id":63,
  "Name":"Objet de quête",
  "Icon":60158,
  "Category":0,
  "Order":0,
  "ClassJob":0
},
{
  "Id":64,
  "Name":"Autre",
  "Icon":60159,
  "Category":0,
  "Order":0,
  "ClassJob":0
},
{
  "Id":65,
  "Name":"Élément extérieur",
  "Icon":60160,
  "Category":4,
  "Order":0,
  "ClassJob":0
},
{
  "Id":66,
  "Name":"Élément intérieur",
  "Icon":60161,
  "Category":4,
  "Order":1,
  "ClassJob":0
},
{
  "Id":67,
  "Name":"Meuble de jardin",
  "Icon":60168,
  "Category":4,
  "Order":2,
  "ClassJob":0
},
{
  "Id":68,
  "Name":"Siège ou lit",
  "Icon":60165,
  "Category":4,
  "Order":4,
  "ClassJob":0
},
{
  "Id":69,
  "Name":"Table",
  "Icon":60162,
  "Category":4,
  "Order":5,
  "ClassJob":0
},
{
  "Id":70,
  "Name":"Mobilier de table",
  "Icon":60163,
  "Category":4,
  "Order":6,
  "ClassJob":0
},
{
  "Id":71,
  "Name":"Mobilier mural",
  "Icon":60166,
  "Category":4,
  "Order":7,
  "ClassJob":0
},
{
  "Id":72,
  "Name":"Tapis",
  "Icon":60167,
  "Category":4,
  "Order":8,
  "ClassJob":0
},
{
  "Id":73,
  "Name":"Arme de surineur",
  "Icon":60106,
  "Category":1,
  "Order":8,
  "ClassJob":29
},
{
  "Id":74,
  "Name":"Divers (événements)",
  "Icon":60154,
  "Category":3,
  "Order":17,
  "ClassJob":0
},
{
  "Id":75,
  "Name":"Mascotte",
  "Icon":60155,
  "Category":3,
  "Order":19,
  "ClassJob":0
},
{
  "Id":76,
  "Name":"Arme de chevalier noir",
  "Icon":60170,
  "Category":1,
  "Order":2,
  "ClassJob":32
},
{
  "Id":77,
  "Name":"Arme de machiniste",
  "Icon":60172,
  "Category":1,
  "Order":10,
  "ClassJob":31
},
{
  "Id":78,
  "Name":"Arme d'astromancien",
  "Icon":60171,
  "Category":1,
  "Order":17,
  "ClassJob":33
},
{
  "Id":79,
  "Name":"Élément d'aéronef/sous-marin",
  "Icon":60169,
  "Category":3,
  "Order":20,
  "ClassJob":0
},
{
  "Id":80,
  "Name":"Élément d'orchestrion",
  "Icon":60173,
  "Category":3,
  "Order":21,
  "ClassJob":0
},
{
  "Id":81,
  "Name":"Article de jardinage",
  "Icon":60174,
  "Category":4,
  "Order":9,
  "ClassJob":0
},
{
  "Id":82,
  "Name":"Peinture",
  "Icon":60175,
  "Category":4,
  "Order":10,
  "ClassJob":0
},
{
  "Id":83,
  "Name":"Arme de samouraï",
  "Icon":60177,
  "Category":1,
  "Order":7,
  "ClassJob":34
},
{
  "Id":84,
  "Name":"Arme de mage rouge",
  "Icon":60176,
  "Category":1,
  "Order":14,
  "ClassJob":35
},
{
  "Id":85,
  "Name":"Arme d'érudit",
  "Icon":60178,
  "Category":1,
  "Order":16,
  "ClassJob":28
},
{
  "Id":86,
  "Name":"Arme de pistosabreur",
  "Icon":60181,
  "Category":1,
  "Order":3,
  "ClassJob":37
},
{
  "Id":87,
  "Name":"Arme de danseur",
  "Icon":60182,
  "Category":1,
  "Order":11,
  "ClassJob":38
},
{
  "Id":88,
  "Name":"Arme de faucheur",
  "Icon":60183,
  "Category":1,
  "Order":5,
  "ClassJob":39
},
{
  "Id":89,
  "Name":"Arme de sage",
  "Icon":60184,
  "Category":1,
  "Order":18,
  "ClassJob":40
},
{
  "Id":90,
  "Name":"Divers (récompenses)",
  "Icon":60185,
  "Category":3,
  "Order":18,
  "ClassJob":0
},
{
  "Id":91,
  "Name":"",
  "Icon":0,
  "Category":0,
  "Order":0,
  "ClassJob":0
},
{
  "Id":92,
  "Name":"",
  "Icon":0,
  "Category":0,
  "Order":0,
  "ClassJob":0
},
{
  "Id":93,
  "Name":"",
  "Icon":0,
  "Category":0,
  "Order":0,
  "ClassJob":0
},
{
  "Id":94,
  "Name":"",
  "Icon":0,
  "Category":0,
  "Order":0,
  "ClassJob":0
},
{
  "Id":95,
  "Name":"",
  "Icon":0,
  "Category":0,
  "Order":0,
  "ClassJob":0
},
{
  "Id":96,
  "Name":"",
  "Icon":0,
  "Category":0,
  "Order":0,
  "ClassJob":0
},
{
  "Id":97,
  "Name":"",
  "Icon":0,
  "Category":0,
  "Order":0,
  "ClassJob":0
},
{
  "Id":98,
  "Name":"",
  "Icon":0,
  "Category":0,
  "Order":0,
  "ClassJob":0
},
{
  "Id":99,
  "Name":"",
  "Icon":0,
  "Category":0,
  "Order":0,
  "ClassJob":0
},
{
  "Id":100,
  "Name":"",
  "Icon":0,
  "Category":0,
  "Order":0,
  "ClassJob":0
}
]
