﻿[
{
  "Id":0,
  "Name":"",
  "Icon":0,
  "Category":0,
  "Order":0,
  "ClassJob":0
},
{
  "Id":1,
  "Name":"Hauptwaffe",
  "Icon":60102,
  "Category":0,
  "Order":0,
  "ClassJob":0
},
{
  "Id":2,
  "Name":"Hauptwerkzeug",
  "Icon":60113,
  "Category":0,
  "Order":0,
  "ClassJob":0
},
{
  "Id":3,
  "Name":"Hauptwerkzeug",
  "Icon":60120,
  "Category":0,
  "Order":0,
  "ClassJob":0
},
{
  "Id":4,
  "Name":"Rüstung",
  "Icon":60126,
  "Category":0,
  "Order":0,
  "ClassJob":0
},
{
  "Id":5,
  "Name":"Accessoire",
  "Icon":60135,
  "Category":0,
  "Order":0,
  "ClassJob":0
},
{
  "Id":6,
  "Name":"Arznei",
  "Icon":60136,
  "Category":0,
  "Order":0,
  "ClassJob":0
},
{
  "Id":7,
  "Name":"Material",
  "Icon":60137,
  "Category":0,
  "Order":0,
  "ClassJob":0
},
{
  "Id":8,
  "Name":"Sonstige",
  "Icon":60159,
  "Category":0,
  "Order":0,
  "ClassJob":0
},
{
  "Id":9,
  "Name":"Faustkämpfer-Waffe",
  "Icon":60101,
  "Category":1,
  "Order":6,
  "ClassJob":2
},
{
  "Id":10,
  "Name":"Gladiatoren-Waffe",
  "Icon":60102,
  "Category":1,
  "Order":0,
  "ClassJob":1
},
{
  "Id":11,
  "Name":"Marodeur-Waffe",
  "Icon":60103,
  "Category":1,
  "Order":1,
  "ClassJob":3
},
{
  "Id":12,
  "Name":"Waldläufer-Waffe",
  "Icon":60105,
  "Category":1,
  "Order":9,
  "ClassJob":5
},
{
  "Id":13,
  "Name":"Pikenier-Waffe",
  "Icon":60104,
  "Category":1,
  "Order":4,
  "ClassJob":4
},
{
  "Id":14,
  "Name":"Thaumaturgen-Waffe",
  "Icon":60108,
  "Category":1,
  "Order":12,
  "ClassJob":7
},
{
  "Id":15,
  "Name":"Druiden-Waffe",
  "Icon":60107,
  "Category":1,
  "Order":15,
  "ClassJob":6
},
{
  "Id":16,
  "Name":"Hermetiker-Waffe",
  "Icon":60109,
  "Category":1,
  "Order":13,
  "ClassJob":26
},
{
  "Id":17,
  "Name":"Schild",
  "Icon":60110,
  "Category":2,
  "Order":0,
  "ClassJob":0
},
{
  "Id":18,
  "Name":"Wurfwaffe",
  "Icon":60111,
  "Category":0,
  "Order":0,
  "ClassJob":0
},
{
  "Id":19,
  "Name":"Zimmermannszeug",
  "Icon":60112,
  "Category":1,
  "Order":19,
  "ClassJob":8
},
{
  "Id":20,
  "Name":"Schmiedezeug",
  "Icon":60113,
  "Category":1,
  "Order":20,
  "ClassJob":9
},
{
  "Id":21,
  "Name":"Plattnerzeug",
  "Icon":60114,
  "Category":1,
  "Order":21,
  "ClassJob":10
},
{
  "Id":22,
  "Name":"Goldschmiedezeug",
  "Icon":60115,
  "Category":1,
  "Order":22,
  "ClassJob":11
},
{
  "Id":23,
  "Name":"Gerberzeug",
  "Icon":60116,
  "Category":1,
  "Order":23,
  "ClassJob":12
},
{
  "Id":24,
  "Name":"Weberzeug",
  "Icon":60117,
  "Category":1,
  "Order":24,
  "ClassJob":13
},
{
  "Id":25,
  "Name":"Alchemistenzeug",
  "Icon":60118,
  "Category":1,
  "Order":25,
  "ClassJob":14
},
{
  "Id":26,
  "Name":"Gourmetzeug",
  "Icon":60119,
  "Category":1,
  "Order":26,
  "ClassJob":15
},
{
  "Id":27,
  "Name":"Minenarbeiterzeug",
  "Icon":60120,
  "Category":1,
  "Order":27,
  "ClassJob":16
},
{
  "Id":28,
  "Name":"Gärtnerzeug",
  "Icon":60121,
  "Category":1,
  "Order":28,
  "ClassJob":17
},
{
  "Id":29,
  "Name":"Fischerzeug",
  "Icon":60122,
  "Category":1,
  "Order":29,
  "ClassJob":18
},
{
  "Id":30,
  "Name":"Angelköder",
  "Icon":60123,
  "Category":1,
  "Order":30,
  "ClassJob":18
},
{
  "Id":31,
  "Name":"Kopf",
  "Icon":60124,
  "Category":2,
  "Order":1,
  "ClassJob":0
},
{
  "Id":32,
  "Name":"Unterhemd",
  "Icon":60125,
  "Category":0,
  "Order":0,
  "ClassJob":0
},
{
  "Id":33,
  "Name":"Rumpf",
  "Icon":60126,
  "Category":2,
  "Order":2,
  "ClassJob":0
},
{
  "Id":34,
  "Name":"Unterwäsche",
  "Icon":60127,
  "Category":0,
  "Order":0,
  "ClassJob":0
},
{
  "Id":35,
  "Name":"Beine",
  "Icon":60128,
  "Category":2,
  "Order":4,
  "ClassJob":0
},
{
  "Id":36,
  "Name":"Hände",
  "Icon":60129,
  "Category":2,
  "Order":3,
  "ClassJob":0
},
{
  "Id":37,
  "Name":"Füße",
  "Icon":60130,
  "Category":2,
  "Order":5,
  "ClassJob":0
},
{
  "Id":38,
  "Name":"Taille",
  "Icon":60131,
  "Category":0,
  "Order":0,
  "ClassJob":0
},
{
  "Id":39,
  "Name":"Halskette",
  "Icon":60132,
  "Category":2,
  "Order":7,
  "ClassJob":0
},
{
  "Id":40,
  "Name":"Ohrring",
  "Icon":60133,
  "Category":2,
  "Order":6,
  "ClassJob":0
},
{
  "Id":41,
  "Name":"Armreif",
  "Icon":60134,
  "Category":2,
  "Order":8,
  "ClassJob":0
},
{
  "Id":42,
  "Name":"Ring",
  "Icon":60135,
  "Category":2,
  "Order":9,
  "ClassJob":0
},
{
  "Id":43,
  "Name":"Arznei",
  "Icon":60136,
  "Category":3,
  "Order":0,
  "ClassJob":0
},
{
  "Id":44,
  "Name":"Zutat",
  "Icon":60137,
  "Category":3,
  "Order":1,
  "ClassJob":0
},
{
  "Id":45,
  "Name":"Gericht",
  "Icon":60146,
  "Category":3,
  "Order":2,
  "ClassJob":0
},
{
  "Id":46,
  "Name":"Meeresfrüchte",
  "Icon":60138,
  "Category":3,
  "Order":3,
  "ClassJob":0
},
{
  "Id":47,
  "Name":"Baustein",
  "Icon":60139,
  "Category":3,
  "Order":4,
  "ClassJob":0
},
{
  "Id":48,
  "Name":"Metall",
  "Icon":60140,
  "Category":3,
  "Order":5,
  "ClassJob":0
},
{
  "Id":49,
  "Name":"Nutzholz",
  "Icon":60141,
  "Category":3,
  "Order":6,
  "ClassJob":0
},
{
  "Id":50,
  "Name":"Stoff",
  "Icon":60142,
  "Category":3,
  "Order":7,
  "ClassJob":0
},
{
  "Id":51,
  "Name":"Leder",
  "Icon":60143,
  "Category":3,
  "Order":8,
  "ClassJob":0
},
{
  "Id":52,
  "Name":"Knochen/Horn",
  "Icon":60144,
  "Category":3,
  "Order":9,
  "ClassJob":0
},
{
  "Id":53,
  "Name":"Reagenz",
  "Icon":60145,
  "Category":3,
  "Order":10,
  "ClassJob":0
},
{
  "Id":54,
  "Name":"Farbstoff",
  "Icon":60147,
  "Category":3,
  "Order":11,
  "ClassJob":0
},
{
  "Id":55,
  "Name":"Waffen-Einzelteil",
  "Icon":60148,
  "Category":3,
  "Order":12,
  "ClassJob":0
},
{
  "Id":56,
  "Name":"Mobiliar",
  "Icon":60164,
  "Category":4,
  "Order":3,
  "ClassJob":0
},
{
  "Id":57,
  "Name":"Materia",
  "Icon":60150,
  "Category":3,
  "Order":13,
  "ClassJob":0
},
{
  "Id":58,
  "Name":"Kristall",
  "Icon":60151,
  "Category":3,
  "Order":14,
  "ClassJob":0
},
{
  "Id":59,
  "Name":"Katalysator",
  "Icon":60152,
  "Category":3,
  "Order":15,
  "ClassJob":0
},
{
  "Id":60,
  "Name":"Verschiedenes",
  "Icon":60153,
  "Category":3,
  "Order":16,
  "ClassJob":0
},
{
  "Id":61,
  "Name":"Jobkristall",
  "Icon":60157,
  "Category":0,
  "Order":0,
  "ClassJob":0
},
{
  "Id":62,
  "Name":"Pfeil",
  "Icon":60153,
  "Category":0,
  "Order":0,
  "ClassJob":0
},
{
  "Id":63,
  "Name":"Auftragsgegenstand",
  "Icon":60158,
  "Category":0,
  "Order":0,
  "ClassJob":0
},
{
  "Id":64,
  "Name":"Sonstige",
  "Icon":60159,
  "Category":0,
  "Order":0,
  "ClassJob":0
},
{
  "Id":65,
  "Name":"Bauelement außen",
  "Icon":60160,
  "Category":4,
  "Order":0,
  "ClassJob":0
},
{
  "Id":66,
  "Name":"Bauelement innen",
  "Icon":60161,
  "Category":4,
  "Order":1,
  "ClassJob":0
},
{
  "Id":67,
  "Name":"Gartenausstattung",
  "Icon":60168,
  "Category":4,
  "Order":2,
  "ClassJob":0
},
{
  "Id":68,
  "Name":"Stuhl/Bett",
  "Icon":60165,
  "Category":4,
  "Order":4,
  "ClassJob":0
},
{
  "Id":69,
  "Name":"Tisch/Ablage",
  "Icon":60162,
  "Category":4,
  "Order":5,
  "ClassJob":0
},
{
  "Id":70,
  "Name":"Tischdekoration",
  "Icon":60163,
  "Category":4,
  "Order":6,
  "ClassJob":0
},
{
  "Id":71,
  "Name":"Wanddekoration",
  "Icon":60166,
  "Category":4,
  "Order":7,
  "ClassJob":0
},
{
  "Id":72,
  "Name":"Teppich",
  "Icon":60167,
  "Category":4,
  "Order":8,
  "ClassJob":0
},
{
  "Id":73,
  "Name":"Schurken-Waffe",
  "Icon":60106,
  "Category":1,
  "Order":8,
  "ClassJob":29
},
{
  "Id":74,
  "Name":"Saisonaler Gegenstand",
  "Icon":60154,
  "Category":3,
  "Order":17,
  "ClassJob":0
},
{
  "Id":75,
  "Name":"Begleiter",
  "Icon":60155,
  "Category":3,
  "Order":19,
  "ClassJob":0
},
{
  "Id":76,
  "Name":"Dunkelritter-Waffe",
  "Icon":60170,
  "Category":1,
  "Order":2,
  "ClassJob":32
},
{
  "Id":77,
  "Name":"Maschinisten-Waffe",
  "Icon":60172,
  "Category":1,
  "Order":10,
  "ClassJob":31
},
{
  "Id":78,
  "Name":"Astrologen-Waffe",
  "Icon":60171,
  "Category":1,
  "Order":17,
  "ClassJob":33
},
{
  "Id":79,
  "Name":"Luftschiff-/Tauchboot-Bauteil",
  "Icon":60169,
  "Category":3,
  "Order":20,
  "ClassJob":0
},
{
  "Id":80,
  "Name":"Orchestrion-Notenrollen",
  "Icon":60173,
  "Category":3,
  "Order":21,
  "ClassJob":0
},
{
  "Id":81,
  "Name":"Erde/Samen",
  "Icon":60174,
  "Category":4,
  "Order":9,
  "ClassJob":0
},
{
  "Id":82,
  "Name":"Gemälde",
  "Icon":60175,
  "Category":4,
  "Order":10,
  "ClassJob":0
},
{
  "Id":83,
  "Name":"Samurai-Waffe",
  "Icon":60177,
  "Category":1,
  "Order":7,
  "ClassJob":34
},
{
  "Id":84,
  "Name":"Rotmagier-Waffe",
  "Icon":60176,
  "Category":1,
  "Order":14,
  "ClassJob":35
},
{
  "Id":85,
  "Name":"Gelehrten-Waffe",
  "Icon":60178,
  "Category":1,
  "Order":16,
  "ClassJob":28
},
{
  "Id":86,
  "Name":"Revolverklingen-Waffe",
  "Icon":60181,
  "Category":1,
  "Order":3,
  "ClassJob":37
},
{
  "Id":87,
  "Name":"Tänzer-Waffe",
  "Icon":60182,
  "Category":1,
  "Order":11,
  "ClassJob":38
},
{
  "Id":88,
  "Name":"Schnitter-Waffe",
  "Icon":60183,
  "Category":1,
  "Order":5,
  "ClassJob":39
},
{
  "Id":89,
  "Name":"Weisen-Waffe",
  "Icon":60184,
  "Category":1,
  "Order":18,
  "ClassJob":40
},
{
  "Id":90,
  "Name":"Verschiedenes (Erlernbar)",
  "Icon":60185,
  "Category":3,
  "Order":18,
  "ClassJob":0
},
{
  "Id":91,
  "Name":"",
  "Icon":0,
  "Category":0,
  "Order":0,
  "ClassJob":0
},
{
  "Id":92,
  "Name":"",
  "Icon":0,
  "Category":0,
  "Order":0,
  "ClassJob":0
},
{
  "Id":93,
  "Name":"",
  "Icon":0,
  "Category":0,
  "Order":0,
  "ClassJob":0
},
{
  "Id":94,
  "Name":"",
  "Icon":0,
  "Category":0,
  "Order":0,
  "ClassJob":0
},
{
  "Id":95,
  "Name":"",
  "Icon":0,
  "Category":0,
  "Order":0,
  "ClassJob":0
},
{
  "Id":96,
  "Name":"",
  "Icon":0,
  "Category":0,
  "Order":0,
  "ClassJob":0
},
{
  "Id":97,
  "Name":"",
  "Icon":0,
  "Category":0,
  "Order":0,
  "ClassJob":0
},
{
  "Id":98,
  "Name":"",
  "Icon":0,
  "Category":0,
  "Order":0,
  "ClassJob":0
},
{
  "Id":99,
  "Name":"",
  "Icon":0,
  "Category":0,
  "Order":0,
  "ClassJob":0
},
{
  "Id":100,
  "Name":"",
  "Icon":0,
  "Category":0,
  "Order":0,
  "ClassJob":0
}
]
