﻿[
{
  "Id":0,
  "Objective":""
},
{
  "Id":1,
  "Objective":"対象を討伐"
},
{
  "Id":2,
  "Objective":"目標物を入手"
},
{
  "Id":3,
  "Objective":"対象をせん滅"
},
{
  "Id":4,
  "Objective":"対象を追撃して倒せ"
},
{
  "Id":5,
  "Objective":"対象を弱らせて<br /><If(Equal(IntegerParameter(1),0))>エモート「なだめる」<Else/><Sheet(EventItem,IntegerParameter(1),0)/></If>を使って手懐けろ"
},
{
  "Id":6,
  "Objective":"<If(Equal(IntegerParameter(1),0))>対象を攻撃し<Else/><Sheet(EventItem,IntegerParameter(1),0)/>を使用し</If><br />正体を見破って討伐せよ"
},
{
  "Id":7,
  "Objective":"所定の地点を巡り、敵を撃退せよ"
},
{
  "Id":8,
  "Objective":"「妖異全集」の紙片を回収し<br />封じられた魔物を召喚して倒せ"
},
{
  "Id":9,
  "Objective":"エモート「手まねきする」を使って<br /><Sheet(BNpcName,IntegerParameter(1),0)/>を目的地まで導け"
},
{
  "Id":10,
  "Objective":"すべての目標地点を採集しつくせ<br />評価値により報酬ボーナス：<br />320以上　+25%<br />303以上　+10%<br />286以上　+05%"
},
{
  "Id":11,
  "Objective":"目標物を入手せよ"
},
{
  "Id":12,
  "Objective":"すべての目標地点を採集しつくし、目標物を入手せよ"
},
{
  "Id":13,
  "Objective":"すべての目標地点で、採集結果を記録せよ<br />評価値により報酬ボーナス：<br />160以上　+25%<br />152以上　+10%<br />143以上　+05%"
},
{
  "Id":14,
  "Objective":"依頼品を対象に設置せよ"
},
{
  "Id":15,
  "Objective":"目標物が足りない場合は任務失敗"
},
{
  "Id":16,
  "Objective":"目標地点を捜索"
},
{
  "Id":17,
  "Objective":"対象を誘い出して倒せ"
},
{
  "Id":18,
  "Objective":"すべての目標地点を採集しつくせ<br />評価値により報酬ボーナス：<br />479以上　+25%<br />454以上　+10%<br />429以上　+05%"
},
{
  "Id":19,
  "Objective":"すべての目標地点で、採集結果を記録せよ<br />評価値により報酬ボーナス：<br />240以上　+25%<br />227以上　+10%<br />215以上　+05%"
},
{
  "Id":20,
  "Objective":"出現する魔物を倒して<br />「妖異全集」の紙片を回収し<br />封じられた魔物を召喚して倒せ"
},
{
  "Id":21,
  "Objective":"進捗率"
},
{
  "Id":22,
  "Objective":"巡回した目的地"
},
{
  "Id":23,
  "Objective":"弱らせずに懐柔を試みると<br />対象が興奮状態に陥るため注意せよ<br />懐柔対象を倒すと任務失敗"
},
{
  "Id":24,
  "Objective":"<Sheet(BNpcName,IntegerParameter(1),0)/>を倒すと手に入る<br /><Sheet(EventItem,IntegerParameter(2),0)/>を使用し<br />魔物の正体を見破れ"
},
{
  "Id":25,
  "Objective":"<Sheet(BNpcName,IntegerParameter(1),0)/>が倒されると任務失敗"
},
{
  "Id":26,
  "Objective":"対象を守りつつ敵を撃退せよ"
},
{
  "Id":27,
  "Objective":"制限時間内に、より多くの敵を倒せ"
},
{
  "Id":28,
  "Objective":"<Sheet(EventItem,IntegerParameter(1),0)/>の保有者を発見し<br />正体を見破って倒せ"
},
{
  "Id":29,
  "Objective":""
},
{
  "Id":30,
  "Objective":"増援を呼び出す敵を倒せ"
},
{
  "Id":31,
  "Objective":"失敗条件：目標討伐数に達しない"
},
{
  "Id":32,
  "Objective":"エモート「<If(Equal(IntegerParameter(1),1))>つつく<Else/>問い詰める</If>」に反応した敵を倒し<br /><Sheet(EventItem,IntegerParameter(2),0)/>を入手せよ"
},
{
  "Id":33,
  "Objective":"失敗条件：<Sheet(BNpcName,IntegerParameter(1),0)/>が全て失われる"
},
{
  "Id":34,
  "Objective":"<Sheet(BNpcName,IntegerParameter(1),0)/>から手に入る<br /><Sheet(EventItem,IntegerParameter(2),0)/>を<Sheet(EObj,IntegerParameter(3),0)/>に使用し<br /><Sheet(BNpcName,IntegerParameter(4),0)/>を誘い出せ"
},
{
  "Id":35,
  "Objective":"弱らせずに懐柔を試みると<br />対象が興奮状態に陥るため注意せよ"
}
]
