﻿[
{
  "Id":0,
  "Objective":""
},
{
  "Id":1,
  "Objective":"Besiege die Gegner"
},
{
  "Id":2,
  "Objective":"Besorge die Gegenstände"
},
{
  "Id":3,
  "Objective":"Vernichte alle Gegner"
},
{
  "Id":4,
  "Objective":"Verfolge und vernichte alle Gegner"
},
{
  "Id":5,
  "Objective":"Schwäche den Gegner und besänftige ihn <If(Equal(IntegerParameter(1),0))>mit dem Emote „Beruhigen“<Else/>mit <SheetDe(EventItem,5,IntegerParameter(1),2,3,1)/></If>"
},
{
  "Id":6,
  "Objective":"<If(Equal(IntegerParameter(1),0))>Greif an<Else/>Benutze <SheetDe(EventItem,5,IntegerParameter(1),2,4,1)/></If>, um die Gegner zu enttarnen, und besiege sie"
},
{
  "Id":7,
  "Objective":"Beseitige die Gegner im Zielgebiet"
},
{
  "Id":8,
  "Objective":"Sammle die Seiten des „Nekrologs“ und besiege das daraus erscheinende Monster"
},
{
  "Id":9,
  "Objective":"Geleite <SheetDe(BNpcName,2,IntegerParameter(1),1,4,1)/> zum Ziel"
},
{
  "Id":10,
  "Objective":"Sammle die Gegenstände in allen Zielgebieten<br />Bonus für Bewertung von<br />min. 320: +25 %<br />min. 303: +10 %<br />min. 286: +5 %"
},
{
  "Id":11,
  "Objective":"Besorge die Gegenstände"
},
{
  "Id":12,
  "Objective":"Gehe in alle Zielgebiete und besorge die Gegenstände"
},
{
  "Id":13,
  "Objective":"Vermerke die Sammelarbeiten<br />Bonus für Bewertung von<br />min. 160: +25 %<br />min. 152: +10 %<br />min. 143: +5 %"
},
{
  "Id":14,
  "Objective":"Bring das Geforderte am Zielobjekt an"
},
{
  "Id":15,
  "Objective":"Bei zu wenigen Gegenständen scheitert die Mission"
},
{
  "Id":16,
  "Objective":"Such am Zielort"
},
{
  "Id":17,
  "Objective":"Lock das Ziel hervor und vernichte es."
},
{
  "Id":18,
  "Objective":"Sammle die Gegenstände in allen Zielgebieten<br />Bonus für Bewertung von<br />min. 479: +25 %<br />min. 454: +10 %<br />min. 429: +5 %"
},
{
  "Id":19,
  "Objective":"Untersuche alle Zielgebiete<br />Bonus für Bewertung von<br />min. 240: +25 %<br />min. 227: +10 %<br />min. 215: +5 %"
},
{
  "Id":20,
  "Objective":"Sammle die Seiten des „Nekrologs“ und besiege das daraus erscheinende Monster"
},
{
  "Id":21,
  "Objective":"Fortschritt"
},
{
  "Id":22,
  "Objective":"Abgesuchte Gebiete"
},
{
  "Id":23,
  "Objective":"Schwäche das Ziel vorm Besänftigen, aber schlag es nicht k. o. "
},
{
  "Id":24,
  "Objective":"Ringe <SheetDe(BNpcName,2,IntegerParameter(1),2,3,1)/> <SheetDe(EventItem,5,IntegerParameter(2),2,4,1)/> ab, um Monster zu enttarnen"
},
{
  "Id":25,
  "Objective":"Wenn <SheetDe(BNpcName,2,IntegerParameter(1),1,1,1)/> k. o. geht, scheitert die Mission"
},
{
  "Id":26,
  "Objective":"Beschütze das Missionsobjekt und besiege die Gegner"
},
{
  "Id":27,
  "Objective":"Besiege so viele Gegner wie möglich"
},
{
  "Id":28,
  "Objective":"Finde den Gegner mit <SheetDe(EventItem,5,IntegerParameter(1),2,3,1)/> und besiege ihn"
},
{
  "Id":29,
  "Objective":""
},
{
  "Id":30,
  "Objective":"Besiege die Gegner, die Verstärkung rufen"
},
{
  "Id":31,
  "Objective":"Bei zu wenig besiegten Gegnern scheitert die Mission"
},
{
  "Id":32,
  "Objective":"Besiege Gegner, die auf das <If(Equal(IntegerParameter(1),1))>/stups<Else/>/schuld</If> Emote reagieren und sammle <SheetDe(EventItem,2,IntegerParameter(2),2,4,1)/> auf."
},
{
  "Id":33,
  "Objective":"Mission misslingt, wenn alle <SheetDe(BNpcName,5,IntegerParameter(1),2,1,1)/> verloren gehen"
},
{
  "Id":34,
  "Objective":"Benutze <SheetDe(EventItem,2,IntegerParameter(2),2,4,1)/> von <SheetDe(BNpcName,2,IntegerParameter(1),2,3,1)/> an <SheetDe(EObj,2,IntegerParameter(3),2,3,1)/>, um <SheetDe(BNpcName,5,IntegerParameter(4),2,4,1)/> anzulocken"
},
{
  "Id":35,
  "Objective":"Schwäche das Ziel vor dem Besänftigen, sonst rastet es aus"
}
]
