﻿[
{
  "Id":0,
  "Name":""
},
{
  "Id":1,
  "Name":"Client: 2nd Levy Infantry, Yellowjacket Sergeant Sylskaetsyn"
},
{
  "Id":2,
  "Name":"Client: Brugaire Consortium Warehouse Foreman, Wynstin Walder"
},
{
  "Id":3,
  "Name":"Client: Test"
},
{
  "Id":4,
  "Name":"Client: Moogle's Gift Mounts"
},
{
  "Id":5,
  "Name":"Client: Moogle's Gift Mounts Stablehand, Audrie Clovenfoot"
},
{
  "Id":6,
  "Name":"Client: Stillglade Fane "
},
{
  "Id":7,
  "Name":"Client: Vivandier, Ayled the Steadfast"
},
{
  "Id":8,
  "Name":"Client: Buscarron's Druthers Proprietor, Buscarron Strongarm"
},
{
  "Id":9,
  "Name":"Client: Black Rabbit Traders Consignor, Maisenta Hawke"
},
{
  "Id":10,
  "Name":"Client: Third Spear Wood Wailers"
},
{
  "Id":11,
  "Name":"Client: Fourth Spear Wood Wailers"
},
{
  "Id":12,
  "Name":"Client: Fifth Spear Wood Wailers"
},
{
  "Id":13,
  "Name":"Client: Fifth Spear Wood Wailer, Juliembert Loitalant"
},
{
  "Id":14,
  "Name":"Client: Residents of Quarrymill"
},
{
  "Id":15,
  "Name":"Client: Greatloam Growery"
},
{
  "Id":16,
  "Name":"Client: The Trappers' League"
},
{
  "Id":17,
  "Name":"Client: Master Gabineaux"
},
{
  "Id":18,
  "Name":"Client: First Spear Wood Wailers"
},
{
  "Id":19,
  "Name":"Client: First Spear Wood Wailer, Lanverlais the Lawful"
},
{
  "Id":20,
  "Name":"Client: Trappers' League Huntsman, Eugenaire the Grey"
},
{
  "Id":21,
  "Name":"Client: 1st Bow of the Quiver's Centaurs, Galfrid Mossback"
},
{
  "Id":22,
  "Name":"Client: Botanists' Guild, Master Gabineaux"
},
{
  "Id":23,
  "Name":"Client: Botanists' Guild Receptionist, Leonceault Leadthumb"
},
{
  "Id":24,
  "Name":"Client: Stillglade Fane Conjurer, Sister Alixie"
},
{
  "Id":25,
  "Name":"Client: 3rd Bow of the Quiver's Centaurs, Maurelin Modreaux"
},
{
  "Id":26,
  "Name":"Client: Moogle's Gift Mounts Stablehand, Margault Shortmane"
},
{
  "Id":27,
  "Name":"Client: Third Spear Wood Wailer, Eylgar the Sullen"
},
{
  "Id":28,
  "Name":"Client: Moogle's Gift Mounts Stablehand, Gustavain Gysahlheart"
},
{
  "Id":29,
  "Name":"Client: Stillglade Fane Conjurer, Brother Waldew"
},
{
  "Id":30,
  "Name":"Client: Fourth Spear Wood Wailer, Florimond the Fleet"
},
{
  "Id":31,
  "Name":"Client: Buscarron's Druthers Proprietor, Buscarron Strongarm"
},
{
  "Id":32,
  "Name":"Client: Fullflower Comb Beekeeper, Rosa Hawthorne"
},
{
  "Id":33,
  "Name":"Client: Forest Dweller, Ysabel Hawthorne"
},
{
  "Id":34,
  "Name":"Client: Homestead Owner, Rolfe Hawthorne"
},
{
  "Id":35,
  "Name":"Client: Fifth Spear Wood Wailer, Balan the Keen"
},
{
  "Id":36,
  "Name":"Client: Quarrymill Resident, Ombeline Delieux"
},
{
  "Id":37,
  "Name":"Client: Moogleborn Melodymaker, Kupni Kapp"
},
{
  "Id":38,
  "Name":"Client: Stillglade Fane Conjurer, Sister Charline"
},
{
  "Id":39,
  "Name":"Client: Quarrymill Resident, Alderique Lebronc"
},
{
  "Id":40,
  "Name":"Client: Third Spear Wood Wailer, Averay the Ardent"
},
{
  "Id":41,
  "Name":"Client: Stillglade Fane Conjurer, Brother Adestan"
},
{
  "Id":42,
  "Name":"Client: Good Gobbie, Guttrix Sliverpicks"
},
{
  "Id":43,
  "Name":"Client: Seeker of Antiquity, Rolandaix of House Nevelle"
},
{
  "Id":44,
  "Name":"Client: Second Spear Wood Wailer, Pimoh Nelhah"
},
{
  "Id":45,
  "Name":"Client: Fifth Spear Wood Wailer, Castellaint the Careful"
},
{
  "Id":46,
  "Name":"Client: Red Rooster Stead Landlord, Anaoc the Youngest"
},
{
  "Id":47,
  "Name":"Client: Red Rooster Stead Botanist, Arenlona of the Dawn Meadow"
},
{
  "Id":48,
  "Name":"Client: Red Rooster Stead Shepherd, Moegramm Sheepsong"
},
{
  "Id":49,
  "Name":"Client: Grey Fleet High Miller, Weitzaren Flazmarmsyn"
},
{
  "Id":50,
  "Name":"Client: <Emphasis>Orion</Emphasis> Captain, Ahldskyf the Eld"
},
{
  "Id":51,
  "Name":"Client: Swiftperch Housebond, Lyulf the Swollen"
},
{
  "Id":52,
  "Name":"Client: Wawalago's Pullers Shoalskimmer, Faucillien"
},
{
  "Id":53,
  "Name":"Client: 2nd Levy Infantry, Yellowjacket Private Ancreta Ilm"
},
{
  "Id":54,
  "Name":"Client: 2nd Levy Infantry, Yellowjacket Sergeant Sylskaetsyn"
},
{
  "Id":55,
  "Name":"Client: 3rd Levy Infantry, Yellowjacket Private Fraeloefsyn"
},
{
  "Id":56,
  "Name":"Client: 3rd Levy Infantry, Yellowjacket Private Hyllbornsyn"
},
{
  "Id":57,
  "Name":"Client: 4th Levy Infantry, Yellowjacket Major Y'alabali Gojah"
},
{
  "Id":58,
  "Name":"Client: Aleport Brewery, Myndeidin Three-barrels"
},
{
  "Id":59,
  "Name":"Client: Aleport Brewery, O'adebh Jhah"
},
{
  "Id":60,
  "Name":"Client: Candlekeep Quay Portermaster, Haldbroda Nortnystsyn"
},
{
  "Id":61,
  "Name":"Client: Gegeruju Manor Majordomo, Gugudi Gudi"
},
{
  "Id":62,
  "Name":"Client: Gegeruju Manor Guard, Wheiskaet Saeskyfsyn"
},
{
  "Id":63,
  "Name":"Client: Naldiq & Vymelli's Smith, Maetimynd Hammerhands"
},
{
  "Id":64,
  "Name":"Client: Naturalist, Isouda Kindle"
},
{
  "Id":65,
  "Name":"Client: Flying Shark Proprietor, Dyrstweitz the Daft"
},
{
  "Id":66,
  "Name":"Client: Memeroon's Trading Post Proprietor, Memeroon"
},
{
  "Id":67,
  "Name":"Client: Mealvaan's Gate Log Assessor, P'tahjha Stah"
},
{
  "Id":68,
  "Name":"Client: Wineport Vigneron, Syzfrusk Wiltwilfsyn"
},
{
  "Id":69,
  "Name":"Client: Wineport Winemaker, E'bandala Dajha"
},
{
  "Id":70,
  "Name":"Client: Amajina & Sons Minekeep, Adelard the Able"
},
{
  "Id":71,
  "Name":"Client: Amajina & Sons Miner, Crooked Haft"
},
{
  "Id":72,
  "Name":"Client: Amajina & Sons Minekeep, Linette"
},
{
  "Id":73,
  "Name":"Client: Amajina & Sons Minemaster, Drunken Stag"
},
{
  "Id":74,
  "Name":"Client: Naturalist, Marcette Manne"
},
{
  "Id":75,
  "Name":"Client: Mun-Tuy Cellars Masher, Erimmont Blackfoot"
},
{
  "Id":76,
  "Name":"Client: Bismarck Guildmaster, Lyngsath Doesfalksyn"
},
{
  "Id":77,
  "Name":"Client: Pipikkuli the Poor"
},
{
  "Id":78,
  "Name":"Client: East Aldenard Trading Accountant, Shushunen Bubunen"
},
{
  "Id":79,
  "Name":"Client: Goldsmiths' Guild Luminary, Aurumheart Aewuld"
},
{
  "Id":80,
  "Name":"Client: Order of Nald'thal Deacon, Airell Finn"
},
{
  "Id":81,
  "Name":"Client: Order of Nald'thal Bishop, Lilimolu Gigimolu"
},
{
  "Id":82,
  "Name":"Client: Anonymous"
},
{
  "Id":83,
  "Name":"Client: Seventy-Seven Caravans Dispatch, Guntram Greenbank"
},
{
  "Id":84,
  "Name":"Client: Sultansworn Knight, Aubelet Whiteblade"
},
{
  "Id":85,
  "Name":"Client: Brass Blades, Solitary Elk of the Rose"
},
{
  "Id":86,
  "Name":"Client: Frondale's Phrontistery Alchemist, Alewyn Alder"
},
{
  "Id":87,
  "Name":"Client: Brass Blades, Kokobi Kobi of the Balsam"
},
{
  "Id":88,
  "Name":"Client: Seventy-Seven Caravans Dispatch, Zuzutyro Nanatyro"
},
{
  "Id":89,
  "Name":"Client: Brass Blades, Chechezan Yayazan of the Rose"
},
{
  "Id":90,
  "Name":"Client: Arrzaneth Ossuary Bonekeeper, Yayake Yake"
},
{
  "Id":91,
  "Name":"Client: Amajina & Sons Minemaster, Drunken Stag"
},
{
  "Id":92,
  "Name":"Client: Independent Historian, Havak Alvak"
},
{
  "Id":93,
  "Name":"Client: Brass Blades, Aalot Rand of the Orchid"
},
{
  "Id":94,
  "Name":"Client: Seventy-Seven Caravans Dispatch, Tutusi Tusi"
},
{
  "Id":95,
  "Name":"Client: Little Ala Mhigo Resident, Grifiud the Proud"
},
{
  "Id":96,
  "Name":"Client: Brass Blades, Ryumomo Qimomo of the Lotus"
},
{
  "Id":97,
  "Name":"Client: Order of Nald'thal Bishop, Mamane Mane"
},
{
  "Id":98,
  "Name":"Client: Maelstrom Command, Board of Shipwrights"
},
{
  "Id":99,
  "Name":"Client: Maelstrom Command"
},
{
  "Id":100,
  "Name":"Client: Maelstrom Foreign Levy"
},
{
  "Id":101,
  "Name":"Client: Maelstrom Command, Board of Engineers"
},
{
  "Id":102,
  "Name":"Client: The Maelstrom Black Sails"
},
{
  "Id":103,
  "Name":"Client: The Order of the Twin Adder Black Boars"
},
{
  "Id":104,
  "Name":"Client: The Order of the Twin Adder Blue Badgers"
},
{
  "Id":105,
  "Name":"Client: The Order of the Twin Adder Red Otters"
},
{
  "Id":106,
  "Name":"Client: The Order of the Twin Adder White Wolves"
},
{
  "Id":107,
  "Name":"Client: The Immortal Flames Ala Mhigan Brigade"
},
{
  "Id":108,
  "Name":"Client: The Immortal Flames 1st Corps of Engineers"
},
{
  "Id":109,
  "Name":"Client: The Immortal Flames 2nd Main Brigade"
},
{
  "Id":110,
  "Name":"Client: The Immortal Flames Bloodsworn"
},
{
  "Id":111,
  "Name":"Client: The Immortal Flames Foreign Brigade"
},
{
  "Id":112,
  "Name":"Client: The Immortal Flames 3rd Main Brigade"
},
{
  "Id":113,
  "Name":"Client: Gegeruju Shipping Head Clerk, Ririphon Liliphon"
},
{
  "Id":114,
  "Name":"Client: Brugaire Consortium Vice-chairman, Bango Zango"
},
{
  "Id":115,
  "Name":"Client: Red Rooster Stead Smallholder, Zwynwyda the Tall"
},
{
  "Id":116,
  "Name":"Client: Independent Exporter, Fewon Bulion"
},
{
  "Id":117,
  "Name":"Client: <Emphasis>Ice Princess</Emphasis> Captain H'rhanbolo Oya"
},
{
  "Id":118,
  "Name":"Client: Ashgana Exports, Baron Roarich"
},
{
  "Id":119,
  "Name":"Client: Seventy-Seven Caravans Dispatch, Gigiyon"
},
{
  "Id":120,
  "Name":"Client: Seventy-Seven Caravans Dispatch, Mimina Mina"
},
{
  "Id":121,
  "Name":"Client: Seventy-Seven Caravans Dispatch, Frediswitha"
},
{
  "Id":122,
  "Name":"Client: Independent Sutler, Vivenne Pamisolaux"
},
{
  "Id":123,
  "Name":"Client: Independent Sutler, Lanquairt the Lean"
},
{
  "Id":124,
  "Name":"Client: Sons of Saint Coinach Cataloger, Syele Steele"
},
{
  "Id":125,
  "Name":"Client: Independent Sutler, Duvicauroix Dariustel"
},
{
  "Id":126,
  "Name":"Client: Holy See of Ishgard Temple Knight Marcelain the Meek"
},
{
  "Id":127,
  "Name":"Client: Observatorium Astrologian, Edmelle Lothaire"
},
{
  "Id":128,
  "Name":"Client: House Fortemps Knight, Arthurioux the Bear"
},
{
  "Id":129,
  "Name":"Client: Coliseum Coincounter, Uwilsyng Hollkoensyn"
},
{
  "Id":130,
  "Name":"Client: Sons of Saint Coinach Anthropogeographer, Rammbroes"
},
{
  "Id":131,
  "Name":"Client: Sons of Saint Coinach Bone Sifter, Nazyl Duzyl"
},
{
  "Id":132,
  "Name":"Client: The Order of the Twin Adder Yellow Serpents"
},
{
  "Id":133,
  "Name":"Client: Amajina & Sons Miner, Blanbroes "
},
{
  "Id":134,
  "Name":"Client: Amajina & Sons Minekeep, Eight Lives Irmengard"
},
{
  "Id":135,
  "Name":"Client: House Haillenarte Knight, Prairillot the Silver"
},
{
  "Id":136,
  "Name":"Client: Astroscope Engineer, Aimiliens Ouraux"
},
{
  "Id":137,
  "Name":"Client: Snowcloak Expeditionary Unit, Lancefer Hortimont"
},
{
  "Id":138,
  "Name":"Client: House Fortemps Knight, Corentiaux the Colder"
},
{
  "Id":139,
  "Name":"Client: House Durendaire Knight, Brunadier of the Blue Bell"
},
{
  "Id":140,
  "Name":"Client: House Durendaire Housebond, Hanrieaux"
},
{
  "Id":141,
  "Name":"Client: Cultured Culinarian, Unsynwilf Greensleeves"
},
{
  "Id":142,
  "Name":"Client: Wholesale Trader, Silvertail Q'molosi"
},
{
  "Id":143,
  "Name":"Client: Fupepe and Associates Brokerage Owner, Fupepe Fupe"
},
{
  "Id":144,
  "Name":"Client: Twelveswood Fisher, Daca Jinjahl"
},
{
  "Id":145,
  "Name":"Client: Gegeruju Manor Retainer, F'abodji Nhal"
},
{
  "Id":146,
  "Name":"Client: Mountain Skyfisher, Drividot Shortline"
},
{
  "Id":147,
  "Name":"Client: Wholesale Trader, Louviaune of the Lake"
},
{
  "Id":148,
  "Name":"Client: Sons of Saint Coinach Cataloger, Clifton Crabbe"
},
{
  "Id":149,
  "Name":"Client: Quarrymill Resident, Aedoc the Ailing"
},
{
  "Id":150,
  "Name":"Client: Wawalago's Pullers Shoalskimmer, Bloemerl"
},
{
  "Id":151,
  "Name":"Client: Temple Knights Second Commander Ser Handeloup"
},
{
  "Id":152,
  "Name":"Client: Order of the Friars Templar, Brother Padilloux"
},
{
  "Id":153,
  "Name":"Client: Temple Knights Minister of Coin, Amianne Tristelle"
},
{
  "Id":154,
  "Name":"Client: Temple Knights Hospitalier Captain Abel Whitecape"
},
{
  "Id":155,
  "Name":"Client: Holy Inquisitor Gaidelie the Just"
},
{
  "Id":156,
  "Name":"Client: Ser Brucemont of the Knights Dragoon"
},
{
  "Id":157,
  "Name":"Client: Temple Knights First Commander Ser Lucia"
},
{
  "Id":158,
  "Name":"Client: Ironworks Engineer, Lowell Tanner"
},
{
  "Id":159,
  "Name":"Client: Traveling Scholar, Tanga Tonga"
},
{
  "Id":160,
  "Name":"Client: Resistance Sapper, Imblen the Mole"
},
{
  "Id":161,
  "Name":"Client: Ugan Akiudo, Dealer in Stone and Metal"
},
{
  "Id":162,
  "Name":"Client: Sagan Akiudo, Dealer in Lumber and Lumber"
},
{
  "Id":163,
  "Name":"Client: Hairpin Crafter, Fuyo Kaneuchi"
},
{
  "Id":164,
  "Name":"Client: He Who Weeps for Doma"
},
{
  "Id":165,
  "Name":"Client: Independent Weaponsmith, Sekka Furukane"
},
{
  "Id":166,
  "Name":"Client: Hingan Physicker, Steady Hand Tsugomori"
},
{
  "Id":167,
  "Name":"Client: Little Ala Mhigo Leader, Gundobald the Resolute"
},
{
  "Id":168,
  "Name":"Client: Ala Gannha Village Elder, Ragnafrid the Old"
},
{
  "Id":169,
  "Name":"Client: Resistance Fighter, Gisela the Unfortunate"
},
{
  "Id":170,
  "Name":"Client: Resistance Infirmary Healer, Orella Heavenstouch"
},
{
  "Id":171,
  "Name":"Client: Botanists' Guild Guildmaster, Fufucha Fucha"
},
{
  "Id":172,
  "Name":"Client: East Aldenard Trading Company Associate, Kikimo Kimo"
},
{
  "Id":173,
  "Name":"Client: Peering Stones Chief, M'rahz Nunh"
},
{
  "Id":174,
  "Name":"Client: Humble Shopkeep, Kuzubana Kasanui"
},
{
  "Id":175,
  "Name":"Client: Independent Arms Dealer, Kanamari Six Knives"
},
{
  "Id":176,
  "Name":"Client: Daitenya Attendant, Yagiri Kawanami"
},
{
  "Id":177,
  "Name":"Client: Writer and Ul'dahn Dignitary, Liliju Liju"
},
{
  "Id":178,
  "Name":"Client: Sekiseigumi Coincounter, Shimoyo Quickfingers"
},
{
  "Id":179,
  "Name":"Client: <Emphasis>Imperial Princess</Emphasis> Captain, Jubleel of House Hazaar"
},
{
  "Id":180,
  "Name":"Client: Gigas Forge Merchant, C'ndanya Ahlk"
},
{
  "Id":181,
  "Name":"Client: Formalwear Rentals, Kotobuki Chosai"
},
{
  "Id":182,
  "Name":"Client: Hingan Metalsmith, Unryu the Stubborn"
},
{
  "Id":183,
  "Name":"Client: Sekiseigumi Potwatch, Sangoya Blackbottom"
},
{
  "Id":184,
  "Name":"Client: Mujikoza Stagehand, Iskua Gakunin"
},
{
  "Id":185,
  "Name":"Client: Umineko Teahouse Proprietress, Ume Kaujin "
},
{
  "Id":186,
  "Name":"Client: Shiokaze Hostelry Proprietress, Kotokaze Benitoki"
},
{
  "Id":187,
  "Name":"Client: Thavnairian Consulate Clerk, Bharifhal Dzak"
},
{
  "Id":188,
  "Name":"Client: Akamatsu-tei Proprietress, Saeda the Silken"
},
{
  "Id":189,
  "Name":"Client: Seifu's Temple of Tomes, Seifu the Well-read"
},
{
  "Id":190,
  "Name":"Client: Struggling Materia Melder, Clerebold the Cracked"
},
{
  "Id":191,
  "Name":"Client: Traveling Salesman, Tazuna Fleet-of-Foot"
},
{
  "Id":192,
  "Name":"Client: Bakufu-approved Salesman, Tazuna "
},
{
  "Id":193,
  "Name":"Client: Hyrstmill Resident, Albreda Pike"
},
{
  "Id":194,
  "Name":"Client: Kojin Importer, Soroban "
},
{
  "Id":195,
  "Name":"Client: Wandering Stairs Proprietor, Glynard"
},
{
  "Id":196,
  "Name":"Client: Spagyrics Chief Chirurgeon, Chessamile "
},
{
  "Id":197,
  "Name":"Client: Independent Kholusian Trader, Spadden"
},
{
  "Id":198,
  "Name":"Client: Facet of Forging Apprentice, Hakon"
},
{
  "Id":199,
  "Name":"Client: Facet of Gathering Deputy Chief, Tatcha"
},
{
  "Id":200,
  "Name":"Client: Ballistics Engineer, Soe-Rend"
},
{
  "Id":201,
  "Name":"Client: Facet of Forging Journeyman, Hakon"
},
{
  "Id":202,
  "Name":"Client: Facet of Forging Forgemaster, Hakon"
},
{
  "Id":203,
  "Name":"Client: Facet of Forging Famed Forgemaster, Hakon"
},
{
  "Id":204,
  "Name":"Client: Independent Legendary Forgemaster, Hakon"
},
{
  "Id":205,
  "Name":"Client: Hortorium Researcher, Edendreda"
},
{
  "Id":206,
  "Name":"Client: Facet of Nourishing Apprentice, Saulfort"
},
{
  "Id":207,
  "Name":"Client: Facet of Fishing Deputy Chief, Vrue-Shirr"
},
{
  "Id":208,
  "Name":"Client: Facet of Nourishing Journeyman, Saulfort"
},
{
  "Id":209,
  "Name":"Client: Facet of Nourishing Master Culinarian, Saulfort"
},
{
  "Id":210,
  "Name":"Client: Facet of Nourishing Famed Culinarian, Saulfort"
},
{
  "Id":211,
  "Name":"Client: Facet of Nourishing Exceedingly Famed Culinarian, Saulfort"
},
{
  "Id":212,
  "Name":"Client: Facet of Crafting Influential Artisan, Owell"
},
{
  "Id":213,
  "Name":"Client: Facet of Fishing Master Fisherman, Mervyl "
},
{
  "Id":214,
  "Name":"Client: Caravan Leader, Cassard"
},
{
  "Id":215,
  "Name":"Client: Crystarium Guard Officer, Pitrig "
},
{
  "Id":216,
  "Name":"Client: The Bellows Smith, Eismon"
},
{
  "Id":217,
  "Name":"Client: Steelskins Proprietor, Doddard"
},
{
  "Id":218,
  "Name":"Client: Cabinet of Curiosity Librarian, Moren"
},
{
  "Id":219,
  "Name":"Client: Hack and Slash Proprietor, Shai-Tistt"
},
{
  "Id":220,
  "Name":"Client: Sweetsieve Senior Groundskeeper, Tobyl"
},
{
  "Id":221,
  "Name":"Client: The Second Serving Proprietor, Hanji-Fae"
},
{
  "Id":222,
  "Name":"Client: The Bellows Forgemaster, Iola"
},
{
  "Id":223,
  "Name":"Client: Facet of Nourishing Overseer, Bethric"
},
{
  "Id":224,
  "Name":"Client: The Catenaries Manager, Sylgham"
},
{
  "Id":225,
  "Name":"Client: Musica Universalis Master of the Markets, Bragi"
},
{
  "Id":226,
  "Name":"Client: Crystalline Mean Director, Katliss"
},
{
  "Id":227,
  "Name":"Client: Enigmatic Sphere of Wonder, Noddy"
},
{
  "Id":228,
  "Name":"Client: Wonderhall Proprietor, Ania"
},
{
  "Id":229,
  "Name":"Client: Lady of House Leveilleur, Ameliance Leveilleur"
},
{
  "Id":230,
  "Name":"Client: Anonymous Albright Manor Servant"
},
{
  "Id":231,
  "Name":"Client: The Last Stand Proprietor, Dickon"
},
{
  "Id":232,
  "Name":"Client: Fervent Forgemaster, Kokkol Dankkol"
},
{
  "Id":233,
  "Name":"Client: Footwear Enthusiast, Chapas Porpas"
},
{
  "Id":234,
  "Name":"Client: Gleaners' Guildship Envoy, Erenville"
},
{
  "Id":235,
  "Name":"Client: Council Archon, Sakoko"
},
{
  "Id":236,
  "Name":"Client: Studium Associate Professor in Engineering, Gaelle"
},
{
  "Id":237,
  "Name":"Client: Studium First-year Pupil, Benger"
},
{
  "Id":238,
  "Name":"Client: Faculty of Medicine Professor, Galveroche"
},
{
  "Id":239,
  "Name":"Client: Studium Theater Society Director, Bevis"
},
{
  "Id":240,
  "Name":"Client: Studium Substitute History Lecturer, Snoeharr"
},
{
  "Id":241,
  "Name":"Client: Searchers' Meet Administrator, Qih Aliapoh"
},
{
  "Id":242,
  "Name":"Client: Anonymous Female Studium Pupil"
},
{
  "Id":243,
  "Name":"Client: Anonymous Male Studium Pupil"
},
{
  "Id":244,
  "Name":"Client: Noumenon Librarian, Isilswys"
},
{
  "Id":245,
  "Name":"Client: Physis Technon Sage, Towering Sky"
},
{
  "Id":246,
  "Name":"Client: The Confluence Lead Researcher, Avalbane"
},
{
  "Id":247,
  "Name":"Client: Full Plate Armoire Proprietor, Y'sohnjin"
},
{
  "Id":248,
  "Name":"Client: Aspiring Studium Pupil, Benger"
},
{
  "Id":249,
  "Name":"Client: Studium Biology Professor, Waguda Mabaguda"
},
{
  "Id":250,
  "Name":"Client: Passemerrant Pasturponics Researcher, Resolute Swan"
},
{
  "Id":251,
  "Name":"Client: Labyrinthos Deputy Chief Administrator, Stymmwaen"
},
{
  "Id":252,
  "Name":"Client: Gem and Mineral Enthusiast, Tyago Tayuun"
},
{
  "Id":253,
  "Name":"Client: Kokkol's Forgehand, Opal Fog"
},
{
  "Id":254,
  "Name":"Client: Regular Last Stand Customer, Mikac"
},
{
  "Id":255,
  "Name":"Client: Faculty of Aetherology Graduate Student, Aubracie"
},
{
  "Id":256,
  "Name":"Client: <Emphasis>Bibliotheca Historica</Emphasis> Compiler, Godfroy"
},
{
  "Id":257,
  "Name":""
},
{
  "Id":258,
  "Name":""
},
{
  "Id":259,
  "Name":""
},
{
  "Id":260,
  "Name":""
},
{
  "Id":261,
  "Name":""
},
{
  "Id":262,
  "Name":""
},
{
  "Id":263,
  "Name":""
},
{
  "Id":264,
  "Name":""
},
{
  "Id":265,
  "Name":""
},
{
  "Id":266,
  "Name":""
},
{
  "Id":267,
  "Name":""
},
{
  "Id":268,
  "Name":""
},
{
  "Id":269,
  "Name":""
},
{
  "Id":270,
  "Name":""
},
{
  "Id":271,
  "Name":""
},
{
  "Id":272,
  "Name":""
},
{
  "Id":273,
  "Name":""
},
{
  "Id":274,
  "Name":""
},
{
  "Id":275,
  "Name":""
},
{
  "Id":276,
  "Name":""
},
{
  "Id":277,
  "Name":""
},
{
  "Id":278,
  "Name":""
},
{
  "Id":279,
  "Name":""
},
{
  "Id":280,
  "Name":""
},
{
  "Id":281,
  "Name":""
},
{
  "Id":282,
  "Name":""
},
{
  "Id":283,
  "Name":""
},
{
  "Id":284,
  "Name":""
},
{
  "Id":285,
  "Name":""
},
{
  "Id":286,
  "Name":""
},
{
  "Id":287,
  "Name":""
},
{
  "Id":288,
  "Name":""
},
{
  "Id":289,
  "Name":""
},
{
  "Id":290,
  "Name":""
},
{
  "Id":291,
  "Name":""
},
{
  "Id":292,
  "Name":""
},
{
  "Id":293,
  "Name":""
},
{
  "Id":294,
  "Name":""
},
{
  "Id":295,
  "Name":""
},
{
  "Id":296,
  "Name":""
},
{
  "Id":297,
  "Name":""
},
{
  "Id":298,
  "Name":""
},
{
  "Id":299,
  "Name":""
},
{
  "Id":300,
  "Name":""
}
]
