﻿[
{
  "Id":0,
  "IsFaction":false,
  "Icon":0,
  "Name":""
},
{
  "Id":1,
  "IsFaction":false,
  "Icon":62501,
  "Name":"Söldner"
},
{
  "Id":2,
  "IsFaction":false,
  "Icon":62510,
  "Name":"Minenarbeiter"
},
{
  "Id":3,
  "IsFaction":false,
  "Icon":62511,
  "Name":"Gärtner"
},
{
  "Id":4,
  "IsFaction":false,
  "Icon":62512,
  "Name":"Fischer"
},
{
  "Id":5,
  "IsFaction":false,
  "Icon":62502,
  "Name":"Zimmerer"
},
{
  "Id":6,
  "IsFaction":false,
  "Icon":62503,
  "Name":"Grobschmied"
},
{
  "Id":7,
  "IsFaction":false,
  "Icon":62504,
  "Name":"Plattner"
},
{
  "Id":8,
  "IsFaction":false,
  "Icon":62505,
  "Name":"Goldschmied"
},
{
  "Id":9,
  "IsFaction":false,
  "Icon":62506,
  "Name":"Gerber"
},
{
  "Id":10,
  "IsFaction":false,
  "Icon":62507,
  "Name":"Weber"
},
{
  "Id":11,
  "IsFaction":false,
  "Icon":62508,
  "Name":"Alchemist"
},
{
  "Id":12,
  "IsFaction":false,
  "Icon":62509,
  "Name":"Gourmet"
},
{
  "Id":13,
  "IsFaction":true,
  "Icon":61451,
  "Name":"Bruderschaft der gebrochenen Klinge"
},
{
  "Id":14,
  "IsFaction":true,
  "Icon":61452,
  "Name":"Azeymas Schilde"
},
{
  "Id":15,
  "IsFaction":true,
  "Icon":61453,
  "Name":"Ruhmreicher Hörnerschall"
},
{
  "Id":16,
  "IsFaction":false,
  "Icon":61461,
  "Name":"Der Mahlstrom"
},
{
  "Id":17,
  "IsFaction":false,
  "Icon":61462,
  "Name":"Bruderschaft der Morgenviper"
},
{
  "Id":18,
  "IsFaction":false,
  "Icon":61463,
  "Name":"Legion der Unsterblichen"
}
]
