﻿[
{
  "Id":0,
  "Name":""
},
{
  "Id":1,
  "Name":"Auftraggeber: Gelbjackengefreiter Sylskaetsyn"
},
{
  "Id":2,
  "Name":"Auftraggeber: Wynstin Walder vom Bru<SoftHyphen/>gaire-Kon<SoftHyphen/>sor<SoftHyphen/>tium"
},
{
  "Id":3,
  "Name":"Auftraggeber: Test"
},
{
  "Id":4,
  "Name":"Auftraggeber: Gestüt „Mogry-Stolz“"
},
{
  "Id":5,
  "Name":"Auftraggeber: Audrie vom Gestüt „Mogry-Stolz“ "
},
{
  "Id":6,
  "Name":"Auftraggeber: Grotte der Versunkenen Gedanken"
},
{
  "Id":7,
  "Name":"Auftraggeber: Ayled Wangenrot, Schankwirt"
},
{
  "Id":8,
  "Name":"Auftraggeber: Buscarron, Schankwirt von „Buscarrons Horst“"
},
{
  "Id":9,
  "Name":"Auftraggeber: Maisenta vom Handelshaus „Schwarzer Hase“"
},
{
  "Id":10,
  "Name":"Auftraggeber: Klageregiment"
},
{
  "Id":11,
  "Name":"Auftraggeber: Klageregiment"
},
{
  "Id":12,
  "Name":"Auftraggeber: Klageregiment"
},
{
  "Id":13,
  "Name":"Auftraggeber: Juliembert vom Klageregiment"
},
{
  "Id":14,
  "Name":"Auftraggeber: Anwohner des Weilers Mühlenbruch"
},
{
  "Id":15,
  "Name":"Auftraggeber: Ährenkranzkolonie"
},
{
  "Id":16,
  "Name":"Auftraggeber: Jägergilde"
},
{
  "Id":17,
  "Name":"Auftraggeber: Gabineaux"
},
{
  "Id":18,
  "Name":"Auftraggeber: Klageregiment"
},
{
  "Id":19,
  "Name":"Auftraggeber: Lanverlais vom Klageregiment"
},
{
  "Id":20,
  "Name":"Auftraggeber: Eugenaire der Graue von der Jägergilde"
},
{
  "Id":21,
  "Name":"Auftraggeber: Hauptmann Galfrid"
},
{
  "Id":22,
  "Name":"Auftraggeber: Gabineaux"
},
{
  "Id":23,
  "Name":"Auftraggeber: Leonceault von der Gärtnergilde"
},
{
  "Id":24,
  "Name":"Auftraggeber: Alixie von der Druidengilde"
},
{
  "Id":25,
  "Name":"Auftraggeber: Maurelin von Nophicas Schar"
},
{
  "Id":26,
  "Name":"Auftraggeber: Margault vom Gestüt „Mogry-Stolz“"
},
{
  "Id":27,
  "Name":"Auftraggeber: Eylgar vom Klageregiment"
},
{
  "Id":28,
  "Name":"Auftraggeber: Gustavain vom Gestüt „Mogry-Stolz“"
},
{
  "Id":29,
  "Name":"Auftraggeber: Waldew von der Druidengilde"
},
{
  "Id":30,
  "Name":"Auftraggeber: Florimond vom Klageregiment"
},
{
  "Id":31,
  "Name":"Auftraggeber: Schankwirt Buscarron"
},
{
  "Id":32,
  "Name":"Auftraggeber: Rosa Hawthorne von der Imkerei Blütengold"
},
{
  "Id":33,
  "Name":"Auftraggeber: Ysabel Hawthorne"
},
{
  "Id":34,
  "Name":"Auftraggeber: Rolfe Hawthorne"
},
{
  "Id":35,
  "Name":"Auftraggeber: Balan vom Klageregiment"
},
{
  "Id":36,
  "Name":"Auftraggeber: Ombeline aus Mühlenbruch"
},
{
  "Id":37,
  "Name":"Auftraggeber: Mogry-Barde Kupni Kapp"
},
{
  "Id":38,
  "Name":"Auftraggeber: Charline von der Druidengilde"
},
{
  "Id":39,
  "Name":"Auftraggeber: Alderique aus Mühlenbruch"
},
{
  "Id":40,
  "Name":"Auftraggeber: Averay vom Klageregiment"
},
{
  "Id":41,
  "Name":"Auftraggeber: Adestan von der Druidengilde"
},
{
  "Id":42,
  "Name":"Auftraggeber: Guttrix Splitterpick"
},
{
  "Id":43,
  "Name":"Auftraggeber: Reliktjäger Rolandaix"
},
{
  "Id":44,
  "Name":"Auftraggeber: Pimoh Nelhah vom Klageregiment"
},
{
  "Id":45,
  "Name":"Auftraggeber: Castellaint vom Klageregiment"
},
{
  "Id":46,
  "Name":"Auftraggeber: Anaoc, Vorsteher der Gockelburg"
},
{
  "Id":47,
  "Name":"Auftraggeber: Arenlona von der Gockelburg"
},
{
  "Id":48,
  "Name":"Auftraggeber: Moegramm von der Gockelburg"
},
{
  "Id":49,
  "Name":"Auftraggeber: Weitzaren vom Windpark Graue Flotte"
},
{
  "Id":50,
  "Name":"Auftraggeber: Ahldskyf, Kapitän der <Emphasis>Orion</Emphasis>"
},
{
  "Id":51,
  "Name":"Auftraggeber: Lyulf von der Tölpelturm-Siedlung"
},
{
  "Id":52,
  "Name":"Auftraggeber: Faucillien von Wawalagos Reusenfischern"
},
{
  "Id":53,
  "Name":"Auftraggeber: Gelbjackeninfanterist Ancreta"
},
{
  "Id":54,
  "Name":"Auftraggeber: Gelbjackengefreiter Sylskaetsyn"
},
{
  "Id":55,
  "Name":"Auftraggeber: Gelbjackeninfanterist Fraeloefsyn"
},
{
  "Id":56,
  "Name":"Auftraggeber: Gelbjackeninfanterist Hyllbornsyn"
},
{
  "Id":57,
  "Name":"Auftraggeber: Gelbjackenhauptmann Y'alabali"
},
{
  "Id":58,
  "Name":"Auftraggeber: Braumeister Myndeidin vom Bierhafen"
},
{
  "Id":59,
  "Name":"Auftraggeber: Braumeisterin O'adebh vom Bierhafen"
},
{
  "Id":60,
  "Name":"Auftraggeber: Haldbroda vom Kerzenwacht-Kai "
},
{
  "Id":61,
  "Name":"Auftraggeber: Gugudi, Haushofmeister von Gegeruju"
},
{
  "Id":62,
  "Name":"Auftraggeber: Wheiskaet, Wachhauptmann von Gegeruju"
},
{
  "Id":63,
  "Name":"Auftraggeber: Maetimynd, Naldiq & Vymelli"
},
{
  "Id":64,
  "Name":"Auftraggeber: Naturforscherin Isouda"
},
{
  "Id":65,
  "Name":"Auftraggeber: Dyrstweitz, Besitzer des „Fliegender Haifisch“"
},
{
  "Id":66,
  "Name":"Auftraggeber: Memeroon, „Memeroon & Partner“"
},
{
  "Id":67,
  "Name":"Auftraggeber: Inspektorin P'tahjha, Mealvaaner Zollbehörde"
},
{
  "Id":68,
  "Name":"Auftraggeber: Winzer Syzfrusk vom Weinhafen"
},
{
  "Id":69,
  "Name":"Auftraggeber: Winzer E'bandala vom Weinhafen"
},
{
  "Id":70,
  "Name":"Auftraggeber: Adelard von der Amajina Bergbau AG"
},
{
  "Id":71,
  "Name":"Auftraggeber: Schiefer Griff von der Amajina Bergbau AG"
},
{
  "Id":72,
  "Name":"Auftraggeber: Linette von der Amajina Bergbau AG"
},
{
  "Id":73,
  "Name":"Auftraggeber: Berauschter Hirsch, Amajina Bergbau AG"
},
{
  "Id":74,
  "Name":"Auftraggeber: Naturforscherin Marcette"
},
{
  "Id":75,
  "Name":"Auftraggeber: Erimmont vom Mun-Tuy-Braukeller"
},
{
  "Id":76,
  "Name":"Auftraggeber: Lyngsath, Chefkoch im „Bismarck“"
},
{
  "Id":77,
  "Name":"Auftraggeber: Pipikkuli"
},
{
  "Id":78,
  "Name":"Auftraggeber: Shushunen, Ostaldenard-Handelsgesellschaft"
},
{
  "Id":79,
  "Name":"Auftraggeber: Aurumherz von der Gold<SoftHyphen/>schmiede<SoftHyphen/>gilde"
},
{
  "Id":80,
  "Name":"Auftraggeber: Airell, Priesterin des Ordens von Nald'thal"
},
{
  "Id":81,
  "Name":"Auftraggeber: Lilimolu, Dekan des Ordens von Nald'thal"
},
{
  "Id":82,
  "Name":"Auftraggeber: Anonym"
},
{
  "Id":83,
  "Name":"Auftraggeber: Guntram von den 77 Karawanen"
},
{
  "Id":84,
  "Name":"Auftraggeber: Palastwachen-Gardist Aubelet "
},
{
  "Id":85,
  "Name":"Auftraggeber: Einsamer Elch von der Rosenkompanie"
},
{
  "Id":86,
  "Name":"Auftraggeber: Alewyn von der Alche<SoftHyphen/>misten<SoftHyphen/>gilde"
},
{
  "Id":87,
  "Name":"Auftraggeber: Kokobi von der Balsamkompanie"
},
{
  "Id":88,
  "Name":"Auftraggeber: Zuzutyro von den 77 Karawanen"
},
{
  "Id":89,
  "Name":"Auftraggeber: Yayazan von der Rosenkompanie"
},
{
  "Id":90,
  "Name":"Auftraggeber: Yayake von der Thaumaturgengilde"
},
{
  "Id":91,
  "Name":"Auftraggeber: Berauschter Hirsch, Amajina Bergbau AG"
},
{
  "Id":92,
  "Name":"Auftraggeber: Havak Alvak, Historiker"
},
{
  "Id":93,
  "Name":"Auftraggeber: Aalot von der Orchideenkompanie"
},
{
  "Id":94,
  "Name":"Auftraggeber: Tutusi von den 77 Karawanen"
},
{
  "Id":95,
  "Name":"Auftraggeber: Grifiud, Bewohner von Klein-Ala Mhigo"
},
{
  "Id":96,
  "Name":"Auftraggeber: Ryumomo von der Lotuskompanie"
},
{
  "Id":97,
  "Name":"Auftraggeber: Mamane, Bischöfin des Ordens von Nald'thal"
},
{
  "Id":98,
  "Name":"Auftraggeber: Mahlstrom-Flotten<SoftHyphen/>kommando, Abt. Schiffbau"
},
{
  "Id":99,
  "Name":"Auftraggeber: Mahlstrom-Flotten<SoftHyphen/>kommando"
},
{
  "Id":100,
  "Name":"Auftraggeber: Mahlstrom-Flotten<SoftHyphen/>kommando, Abt. Zollwesen"
},
{
  "Id":101,
  "Name":"Auftraggeber: Mahlstrom-Flotten<SoftHyphen/>kommando, Abt. Technik"
},
{
  "Id":102,
  "Name":"Auftraggeber: Die Schwarzen Segel des Mahlstroms"
},
{
  "Id":103,
  "Name":"Auftraggeber: Bruderschaft der Morgenviper, Schwarze Eber"
},
{
  "Id":104,
  "Name":"Auftraggeber: Bruderschaft der Morgenviper, Blaue Dachse"
},
{
  "Id":105,
  "Name":"Auftraggeber: Bruderschaft der Morgenviper, Rote Otter"
},
{
  "Id":106,
  "Name":"Auftraggeber: Bruderschaft der Morgenviper, Weiße Wölfe"
},
{
  "Id":107,
  "Name":"Auftraggeber: Legion der Unsterblichen, Brigade Ala Mhigo"
},
{
  "Id":108,
  "Name":"Auftraggeber: Legion der Unsterblichen, Pionierbrigade"
},
{
  "Id":109,
  "Name":"Auftraggeber: Legion der Unsterblichen, 2. Hauptbrigade"
},
{
  "Id":110,
  "Name":"Auftraggeber: Legion der Unsterblichen, Blutgeschworene"
},
{
  "Id":111,
  "Name":"Auftraggeber: Legion der Unsterblichen, Fremdenbrigade"
},
{
  "Id":112,
  "Name":"Auftraggeber: Legion der Unsterblichen, 3. Hauptbrigade"
},
{
  "Id":113,
  "Name":"Auftraggeber: Ririphon, Chefeinkäufer von Gegeruju"
},
{
  "Id":114,
  "Name":"Auftraggeber: Bango Zango vom Bru<SoftHyphen/>gaire-Kon<SoftHyphen/>sor<SoftHyphen/>tium"
},
{
  "Id":115,
  "Name":"Auftraggeber: Zwynwyda von der Gockelburg"
},
{
  "Id":116,
  "Name":"Auftraggeber: Fewon Bulion, Exporteur"
},
{
  "Id":117,
  "Name":"Auftraggeber: H'rhanbolo, Kapitänin der <Emphasis>Eisprinzessin</Emphasis>"
},
{
  "Id":118,
  "Name":"Auftraggeber: Roarich vom Ashgana-Überseedepartment"
},
{
  "Id":119,
  "Name":"Auftraggeber: Gigiyon von den 77 Karawanen"
},
{
  "Id":120,
  "Name":"Auftraggeber: Mimina von den 77 Karawanen"
},
{
  "Id":121,
  "Name":"Auftraggeber: Frediswitha von den 77 Karawanen"
},
{
  "Id":122,
  "Name":"Auftraggeber: Fahrende Händlerin Vivenne"
},
{
  "Id":123,
  "Name":"Auftraggeber: Fahrender Händler Lanquairt"
},
{
  "Id":124,
  "Name":"Auftraggeber: Syele, Sankt Coinach-Stiftung"
},
{
  "Id":125,
  "Name":"Auftraggeber: Schankwirt Duvicauroix"
},
{
  "Id":126,
  "Name":"Auftraggeber: Ritter Marcelain, Ishgard"
},
{
  "Id":127,
  "Name":"Auftraggeber: Astrologin Edmelle, Observatorium"
},
{
  "Id":128,
  "Name":"Auftraggeber: Ritter Arthurioux aus dem Haus Fortemps"
},
{
  "Id":129,
  "Name":"Auftraggeber: Uwilsyng, Kolosseum"
},
{
  "Id":130,
  "Name":"Auftraggeber: Rammbroes, Sankt Coinach-Stiftung"
},
{
  "Id":131,
  "Name":"Auftraggeber: Forscher Nazyl Duzyl, Sankt Coinach-Stiftung"
},
{
  "Id":132,
  "Name":"Auftraggeber: Bruderschaft der Morgenviper, Gelbe Schlangen"
},
{
  "Id":133,
  "Name":"Auftraggeber: Blanbroes, Amajina Bergbau AG"
},
{
  "Id":134,
  "Name":"Auftraggeber: Irmengard, Amajina Bergbau AG"
},
{
  "Id":135,
  "Name":"Auftraggeber: Ritter Prairillot aus dem Haus Haillenarte"
},
{
  "Id":136,
  "Name":"Auftraggeber: Ingenieur Aimiliens, Teleskop-Techniker"
},
{
  "Id":137,
  "Name":"Auftraggeber: Lancefer, Forscher an der Schneekleid-Felswand"
},
{
  "Id":138,
  "Name":"Auftraggeber: Ritter Corentiaux aus dem Haus Fortemps"
},
{
  "Id":139,
  "Name":"Auftraggeber: Ritter Brunadier aus dem Haus Durendaire"
},
{
  "Id":140,
  "Name":"Auftraggeber: Hirte Hanrieaux, Bediensteter im Haus Durendaire"
},
{
  "Id":141,
  "Name":"Auftraggeber: Gourmet Unsynwilf"
},
{
  "Id":142,
  "Name":"Auftraggeber: Großhändlerin Q'molosi"
},
{
  "Id":143,
  "Name":"Auftraggeber: Vermittlerin Fupepe"
},
{
  "Id":144,
  "Name":"Auftraggeber: Finsterwald-Fischerin Daca Jinjahl"
},
{
  "Id":145,
  "Name":"Auftraggeber: F'abodji, Bedienstete von Gegeruju"
},
{
  "Id":146,
  "Name":"Auftraggeber: Bergfischer Drividot"
},
{
  "Id":147,
  "Name":"Auftraggeber: Großhändlerin Louviaune"
},
{
  "Id":148,
  "Name":"Auftraggeber: Clifton, Sankt Coinach-Stiftung"
},
{
  "Id":149,
  "Name":"Auftraggeberin: Aedoc, Bewohnerin von Mühlenbruch"
},
{
  "Id":150,
  "Name":"Auftraggeber: Bloemerl von Wawalagos Reusenfischern"
},
{
  "Id":151,
  "Name":"Auftraggeber: Handeloup, Kommandant der Tempelritter"
},
{
  "Id":152,
  "Name":"Auftraggeber: Bruder Padilloux vom Orden der Tempelritter"
},
{
  "Id":153,
  "Name":"Auftraggeberin: Amianne, Schatzmeisterin der Tempelritter"
},
{
  "Id":154,
  "Name":"Auftraggeber: Abel, Hospitaliter der Tempelritter"
},
{
  "Id":155,
  "Name":"Auftraggeber: Inquisitor Gaidelie "
},
{
  "Id":156,
  "Name":"Auftraggeber: Dragoon Brucemont"
},
{
  "Id":157,
  "Name":"Auftraggeberin: Seneschall Lucia"
},
{
  "Id":158,
  "Name":"Auftraggeber: Lowell, Ingenieur der Metallwerke"
},
{
  "Id":159,
  "Name":"Auftraggeber: Tanga Tonga, Reisender Naturkundler"
},
{
  "Id":160,
  "Name":"Auftraggeber: Imblen vom Pionierbataillion der Be<SoftHyphen/>freiungs<SoftHyphen/>armee"
},
{
  "Id":161,
  "Name":"Auftraggeber: Ugan Akiudo, Händler für Steine und Metalle"
},
{
  "Id":162,
  "Name":"Auftraggeber: Sagan Akiudo, Händler für Bauholz"
},
{
  "Id":163,
  "Name":"Auftraggeber: Fuyo Kaneuchi, Schmuckhaarnadel-Fabrikant"
},
{
  "Id":164,
  "Name":"Auftraggeber: Anonyme Person, die um Doma weint"
},
{
  "Id":165,
  "Name":"Auftraggeberin: Waffenschmiedin Sekka"
},
{
  "Id":166,
  "Name":"Auftraggeber: Tsugomori, Hinganischer Mediziner"
},
{
  "Id":167,
  "Name":"Auftraggeber: Gundobald, Anführer von Klein-Ala Mhigo"
},
{
  "Id":168,
  "Name":"Auftraggeber: Raganfrid, Dorfältester von Ala Gannha"
},
{
  "Id":169,
  "Name":"Auftraggeberin: Gisela, Mhigische Befreiungskämpferin"
},
{
  "Id":170,
  "Name":"Auftraggeberin: Orella, Heilerin im Feldlazarett der Be<SoftHyphen/>freiungs<SoftHyphen/>armee"
},
{
  "Id":171,
  "Name":"Auftraggeberin: Fufucha, Gildenmeisterin der Gärtnergilde"
},
{
  "Id":172,
  "Name":"Auftraggeberin: Kikimo, Kontoristin der Ostaldenard-HG"
},
{
  "Id":173,
  "Name":"Auftraggeber: M'rahz Nunh, Stammesführer der M"
},
{
  "Id":174,
  "Name":"Auftraggeber: Kuzubana Kasanui, bescheidener Ladenbesitzer"
},
{
  "Id":175,
  "Name":"Auftraggeber: Waffenhändler Kanamari"
},
{
  "Id":176,
  "Name":"Auftraggeber: Yagiri, Einkäufer des Kimonogeschäfts „Daitenya“"
},
{
  "Id":177,
  "Name":"Auftraggeberin: Liliju, reisende Schriftstellerin"
},
{
  "Id":178,
  "Name":"Auftraggeber: Shimoyo, Schatzmeister der Sekiseigumi"
},
{
  "Id":179,
  "Name":"Auftraggeber: Jubleel, Kapitän der <Emphasis>Imperialen Hoheit</Emphasis>"
},
{
  "Id":180,
  "Name":"Auftraggeber: C'ndanya, Händler der Gigas-Schmiede"
},
{
  "Id":181,
  "Name":"Auftraggeber: Kotobuki, Inhaber eines Verleihs für westliche Kleidung"
},
{
  "Id":182,
  "Name":"Auftraggeber: Unryu, Handwerker im Kokajiya"
},
{
  "Id":183,
  "Name":"Auftraggeber: Sangoya, Koch der Sekiseigumi"
},
{
  "Id":184,
  "Name":"Auftraggeber: Isuka, Hilfskraft hinter den Kulissen des „Mujikoza“"
},
{
  "Id":185,
  "Name":"Auftraggeberin: Ume, Betreiberin des Umineko-Teehauses"
},
{
  "Id":186,
  "Name":"Auftraggeberin: Kotokaze, Gastwirtin des „Shiokaze“"
},
{
  "Id":187,
  "Name":"Auftraggeber: Bharifhal, Sekretär des Konsulats von Thavnair"
},
{
  "Id":188,
  "Name":"Auftraggeberin: Saeda, Gastwirtin des „Akamatsu“"
},
{
  "Id":189,
  "Name":"Auftraggeber: Seifu, Inhaber von Seifus Büchertempel"
},
{
  "Id":190,
  "Name":"Auftraggeber: Clerebold, erfolgloser Materia-Einsetzer"
},
{
  "Id":191,
  "Name":"Auftraggeber: Tazuna, reisender Händler"
},
{
  "Id":192,
  "Name":"Auftraggeber: Hoflieferant Tazuna"
},
{
  "Id":193,
  "Name":"Auftraggeberin: Albreda, Bewohnerin von Mühlenbruch"
},
{
  "Id":194,
  "Name":"Auftraggeber: Soroban, reisender Kojin-Händler"
},
{
  "Id":195,
  "Name":"Auftraggeber: Glynard, Ge<SoftHyphen/>schäfts<SoftHyphen/>führer des Sternenhagels"
},
{
  "Id":196,
  "Name":"Auftraggeberin: Chessamile, Leiterin der Spagyrik"
},
{
  "Id":197,
  "Name":"Auftraggeber: Spadden, Händler aus Kholusia"
},
{
  "Id":198,
  "Name":"Auftraggeber: Hakon, Lehrling aus der Schwarzeisen-Schmiede"
},
{
  "Id":199,
  "Name":"Auftraggeberin: Shee-Tatcha, Vizedirektorin der Abteilung Materialbeschaffung"
},
{
  "Id":200,
  "Name":"Auftraggeber: Soe-Rend, Ingenieur der Ballistik"
},
{
  "Id":201,
  "Name":"Auftraggeber: Hakon, Talent aus der Schwarzeisen-Schmiede"
},
{
  "Id":202,
  "Name":"Auftraggeber: Hakon, Werkstattbetreiber"
},
{
  "Id":203,
  "Name":"Auftraggeber: Hakon, Betreiber einer berühmten Werkstatt"
},
{
  "Id":204,
  "Name":"Auftraggeber: Hakon, Koryphäe unter den Metallurgen"
},
{
  "Id":205,
  "Name":"Auftraggeberin: Edendreda, Forscherin des Hortoriums"
},
{
  "Id":206,
  "Name":"Auftraggeber: Saulfort, Küchenhilfe bei „Kräuter, Düfte & Aromen“"
},
{
  "Id":207,
  "Name":"Auftraggeber: Vrue-Shirr, Vizedirektor der Abteilung Fischerei"
},
{
  "Id":208,
  "Name":"Auftraggeber: Saulfort, Koch bei „Kräuter, Düfte & Aromen“"
},
{
  "Id":209,
  "Name":"Auftraggeber: Saulfort, beliebter Koch bei „Kräuter, Düfte & Aromen“"
},
{
  "Id":210,
  "Name":"Auftraggeber: Saulfort, beliebtester Koch bei „Kräuter, Düfte & Aromen“"
},
{
  "Id":211,
  "Name":"Auftraggeber: Saulfort, Koryphäe unter den Köchen"
},
{
  "Id":212,
  "Name":"Auftraggeber: Owell, Handwerker der Manufaktur der Gemeinschaft"
},
{
  "Id":213,
  "Name":"Auftraggeber: Mervyl, Veteran aus der Abteilung Fischerei"
},
{
  "Id":214,
  "Name":"Auftraggeber: Cassard, Karawanenführer"
},
{
  "Id":215,
  "Name":"Auftraggeber: Pitrig, Offizier der Wache"
},
{
  "Id":216,
  "Name":"Auftraggeber: Eismon, Handwerker der Schwarzeisen-Schmiede"
},
{
  "Id":217,
  "Name":"Auftraggeber: Doddard, Inhaber eines Geschäfts für Rüstungen"
},
{
  "Id":218,
  "Name":"Auftraggeber: Moren, Bibliothekar im Kabinett der Kuriositäten"
},
{
  "Id":219,
  "Name":"Auftraggeber: Shai-Tistt, Inhaber eines Waffengeschäfts"
},
{
  "Id":220,
  "Name":"Auftraggeber: Tobyl, Obstbauer im Süßraspelhain"
},
{
  "Id":221,
  "Name":"Auftraggeberin: Hanji-Fae, Betreiberin des Restaurants „Extraportion“"
},
{
  "Id":222,
  "Name":"Auftraggeberin: Iola, Ge<SoftHyphen/>schäfts<SoftHyphen/>führerin der Schwarzeisen-Schmiede"
},
{
  "Id":223,
  "Name":"Auftraggeber: Bethric, Veterinär bei „Kräuter, Düfte & Aromen“"
},
{
  "Id":224,
  "Name":"Auftraggeber: Sylgham, Verwalter der Ikosagon-Quartiere"
},
{
  "Id":225,
  "Name":"Auftraggeber: Bragi, Marktvorsteher von Musica Universalis"
},
{
  "Id":226,
  "Name":"Auftraggeberin: Katliss, Direktorin der Manufaktur der Gemeinschaft"
},
{
  "Id":227,
  "Name":"Auftraggeber: Registrierungsmodul, rätselhafte Kugel"
},
{
  "Id":228,
  "Name":"Auftraggeberin: Ania, Inhaberin einer Boutique für Accessoires"
},
{
  "Id":229,
  "Name":"Auftraggeberin: Ameliance Leveilleur"
},
{
  "Id":230,
  "Name":"Auftraggeber: Bediensteter des Hauses Albright"
},
{
  "Id":231,
  "Name":"Auftraggeber: Meister Dickon, Wirt der Letzten Bastion"
},
{
  "Id":232,
  "Name":"Auftraggeber: Kokkol Dankkol, Inhaber von Kokkols Schmiede"
},
{
  "Id":233,
  "Name":"Auftraggeber: Chapas Porpas, Sammler von Schuhen"
},
{
  "Id":234,
  "Name":"Auftraggeber: Kokkol Dankkol, Inhaber von Kokkols Schmiede"
},
{
  "Id":235,
  "Name":"Auftraggeber: Sakoko, Mitglied des Rates des Exegeten"
},
{
  "Id":236,
  "Name":"Auftraggeberin: Gaelle, Professorin der technischen Fakultät an der Magieakademie"
},
{
  "Id":237,
  "Name":"Auftraggeber: Benger, Student an der Magieakademie"
},
{
  "Id":238,
  "Name":"Auftraggeber: Galveroche, Professor der Ernährungswissenschaften an der Magieakademie"
},
{
  "Id":239,
  "Name":"Auftraggeber: Bevis, Mitglied der Theater<SoftHyphen/>gruppe an der Magieakademie"
},
{
  "Id":240,
  "Name":"Auftraggeber: Snoeharr, Dozent der Fakultät für Geschichte an der Magieakademie"
},
{
  "Id":241,
  "Name":"Auftraggeberin: Qih Aliapoh, Angestellte der Magieakademie"
},
{
  "Id":242,
  "Name":"Auftraggeberin: Anonyme Studentin der Magieakademie"
},
{
  "Id":243,
  "Name":"Auftraggeber: Anonymer Student der Magieakademie"
},
{
  "Id":244,
  "Name":"Auftraggeberin: Isilswys, Bibliothekarin im Noumenon"
},
{
  "Id":245,
  "Name":"Auftraggeber: Aufragender Himmel, Weiser des Physis Technon"
},
{
  "Id":246,
  "Name":"Auftraggeberin: Avalbane, Forscherin der Konfluenz"
},
{
  "Id":247,
  "Name":"Auftraggeberin: Y'sohnjin, Inhaberin von „Klapperrüstungen und mehr“"
},
{
  "Id":248,
  "Name":"Auftraggeber: Benger, Student im Wartesemester"
},
{
  "Id":249,
  "Name":"Auftraggeber: Waguda Mabaguda, Dozent am Biologischen Institut der Magieakademie"
},
{
  "Id":250,
  "Name":"Auftraggeberin: Zielstrebiger Schwan, Forscherin in Passemerrants Zoaponik"
},
{
  "Id":251,
  "Name":"Auftraggeber: Stymmwaen, Vizeverwalter von Labyrinthos"
},
{
  "Id":252,
  "Name":"Auftraggeberin: Tyago Tayuun, Sammlerin seltener Steine"
},
{
  "Id":253,
  "Name":"Auftraggeber: Opal Nebel von Kokkols Schmiede"
},
{
  "Id":254,
  "Name":"Auftraggeber: Mikac, Stammkunde der Letzten Bastion"
},
{
  "Id":255,
  "Name":"Auftraggeberin: Aubracie, Studentin am Ätherologischen Institut der Magieakademie"
},
{
  "Id":256,
  "Name":"Auftraggeber: Godefroy, Mitglied des Redaktionsausschusses der Encyclopaedia Universalis im Noumenon"
},
{
  "Id":257,
  "Name":""
},
{
  "Id":258,
  "Name":""
},
{
  "Id":259,
  "Name":""
},
{
  "Id":260,
  "Name":""
},
{
  "Id":261,
  "Name":""
},
{
  "Id":262,
  "Name":""
},
{
  "Id":263,
  "Name":""
},
{
  "Id":264,
  "Name":""
},
{
  "Id":265,
  "Name":""
},
{
  "Id":266,
  "Name":""
},
{
  "Id":267,
  "Name":""
},
{
  "Id":268,
  "Name":""
},
{
  "Id":269,
  "Name":""
},
{
  "Id":270,
  "Name":""
},
{
  "Id":271,
  "Name":""
},
{
  "Id":272,
  "Name":""
},
{
  "Id":273,
  "Name":""
},
{
  "Id":274,
  "Name":""
},
{
  "Id":275,
  "Name":""
},
{
  "Id":276,
  "Name":""
},
{
  "Id":277,
  "Name":""
},
{
  "Id":278,
  "Name":""
},
{
  "Id":279,
  "Name":""
},
{
  "Id":280,
  "Name":""
},
{
  "Id":281,
  "Name":""
},
{
  "Id":282,
  "Name":""
},
{
  "Id":283,
  "Name":""
},
{
  "Id":284,
  "Name":""
},
{
  "Id":285,
  "Name":""
},
{
  "Id":286,
  "Name":""
},
{
  "Id":287,
  "Name":""
},
{
  "Id":288,
  "Name":""
},
{
  "Id":289,
  "Name":""
},
{
  "Id":290,
  "Name":""
},
{
  "Id":291,
  "Name":""
},
{
  "Id":292,
  "Name":""
},
{
  "Id":293,
  "Name":""
},
{
  "Id":294,
  "Name":""
},
{
  "Id":295,
  "Name":""
},
{
  "Id":296,
  "Name":""
},
{
  "Id":297,
  "Name":""
},
{
  "Id":298,
  "Name":""
},
{
  "Id":299,
  "Name":""
},
{
  "Id":300,
  "Name":""
}
]
