﻿[
{
  "Id":0,
  "Item":0,
  "Theme[0]":0,
  "Theme[1]":0,
  "Ingredient[0]":0,
  "Amount[0]":0,
  "Ingredient[1]":0,
  "Amount[1]":0,
  "Ingredient[2]":0,
  "Amount[2]":0,
  "UnlockRank":0,
  "Time":0,
  "Value":0
},
{
  "Id":1,
  "Item":37628,
  "Theme[0]":8,
  "Theme[1]":0,
  "Ingredient[0]":0,
  "Amount[0]":2,
  "Ingredient[1]":7,
  "Amount[1]":2,
  "Ingredient[2]":0,
  "Amount[2]":0,
  "UnlockRank":1,
  "Time":4,
  "Value":28
},
{
  "Id":2,
  "Item":37633,
  "Theme[0]":8,
  "Theme[1]":16,
  "Ingredient[0]":8,
  "Amount[0]":2,
  "Ingredient[1]":14,
  "Amount[1]":1,
  "Ingredient[2]":7,
  "Amount[2]":1,
  "UnlockRank":1,
  "Time":4,
  "Value":28
},
{
  "Id":3,
  "Item":37627,
  "Theme[0]":6,
  "Theme[1]":12,
  "Ingredient[0]":9,
  "Amount[0]":4,
  "Ingredient[1]":11,
  "Amount[1]":2,
  "Ingredient[2]":0,
  "Amount[2]":0,
  "UnlockRank":1,
  "Time":6,
  "Value":42
},
{
  "Id":4,
  "Item":37630,
  "Theme[0]":3,
  "Theme[1]":15,
  "Ingredient[0]":4,
  "Amount[0]":2,
  "Ingredient[1]":5,
  "Amount[1]":2,
  "Ingredient[2]":0,
  "Amount[2]":0,
  "UnlockRank":1,
  "Time":4,
  "Value":28
},
{
  "Id":5,
  "Item":37629,
  "Theme[0]":10,
  "Theme[1]":12,
  "Ingredient[0]":2,
  "Amount[0]":3,
  "Ingredient[1]":11,
  "Amount[1]":1,
  "Ingredient[2]":0,
  "Amount[2]":0,
  "UnlockRank":1,
  "Time":4,
  "Value":28
},
{
  "Id":6,
  "Item":37631,
  "Theme[0]":10,
  "Theme[1]":15,
  "Ingredient[0]":6,
  "Amount[0]":3,
  "Ingredient[1]":11,
  "Amount[1]":3,
  "Ingredient[2]":0,
  "Amount[2]":0,
  "UnlockRank":1,
  "Time":6,
  "Value":42
},
{
  "Id":7,
  "Item":37632,
  "Theme[0]":2,
  "Theme[1]":11,
  "Ingredient[0]":13,
  "Amount[0]":3,
  "Ingredient[1]":8,
  "Amount[1]":3,
  "Ingredient[2]":0,
  "Amount[2]":0,
  "UnlockRank":1,
  "Time":6,
  "Value":42
},
{
  "Id":8,
  "Item":37634,
  "Theme[0]":7,
  "Theme[1]":12,
  "Ingredient[0]":10,
  "Amount[0]":3,
  "Ingredient[1]":3,
  "Amount[1]":3,
  "Ingredient[2]":0,
  "Amount[2]":0,
  "UnlockRank":1,
  "Time":6,
  "Value":42
},
{
  "Id":9,
  "Item":37618,
  "Theme[0]":1,
  "Theme[1]":0,
  "Ingredient[0]":43,
  "Amount[0]":1,
  "Ingredient[1]":15,
  "Amount[1]":3,
  "Ingredient[2]":0,
  "Amount[2]":0,
  "UnlockRank":1,
  "Time":4,
  "Value":40
},
{
  "Id":10,
  "Item":37619,
  "Theme[0]":3,
  "Theme[1]":0,
  "Ingredient[0]":45,
  "Amount[0]":1,
  "Ingredient[1]":12,
  "Amount[1]":3,
  "Ingredient[2]":0,
  "Amount[2]":0,
  "UnlockRank":1,
  "Time":4,
  "Value":40
},
{
  "Id":11,
  "Item":37620,
  "Theme[0]":2,
  "Theme[1]":13,
  "Ingredient[0]":52,
  "Amount[0]":2,
  "Ingredient[1]":11,
  "Amount[1]":4,
  "Ingredient[2]":0,
  "Amount[2]":0,
  "UnlockRank":1,
  "Time":6,
  "Value":72
},
{
  "Id":12,
  "Item":37621,
  "Theme[0]":5,
  "Theme[1]":14,
  "Ingredient[0]":53,
  "Amount[0]":1,
  "Ingredient[1]":10,
  "Amount[1]":3,
  "Ingredient[2]":0,
  "Amount[2]":0,
  "UnlockRank":1,
  "Time":4,
  "Value":44
},
{
  "Id":13,
  "Item":37622,
  "Theme[0]":5,
  "Theme[1]":12,
  "Ingredient[0]":54,
  "Amount[0]":1,
  "Ingredient[1]":10,
  "Amount[1]":3,
  "Ingredient[2]":0,
  "Amount[2]":0,
  "UnlockRank":1,
  "Time":4,
  "Value":44
},
{
  "Id":14,
  "Item":37623,
  "Theme[0]":3,
  "Theme[1]":14,
  "Ingredient[0]":56,
  "Amount[0]":1,
  "Ingredient[1]":5,
  "Amount[1]":3,
  "Ingredient[2]":0,
  "Amount[2]":0,
  "UnlockRank":1,
  "Time":4,
  "Value":44
},
{
  "Id":15,
  "Item":37624,
  "Theme[0]":7,
  "Theme[1]":14,
  "Ingredient[0]":57,
  "Amount[0]":2,
  "Ingredient[1]":3,
  "Amount[1]":4,
  "Ingredient[2]":0,
  "Amount[2]":0,
  "UnlockRank":1,
  "Time":6,
  "Value":72
},
{
  "Id":16,
  "Item":37625,
  "Theme[0]":10,
  "Theme[1]":14,
  "Ingredient[0]":58,
  "Amount[0]":1,
  "Ingredient[1]":11,
  "Amount[1]":3,
  "Ingredient[2]":0,
  "Amount[2]":0,
  "UnlockRank":1,
  "Time":4,
  "Value":44
},
{
  "Id":17,
  "Item":37626,
  "Theme[0]":9,
  "Theme[1]":14,
  "Ingredient[0]":60,
  "Amount[0]":1,
  "Ingredient[1]":15,
  "Amount[1]":3,
  "Ingredient[2]":0,
  "Amount[2]":0,
  "UnlockRank":1,
  "Time":4,
  "Value":44
},
{
  "Id":18,
  "Item":37635,
  "Theme[0]":6,
  "Theme[1]":16,
  "Ingredient[0]":19,
  "Amount[0]":2,
  "Ingredient[1]":14,
  "Amount[1]":2,
  "Ingredient[2]":10,
  "Amount[2]":2,
  "UnlockRank":5,
  "Time":6,
  "Value":48
},
{
  "Id":19,
  "Item":37636,
  "Theme[0]":6,
  "Theme[1]":11,
  "Ingredient[0]":20,
  "Amount[0]":3,
  "Ingredient[1]":13,
  "Amount[1]":3,
  "Ingredient[2]":9,
  "Amount[2]":2,
  "UnlockRank":5,
  "Time":8,
  "Value":64
},
{
  "Id":20,
  "Item":37637,
  "Theme[0]":8,
  "Theme[1]":0,
  "Ingredient[0]":27,
  "Amount[0]":2,
  "Ingredient[1]":7,
  "Amount[1]":3,
  "Ingredient[2]":2,
  "Amount[2]":3,
  "UnlockRank":5,
  "Time":8,
  "Value":136
},
{
  "Id":21,
  "Item":37638,
  "Theme[0]":7,
  "Theme[1]":16,
  "Ingredient[0]":28,
  "Amount[0]":2,
  "Ingredient[1]":13,
  "Amount[1]":3,
  "Ingredient[2]":20,
  "Amount[2]":3,
  "UnlockRank":5,
  "Time":8,
  "Value":136
},
{
  "Id":22,
  "Item":37639,
  "Theme[0]":2,
  "Theme[1]":12,
  "Ingredient[0]":29,
  "Amount[0]":2,
  "Ingredient[1]":13,
  "Amount[1]":3,
  "Ingredient[2]":3,
  "Amount[2]":3,
  "UnlockRank":5,
  "Time":8,
  "Value":136
},
{
  "Id":23,
  "Item":37640,
  "Theme[0]":5,
  "Theme[1]":15,
  "Ingredient[0]":30,
  "Amount[0]":2,
  "Ingredient[1]":5,
  "Amount[1]":3,
  "Ingredient[2]":12,
  "Amount[2]":3,
  "UnlockRank":5,
  "Time":8,
  "Value":136
},
{
  "Id":24,
  "Item":37641,
  "Theme[0]":10,
  "Theme[1]":11,
  "Ingredient[0]":31,
  "Amount[0]":2,
  "Ingredient[1]":20,
  "Amount[1]":3,
  "Ingredient[2]":6,
  "Amount[2]":3,
  "UnlockRank":5,
  "Time":8,
  "Value":136
},
{
  "Id":25,
  "Item":37642,
  "Theme[0]":4,
  "Theme[1]":0,
  "Ingredient[0]":42,
  "Amount[0]":2,
  "Ingredient[1]":60,
  "Amount[1]":1,
  "Ingredient[2]":12,
  "Amount[2]":3,
  "UnlockRank":5,
  "Time":6,
  "Value":72
},
{
  "Id":26,
  "Item":37643,
  "Theme[0]":3,
  "Theme[1]":0,
  "Ingredient[0]":50,
  "Amount[0]":2,
  "Ingredient[1]":7,
  "Amount[1]":1,
  "Ingredient[2]":12,
  "Amount[2]":1,
  "UnlockRank":5,
  "Time":4,
  "Value":48
},
{
  "Id":27,
  "Item":37644,
  "Theme[0]":4,
  "Theme[1]":0,
  "Ingredient[0]":16,
  "Amount[0]":4,
  "Ingredient[1]":60,
  "Amount[1]":2,
  "Ingredient[2]":0,
  "Amount[2]":0,
  "UnlockRank":6,
  "Time":6,
  "Value":81
},
{
  "Id":28,
  "Item":37645,
  "Theme[0]":10,
  "Theme[1]":13,
  "Ingredient[0]":17,
  "Amount[0]":2,
  "Ingredient[1]":13,
  "Amount[1]":2,
  "Ingredient[2]":11,
  "Amount[2]":2,
  "UnlockRank":6,
  "Time":6,
  "Value":54
},
{
  "Id":29,
  "Item":37646,
  "Theme[0]":5,
  "Theme[1]":13,
  "Ingredient[0]":18,
  "Amount[0]":2,
  "Ingredient[1]":7,
  "Amount[1]":1,
  "Ingredient[2]":11,
  "Amount[2]":1,
  "UnlockRank":6,
  "Time":4,
  "Value":36
},
{
  "Id":30,
  "Item":37647,
  "Theme[0]":2,
  "Theme[1]":13,
  "Ingredient[0]":55,
  "Amount[0]":2,
  "Ingredient[1]":17,
  "Amount[1]":2,
  "Ingredient[2]":18,
  "Amount[2]":2,
  "UnlockRank":6,
  "Time":6,
  "Value":81
},
{
  "Id":31,
  "Item":37648,
  "Theme[0]":5,
  "Theme[1]":14,
  "Ingredient[0]":59,
  "Amount[0]":2,
  "Ingredient[1]":19,
  "Amount[1]":2,
  "Ingredient[2]":18,
  "Amount[2]":2,
  "UnlockRank":6,
  "Time":6,
  "Value":81
},
{
  "Id":32,
  "Item":37649,
  "Theme[0]":1,
  "Theme[1]":15,
  "Ingredient[0]":24,
  "Amount[0]":4,
  "Ingredient[1]":15,
  "Amount[1]":2,
  "Ingredient[2]":0,
  "Amount[2]":0,
  "UnlockRank":7,
  "Time":6,
  "Value":54
},
{
  "Id":33,
  "Item":37650,
  "Theme[0]":9,
  "Theme[1]":15,
  "Ingredient[0]":25,
  "Amount[0]":2,
  "Ingredient[1]":15,
  "Amount[1]":2,
  "Ingredient[2]":0,
  "Amount[2]":0,
  "UnlockRank":7,
  "Time":4,
  "Value":36
},
{
  "Id":34,
  "Item":37651,
  "Theme[0]":8,
  "Theme[1]":15,
  "Ingredient[0]":26,
  "Amount[0]":2,
  "Ingredient[1]":0,
  "Amount[1]":2,
  "Ingredient[2]":5,
  "Amount[2]":2,
  "UnlockRank":7,
  "Time":6,
  "Value":54
},
{
  "Id":35,
  "Item":37652,
  "Theme[0]":9,
  "Theme[1]":0,
  "Ingredient[0]":44,
  "Amount[0]":3,
  "Ingredient[1]":16,
  "Amount[1]":2,
  "Ingredient[2]":12,
  "Amount[2]":1,
  "UnlockRank":7,
  "Time":6,
  "Value":78
},
{
  "Id":36,
  "Item":37654,
  "Theme[0]":9,
  "Theme[1]":0,
  "Ingredient[0]":47,
  "Amount[0]":2,
  "Ingredient[1]":16,
  "Amount[1]":1,
  "Ingredient[2]":7,
  "Amount[2]":1,
  "UnlockRank":7,
  "Time":4,
  "Value":52
},
{
  "Id":37,
  "Item":37653,
  "Theme[0]":3,
  "Theme[1]":0,
  "Ingredient[0]":46,
  "Amount[0]":3,
  "Ingredient[1]":15,
  "Amount[1]":2,
  "Ingredient[2]":7,
  "Amount[2]":1,
  "UnlockRank":7,
  "Time":6,
  "Value":78
},
{
  "Id":38,
  "Item":37655,
  "Theme[0]":4,
  "Theme[1]":15,
  "Ingredient[0]":48,
  "Amount[0]":3,
  "Ingredient[1]":24,
  "Amount[1]":2,
  "Ingredient[2]":16,
  "Amount[2]":1,
  "UnlockRank":7,
  "Time":6,
  "Value":78
},
{
  "Id":39,
  "Item":37656,
  "Theme[0]":1,
  "Theme[1]":0,
  "Ingredient[0]":49,
  "Amount[0]":2,
  "Ingredient[1]":16,
  "Amount[1]":2,
  "Ingredient[2]":0,
  "Amount[2]":0,
  "UnlockRank":7,
  "Time":4,
  "Value":52
},
{
  "Id":40,
  "Item":37657,
  "Theme[0]":1,
  "Theme[1]":0,
  "Ingredient[0]":51,
  "Amount[0]":4,
  "Ingredient[1]":1,
  "Amount[1]":2,
  "Ingredient[2]":16,
  "Amount[2]":2,
  "UnlockRank":7,
  "Time":8,
  "Value":104
},
{
  "Id":41,
  "Item":37658,
  "Theme[0]":7,
  "Theme[1]":11,
  "Ingredient[0]":21,
  "Amount[0]":3,
  "Ingredient[1]":9,
  "Amount[1]":3,
  "Ingredient[2]":8,
  "Amount[2]":2,
  "UnlockRank":8,
  "Time":8,
  "Value":72
},
{
  "Id":42,
  "Item":37659,
  "Theme[0]":10,
  "Theme[1]":16,
  "Ingredient[0]":22,
  "Amount[0]":3,
  "Ingredient[1]":21,
  "Amount[1]":3,
  "Ingredient[2]":3,
  "Amount[2]":2,
  "UnlockRank":8,
  "Time":8,
  "Value":72
},
{
  "Id":43,
  "Item":37660,
  "Theme[0]":5,
  "Theme[1]":16,
  "Ingredient[0]":23,
  "Amount[0]":3,
  "Ingredient[1]":22,
  "Amount[1]":3,
  "Ingredient[2]":19,
  "Amount[2]":2,
  "UnlockRank":8,
  "Time":8,
  "Value":72
},
{
  "Id":44,
  "Item":37661,
  "Theme[0]":8,
  "Theme[1]":0,
  "Ingredient[0]":43,
  "Amount[0]":3,
  "Ingredient[1]":7,
  "Amount[1]":2,
  "Ingredient[2]":5,
  "Amount[2]":1,
  "UnlockRank":8,
  "Time":6,
  "Value":78
},
{
  "Id":45,
  "Item":37662,
  "Theme[0]":4,
  "Theme[1]":0,
  "Ingredient[0]":45,
  "Amount[0]":3,
  "Ingredient[1]":56,
  "Amount[1]":1,
  "Ingredient[2]":60,
  "Amount[2]":1,
  "UnlockRank":8,
  "Time":6,
  "Value":78
},
{
  "Id":46,
  "Item":37663,
  "Theme[0]":6,
  "Theme[1]":14,
  "Ingredient[0]":52,
  "Amount[0]":3,
  "Ingredient[1]":17,
  "Amount[1]":2,
  "Ingredient[2]":18,
  "Amount[2]":1,
  "UnlockRank":8,
  "Time":6,
  "Value":90
},
{
  "Id":47,
  "Item":37664,
  "Theme[0]":5,
  "Theme[1]":11,
  "Ingredient[0]":53,
  "Amount[0]":3,
  "Ingredient[1]":21,
  "Amount[1]":2,
  "Ingredient[2]":10,
  "Amount[2]":1,
  "UnlockRank":9,
  "Time":6,
  "Value":90
},
{
  "Id":48,
  "Item":37665,
  "Theme[0]":6,
  "Theme[1]":13,
  "Ingredient[0]":54,
  "Amount[0]":4,
  "Ingredient[1]":17,
  "Amount[1]":2,
  "Ingredient[2]":9,
  "Amount[2]":2,
  "UnlockRank":9,
  "Time":8,
  "Value":120
},
{
  "Id":49,
  "Item":37666,
  "Theme[0]":2,
  "Theme[1]":14,
  "Ingredient[0]":57,
  "Amount[0]":4,
  "Ingredient[1]":21,
  "Amount[1]":2,
  "Ingredient[2]":17,
  "Amount[2]":2,
  "UnlockRank":9,
  "Time":8,
  "Value":120
},
{
  "Id":50,
  "Item":37667,
  "Theme[0]":7,
  "Theme[1]":12,
  "Ingredient[0]":58,
  "Amount[0]":4,
  "Ingredient[1]":22,
  "Amount[1]":2,
  "Ingredient[2]":9,
  "Amount[2]":2,
  "UnlockRank":9,
  "Time":8,
  "Value":120
},
{
  "Id":51,
  "Item":39349,
  "Theme[0]":7,
  "Theme[1]":15,
  "Ingredient[0]":6,
  "Amount[0]":3,
  "Ingredient[1]":67,
  "Amount[1]":3,
  "Ingredient[2]":10,
  "Amount[2]":2,
  "UnlockRank":10,
  "Time":8,
  "Value":72
},
{
  "Id":52,
  "Item":39350,
  "Theme[0]":4,
  "Theme[1]":8,
  "Ingredient[0]":68,
  "Amount[0]":2,
  "Ingredient[1]":16,
  "Amount[1]":2,
  "Ingredient[2]":0,
  "Amount[2]":0,
  "UnlockRank":10,
  "Time":4,
  "Value":36
},
{
  "Id":53,
  "Item":39351,
  "Theme[0]":4,
  "Theme[1]":9,
  "Ingredient[0]":69,
  "Amount[0]":2,
  "Ingredient[1]":12,
  "Amount[1]":2,
  "Ingredient[2]":0,
  "Amount[2]":0,
  "UnlockRank":10,
  "Time":4,
  "Value":36
},
{
  "Id":54,
  "Item":39352,
  "Theme[0]":16,
  "Theme[1]":0,
  "Ingredient[0]":70,
  "Amount[0]":4,
  "Ingredient[1]":8,
  "Amount[1]":4,
  "Ingredient[2]":0,
  "Amount[2]":0,
  "UnlockRank":10,
  "Time":8,
  "Value":80
},
{
  "Id":55,
  "Item":39353,
  "Theme[0]":5,
  "Theme[1]":6,
  "Ingredient[0]":71,
  "Amount[0]":3,
  "Ingredient[1]":68,
  "Amount[1]":2,
  "Ingredient[2]":12,
  "Amount[2]":1,
  "UnlockRank":10,
  "Time":6,
  "Value":54
},
{
  "Id":56,
  "Item":39354,
  "Theme[0]":9,
  "Theme[1]":8,
  "Ingredient[0]":74,
  "Amount[0]":2,
  "Ingredient[1]":7,
  "Amount[1]":2,
  "Ingredient[2]":0,
  "Amount[2]":0,
  "UnlockRank":11,
  "Time":4,
  "Value":52
},
{
  "Id":57,
  "Item":39355,
  "Theme[0]":8,
  "Theme[1]":14,
  "Ingredient[0]":75,
  "Amount[0]":3,
  "Ingredient[1]":60,
  "Amount[1]":1,
  "Ingredient[2]":5,
  "Amount[2]":3,
  "UnlockRank":11,
  "Time":6,
  "Value":90
},
{
  "Id":58,
  "Item":39356,
  "Theme[0]":3,
  "Theme[1]":8,
  "Ingredient[0]":48,
  "Amount[0]":2,
  "Ingredient[1]":24,
  "Amount[1]":1,
  "Ingredient[2]":15,
  "Amount[2]":1,
  "UnlockRank":11,
  "Time":4,
  "Value":52
},
{
  "Id":59,
  "Item":39357,
  "Theme[0]":3,
  "Theme[1]":0,
  "Ingredient[0]":42,
  "Amount[0]":2,
  "Ingredient[1]":1,
  "Amount[1]":1,
  "Ingredient[2]":7,
  "Amount[2]":1,
  "UnlockRank":11,
  "Time":4,
  "Value":52
},
{
  "Id":60,
  "Item":39358,
  "Theme[0]":9,
  "Theme[1]":0,
  "Ingredient[0]":46,
  "Amount[0]":2,
  "Ingredient[1]":12,
  "Amount[1]":1,
  "Ingredient[2]":5,
  "Amount[2]":1,
  "UnlockRank":11,
  "Time":4,
  "Value":52
},
{
  "Id":61,
  "Item":40740,
  "Theme[0]":6,
  "Theme[1]":11,
  "Ingredient[0]":76,
  "Amount[0]":2,
  "Ingredient[1]":21,
  "Amount[1]":3,
  "Ingredient[2]":23,
  "Amount[2]":1,
  "UnlockRank":12,
  "Time":6,
  "Value":54
},
{
  "Id":62,
  "Item":40741,
  "Theme[0]":5,
  "Theme[1]":0,
  "Ingredient[0]":78,
  "Amount[0]":3,
  "Ingredient[1]":22,
  "Amount[1]":3,
  "Ingredient[2]":13,
  "Amount[2]":2,
  "UnlockRank":12,
  "Time":8,
  "Value":80
},
{
  "Id":63,
  "Item":40742,
  "Theme[0]":5,
  "Theme[1]":8,
  "Ingredient[0]":81,
  "Amount[0]":2,
  "Ingredient[1]":15,
  "Amount[1]":2,
  "Ingredient[2]":0,
  "Amount[2]":0,
  "UnlockRank":12,
  "Time":4,
  "Value":36
},
{
  "Id":64,
  "Item":40743,
  "Theme[0]":3,
  "Theme[1]":15,
  "Ingredient[0]":83,
  "Amount[0]":2,
  "Ingredient[1]":4,
  "Amount[1]":2,
  "Ingredient[2]":25,
  "Amount[2]":2,
  "UnlockRank":12,
  "Time":8,
  "Value":136
},
{
  "Id":65,
  "Item":40744,
  "Theme[0]":14,
  "Theme[1]":16,
  "Ingredient[0]":77,
  "Amount[0]":3,
  "Ingredient[1]":10,
  "Amount[1]":2,
  "Ingredient[2]":17,
  "Amount[2]":1,
  "UnlockRank":13,
  "Time":6,
  "Value":54
},
{
  "Id":66,
  "Item":40745,
  "Theme[0]":6,
  "Theme[1]":16,
  "Ingredient[0]":79,
  "Amount[0]":4,
  "Ingredient[1]":23,
  "Amount[1]":2,
  "Ingredient[2]":19,
  "Amount[2]":2,
  "UnlockRank":13,
  "Time":8,
  "Value":72
},
{
  "Id":67,
  "Item":40746,
  "Theme[0]":2,
  "Theme[1]":5,
  "Ingredient[0]":80,
  "Amount[0]":3,
  "Ingredient[1]":22,
  "Amount[1]":2,
  "Ingredient[2]":13,
  "Amount[2]":1,
  "UnlockRank":13,
  "Time":6,
  "Value":54
},
{
  "Id":68,
  "Item":40747,
  "Theme[0]":16,
  "Theme[1]":0,
  "Ingredient[0]":82,
  "Amount[0]":4,
  "Ingredient[1]":8,
  "Amount[1]":4,
  "Ingredient[2]":0,
  "Amount[2]":0,
  "UnlockRank":13,
  "Time":8,
  "Value":80
},
{
  "Id":69,
  "Item":40748,
  "Theme[0]":3,
  "Theme[1]":0,
  "Ingredient[0]":88,
  "Amount[0]":2,
  "Ingredient[1]":15,
  "Amount[1]":2,
  "Ingredient[2]":0,
  "Amount[2]":0,
  "UnlockRank":14,
  "Time":4,
  "Value":52
},
{
  "Id":70,
  "Item":40749,
  "Theme[0]":3,
  "Theme[1]":0,
  "Ingredient[0]":89,
  "Amount[0]":3,
  "Ingredient[1]":42,
  "Amount[1]":1,
  "Ingredient[2]":60,
  "Amount[2]":1,
  "UnlockRank":14,
  "Time":6,
  "Value":78
},
{
  "Id":71,
  "Item":40750,
  "Theme[0]":3,
  "Theme[1]":0,
  "Ingredient[0]":90,
  "Amount[0]":2,
  "Ingredient[1]":46,
  "Amount[1]":2,
  "Ingredient[2]":47,
  "Amount[2]":2,
  "UnlockRank":14,
  "Time":6,
  "Value":90
},
{
  "Id":72,
  "Item":40751,
  "Theme[0]":1,
  "Theme[1]":0,
  "Ingredient[0]":91,
  "Amount[0]":4,
  "Ingredient[1]":5,
  "Amount[1]":2,
  "Ingredient[2]":16,
  "Amount[2]":2,
  "UnlockRank":14,
  "Time":8,
  "Value":104
},
{
  "Id":73,
  "Item":41674,
  "Theme[0]":5,
  "Theme[1]":11,
  "Ingredient[0]":93,
  "Amount[0]":2,
  "Ingredient[1]":13,
  "Amount[1]":2,
  "Ingredient[2]":0,
  "Amount[2]":0,
  "UnlockRank":16,
  "Time":4,
  "Value":36
},
{
  "Id":74,
  "Item":41676,
  "Theme[0]":5,
  "Theme[1]":0,
  "Ingredient[0]":95,
  "Amount[0]":2,
  "Ingredient[1]":80,
  "Amount[1]":2,
  "Ingredient[2]":8,
  "Amount[2]":2,
  "UnlockRank":16,
  "Time":6,
  "Value":60
},
{
  "Id":75,
  "Item":41673,
  "Theme[0]":7,
  "Theme[1]":11,
  "Ingredient[0]":92,
  "Amount[0]":2,
  "Ingredient[1]":21,
  "Amount[1]":2,
  "Ingredient[2]":22,
  "Amount[2]":2,
  "UnlockRank":17,
  "Time":6,
  "Value":54
},
{
  "Id":76,
  "Item":41675,
  "Theme[0]":10,
  "Theme[1]":11,
  "Ingredient[0]":94,
  "Amount[0]":4,
  "Ingredient[1]":93,
  "Amount[1]":2,
  "Ingredient[2]":22,
  "Amount[2]":2,
  "UnlockRank":17,
  "Time":8,
  "Value":72
},
{
  "Id":77,
  "Item":41677,
  "Theme[0]":6,
  "Theme[1]":0,
  "Ingredient[0]":96,
  "Amount[0]":2,
  "Ingredient[1]":82,
  "Amount[1]":2,
  "Ingredient[2]":80,
  "Amount[2]":2,
  "UnlockRank":17,
  "Time":8,
  "Value":80
},
{
  "Id":78,
  "Item":41669,
  "Theme[0]":4,
  "Theme[1]":0,
  "Ingredient[0]":101,
  "Amount[0]":1,
  "Ingredient[1]":44,
  "Amount[1]":1,
  "Ingredient[2]":1,
  "Amount[2]":1,
  "UnlockRank":18,
  "Time":4,
  "Value":52
},
{
  "Id":79,
  "Item":41670,
  "Theme[0]":3,
  "Theme[1]":4,
  "Ingredient[0]":102,
  "Amount[0]":3,
  "Ingredient[1]":48,
  "Amount[1]":1,
  "Ingredient[2]":56,
  "Amount[2]":1,
  "UnlockRank":18,
  "Time":8,
  "Value":120
},
{
  "Id":80,
  "Item":41671,
  "Theme[0]":3,
  "Theme[1]":0,
  "Ingredient[0]":103,
  "Amount[0]":2,
  "Ingredient[1]":48,
  "Amount[1]":1,
  "Ingredient[2]":15,
  "Amount[2]":3,
  "UnlockRank":18,
  "Time":6,
  "Value":75
},
{
  "Id":81,
  "Item":41672,
  "Theme[0]":3,
  "Theme[1]":14,
  "Ingredient[0]":104,
  "Amount[0]":2,
  "Ingredient[1]":60,
  "Amount[1]":2,
  "Ingredient[2]":0,
  "Amount[2]":0,
  "UnlockRank":18,
  "Time":4,
  "Value":52
},
{
  "Id":82,
  "Item":0,
  "Theme[0]":0,
  "Theme[1]":0,
  "Ingredient[0]":0,
  "Amount[0]":0,
  "Ingredient[1]":0,
  "Amount[1]":0,
  "Ingredient[2]":0,
  "Amount[2]":0,
  "UnlockRank":0,
  "Time":0,
  "Value":0
},
{
  "Id":83,
  "Item":0,
  "Theme[0]":0,
  "Theme[1]":0,
  "Ingredient[0]":0,
  "Amount[0]":0,
  "Ingredient[1]":0,
  "Amount[1]":0,
  "Ingredient[2]":0,
  "Amount[2]":0,
  "UnlockRank":0,
  "Time":0,
  "Value":0
},
{
  "Id":84,
  "Item":0,
  "Theme[0]":0,
  "Theme[1]":0,
  "Ingredient[0]":0,
  "Amount[0]":0,
  "Ingredient[1]":0,
  "Amount[1]":0,
  "Ingredient[2]":0,
  "Amount[2]":0,
  "UnlockRank":0,
  "Time":0,
  "Value":0
},
{
  "Id":85,
  "Item":0,
  "Theme[0]":0,
  "Theme[1]":0,
  "Ingredient[0]":0,
  "Amount[0]":0,
  "Ingredient[1]":0,
  "Amount[1]":0,
  "Ingredient[2]":0,
  "Amount[2]":0,
  "UnlockRank":0,
  "Time":0,
  "Value":0
},
{
  "Id":86,
  "Item":0,
  "Theme[0]":0,
  "Theme[1]":0,
  "Ingredient[0]":0,
  "Amount[0]":0,
  "Ingredient[1]":0,
  "Amount[1]":0,
  "Ingredient[2]":0,
  "Amount[2]":0,
  "UnlockRank":0,
  "Time":0,
  "Value":0
},
{
  "Id":87,
  "Item":0,
  "Theme[0]":0,
  "Theme[1]":0,
  "Ingredient[0]":0,
  "Amount[0]":0,
  "Ingredient[1]":0,
  "Amount[1]":0,
  "Ingredient[2]":0,
  "Amount[2]":0,
  "UnlockRank":0,
  "Time":0,
  "Value":0
},
{
  "Id":88,
  "Item":0,
  "Theme[0]":0,
  "Theme[1]":0,
  "Ingredient[0]":0,
  "Amount[0]":0,
  "Ingredient[1]":0,
  "Amount[1]":0,
  "Ingredient[2]":0,
  "Amount[2]":0,
  "UnlockRank":0,
  "Time":0,
  "Value":0
},
{
  "Id":89,
  "Item":0,
  "Theme[0]":0,
  "Theme[1]":0,
  "Ingredient[0]":0,
  "Amount[0]":0,
  "Ingredient[1]":0,
  "Amount[1]":0,
  "Ingredient[2]":0,
  "Amount[2]":0,
  "UnlockRank":0,
  "Time":0,
  "Value":0
},
{
  "Id":90,
  "Item":0,
  "Theme[0]":0,
  "Theme[1]":0,
  "Ingredient[0]":0,
  "Amount[0]":0,
  "Ingredient[1]":0,
  "Amount[1]":0,
  "Ingredient[2]":0,
  "Amount[2]":0,
  "UnlockRank":0,
  "Time":0,
  "Value":0
}
]
