﻿[
{
  "Id":0,
  "Singular":"",
  "Plural":""
},
{
  "Id":1,
  "Singular":"Material",
  "Plural":"Materials"
},
{
  "Id":2,
  "Singular":"Rare Material",
  "Plural":"Rare Materials"
},
{
  "Id":3,
  "Singular":"Gardening Starter",
  "Plural":"Gardening Starters"
},
{
  "Id":4,
  "Singular":"Produce",
  "Plural":"Produce"
},
{
  "Id":5,
  "Singular":"Leavings",
  "Plural":"Leavings"
},
{
  "Id":6,
  "Singular":"Feed",
  "Plural":"Feed"
},
{
  "Id":7,
  "Singular":"Restraint",
  "Plural":"Restraints"
},
{
  "Id":8,
  "Singular":"Tool",
  "Plural":"Tools"
},
{
  "Id":9,
  "Singular":"Isleworks Handicraft",
  "Plural":"Isleworks Handicrafts"
},
{
  "Id":10,
  "Singular":"●手形",
  "Plural":""
}
]
