﻿[
{
  "Id":0,
  "Quest":0
},
{
  "Id":1,
  "Quest":66260
},
{
  "Id":2,
  "Quest":66260
},
{
  "Id":3,
  "Quest":66391
},
{
  "Id":4,
  "Quest":66503
},
{
  "Id":5,
  "Quest":66393
},
{
  "Id":6,
  "Quest":66393
},
{
  "Id":7,
  "Quest":66260
},
{
  "Id":8,
  "Quest":66260
},
{
  "Id":9,
  "Quest":66312
},
{
  "Id":10,
  "Quest":66335
},
{
  "Id":11,
  "Quest":66260
},
{
  "Id":12,
  "Quest":66260
},
{
  "Id":13,
  "Quest":66054
},
{
  "Id":14,
  "Quest":66358
},
{
  "Id":15,
  "Quest":70058
},
{
  "Id":16,
  "Quest":66541
},
{
  "Id":17,
  "Quest":66488
},
{
  "Id":18,
  "Quest":67142
},
{
  "Id":19,
  "Quest":67183
},
{
  "Id":20,
  "Quest":67203
},
{
  "Id":21,
  "Quest":67152
},
{
  "Id":22,
  "Quest":67195
},
{
  "Id":23,
  "Quest":67162
},
{
  "Id":24,
  "Quest":67205
},
{
  "Id":25,
  "Quest":70058
},
{
  "Id":26,
  "Quest":70058
},
{
  "Id":27,
  "Quest":70058
},
{
  "Id":28,
  "Quest":68068
},
{
  "Id":29,
  "Quest":68080
},
{
  "Id":30,
  "Quest":68086
},
{
  "Id":31,
  "Quest":68089
},
{
  "Id":32,
  "Quest":68025
},
{
  "Id":33,
  "Quest":68032
},
{
  "Id":34,
  "Quest":68051
},
{
  "Id":35,
  "Quest":68089
},
{
  "Id":36,
  "Quest":407
},
{
  "Id":37,
  "Quest":408
},
{
  "Id":38,
  "Quest":409
},
{
  "Id":39,
  "Quest":410
},
{
  "Id":40,
  "Quest":411
},
{
  "Id":41,
  "Quest":412
},
{
  "Id":42,
  "Quest":241
},
{
  "Id":43,
  "Quest":242
},
{
  "Id":44,
  "Quest":422
},
{
  "Id":45,
  "Quest":423
},
{
  "Id":46,
  "Quest":424
},
{
  "Id":47,
  "Quest":425
},
{
  "Id":48,
  "Quest":426
},
{
  "Id":49,
  "Quest":427
},
{
  "Id":50,
  "Quest":67895
}
]
