﻿[
{
  "Id":0,
  "Name":"",
  "Description":""
},
{
  "Id":1,
  "Name":"A Cold Wind",
  "Description":"Échange au Gold Saucer"
},
{
  "Id":2,
  "Name":"Wailers And Waterwheels",
  "Description":"En vente à Gridania"
},
{
  "Id":3,
  "Name":"I Am the Sea",
  "Description":"En vente à Limsa Lominsa"
},
{
  "Id":4,
  "Name":"A New Hope",
  "Description":"En vente à Ul'dah"
},
{
  "Id":5,
  "Name":"Solid",
  "Description":"En vente à Ishgard"
},
{
  "Id":6,
  "Name":"The Waking Sands",
  "Description":"En vente dans le Thanalan"
},
{
  "Id":7,
  "Name":"Four-sided Circle",
  "Description":"Échange au Gold Saucer"
},
{
  "Id":8,
  "Name":"Sport of Kings",
  "Description":"Échange au Gold Saucer"
},
{
  "Id":9,
  "Name":"Another Round",
  "Description":"Synthèse (matériau principal échangé notamment au Mor Dhona)"
},
{
  "Id":10,
  "Name":"Painted Foothills",
  "Description":"Synthèse (matériau principal obtenu sur une cible d'élite de l'Avant-pays dravanien)"
},
{
  "Id":11,
  "Name":"Lost in the Clouds",
  "Description":"Synthèse (matériau principal obtenu sur une cible d'élite de L'Écume des cieux d'Abalathia)"
},
{
  "Id":12,
  "Name":"Prelude – Discoveries",
  "Description":"Haut fait \"Mélomane mécanique I\""
},
{
  "Id":13,
  "Name":"Agent of Inquiry",
  "Description":"Échange au Gold Saucer"
},
{
  "Id":14,
  "Name":"The Only Path",
  "Description":"Synthèse (matériau principal obtenu via la chasse au trésor)"
},
{
  "Id":15,
  "Name":"A World Apart",
  "Description":"Synthèse (matériau principal obtenu via les expéditions en aéronef)"
},
{
  "Id":16,
  "Name":"Pa-Paya",
  "Description":"Récompense d'événement saisonnier"
},
{
  "Id":17,
  "Name":"Tenacity",
  "Description":"Échange à Ishgard"
},
{
  "Id":18,
  "Name":"Blood for Blood",
  "Description":"Synthèse (matériau principal échangé à l'Antre des loups)"
},
{
  "Id":19,
  "Name":"Starved",
  "Description":"Synthèse (matériau principal échangé à l'Antre des loups)"
},
{
  "Id":20,
  "Name":"Riptide",
  "Description":"Synthèse (matériau principal obtenu à Sastasha (brutal))"
},
{
  "Id":21,
  "Name":"Dark Vows",
  "Description":"Synthèse (matériau principal obtenu à l'Hypogée de Tam-Tara (normal ou brutal))"
},
{
  "Id":22,
  "Name":"The Dark's Embrace",
  "Description":"Synthèse (matériau principal obtenu aux Mines de Clochecuivre (brutal))"
},
{
  "Id":23,
  "Name":"A Light in the Storm",
  "Description":"Synthèse (matériau principal obtenu au Phare de Sirius)"
},
{
  "Id":24,
  "Name":"Imagination",
  "Description":"Synthèse (matériau principal obtenu au Laboratoire de magismologie)"
},
{
  "Id":25,
  "Name":"Down the Up Staircase",
  "Description":"Synthèse (matériau principal obtenu à l'Antitour)"
},
{
  "Id":26,
  "Name":"The Scars of Battle",
  "Description":"Synthèse (matériau principal obtenu dans les Vestiges de la cité d'Amdapor)"
},
{
  "Id":27,
  "Name":"Torn from the Heavens",
  "Description":"Échange au Gold Saucer"
},
{
  "Id":28,
  "Name":"Ultima",
  "Description":"Haut fait \"Mélomane mécanique II\""
},
{
  "Id":29,
  "Name":"The Maker's Ruin",
  "Description":"Synthèse (matériau principal obtenu dans un défi du ménestrel errant dans A Realm Reborn)<br />* Meilleures chances d'obtention au niveau d'objet minimum"
},
{
  "Id":30,
  "Name":"Primal Judgment",
  "Description":"Synthèse (matériau principal obtenu dans le défi \"Le Cratère des tisons (extrême)\")<br />* Meilleures chances d'obtention au niveau d'objet minimum"
},
{
  "Id":31,
  "Name":"Fallen Angel",
  "Description":"Synthèse (matériau principal obtenu dans le défi \"Hurlœil (extrême)\")<br />* Meilleures chances d'obtention au niveau d'objet minimum"
},
{
  "Id":32,
  "Name":"Under the Weight",
  "Description":"Synthèse (matériau principal obtenu dans le défi \"Le Nombril (extrême)\")<br />* Meilleures chances d'obtention au niveau d'objet minimum"
},
{
  "Id":33,
  "Name":"Heroes",
  "Description":"Synthèse (matériau principal obtenu dans un défi du ménestrel errant dans Heavensward)<br />* Meilleures chances d'obtention au niveau d'objet minimum"
},
{
  "Id":34,
  "Name":"Fiend",
  "Description":"Synthèse (matériau principal obtenu dans le défi \"Unité de contention S1P7 (extrême)\")<br />* Meilleures chances d'obtention au niveau d'objet minimum"
},
{
  "Id":35,
  "Name":"Hubris",
  "Description":"Synthèse (matériau principal obtenu dans le raid \"La Tour de Cristal - Dédale antique\")"
},
{
  "Id":36,
  "Name":"Tumbling Down",
  "Description":"Synthèse (matériau principal obtenu dans le raid \"La Tour de Cristal - Dédale antique\")"
},
{
  "Id":37,
  "Name":"Now I Know the Truth",
  "Description":"Synthèse (matériau principal obtenu dans le raid \"La Tour de Cristal - Tour de Syrcus\")"
},
{
  "Id":38,
  "Name":"Out of the Labyrinth",
  "Description":"Synthèse (matériau principal obtenu dans le raid \"La Tour de Cristal - Tour de Syrcus\")"
},
{
  "Id":39,
  "Name":"Blind to the Dark",
  "Description":"Synthèse (matériau principal obtenu dans le raid \"La Tour de Cristal - Monde des Ténèbres\")"
},
{
  "Id":40,
  "Name":"Hunger",
  "Description":"Synthèse (matériau principal obtenu dans le raid \"La Tour de Cristal - Monde des Ténèbres\")"
},
{
  "Id":41,
  "Name":"Eternal Wind",
  "Description":"Synthèse (matériau principal obtenu dans les raids \"La Tour de Cristal - Dédale antique\",<br />\"La Tour de Cristal - Tour de Syrcus\" et \"La Tour de Cristal - Monde des Ténèbres\")"
},
{
  "Id":42,
  "Name":"Thunderer",
  "Description":"Synthèse (matériau principal obtenu dans le raid \"Le Labyrinthe de Bahamut V\")<br />* Meilleures chances d'obtention au niveau d'objet minimum"
},
{
  "Id":43,
  "Name":"Rise of the White Raven",
  "Description":"Synthèse (matériau principal obtenu dans le raid \"Les Méandres de Bahamut IV\")<br />* Meilleures chances d'obtention au niveau d'objet minimum"
},
{
  "Id":44,
  "Name":"From the Ashes",
  "Description":"Synthèse (matériau principal obtenu dans le raid \"L'Abîme de Bahamut III\")<br />* Meilleures chances d'obtention au niveau d'objet minimum"
},
{
  "Id":45,
  "Name":"Answers",
  "Description":"Synthèse (matériau principal obtenu dans les raids \"Le Labyrinthe de Bahamut V\",<br />\"Les Méandres de Bahamut IV\" et \"L'Abîme de Bahamut IV\")<br />* Meilleures chances d'obtention au niveau d'objet minimum"
},
{
  "Id":46,
  "Name":"Contention",
  "Description":"Échange (notamment à Idyllée)"
},
{
  "Id":47,
  "Name":"When a Tree Falls",
  "Description":"Échange à Ishgard"
},
{
  "Id":48,
  "Name":"Sultana Dreaming",
  "Description":"En vente à Ul'dah"
},
{
  "Id":49,
  "Name":"A Sailor Never Sleeps",
  "Description":"En vente à Limsa Lominsa"
},
{
  "Id":50,
  "Name":"Dance of the Fireflies",
  "Description":"En vente à Gridania"
},
{
  "Id":51,
  "Name":"Nobility Obliges",
  "Description":"En vente à Ishgard"
},
{
  "Id":52,
  "Name":"The Mushroomery",
  "Description":"En vente dans la caverne de Matoya"
},
{
  "Id":53,
  "Name":"Shelter",
  "Description":"En vente à La Penne"
},
{
  "Id":54,
  "Name":"Against the Wind",
  "Description":"Synthèse (matériau principal obtenu sur une cible d'élite des Hautes terres du Coerthas occidental)"
},
{
  "Id":55,
  "Name":"Landlords",
  "Description":"Synthèse (matériau principal obtenu sur une cible d'élite de L'Écume des cieux de Dravania)"
},
{
  "Id":56,
  "Name":"Missing Pages",
  "Description":"Synthèse (matériau principal obtenu sur une cible d'élite de l'Arrière-pays dravanien)"
},
{
  "Id":57,
  "Name":"To the Sun",
  "Description":"En vente à Ul'dah"
},
{
  "Id":58,
  "Name":"On Westerly Winds",
  "Description":"En vente à Limsa Lominsa"
},
{
  "Id":59,
  "Name":"Serenity",
  "Description":"En vente à Gridania"
},
{
  "Id":60,
  "Name":"Moonfire Faire",
  "Description":"Récompense d'événement saisonnier"
},
{
  "Id":61,
  "Name":"Heavensward",
  "Description":"Récompense d'événement saisonnier"
},
{
  "Id":62,
  "Name":"The Warrens",
  "Description":"Manteneige"
},
{
  "Id":63,
  "Name":"Ominous Prognisticks",
  "Description":"Échange (notamment à Idyllée)"
},
{
  "Id":64,
  "Name":"Ink Long Dry",
  "Description":"La Grande bibliothèque de Gubal"
},
{
  "Id":65,
  "Name":"Unbreakable",
  "Description":"Le Continuum fractal"
},
{
  "Id":66,
  "Name":"Apologies",
  "Description":"Sohr Khai"
},
{
  "Id":67,
  "Name":"Horizons Calling",
  "Description":"L'Île de Crèvecarène"
},
{
  "Id":68,
  "Name":"Wreck to the Seaman",
  "Description":"Synthèse (matériau principal obtenu dans le défi \"Le Briseur de marées (extrême)\")<br />* Meilleures chances d'obtention au niveau d'objet minimum"
},
{
  "Id":69,
  "Name":"Through the Maelstrom",
  "Description":"Synthèse (matériau principal obtenu dans le défi \"Le Briseur de marées (extrême)\")<br />* Meilleures chances d'obtention au niveau d'objet minimum"
},
{
  "Id":70,
  "Name":"Good King Moggle Mog XII",
  "Description":"Synthèse (matériau principal obtenu dans le défi \"La Lisière de ronces (extrême)\")<br />* Meilleures chances d'obtention au niveau d'objet minimum"
},
{
  "Id":71,
  "Name":"Revenge of the Horde",
  "Description":"Synthèse (matériau principal obtenu dans un défi du ménestrel errant dans Heavensward)<br />* Meilleures chances d'obtention au niveau d'objet minimum"
},
{
  "Id":72,
  "Name":"Battle on the Big Bridge",
  "Description":"Synthèse (matériau principal obtenu dans les défis \"Affrontement sur le grand pont\" et \"Revanche au vieux château\")"
},
{
  "Id":73,
  "Name":"Battle to the Death - Heavensward",
  "Description":"Échange au Gold Saucer"
},
{
  "Id":74,
  "Name":"Engage",
  "Description":"Synthèse (matériau principal obtenu via les expéditions en aéronef)"
},
{
  "Id":75,
  "Name":"Defender of the Realm",
  "Description":"Haut fait \"Mélomane mécanique III\""
},
{
  "Id":76,
  "Name":"On Windy Meadows",
  "Description":"L'Aquapole"
},
{
  "Id":77,
  "Name":"Whisper of the Land",
  "Description":"L'Aquapole"
},
{
  "Id":78,
  "Name":"Twilight over Thanalan",
  "Description":"L'Aquapole"
},
{
  "Id":79,
  "Name":"Dragonsong",
  "Description":"Récompense de l'épopée"
},
{
  "Id":80,
  "Name":"All Saints' Wake",
  "Description":"Récompense d'événement saisonnier"
},
{
  "Id":81,
  "Name":"Up at Dawn",
  "Description":"Récompense d'événement saisonnier"
},
{
  "Id":82,
  "Name":"Starlight Celebration",
  "Description":"Récompense d'événement saisonnier"
},
{
  "Id":83,
  "Name":"Heavensturn",
  "Description":"Récompense d'événement saisonnier"
},
{
  "Id":84,
  "Name":"The Seventh Sun",
  "Description":"Haut fait \"Mélomane mécanique V\""
},
{
  "Id":85,
  "Name":"Smoulder",
  "Description":"Échange au camp de la Ligue des cendres"
},
{
  "Id":86,
  "Name":"Coming Home",
  "Description":"Échange à Ok' Gundu Nakki"
},
{
  "Id":87,
  "Name":"Nobility Sleeps",
  "Description":"En vente à Ishgard"
},
{
  "Id":88,
  "Name":"Night in the Brume",
  "Description":"En vente à Ishgard"
},
{
  "Id":89,
  "Name":"Behind Closed Doors",
  "Description":"En vente à Gridania, Ul'dah et Limsa Lominsa"
},
{
  "Id":90,
  "Name":"Reflections",
  "Description":"Échange (notamment au Mor Dhona)"
},
{
  "Id":91,
  "Name":"Close to the Heavens",
  "Description":"Synthèse (matériau principal obtenu sur une cible d'élite de L'Écume des cieux d'Abalathia)"
},
{
  "Id":92,
  "Name":"Unspoken",
  "Description":"L'Aquapole"
},
{
  "Id":93,
  "Name":"Where the Heart Is",
  "Description":"En vente aux quartiers résidentiels"
},
{
  "Id":94,
  "Name":"Homestead",
  "Description":"En vente à Idyllée"
},
{
  "Id":95,
  "Name":"Calamity Unbound",
  "Description":"L'Aquapole"
},
{
  "Id":96,
  "Name":"Battle Theme 1.x",
  "Description":"Échange au Gold Saucer"
},
{
  "Id":97,
  "Name":"Blackbosom",
  "Description":"Palais des morts"
},
{
  "Id":98,
  "Name":"Fog of Phantom",
  "Description":"Échange au Moulin de la Carrière (seulement après avoir conquis le 150e sous-sol du Palais des morts)"
},
{
  "Id":99,
  "Name":"Blasphemous Experiment",
  "Description":"Échange au Moulin de la Carrière (seulement après avoir conquis le 100e sous-sol du Palais des morts)"
},
{
  "Id":100,
  "Name":"Notice of Death",
  "Description":"Échange au Moulin de la Carrière (seulement après avoir conquis le 200e sous-sol du Palais des morts)"
},
{
  "Id":101,
  "Name":"Slumber Eternal",
  "Description":"Sohm Al"
},
{
  "Id":102,
  "Name":"Silver Tears",
  "Description":"Le Gardien du lac"
},
{
  "Id":103,
  "Name":"Grounded",
  "Description":"Récompense de l'épopée"
},
{
  "Id":104,
  "Name":"Footsteps in the Snow",
  "Description":"Synthèse (matériau principal obtenu dans le défi \"L'Amphithéâtre d'Akh Afah (extrême)\")<br />* Meilleures chances d'obtention au niveau d'objet minimum"
},
{
  "Id":105,
  "Name":"Oblivion",
  "Description":"Synthèse (matériau principal obtenu dans le défi \"L'Amphithéâtre d'Akh Afah (extrême)\")<br />* Meilleures chances d'obtention au niveau d'objet minimum"
},
{
  "Id":106,
  "Name":"Thunder Rolls",
  "Description":"Synthèse (matériau principal obtenu dans le défi \"L'Arbre du jugement (extrême)\")<br />* Meilleures chances d'obtention au niveau d'objet minimum"
},
{
  "Id":107,
  "Name":"Equilibrium",
  "Description":"Synthèse (matériau principal obtenu dans le défi \"Unité de contention P1P6 (extrême)\")<br />* Meilleures chances d'obtention au niveau d'objet minimum"
},
{
  "Id":108,
  "Name":"Sins of the Father, Sins of the Son",
  "Description":"Récompense de quête"
},
{
  "Id":109,
  "Name":"Locus",
  "Description":"Récompense de quête"
},
{
  "Id":110,
  "Name":"Metal",
  "Description":"Récompense de quête"
},
{
  "Id":111,
  "Name":"Metal - Brute Justice Mode",
  "Description":"Récompense de quête"
},
{
  "Id":112,
  "Name":"Exponential Entropy",
  "Description":"Récompense de quête"
},
{
  "Id":113,
  "Name":"Rise",
  "Description":"Récompense de quête"
},
{
  "Id":114,
  "Name":"Borderless (Duality)",
  "Description":"Code promotionnel"
},
{
  "Id":115,
  "Name":"Unbending Steel (Duality)",
  "Description":"Code promotionnel"
},
{
  "Id":116,
  "Name":"The Kiss",
  "Description":"Récompense d'événement saisonnier"
},
{
  "Id":117,
  "Name":"Flibbertigibbet",
  "Description":"Échange au Refuge"
},
{
  "Id":118,
  "Name":"Piece of Mind",
  "Description":"Échange à Loth ast Vath"
},
{
  "Id":119,
  "Name":"Frontiers Within",
  "Description":"Échange (notamment au Mor Dhona)"
},
{
  "Id":120,
  "Name":"Fleeting Rays",
  "Description":"En vente au Viaduc"
},
{
  "Id":121,
  "Name":"Saltswept",
  "Description":"En vente à Port-aux-Ales"
},
{
  "Id":122,
  "Name":"Thicker than a Knife's Blade",
  "Description":"Échange au Chevalier oublié"
},
{
  "Id":123,
  "Name":"Jewel",
  "Description":"Échange à Azurée et coffre verrouillé du Diadème"
},
{
  "Id":124,
  "Name":"He who Continues the Attack",
  "Description":"Récompense de quête"
},
{
  "Id":125,
  "Name":"Imperial Will",
  "Description":"Récompense de l'épopée"
},
{
  "Id":126,
  "Name":"Steel Reason",
  "Description":"Récompense de l'épopée"
},
{
  "Id":127,
  "Name":"Canticle",
  "Description":"En vente aux quartiers résidentiels"
},
{
  "Id":128,
  "Name":"Forever Lost",
  "Description":"Récompense de l'épopée"
},
{
  "Id":129,
  "Name":"Breaking Boundaries",
  "Description":"L'Aquapole"
},
{
  "Id":130,
  "Name":"Hallowed Halls",
  "Description":"La Voûte"
},
{
  "Id":131,
  "Name":"Quicksand",
  "Description":"Récompense de quête"
},
{
  "Id":132,
  "Name":"Another Brick",
  "Description":"Récompense de l'épopée"
},
{
  "Id":133,
  "Name":"The Corpse Hall",
  "Description":"Synthèse (matériau principal obtenu dans le défi \"La Fontaine d'Urth\")<br />* Meilleures chances d'obtention au niveau d'objet minimum"
},
{
  "Id":134,
  "Name":"Limitless Blue",
  "Description":"Synthèse (matériau principal obtenu dans le défi \"L'Immensité bleue (extrême)\")<br />* Meilleures chances d'obtention au niveau d'objet minimum"
},
{
  "Id":135,
  "Name":"Woe that Is Madness",
  "Description":"Synthèse (matériau principal obtenu dans le défi \"L'Immensité bleue (extrême)\")<br />* Meilleures chances d'obtention au niveau d'objet minimum"
},
{
  "Id":136,
  "Name":"The Hand that Gives the Rose",
  "Description":"Synthèse (matériau principal obtenu dans le défi \"Thok ast Thok (extrême)\")<br />* Meilleures chances d'obtention au niveau d'objet minimum"
},
{
  "Id":137,
  "Name":"Unbending Steel",
  "Description":"Synthèse (matériau principal obtenu dans le défi \"Thok ast Thok (extrême)\")<br />* Meilleures chances d'obtention au niveau d'objet minimum"
},
{
  "Id":138,
  "Name":"Infinity",
  "Description":"Synthèse (matériau principal obtenu dans le défi \"Unité de contention Z1P9 (extrême)\")<br />* Meilleures chances d'obtention au niveau d'objet minimum"
},
{
  "Id":139,
  "Name":"Tempest",
  "Description":"Échange au Gold Saucer"
},
{
  "Id":140,
  "Name":"Spiral",
  "Description":"Échange au Gold Saucer"
},
{
  "Id":141,
  "Name":"Moebius",
  "Description":"Échange (notamment à Idyllée)"
},
{
  "Id":142,
  "Name":"Aetherosphere",
  "Description":"Échange (notamment à Idyllée)"
},
{
  "Id":143,
  "Name":"Six Fulms Under",
  "Description":"Échange (notamment à Idyllée)"
},
{
  "Id":144,
  "Name":"Teardrops in the Rain",
  "Description":"Échange (notamment à Idyllée)"
},
{
  "Id":145,
  "Name":"A Thousand Faces",
  "Description":"Échange (notamment à Idyllée)"
},
{
  "Id":146,
  "Name":"Promises",
  "Description":"Récompense de quête"
},
{
  "Id":147,
  "Name":"Shadow of the Body",
  "Description":"Récompense de quête"
},
{
  "Id":148,
  "Name":"Hyper Rainbow Z",
  "Description":"Récompense d'événement saisonnier"
},
{
  "Id":149,
  "Name":"Answers - Reprise",
  "Description":"Récompense d'événement saisonnier"
},
{
  "Id":150,
  "Name":"Stormblood",
  "Description":"Récompense d'événement saisonnier"
},
{
  "Id":151,
  "Name":"Vagues calmes",
  "Description":"En vente aux quartiers résidentiels"
},
{
  "Id":152,
  "Name":"Gazouillement délicat",
  "Description":"En vente aux quartiers résidentiels"
},
{
  "Id":153,
  "Name":"Bruissement de la pluie",
  "Description":"En vente aux quartiers résidentiels"
},
{
  "Id":154,
  "Name":"Chant des cigales",
  "Description":"En vente aux quartiers résidentiels"
},
{
  "Id":155,
  "Name":"Poison Ivy",
  "Description":"L'Arboretum Sainte-Mocianne"
},
{
  "Id":156,
  "Name":"Bibliophobia",
  "Description":"La Grande bibliothèque de Gubal (brutal)"
},
{
  "Id":157,
  "Name":"Revelation",
  "Description":"Synthèse (matériau principal obtenu dans le défi \"La Crique aux tributs (extrême)\")<br />* Meilleures chances d'obtention au niveau d'objet minimum"
},
{
  "Id":158,
  "Name":"Beauty's Wicked Wiles",
  "Description":"Synthèse (matériau principal obtenu dans le défi \"Émanation (extrême)\")<br />* Meilleures chances d'obtention au niveau d'objet minimum"
},
{
  "Id":159,
  "Name":"Skylords",
  "Description":"Synthèse (matériau principal obtenu sur une cible d'élite de L'Écume des cieux de Dravania)"
},
{
  "Id":160,
  "Name":"The Silent Regard of Stars",
  "Description":"Synthèse (matériau principal obtenu sur une cible d'élite de l'Arrière-pays dravanien)"
},
{
  "Id":161,
  "Name":"Beyond the Wall",
  "Description":"ALÉA dans Les Marges de Gyr Abania \"Défi : mauvaise graine\""
},
{
  "Id":162,
  "Name":"Liquid Flame",
  "Description":"ALÉA dans la Mer de Rubis \"Défi : amocher les daimyo\""
},
{
  "Id":163,
  "Name":"Drowning in the Horizon",
  "Description":"Échange à L'Étendue de Rhalgr et à Kugane"
},
{
  "Id":164,
  "Name":"The Edge",
  "Description":"En vente à Port-aux-Vins"
},
{
  "Id":165,
  "Name":"Navigator's Glory - The Theme of Limsa Lominsa",
  "Description":"Les Canaux perdus d'Uznair et les Canaux cachés d'Uznair"
},
{
  "Id":166,
  "Name":"Born of the Boughs - The Theme of Gridania",
  "Description":"Les Canaux perdus d'Uznair et les Canaux cachés d'Uznair"
},
{
  "Id":167,
  "Name":"The Twin Faces of Fate - The Theme of Ul'dah",
  "Description":"Les Canaux perdus d'Uznair et les Canaux cachés d'Uznair"
},
{
  "Id":168,
  "Name":"Bruits d'insectes",
  "Description":"En vente aux quartiers résidentiels"
},
{
  "Id":169,
  "Name":"Feu de camp",
  "Description":"En vente aux quartiers résidentiels"
},
{
  "Id":170,
  "Name":"Cuisine du matin",
  "Description":"En vente aux quartiers résidentiels"
},
{
  "Id":171,
  "Name":"Birds of Prey",
  "Description":"Échange à l'Antre des loups"
},
{
  "Id":172,
  "Name":"The Measure of His Reach",
  "Description":"Récompense de l'épopée"
},
{
  "Id":173,
  "Name":"The Measure of Our Reach",
  "Description":"Récompense de l'épopée"
},
{
  "Id":174,
  "Name":"Impact",
  "Description":"Échange (notamment à L'Étendue de Rhalgr)"
},
{
  "Id":175,
  "Name":"Crimson Sunrise",
  "Description":"Les Canaux perdus d'Uznair ou les Canaux cachés d'Uznair"
},
{
  "Id":176,
  "Name":"On High",
  "Description":"Échange (notamment à L'Étendue de Rhalgr)"
},
{
  "Id":177,
  "Name":"Songs of Salt and Suffering",
  "Description":"Échange (notamment à L'Étendue de Rhalgr)"
},
{
  "Id":178,
  "Name":"A Father's Pride",
  "Description":"Les Canaux perdus d'Uznair ou les Canaux cachés d'Uznair"
},
{
  "Id":179,
  "Name":"Indomitable",
  "Description":"Échange à Tamamizu"
},
{
  "Id":180,
  "Name":"The Open Box",
  "Description":"Le Palais aux Marées violettes"
},
{
  "Id":181,
  "Name":"Most Unworthy",
  "Description":"La Force de Bardam"
},
{
  "Id":182,
  "Name":"Deception",
  "Description":"Le Château de Kugane"
},
{
  "Id":183,
  "Name":"Far From Home",
  "Description":"La Cité engloutie de Skalla"
},
{
  "Id":184,
  "Name":"The Worm's Head",
  "Description":"Synthèse (matériau principal obtenu dans un défi du ménestrel errant dans Stormblood)<br />* Meilleures chances d'obtention au niveau d'objet minimum"
},
{
  "Id":185,
  "Name":"The Worm's Tail",
  "Description":"Synthèse (matériau principal obtenu dans un défi du ménestrel errant dans Stormblood)<br />* Meilleures chances d'obtention au niveau d'objet minimum"
},
{
  "Id":186,
  "Name":"Trisection",
  "Description":"La Cité royale de Rabanastre"
},
{
  "Id":187,
  "Name":"Precipitous Combat",
  "Description":"La Cité royale de Rabanastre"
},
{
  "Id":188,
  "Name":"Ultima's Transformation",
  "Description":"La Cité royale de Rabanastre"
},
{
  "Id":189,
  "Name":"Protagonist's Theme",
  "Description":"Récompense de quête"
},
{
  "Id":190,
  "Name":"Background Story",
  "Description":"Récompense de quête"
},
{
  "Id":191,
  "Name":"Ultima (Orchestral Version)",
  "Description":"Code promotionnel"
},
{
  "Id":192,
  "Name":"Heroes (Orchestral Version)",
  "Description":"Code promotionnel"
},
{
  "Id":193,
  "Name":"Starlit Gateway",
  "Description":"Récompense d'événement saisonnier"
},
{
  "Id":194,
  "Name":"Chant du ruisseau",
  "Description":"En vente aux quartiers résidentiels"
},
{
  "Id":195,
  "Name":"Rue animée",
  "Description":"En vente aux quartiers résidentiels"
},
{
  "Id":196,
  "Name":"Cloche de temple",
  "Description":"En vente aux quartiers résidentiels"
},
{
  "Id":197,
  "Name":"Cloche de chapelle",
  "Description":"En vente aux quartiers résidentiels"
},
{
  "Id":198,
  "Name":"Cyan's Theme",
  "Description":"Récompense de quête"
},
{
  "Id":199,
  "Name":"Iroha",
  "Description":"Récompense de quête"
},
{
  "Id":200,
  "Name":"Daring Dalliances",
  "Description":"Échange au Gold Saucer"
},
{
  "Id":201,
  "Name":"Prelude - Long March Home",
  "Description":"Haut fait \"Mélomane mécanique VI\""
},
{
  "Id":202,
  "Name":"Rival Wings",
  "Description":"Échange à l'Antre des loups"
},
{
  "Id":203,
  "Name":"Crimson Sunset",
  "Description":"Les Canaux cachés d'Uznair"
},
{
  "Id":204,
  "Name":"Westward Tide",
  "Description":"Échange (notamment à L'Étendue de Rhalgr)"
},
{
  "Id":205,
  "Name":"Mother's Pride",
  "Description":"Les Canaux cachés d'Uznair"
},
{
  "Id":206,
  "Name":"He Rises Above",
  "Description":"Échange (notamment à L'Étendue de Rhalgr)"
},
{
  "Id":207,
  "Name":"Keepers of the Lock",
  "Description":"Échange à Castellum Velodyna"
},
{
  "Id":208,
  "Name":"Wicked Winds Whisper",
  "Description":"Coffre verrouillé d'Eurêka Anemos"
},
{
  "Id":209,
  "Name":"No Quarter",
  "Description":"Coffre verrouillé d'Eurêka Anemos"
},
{
  "Id":210,
  "Name":"Down Where Daemons Dwell",
  "Description":"Le Couvercle des enfers"
},
{
  "Id":211,
  "Name":"Unbreakable (Duality)",
  "Description":"Le Continuum fractal (brutal)"
},
{
  "Id":212,
  "Name":"Their Deadly Mission",
  "Description":"Le Temple du Poing"
},
{
  "Id":213,
  "Name":"Liberty or Death",
  "Description":"Ala Mhigo"
},
{
  "Id":214,
  "Name":"Triumph",
  "Description":"Échange au Gold Saucer"
},
{
  "Id":215,
  "Name":"Answer on High",
  "Description":"Synthèse (matériau principal obtenu dans le défi \"La Clairière de Jade (extrême)\")<br />* Meilleures chances d'obtention au niveau d'objet minimum"
},
{
  "Id":216,
  "Name":"Amatsu Kaze",
  "Description":"Synthèse (matériau principal obtenu dans le défi \"La Clairière de Jade (extrême)\")<br />* Meilleures chances d'obtention au niveau d'objet minimum"
},
{
  "Id":217,
  "Name":"Revenge Twofold",
  "Description":"Échange au Gold Saucer"
},
{
  "Id":218,
  "Name":"Shattered",
  "Description":"La Tour de Cristal - Tour de Syrcus"
},
{
  "Id":219,
  "Name":"Fragments of Forever",
  "Description":"En vente aux quartiers résidentiels"
},
{
  "Id":220,
  "Name":"Siren Song",
  "Description":"Récompense d'événement saisonnier"
},
{
  "Id":221,
  "Name":"Tintement de carillon à vent",
  "Description":"En vente aux quartiers résidentiels"
},
{
  "Id":222,
  "Name":"Ambiance sous-marine",
  "Description":"Synthèse (matériau principal obtenu via les expéditions en sous-marin)"
},
{
  "Id":223,
  "Name":"Victory or Death",
  "Description":"En vente au quartier enclavé"
},
{
  "Id":224,
  "Name":"Far East of Eorzea",
  "Description":"Échange à L'Entorse"
},
{
  "Id":225,
  "Name":"Parting Ways",
  "Description":"Pilier des Cieux"
},
{
  "Id":226,
  "Name":"Revolutions",
  "Description":"Récompense d'événement saisonnier"
},
{
  "Id":227,
  "Name":"The Ancient City",
  "Description":"Les Vestiges de la cité d'Amdapor (brutal)"
},
{
  "Id":228,
  "Name":"Gates of the Moon",
  "Description":"Le Château de Doma"
},
{
  "Id":229,
  "Name":"Earth, Wind, and Water",
  "Description":"Le Compas de l'Hirondelle"
},
{
  "Id":230,
  "Name":"Black and White",
  "Description":"Synthèse (matériau principal obtenu sur une cible d'élite des Hautes terres du Coerthas occidental)"
},
{
  "Id":231,
  "Name":"Seven Hundred Seventy-Seven Whiskers",
  "Description":"Échange à Dhoro Iloh"
},
{
  "Id":232,
  "Name":"World Map",
  "Description":"Récompense de quête"
},
{
  "Id":233,
  "Name":"A Chapel",
  "Description":"Récompense de quête"
},
{
  "Id":234,
  "Name":"The Mystery of Giruvegan",
  "Description":"Le Phare de Ridorana"
},
{
  "Id":235,
  "Name":"Apoplexy",
  "Description":"Le Phare de Ridorana"
},
{
  "Id":236,
  "Name":"Flash of Steel",
  "Description":"Le Phare de Ridorana"
},
{
  "Id":237,
  "Name":"Cornerstone of the New World - Astera",
  "Description":"Échange à Kugane"
},
{
  "Id":238,
  "Name":"Savage of the Ancient Forest",
  "Description":"Échange à Kugane"
},
{
  "Id":239,
  "Name":"Proof of a Hero - Monster Hunter: World Version",
  "Description":"Chasse au Rathalos (extrême)"
},
{
  "Id":240,
  "Name":"Nightbloom",
  "Description":"Synthèse (matériau principal obtenu dans un défi du ménestrel errant dans Stormblood)<br />* Meilleures chances d'obtention au niveau d'objet minimum"
},
{
  "Id":241,
  "Name":"Wayward Daughter",
  "Description":"Synthèse (matériau principal obtenu dans un défi du ménestrel errant dans Stormblood)<br />* Meilleures chances d'obtention au niveau d'objet minimum"
},
{
  "Id":242,
  "Name":"Rise of the White Raven (Orchestral Version)",
  "Description":"Achat sur la boutique en ligne ou obtention en tant qu'objet bonus"
},
{
  "Id":243,
  "Name":"Revenge Twofold (Orchestral Version)",
  "Description":"Achat sur la boutique en ligne ou obtention en tant qu'objet bonus"
},
{
  "Id":244,
  "Name":"Oblivion (Orchestral Version)",
  "Description":"Achat sur la boutique en ligne ou obtention en tant qu'objet bonus"
},
{
  "Id":245,
  "Name":"Starlight, Starbright",
  "Description":"Récompense d'événement saisonnier"
},
{
  "Id":246,
  "Name":"Cradle",
  "Description":"En vente dans le quartier enclavé de Doma"
},
{
  "Id":247,
  "Name":"Upon the Rocks",
  "Description":"Le Phare de Sirius (brutal) et le Kupo de la fortune d'Azurée"
},
{
  "Id":248,
  "Name":"Tricksome",
  "Description":"Le Palais du Vagabond (brutal) et le Kupo de la fortune d'Azurée"
},
{
  "Id":249,
  "Name":"Beneath Bloodied Banners",
  "Description":"Halatali (brutal)"
},
{
  "Id":250,
  "Name":"From Mud",
  "Description":"L'Arboretum Sainte-Mocianne (brutal)"
},
{
  "Id":251,
  "Name":"A Land Long Dead",
  "Description":"L'Escarre"
},
{
  "Id":252,
  "Name":"Sunrise",
  "Description":"Synthèse (matériau principal obtenu dans le défi \"Le Nid des Lamentations (extrême)\")<br />* Meilleures chances d'obtention au niveau d'objet minimum"
},
{
  "Id":253,
  "Name":"Omega Squared",
  "Description":"Deltastice v1.0 à v3.0"
},
{
  "Id":254,
  "Name":"Decisions (Omega)",
  "Description":"Deltastice v4.0"
},
{
  "Id":255,
  "Name":"Final, Not Final",
  "Description":"Échange (notamment à L'Étendue de Rhalgr)"
},
{
  "Id":256,
  "Name":"A Battle Decisively",
  "Description":"Sigmastice v1.0 à v3.0"
},
{
  "Id":257,
  "Name":"Dancing Mad - Movement I",
  "Description":"Sigmastice v4.0"
},
{
  "Id":258,
  "Name":"Dancing Mad - Movement II",
  "Description":"Sigmastice v4.0"
},
{
  "Id":259,
  "Name":"Dancing Mad - Movement III",
  "Description":"Sigmastice v4.0"
},
{
  "Id":260,
  "Name":"Dancing Mad - Movement IV",
  "Description":"Échange (notamment à L'Étendue de Rhalgr)"
},
{
  "Id":261,
  "Name":"Battle",
  "Description":"Alphastice v1.0"
},
{
  "Id":262,
  "Name":"Primogenitor",
  "Description":"Alphastice v2.0"
},
{
  "Id":263,
  "Name":"eScape",
  "Description":"Alphastice v3.0"
},
{
  "Id":264,
  "Name":"Heartless",
  "Description":"Alphastice v4.0"
},
{
  "Id":265,
  "Name":"Deltascape",
  "Description":"Récompense de quête"
},
{
  "Id":266,
  "Name":"A Dream in Flight",
  "Description":"Récompense de quête"
},
{
  "Id":267,
  "Name":"Ending",
  "Description":"Récompense de quête"
},
{
  "Id":268,
  "Name":"From the Dragon's Wake",
  "Description":"Synthèse (matériau principal obtenu dans le défi \"L'Îlot des Amertumes (extrême)\")<br />* Meilleures chances d'obtention au niveau d'objet minimum"
},
{
  "Id":269,
  "Name":"A Pall Most Murderous",
  "Description":"Les Ténèbres de Ghimlyt"
},
{
  "Id":270,
  "Name":"Game Theory",
  "Description":"Échange au Gold Saucer"
},
{
  "Id":271,
  "Name":"Doman Distractions",
  "Description":"Haut fait \"Tuiles essentielles I\""
},
{
  "Id":272,
  "Name":"Serenity (Orchestral Version)",
  "Description":"Achat sur la boutique en ligne ou obtention en tant qu'objet bonus"
},
{
  "Id":273,
  "Name":"Calamity Unbound (Orchestral Version)",
  "Description":"Achat sur la boutique en ligne ou obtention en tant qu'objet bonus"
},
{
  "Id":274,
  "Name":"Ominous Prognisticks (Orchestral Version)",
  "Description":"Achat sur la boutique en ligne ou obtention en tant qu'objet bonus"
},
{
  "Id":275,
  "Name":"From the Heavens",
  "Description":"Échange (notamment à L'Étendue de Rhalgr)"
},
{
  "Id":276,
  "Name":"Rise of Heroes (Chiptune Version)",
  "Description":"Échange au Gold Saucer"
},
{
  "Id":277,
  "Name":"Wayward Daughter (Chiptune Version)",
  "Description":"Code promotionnel"
},
{
  "Id":278,
  "Name":"The Worm's Tail (Chiptune Version)",
  "Description":"Code promotionnel"
},
{
  "Id":279,
  "Name":"Rise (The Primals)",
  "Description":"Code promotionnel"
},
{
  "Id":280,
  "Name":"Oblivion (GUNN Vocals)",
  "Description":"Code promotionnel"
},
{
  "Id":281,
  "Name":"Painted Foothills (Orchestral Version)",
  "Description":"Achat sur la boutique en ligne ou obtention en tant qu'objet bonus"
},
{
  "Id":282,
  "Name":"Moebius (Orchestral Version)",
  "Description":"Achat sur la boutique en ligne ou obtention en tant qu'objet bonus"
},
{
  "Id":283,
  "Name":"Afterglow",
  "Description":"Échange (notamment à L'Étendue de Rhalgr)"
},
{
  "Id":284,
  "Name":"Hope Forgotten",
  "Description":"Échange (notamment à L'Étendue de Rhalgr)"
},
{
  "Id":285,
  "Name":"The Stone Remembers",
  "Description":"Échange (notamment à L'Étendue de Rhalgr)"
},
{
  "Id":286,
  "Name":"Old Wounds",
  "Description":"Échange (notamment à L'Étendue de Rhalgr)"
},
{
  "Id":287,
  "Name":"Harmony",
  "Description":"Échange (notamment à L'Étendue de Rhalgr)"
},
{
  "Id":288,
  "Name":"Gates of Paradise - The Garden of Ru'Hmet",
  "Description":"Coffre verrouillé d'Eurêka Hydatos"
},
{
  "Id":289,
  "Name":"Onslaught",
  "Description":"Coffre rouillé verrouillé d'Eurêka Hydatos"
},
{
  "Id":290,
  "Name":"Turmoil",
  "Description":"L'Arsenal de Baldesion d'Eurêka Hydatos"
},
{
  "Id":291,
  "Name":"Beyond Redemption",
  "Description":"Échange à Vieille Gridania"
},
{
  "Id":292,
  "Name":"Staff Credits",
  "Description":"Récompense de quête"
},
{
  "Id":293,
  "Name":"Alma's Theme",
  "Description":"Récompense de quête"
},
{
  "Id":294,
  "Name":"Under the Stars",
  "Description":"Le Monastère d'Orbonne"
},
{
  "Id":295,
  "Name":"Pressure (No. 1)",
  "Description":"Le Monastère d'Orbonne"
},
{
  "Id":296,
  "Name":"Antipyretic",
  "Description":"Le Monastère d'Orbonne"
},
{
  "Id":297,
  "Name":"A Man Consumed",
  "Description":"Le Monastère d'Orbonne"
},
{
  "Id":298,
  "Name":"Ultima's Perfection",
  "Description":"Le Monastère d'Orbonne"
},
{
  "Id":299,
  "Name":"Hammerhead",
  "Description":"Échange à la gare de Roncenoire, à Gridania, à Ul'dah et à Limsa Lominsa"
},
{
  "Id":300,
  "Name":"Valse di Fantastica",
  "Description":"Échange à la gare de Roncenoire, à Gridania, à Ul'dah et à Limsa Lominsa"
},
{
  "Id":301,
  "Name":"Relax and Reflect",
  "Description":"Échange à la gare de Roncenoire, à Gridania, à Ul'dah et à Limsa Lominsa"
},
{
  "Id":302,
  "Name":"Veiled in Black",
  "Description":"Échange à la gare de Roncenoire, à Gridania, à Ul'dah et à Limsa Lominsa"
},
{
  "Id":303,
  "Name":"Apocalypsis Noctis",
  "Description":"Échange à la gare de Roncenoire, à Gridania, à Ul'dah et à Limsa Lominsa"
},
{
  "Id":304,
  "Name":"A Quick Pit Stop",
  "Description":"Échange à la gare de Roncenoire, à Gridania, à Ul'dah et à Limsa Lominsa"
},
{
  "Id":305,
  "Name":"The Worm's Tail (Journeys Version)",
  "Description":"Code promotionnel"
},
{
  "Id":306,
  "Name":"eScape (Journeys Version)",
  "Description":"Code promotionnel"
},
{
  "Id":307,
  "Name":"The Source",
  "Description":"Échange à Grand-Lac"
},
{
  "Id":308,
  "Name":"A World Divided",
  "Description":"Échange à Kholusia"
},
{
  "Id":309,
  "Name":"Sands of Amber",
  "Description":"Échange en Amh Araeng"
},
{
  "Id":310,
  "Name":"Fierce and Free",
  "Description":"Échange en Il Mheg"
},
{
  "Id":311,
  "Name":"Civilizations",
  "Description":"Échange à Rak'tika"
},
{
  "Id":312,
  "Name":"Full Fathom Five",
  "Description":"Échange quelque part en Norvrandt"
},
{
  "Id":313,
  "Name":"What Angel Wakes Me",
  "Description":"Synthèse (matériau principal obtenu dans le défi \"La Valse du Monarque (extrême)\")<br />* Meilleures chances d'obtention au niveau d'objet minimum"
},
{
  "Id":314,
  "Name":"Insanity",
  "Description":"Synthèse (matériau principal obtenu dans le défi \"La Couronne de l'Immaculé (extrême)\")<br />* Meilleures chances d'obtention au niveau d'objet minimum"
},
{
  "Id":315,
  "Name":"Shadowbringers",
  "Description":"Récompense de quête"
},
{
  "Id":316,
  "Name":"Tomorrow and Tomorrow",
  "Description":"Récompense de quête"
},
{
  "Id":317,
  "Name":"To Fire and Sword",
  "Description":"Holminster"
},
{
  "Id":318,
  "Name":"Figments",
  "Description":"Dohn Mheg"
},
{
  "Id":319,
  "Name":"Unwound",
  "Description":"L'Enchevêtrement des Qitari"
},
{
  "Id":320,
  "Name":"Deep Down",
  "Description":"Le Puits de Malikah"
},
{
  "Id":321,
  "Name":"In the Belly of the Beast",
  "Description":"Mont Gulg"
},
{
  "Id":322,
  "Name":"Mortal Instants",
  "Description":"Amaurote"
},
{
  "Id":323,
  "Name":"Shadows Withal",
  "Description":"Akadaemia Anydre"
},
{
  "Id":324,
  "Name":"A Long Fall",
  "Description":"La Macle de Syrcus"
},
{
  "Id":325,
  "Name":"Alienus",
  "Description":"Castrum Abania"
},
{
  "Id":326,
  "Name":"Fury",
  "Description":"Le Bivouac de Brayflox (brutal)"
},
{
  "Id":327,
  "Name":"Force Your Way",
  "Description":"L'Éveil d'Éden - Résurrection ou Descente"
},
{
  "Id":328,
  "Name":"Landslide",
  "Description":"L'Éveil d'Éden - Inhumation"
},
{
  "Id":329,
  "Name":"Rencounter",
  "Description":"Échange à Cristarium et à Eulmore"
},
{
  "Id":330,
  "Name":"Insatiable",
  "Description":"Le Donjon hypogéen du Lyhe Ghiah"
},
{
  "Id":331,
  "Name":"The Dark Which Illuminates the World",
  "Description":"Échange à Cristarium"
},
{
  "Id":332,
  "Name":"Indulgence",
  "Description":"Échange à Eulmore"
},
{
  "Id":333,
  "Name":"Blinding Indigo",
  "Description":"L'Éveil d'Éden - Déluge"
},
{
  "Id":334,
  "Name":"Knowledge Never Sleeps",
  "Description":"Échange à Cristarium"
},
{
  "Id":335,
  "Name":"Masquerade",
  "Description":"Échange à Eulmore"
},
{
  "Id":336,
  "Name":"Unchanging, Everchanging",
  "Description":"Échange à Grand-Lac"
},
{
  "Id":337,
  "Name":"The Quick Way",
  "Description":"Échange à Kholusia"
},
{
  "Id":338,
  "Name":"Sands of Blood",
  "Description":"Échange en Amh Araeng"
},
{
  "Id":339,
  "Name":"The Faerie Ring",
  "Description":"Échange en Il Mheg"
},
{
  "Id":340,
  "Name":"A Hopeless Race",
  "Description":"Échange à Rak'tika"
},
{
  "Id":341,
  "Name":"Neath Dark Waters",
  "Description":"Échange à La Tempête"
},
{
  "Id":342,
  "Name":"Pain in Pleasure",
  "Description":"Récompense de quête"
},
{
  "Id":343,
  "Name":"Invincible",
  "Description":"Synthèse (matériau principal obtenu dans un défi du ménestrel itinérant dans Shadowbringers)<br />* Meilleures chances d'obtention au niveau d'objet minimum"
},
{
  "Id":344,
  "Name":"The Grand Cosmos",
  "Description":"Le Cosmos Coruscant"
},
{
  "Id":345,
  "Name":"The Garden's Gates",
  "Description":"Échange en Il Mheg"
},
{
  "Id":346,
  "Name":"A Fierce Air Forceth",
  "Description":"Échange à l'Antre des loups"
},
{
  "Id":347,
  "Name":"A Fine Air Forbiddeth",
  "Description":"Échange à l'Antre des loups"
},
{
  "Id":348,
  "Name":"Starlight de Chocobo",
  "Description":"Récompense d'événement saisonnier"
},
{
  "Id":349,
  "Name":"Safety in Numbers",
  "Description":"Échange à Azurée"
},
{
  "Id":350,
  "Name":"Significance (Nothing)",
  "Description":"Récompense de quête"
},
{
  "Id":351,
  "Name":"City Ruins (Rays of Light)",
  "Description":"La réplique de l'usine désaffectée"
},
{
  "Id":352,
  "Name":"The Sound of the End",
  "Description":"La tour de la Contingence"
},
{
  "Id":353,
  "Name":"Voice of no Return (Guitar)",
  "Description":"Récompense de quête"
},
{
  "Id":354,
  "Name":"Alien Manifestation",
  "Description":"La réplique de l'usine désaffectée"
},
{
  "Id":355,
  "Name":"Song of the Ancients (Atonement)",
  "Description":"La réplique de l'usine désaffectée"
},
{
  "Id":356,
  "Name":"Bipolar Nightmare",
  "Description":"La réplique de l'usine désaffectée"
},
{
  "Id":357,
  "Name":"Weight of the World (Prelude Version)",
  "Description":"La réplique de l'usine désaffectée"
},
{
  "Id":358,
  "Name":"Tsukuyomi's Pain (Orchestral Version)",
  "Description":"Code promotionnel"
},
{
  "Id":359,
  "Name":"The Worm's Tail (Orchestral Version)",
  "Description":"Code promotionnel"
},
{
  "Id":360,
  "Name":"Nail of the Heavens",
  "Description":"Échange à Ul'dah"
},
{
  "Id":361,
  "Name":"Imperium",
  "Description":"Échange à Ul'dah"
},
{
  "Id":362,
  "Name":"Blue Fields",
  "Description":"Récompense de quête"
},
{
  "Id":363,
  "Name":"Twice Stricken",
  "Description":"Les Accords d'Éden - Fulmination"
},
{
  "Id":364,
  "Name":"Primal Angel",
  "Description":"Les Accords d'Éden - Fureur"
},
{
  "Id":365,
  "Name":"Return to Oblivion",
  "Description":"Les Accords d'Éden - Éclat"
},
{
  "Id":366,
  "Name":"Ultima (The Primals)",
  "Description":"Synthèse (matériau principal obtenu dans le défi \"Les Nuées de Brandons (extrême)\")<br />* Meilleures chances d'obtention au niveau d'objet minimum"
},
{
  "Id":367,
  "Name":"",
  "Description":""
},
{
  "Id":368,
  "Name":"The Maiden's Lament",
  "Description":"Le Manoir des Haukke"
},
{
  "Id":369,
  "Name":"The Darkhold",
  "Description":"La Forteresse de Dzemael"
},
{
  "Id":370,
  "Name":"Floundering in the Depths",
  "Description":"Anamnesis Anydre"
},
{
  "Id":371,
  "Name":"Hopl's Dropple",
  "Description":"Échange au plateau de Hopl"
},
{
  "Id":372,
  "Name":"Crumbling Lies (Front)",
  "Description":"Récompense de quête"
},
{
  "Id":373,
  "Name":"Vamo' alla Flamenco",
  "Description":"Échange au Gold Saucer"
},
{
  "Id":374,
  "Name":"Paradise Found",
  "Description":"Échange à Azurée"
},
{
  "Id":375,
  "Name":"Fealty",
  "Description":"Échange à Azurée"
},
{
  "Id":376,
  "Name":"Stone and Steel",
  "Description":"Échange à Azurée"
},
{
  "Id":377,
  "Name":"The Mendicant's Relish",
  "Description":"Échange à Azurée"
},
{
  "Id":378,
  "Name":"Bedlam's Brink",
  "Description":"Échange à La Tempête"
},
{
  "Id":379,
  "Name":"A Reason to Live",
  "Description":"Échange en Il Mheg"
},
{
  "Id":380,
  "Name":"No Greater Sorrow",
  "Description":"Échange à Eulmore"
},
{
  "Id":381,
  "Name":"On Our Fates Alight",
  "Description":"Donjon hypogéen du Lyhe Ghiah"
},
{
  "Id":382,
  "Name":"Order Yet Undeciphered",
  "Description":"Échange à Azurée"
},
{
  "Id":383,
  "Name":"Watts's Anvil",
  "Description":"Échange au Garage Watts"
},
{
  "Id":384,
  "Name":"",
  "Description":""
},
{
  "Id":385,
  "Name":"Eternal Wind - Shadowbringers",
  "Description":"Synthèse (matériau principal obtenu dans un défi du ménestrel itinérant dans Shadowbringers)<br />* Meilleures chances d'obtention au niveau d'objet minimum"
},
{
  "Id":386,
  "Name":"To the Edge",
  "Description":"Synthèse (matériau principal obtenu dans un défi du ménestrel itinérant dans Shadowbringers)<br />* Meilleures chances d'obtention au niveau d'objet minimum"
},
{
  "Id":387,
  "Name":"Wind on the Plains",
  "Description":"Coffre verrouillé du Front sud de Bozja"
},
{
  "Id":388,
  "Name":"Blood on the Wind",
  "Description":"Échange contre des cristaux bozjiens"
},
{
  "Id":389,
  "Name":"Discord: Imperial (Zodiac Age Version)",
  "Description":"Échange contre des cristaux bozjiens"
},
{
  "Id":390,
  "Name":"Into the Fortress (Zodiac Age Version)",
  "Description":"Castrum Lacus Litore sur le Front sud de Bozja"
},
{
  "Id":391,
  "Name":"Battle with an Esper (Zodiac Age Version)",
  "Description":"Castrum Lacus Litore sur le Front sud de Bozja"
},
{
  "Id":392,
  "Name":"Life and Death (Zodiac Age Version)",
  "Description":"Castrum Lacus Litore sur le Front sud de Bozja"
},
{
  "Id":393,
  "Name":"Where All Roads Lead",
  "Description":"La Traversée de Norvrandt"
},
{
  "Id":394,
  "Name":"Hard to Miss",
  "Description":"Expéditions en sous-marin"
},
{
  "Id":395,
  "Name":"A Tonberry's Tears",
  "Description":"Le Palais du Vagabond"
},
{
  "Id":396,
  "Name":"Abomination",
  "Description":"Le Gouffre hurlant"
},
{
  "Id":397,
  "Name":"Freefall",
  "Description":"Échange à Azurée"
},
{
  "Id":398,
  "Name":"The Heavens' Ward",
  "Description":"Échange à Azurée"
},
{
  "Id":399,
  "Name":"Broken Heart",
  "Description":"Récompense de quête"
},
{
  "Id":400,
  "Name":"Amusement Park",
  "Description":"Récompense de quête"
},
{
  "Id":401,
  "Name":"Fortress of Lies",
  "Description":"La base militaire des Pantins"
},
{
  "Id":402,
  "Name":"Grandma (Destruction)",
  "Description":"La base militaire des Pantins"
},
{
  "Id":403,
  "Name":"End of the Unknown",
  "Description":"La base militaire des Pantins"
},
{
  "Id":404,
  "Name":"Torn from the Heavens／The Dark Colossus Destroys All (Medley Version)",
  "Description":"La base militaire des Pantins"
},
{
  "Id":405,
  "Name":"Neath Dark Waters (Scions & Sinners)",
  "Description":"Code promotionnel"
},
{
  "Id":406,
  "Name":"A Long Fall (Scions & Sinners: Band)",
  "Description":"Code promotionnel"
},
{
  "Id":407,
  "Name":"A New Hope (Piano Collections)",
  "Description":"Achat sur la boutique en ligne ou obtention en tant qu'objet bonus"
},
{
  "Id":408,
  "Name":"Wailers And Waterwheels (Piano Collections)",
  "Description":"Achat sur la boutique en ligne ou obtention en tant qu'objet bonus"
},
{
  "Id":409,
  "Name":"I Am the Sea (Piano Collections)",
  "Description":"Achat sur la boutique en ligne ou obtention en tant qu'objet bonus"
},
{
  "Id":410,
  "Name":"New Foundations",
  "Description":"Récompense de quête"
},
{
  "Id":411,
  "Name":"The Black Wolf Stalks Again",
  "Description":"Synthèse (matériau principal obtenu dans le défi \"Castrum Marinum (extrême)\")<br />* Meilleures chances d'obtention au niveau d'objet minimum"
},
{
  "Id":412,
  "Name":"Gogo's Theme",
  "Description":"Échange à Ul'dah"
},
{
  "Id":413,
  "Name":"The Sochen Cave Palace (Zodiac Age Version)",
  "Description":"Delubrum Reginae"
},
{
  "Id":414,
  "Name":"Giving Chase (Zodiac Age Version)",
  "Description":"Delubrum Reginae"
},
{
  "Id":415,
  "Name":"The Queen Awakens",
  "Description":"Delubrum Reginae"
},
{
  "Id":416,
  "Name":"Freshly Glazed Porxie",
  "Description":"L'Atelier abandonné de Matoya"
},
{
  "Id":417,
  "Name":"Don't Be Afraid",
  "Description":"La Promesse d'Éden - Litanie"
},
{
  "Id":418,
  "Name":"The Legendary Beast",
  "Description":"La Promesse d'Éden - Anamorphose"
},
{
  "Id":419,
  "Name":"Promises to Keep",
  "Description":"La Promesse d'Éden - Éternité"
},
{
  "Id":420,
  "Name":"The Extreme",
  "Description":"La Promesse d'Éden - Éternité (sadique)"
},
{
  "Id":421,
  "Name":"Nemesis",
  "Description":"Expéditions en sous-marin"
},
{
  "Id":422,
  "Name":"Everywhere and Nowhere",
  "Description":"Le Jardin secret du Lyhe Ghiah"
},
{
  "Id":423,
  "Name":"Tomorrow and Tomorrow - Reprise",
  "Description":"Le Donjon hypogéen du Lyhe Ghiah"
},
{
  "Id":424,
  "Name":"Dangerous Words",
  "Description":"Le Donjon hypogéen du Lyhe Ghiah"
},
{
  "Id":425,
  "Name":"Unmatching Pieces",
  "Description":"Le Jardin secret du Lyhe Ghiah"
},
{
  "Id":426,
  "Name":"The Ludus",
  "Description":"Halatali"
},
{
  "Id":427,
  "Name":"Faith in Her Fury",
  "Description":"Le Kupo de la fortune d'Azurée"
},
{
  "Id":428,
  "Name":"Hearthward",
  "Description":"Échange à Azurée"
},
{
  "Id":429,
  "Name":"Painted Skies",
  "Description":"Le Kupo de la fortune d'Azurée"
},
{
  "Id":430,
  "Name":"A Fine Death",
  "Description":"Échange au Gold Saucer"
},
{
  "Id":431,
  "Name":"Below",
  "Description":"Les Mines de Clochecuivre"
},
{
  "Id":432,
  "Name":"Dancing Calcabrina",
  "Description":"L'Antitour"
},
{
  "Id":433,
  "Name":"Ominous Prognisticks (Piano Collections)",
  "Description":"Achat sur la boutique en ligne ou obtention en tant qu'objet bonus"
},
{
  "Id":434,
  "Name":"Night in the Brume (Piano Collections)",
  "Description":"Achat sur la boutique en ligne ou obtention en tant qu'objet bonus"
},
{
  "Id":435,
  "Name":"Painted Foothills (Piano Collections)",
  "Description":"Achat sur la boutique en ligne ou obtention en tant qu'objet bonus"
},
{
  "Id":436,
  "Name":"Shuffle or Boogie (Shadowbringers)",
  "Description":"Haut fait \"Duelliste officiel I\""
},
{
  "Id":437,
  "Name":"In the Arms of War",
  "Description":"Synthèse (matériau principal obtenu dans le défi \"Le Tillac des Cirrus (extrême)\")<br />* Meilleures chances d'obtention au niveau d'objet minimum"
},
{
  "Id":438,
  "Name":"Wrath of the Harrier",
  "Description":"Le Dalriada sur les Hauts plateaux de Zadnor"
},
{
  "Id":439,
  "Name":"Seven Flames",
  "Description":"La grande prairie de Paglth'an"
},
{
  "Id":440,
  "Name":"And Love You Shall Find",
  "Description":"Récompense de quête"
},
{
  "Id":441,
  "Name":"What Is Love?",
  "Description":"Échange à Azurée"
},
{
  "Id":442,
  "Name":"By Design",
  "Description":"Expéditions en sous-marin"
},
{
  "Id":443,
  "Name":"Freedom",
  "Description":"Échange (notamment à Limsa Lominsa)"
},
{
  "Id":444,
  "Name":"A Better Tomorrow",
  "Description":"Le Donjon hypogéen du Lyhe Ghiah"
},
{
  "Id":445,
  "Name":"On Westerly Winds (Piano Collections)",
  "Description":"Achat sur la boutique en ligne ou obtention en tant qu'objet bonus"
},
{
  "Id":446,
  "Name":"Serenity (Piano Collections)",
  "Description":"Achat sur la boutique en ligne ou obtention en tant qu'objet bonus"
},
{
  "Id":447,
  "Name":"To the Sun (Piano Collections)",
  "Description":"Achat sur la boutique en ligne ou obtention en tant qu'objet bonus"
},
{
  "Id":448,
  "Name":"Invincible (Scions & Sinners: Piano)",
  "Description":"Achat sur la boutique en ligne ou obtention en tant qu'objet bonus"
},
{
  "Id":449,
  "Name":"Tomorrow and Tomorrow (Scions & Sinners: Amanda Achen Vocals)",
  "Description":"Achat sur la boutique en ligne ou obtention en tant qu'objet bonus"
},
{
  "Id":450,
  "Name":"Return to Oblivion (Scions & Sinners: Amanda Achen Vocals)",
  "Description":"Achat sur la boutique en ligne ou obtention en tant qu'objet bonus"
},
{
  "Id":451,
  "Name":"What Angel Wakes Me (Scions & Sinners: Amanda Achen Vocals)",
  "Description":"Achat sur la boutique en ligne ou obtention en tant qu'objet bonus"
},
{
  "Id":452,
  "Name":"A Long Fall (Scions & Sinners: Piano)",
  "Description":"Achat sur la boutique en ligne ou obtention en tant qu'objet bonus"
},
{
  "Id":453,
  "Name":"Equilibrium (Scions & Sinners: Band)",
  "Description":"Achat sur la boutique en ligne ou obtention en tant qu'objet bonus"
},
{
  "Id":454,
  "Name":"What Angel Wakes Me (Scions & Sinners: Band)",
  "Description":"Achat sur la boutique en ligne ou obtention en tant qu'objet bonus"
},
{
  "Id":455,
  "Name":"Shadowbringers (Scions & Sinners: Band)",
  "Description":"Achat sur la boutique en ligne ou obtention en tant qu'objet bonus"
},
{
  "Id":456,
  "Name":"Blinding Indigo (Scions & Sinners: Band)",
  "Description":"Achat sur la boutique en ligne ou obtention en tant qu'objet bonus"
},
{
  "Id":457,
  "Name":"Insatiable (Scions & Sinners: Band)",
  "Description":"Achat sur la boutique en ligne ou obtention en tant qu'objet bonus"
},
{
  "Id":458,
  "Name":"Rise (Pulse)",
  "Description":"Achat sur la boutique en ligne ou obtention en tant qu'objet bonus"
},
{
  "Id":459,
  "Name":"Through the Maelstrom (Pulse)",
  "Description":"Achat sur la boutique en ligne ou obtention en tant qu'objet bonus"
},
{
  "Id":460,
  "Name":"Neath Dark Waters (Pulse)",
  "Description":"Achat sur la boutique en ligne ou obtention en tant qu'objet bonus"
},
{
  "Id":461,
  "Name":"What Angel Wakes Me (Pulse)",
  "Description":"Achat sur la boutique en ligne ou obtention en tant qu'objet bonus"
},
{
  "Id":462,
  "Name":"Sunrise (Pulse)",
  "Description":"Achat sur la boutique en ligne ou obtention en tant qu'objet bonus"
},
{
  "Id":463,
  "Name":"Skyrise",
  "Description":"Échange à Azurée"
},
{
  "Id":464,
  "Name":"Mourning",
  "Description":"La tour de la Contingence"
},
{
  "Id":465,
  "Name":"Emil (Despair)",
  "Description":"La tour de la Contingence"
},
{
  "Id":466,
  "Name":"",
  "Description":""
},
{
  "Id":467,
  "Name":"The Sound of the End: 8bit",
  "Description":"La tour de la Contingence"
},
{
  "Id":468,
  "Name":"Kainé (Final Fantasy Main Theme Version)",
  "Description":"La tour de la Contingence"
},
{
  "Id":469,
  "Name":"Weight of the World (Instrumental)",
  "Description":"Récompense de quête"
},
{
  "Id":470,
  "Name":"Voice of no Return (Normal)",
  "Description":"Récompense de quête"
},
{
  "Id":471,
  "Name":"The Color of Depression",
  "Description":"Récompense de quête"
},
{
  "Id":472,
  "Name":"Widespread Illness",
  "Description":"Récompense de quête"
},
{
  "Id":473,
  "Name":"Possessed by Disease",
  "Description":"Récompense de quête"
},
{
  "Id":474,
  "Name":"Faltering Prayer (Dawn Breeze)",
  "Description":"Récompense de quête"
},
{
  "Id":475,
  "Name":"Tower of Zot (Endwalker)",
  "Description":"La tour de Zott"
},
{
  "Id":476,
  "Name":"Garlemald Express",
  "Description":"La tour de Babil"
},
{
  "Id":477,
  "Name":"As the Sky Burns",
  "Description":"Vanaspati"
},
{
  "Id":478,
  "Name":"Miracle Works",
  "Description":"L'Hyperborée"
},
{
  "Id":479,
  "Name":"The Aetherial Sea",
  "Description":"Le Prisme de l'Aitia"
},
{
  "Id":480,
  "Name":"Of Countless Stars",
  "Description":"L'Issue aux Impasses"
},
{
  "Id":481,
  "Name":"Carrots of Happiness",
  "Description":"Risette-sur-lune"
},
{
  "Id":482,
  "Name":"Endcaller",
  "Description":"Synthèse (matériau principal obtenu dans un défi du ménestrel errant dans Endwalker)<br />* Meilleures chances d'obtention au niveau d'objet minimum"
},
{
  "Id":483,
  "Name":"Your Answer",
  "Description":"Synthèse (matériau principal obtenu dans un défi du ménestrel errant dans Endwalker)<br />* Meilleures chances d'obtention au niveau d'objet minimum"
},
{
  "Id":484,
  "Name":"",
  "Description":""
},
{
  "Id":485,
  "Name":"Ancient Shackles",
  "Description":"Les Limbes du Pandæmonium - Fournaise"
},
{
  "Id":486,
  "Name":"Hic Svnt Leones",
  "Description":"Les Limbes du Pandæmonium - Abîme"
},
{
  "Id":487,
  "Name":"The Ewer Brimmeth",
  "Description":"Échange à Vieille Sharlayan"
},
{
  "Id":488,
  "Name":"Twilit Terraces",
  "Description":"Échange à Radz-at-Han"
},
{
  "Id":489,
  "Name":"The Labyrinth",
  "Description":"Échange au Labyrinthos"
},
{
  "Id":490,
  "Name":"Divine Words",
  "Description":"Échange à Thavnair"
},
{
  "Id":491,
  "Name":"White Snow, Black Steel",
  "Description":"Échange à Garlemald"
},
{
  "Id":492,
  "Name":"One Small Step",
  "Description":"Échange à Mare Lamentorum"
},
{
  "Id":493,
  "Name":"Sky Unsundered",
  "Description":"Échange à Elpis"
},
{
  "Id":494,
  "Name":"Close in the Distance",
  "Description":"Échange à Ultima Thulé"
},
{
  "Id":495,
  "Name":"Unbowed",
  "Description":"Échange à Vieille Sharlayan et à Radz-at-Han"
},
{
  "Id":496,
  "Name":"On Blade's Edge",
  "Description":"Chasse aux trésors"
},
{
  "Id":497,
  "Name":"Finality",
  "Description":"Le Ludodrome"
},
{
  "Id":498,
  "Name":"Endwalker – Footfalls",
  "Description":"Récompense de quête"
},
{
  "Id":499,
  "Name":"Flow",
  "Description":"Récompense de quête"
},
{
  "Id":500,
  "Name":"Dawnbound",
  "Description":"La Mer du Chant des sirènes"
},
{
  "Id":501,
  "Name":"Roar of the Wyrm",
  "Description":"L'Aire"
},
{
  "Id":502,
  "Name":"From the Depths",
  "Description":"Sastasha"
},
{
  "Id":503,
  "Name":"Ink Long Dry (Piano Collections)",
  "Description":"Achat sur la boutique en ligne ou obtention en tant qu'objet bonus"
},
{
  "Id":504,
  "Name":"Heroes (Piano Collections)",
  "Description":"Achat sur la boutique en ligne ou obtention en tant qu'objet bonus"
},
{
  "Id":505,
  "Name":"Old Wounds (Piano Collections)",
  "Description":"Achat sur la boutique en ligne ou obtention en tant qu'objet bonus"
},
{
  "Id":506,
  "Name":"The Map Unfolds",
  "Description":"Le legs d'Alzadaal"
},
{
  "Id":507,
  "Name":"The Final Day",
  "Description":"Synthèse (matériau principal obtenu dans un défi extrême de l'épopée d'Endwalker)<br />* Meilleures chances d'obtention au niveau d'objet minimum"
},
{
  "Id":508,
  "Name":"With Hearts Aligned",
  "Description":"Synthèse (matériau principal obtenu dans un défi extrême de l'épopée d'Endwalker)<br />* Meilleures chances d'obtention au niveau d'objet minimum"
},
{
  "Id":509,
  "Name":"Flow Together",
  "Description":"Récompense de quête"
},
{
  "Id":510,
  "Name":"One among Wonders",
  "Description":"Récompense de quête"
},
{
  "Id":511,
  "Name":"Pilgrimage",
  "Description":"Domaine divin - Aglaé"
},
{
  "Id":512,
  "Name":"Radiance",
  "Description":"Domaine divin - Aglaé"
},
{
  "Id":513,
  "Name":"In the Balance",
  "Description":"Domaine divin - Aglaé"
},
{
  "Id":514,
  "Name":"Hippo Ridin'",
  "Description":"Échange à Svarna"
},
{
  "Id":515,
  "Name":"The Nautilus Knoweth",
  "Description":"Échange à Vieille Sharlayan"
},
{
  "Id":516,
  "Name":"The Day Will Come (Endwalker)",
  "Description":"Échange à Vieille Sharlayan"
},
{
  "Id":517,
  "Name":"Vibrant Voices",
  "Description":"Échange à Radz-at-Han"
},
{
  "Id":518,
  "Name":"Perfumed Eves",
  "Description":"Échange à Radz-at-Han"
},
{
  "Id":519,
  "Name":"Dreams of Man",
  "Description":"Échange au Labyrinthos"
},
{
  "Id":520,
  "Name":"Prayers Repeated",
  "Description":"Échange à Thavnair"
},
{
  "Id":521,
  "Name":"Black Steel, Cold Embers",
  "Description":"Échange à Garlemald"
},
{
  "Id":522,
  "Name":"Home Beyond the Horizon",
  "Description":"Échange à Garlemald"
},
{
  "Id":523,
  "Name":"Stars Long Dead",
  "Description":"Échange à Elpis"
},
{
  "Id":524,
  "Name":"Welcome to Our Town! (Endwalker)",
  "Description":"Échange à Mare Lamentorum"
},
{
  "Id":525,
  "Name":"Warming Up",
  "Description":"Échange à l'Antre des loups"
},
{
  "Id":526,
  "Name":"Festival of the Hunt (Endwalker)",
  "Description":"Échange à l'Antre des loups"
},
{
  "Id":527,
  "Name":"Run! (Endwalker)",
  "Description":"Échange à l'Antre des loups"
},
{
  "Id":528,
  "Name":"Like a Summer Rain",
  "Description":"Nalloncques"
},
{
  "Id":529,
  "Name":"Descent",
  "Description":"Le Vigile du Crépuscule"
},
{
  "Id":530,
  "Name":"Aftermath",
  "Description":"Le Château d'Amdapor (brutal)"
},
{
  "Id":531,
  "Name":"Gateway to Paradise",
  "Description":"Échange au Gold Saucer"
},
{
  "Id":532,
  "Name":"Starlight and Sellswords",
  "Description":"En vente aux quartiers résidentiels"
},
{
  "Id":533,
  "Name":"Westward Tide (Piano Collections)",
  "Description":"Achat sur la boutique en ligne ou obtention en tant qu'objet bonus"
},
{
  "Id":534,
  "Name":"Imagination (Piano Collections)",
  "Description":"Achat sur la boutique en ligne ou obtention en tant qu'objet bonus"
},
{
  "Id":535,
  "Name":"Crimson Sunset (Piano Collections)",
  "Description":"Achat sur la boutique en ligne ou obtention en tant qu'objet bonus"
},
{
  "Id":536,
  "Name":"Battle with the Four Fiends (Buried Memory)",
  "Description":"Synthèse (matériau principal obtenu dans un défi du ménestrel errant dans Endwalker)<br />* Meilleures chances d'obtention au niveau d'objet minimum"
},
{
  "Id":537,
  "Name":"Troian Beauty (Endwalker)",
  "Description":"Le Château de Troïa"
},
{
  "Id":538,
  "Name":"FINAL FANTASY IV: Battle 2 (Endwalker)",
  "Description":"Le Château de Troïa"
},
{
  "Id":539,
  "Name":"Desert Sun",
  "Description":"Échange à Vieille Sharlayan"
},
{
  "Id":540,
  "Name":"Silent Scream",
  "Description":"Le Purgatoire du Pandæmonium - Cages"
},
{
  "Id":541,
  "Name":"Scream",
  "Description":"Le Purgatoire du Pandæmonium - Croisements ou Racines"
},
{
  "Id":542,
  "Name":"Embers",
  "Description":"Le Purgatoire du Pandæmonium - Hérédité"
},
{
  "Id":543,
  "Name":"White Stone Black",
  "Description":"Le Purgatoire du Pandæmonium - Hérédité (sadique)"
},
{
  "Id":544,
  "Name":"A Quiet Moment",
  "Description":"Échange sur la Félicité insulaire"
},
{
  "Id":545,
  "Name":"Island Paradise",
  "Description":"Échange sur la Félicité insulaire"
},
{
  "Id":546,
  "Name":"Cradle of Hope",
  "Description":"Échange au camp de base A-4"
},
{
  "Id":547,
  "Name":"Born to Ride",
  "Description":"En vente aux quartiers résidentiels"
},
{
  "Id":548,
  "Name":"Into the Adder's Den",
  "Description":"Échange au quartier général des Deux Vipères"
},
{
  "Id":549,
  "Name":"Maelstrom Command",
  "Description":"Échange au quartier général du Maelstrom"
},
{
  "Id":550,
  "Name":"The Hall of Flames",
  "Description":"Échange au quartier général des Immortels"
},
{
  "Id":551,
  "Name":"Dewdrops & Moonbeams",
  "Description":"Échange au quartier général des Deux Vipères"
},
{
  "Id":552,
  "Name":"Ripples in the Sea",
  "Description":"Échange au quartier général du Maelstrom"
},
{
  "Id":553,
  "Name":"The Sands' Secrets",
  "Description":"Échange au quartier général des Immortels"
},
{
  "Id":554,
  "Name":"Unworthy",
  "Description":"Échange à Azurée"
},
{
  "Id":555,
  "Name":"Toll of the Bells",
  "Description":"La Voûte"
},
{
  "Id":556,
  "Name":"Stigma",
  "Description":"La Voûte"
},
{
  "Id":557,
  "Name":"The Emperor's Wont",
  "Description":"Échange à Garlemald"
},
{
  "Id":558,
  "Name":"Penitus",
  "Description":"Échange à Garlemald"
},
{
  "Id":559,
  "Name":"A Thousand Screams",
  "Description":"Les Mille Gueules de Toto-Rak"
},
{
  "Id":560,
  "Name":"Lipflaps on Longstops",
  "Description":"Le Bivouac de Brayflox"
},
{
  "Id":561,
  "Name":"Shuffle or Boogie",
  "Description":"Échange au Gold Saucer"
},
{
  "Id":562,
  "Name":"Close in the Distance (Beyond the Shadow)",
  "Description":"Achat sur la boutique en ligne ou obtention en tant qu'objet bonus"
},
{
  "Id":563,
  "Name":"Hic Svnt Leones (Beyond the Shadow)",
  "Description":"Achat sur la boutique en ligne ou obtention en tant qu'objet bonus"
},
{
  "Id":564,
  "Name":"Silence",
  "Description":"En vente aux quartiers résidentiels"
},
{
  "Id":565,
  "Name":"Forged in Crimson",
  "Description":"Synthèse (matériau principal obtenu dans un défi extrême de l'épopée d'Endwalker)<br />* Meilleures chances d'obtention au niveau d'objet minimum"
},
{
  "Id":566,
  "Name":"Dreamwalker",
  "Description":"Échange au Berceau des espoirs"
},
{
  "Id":567,
  "Name":"Deep Blue",
  "Description":"Lapis Manalis"
},
{
  "Id":568,
  "Name":"Forbidden Land (Endwalker)",
  "Description":"Eurêka Orthos"
},
{
  "Id":569,
  "Name":"Favor",
  "Description":"Domaine divin - Euphrosyne"
},
{
  "Id":570,
  "Name":"Rhythm of the Realm",
  "Description":"Domaine divin - Euphrosyne"
},
{
  "Id":571,
  "Name":"Dedicated to Moonlight",
  "Description":"Domaine divin - Euphrosyne"
},
{
  "Id":572,
  "Name":"A Victory Fanfare Reborn",
  "Description":"Le Ludodrome et Elpis Gymnasion"
},
{
  "Id":573,
  "Name":"Dangertek",
  "Description":"Le Ludodrome et Elpis Gymnasion"
},
{
  "Id":574,
  "Name":"Cracks in the Wall",
  "Description":"Le Château d'Amdapor"
},
{
  "Id":575,
  "Name":"Echoes of Ages Past",
  "Description":"Le Temple enseveli de Qarn"
},
{
  "Id":576,
  "Name":"Cold Salvation",
  "Description":"Le Vigile de Pierre"
},
{
  "Id":577,
  "Name":"Miser's Folly",
  "Description":"Le Val d'Aurum"
},
{
  "Id":578,
  "Name":"Forgotten by the Sun",
  "Description":"Le Temple enseveli de Qarn (brutal)"
},
{
  "Id":579,
  "Name":"Holy Consult",
  "Description":"L'Île de Crèvecarène (brutal)"
},
{
  "Id":580,
  "Name":"Decisions",
  "Description":"Récompense d'événement saisonnier"
},
{
  "Id":581,
  "Name":"Pa-Paya Demastered",
  "Description":"Récompense d'événement saisonnier"
},
{
  "Id":582,
  "Name":"Battle 1 from FINAL FANTASY IV",
  "Description":"Échange au Berceau des espoirs"
},
{
  "Id":583,
  "Name":"The Promise of Plunder",
  "Description":"Eurêka Orthos"
},
{
  "Id":584,
  "Name":"Crystal Rain",
  "Description":"Eurêka Orthos"
},
{
  "Id":585,
  "Name":"Bliss",
  "Description":"En vente aux quartiers résidentiels"
},
{
  "Id":586,
  "Name":"Sacred Bonds",
  "Description":"En vente aux quartiers résidentiels"
},
{
  "Id":587,
  "Name":"Dreams Aloft",
  "Description":"Expéditions en sous-marin"
},
{
  "Id":588,
  "Name":"To the Edge (Orchestral Version)",
  "Description":"Achat sur la boutique en ligne ou obtention en tant qu'objet bonus"
},
{
  "Id":589,
  "Name":"Flow (Orchestral Version)",
  "Description":"Achat sur la boutique en ligne ou obtention en tant qu'objet bonus"
},
{
  "Id":590,
  "Name":"Somewhere in the World (Ambitions Writhe)",
  "Description":"Récompense de quête"
},
{
  "Id":591,
  "Name":"Another Moon",
  "Description":"Récompense de quête"
},
{
  "Id":592,
  "Name":"Voidcast Savior",
  "Description":"Synthèse (matériau principal obtenu dans le défi \"La Chaire de l'Exilée (extrême)\")<br />* Meilleures chances d'obtention au niveau d'objet minimum"
},
{
  "Id":593,
  "Name":"Subterranean Sanctuary",
  "Description":"Échange sur la Félicité insulaire"
},
{
  "Id":594,
  "Name":"The Land Reborn",
  "Description":"Récompense d'événement saisonnier"
},
{
  "Id":595,
  "Name":"Pom from the Heavens",
  "Description":"Récompense d'événement saisonnier"
},
{
  "Id":596,
  "Name":"Starsbreath",
  "Description":"L'île de Haam"
},
{
  "Id":597,
  "Name":"Crimson Rise",
  "Description":"Échange à Vieille Sharlayan"
},
{
  "Id":598,
  "Name":"One Amongst the Weary",
  "Description":"Le Paradis du Pandæmonium - Métempsycose ou Monochrome"
},
{
  "Id":599,
  "Name":"Fleeting Moment",
  "Description":"Le Paradis du Pandæmonium - Tribunal"
},
{
  "Id":600,
  "Name":"Athena, the Tireless One",
  "Description":"Le Paradis du Pandæmonium - Apothéose"
},
{
  "Id":601,
  "Name":"Ultima's Perfection (Endwalker)",
  "Description":"Le Paradis du Pandæmonium - Apothéose (sadique)"
},
{
  "Id":602,
  "Name":"Battle 2 from FINAL FANTASY III",
  "Description":"Échange à Ul'dah"
},
{
  "Id":603,
  "Name":"Looping in the Deepest Fringes",
  "Description":"Échange à Vieille Sharlayan"
},
{
  "Id":604,
  "Name":"Fracture",
  "Description":"En vente à la guilde des aventuriers de Gridania, Ul'dah et Limsa Lominsa"
},
{
  "Id":605,
  "Name":"Conundrum",
  "Description":"En vente à la guilde des aventuriers de Gridania, Ul'dah et Limsa Lominsa"
},
{
  "Id":606,
  "Name":"Return of the Hero",
  "Description":"En vente à la guilde des aventuriers de Gridania, Ul'dah et Limsa Lominsa"
},
{
  "Id":607,
  "Name":"Kiss of Chaos",
  "Description":"En vente à la guilde des aventuriers de Gridania, Ul'dah et Limsa Lominsa"
},
{
  "Id":608,
  "Name":"Machinations",
  "Description":"En vente à la guilde des aventuriers de Gridania, Ul'dah et Limsa Lominsa"
},
{
  "Id":609,
  "Name":"Damnation",
  "Description":"En vente à la guilde des aventuriers de Gridania, Ul'dah et Limsa Lominsa"
},
{
  "Id":610,
  "Name":"Skullduggery",
  "Description":"En vente à la guilde des aventuriers de Gridania, Ul'dah et Limsa Lominsa"
},
{
  "Id":611,
  "Name":"Tranquility",
  "Description":"En vente à la guilde des aventuriers de Gridania, Ul'dah et Limsa Lominsa"
},
{
  "Id":612,
  "Name":"My Soul to Keep",
  "Description":"Échange à Vieille Gridania"
},
{
  "Id":613,
  "Name":"Meteor",
  "Description":"Échange à Vieille Gridania"
},
{
  "Id":614,
  "Name":"FINAL FANTASY IV: The Final Battle (Endwalker)",
  "Description":"Synthèse (matériau principal obtenu dans le défi \"La Fracture abyssale (extrême)\")<br />* Meilleures chances d'obtention au niveau d'objet minimum"
},
{
  "Id":615,
  "Name":"Shadowbringers (Orchestral Version)",
  "Description":"Achat sur la boutique en ligne ou obtention en tant qu'objet bonus"
},
{
  "Id":616,
  "Name":"Endcaller (Orchestral Version)",
  "Description":"Achat sur la boutique en ligne ou obtention en tant qu'objet bonus"
},
{
  "Id":617,
  "Name":"Your Answer (Orchestral Version)",
  "Description":"Achat sur la boutique en ligne ou obtention en tant qu'objet bonus"
},
{
  "Id":618,
  "Name":"Close in the Distance (Orchestral Version)",
  "Description":"Achat sur la boutique en ligne ou obtention en tant qu'objet bonus"
},
{
  "Id":619,
  "Name":"The Final Day (Orchestral Version)",
  "Description":"Achat sur la boutique en ligne ou obtention en tant qu'objet bonus"
},
{
  "Id":620,
  "Name":"Unbreakable (Pulse)",
  "Description":"Achat sur la boutique en ligne ou obtention en tant qu'objet bonus"
},
{
  "Id":621,
  "Name":"Equilibrium (Pulse)",
  "Description":"Achat sur la boutique en ligne ou obtention en tant qu'objet bonus"
},
{
  "Id":622,
  "Name":"Beauty's Wicked Wiles (Pulse)",
  "Description":"Achat sur la boutique en ligne ou obtention en tant qu'objet bonus"
},
{
  "Id":623,
  "Name":"I Am the Sea (Pulse)",
  "Description":"Achat sur la boutique en ligne ou obtention en tant qu'objet bonus"
},
{
  "Id":624,
  "Name":"A Long Fall (Pulse)",
  "Description":"Achat sur la boutique en ligne ou obtention en tant qu'objet bonus"
},
{
  "Id":625,
  "Name":"The Red Wings (Endwalker)",
  "Description":"Synthèse (matériau principal obtenu dans le défi \"La Fracture abyssale (extrême)\")<br />* Meilleures chances d'obtention au niveau d'objet minimum"
},
{
  "Id":626,
  "Name":"To the Edge (Forge Ahead)",
  "Description":"Achat sur la boutique en ligne ou obtention en tant qu'objet bonus"
},
{
  "Id":627,
  "Name":"White Stone Black (Forge Ahead)",
  "Description":"Achat sur la boutique en ligne ou obtention en tant qu'objet bonus"
},
{
  "Id":628,
  "Name":"Scream (Forge Ahead)",
  "Description":"Achat sur la boutique en ligne ou obtention en tant qu'objet bonus"
},
{
  "Id":629,
  "Name":"In the Balance (Forge Ahead)",
  "Description":"Achat sur la boutique en ligne ou obtention en tant qu'objet bonus"
},
{
  "Id":630,
  "Name":"Athena, the Tireless One (Forge Ahead)",
  "Description":"Achat sur la boutique en ligne ou obtention en tant qu'objet bonus"
},
{
  "Id":631,
  "Name":"Flow (Forge Ahead)",
  "Description":"Achat sur la boutique en ligne ou obtention en tant qu'objet bonus"
},
{
  "Id":632,
  "Name":"What Once Was (Forge Ahead)",
  "Description":"Achat sur la boutique en ligne ou obtention en tant qu'objet bonus"
},
{
  "Id":633,
  "Name":"Carrots of Happiness (Forge Ahead)",
  "Description":"Achat sur la boutique en ligne ou obtention en tant qu'objet bonus"
},
{
  "Id":634,
  "Name":"The Labyrinth (Forge Ahead)",
  "Description":"Achat sur la boutique en ligne ou obtention en tant qu'objet bonus"
},
{
  "Id":635,
  "Name":"Dedicated to Moonlight (Amanda Achen Vocals)",
  "Description":"Achat sur la boutique en ligne ou obtention en tant qu'objet bonus"
},
{
  "Id":636,
  "Name":"Tonitrua ex Machina",
  "Description":"Récompense d'événement saisonnier"
},
{
  "Id":637,
  "Name":"Idylls of the Empire",
  "Description":"Récompense d'événement saisonnier"
},
{
  "Id":638,
  "Name":"Forevermore - The Grand Duchy of Rosaria",
  "Description":"Récompense d'événement saisonnier"
},
{
  "Id":639,
  "Name":"Before the Storm - Caer Norvent",
  "Description":"Récompense d'événement saisonnier"
},
{
  "Id":640,
  "Name":"The State of the Realm",
  "Description":"Récompense d'événement saisonnier"
},
{
  "Id":641,
  "Name":"Dedicated to Moonlight (Forge Ahead)",
  "Description":"Achat sur la boutique en ligne ou obtention en tant qu'objet bonus"
},
{
  "Id":642,
  "Name":"In the Balance (Amanda Achen Vocals)",
  "Description":"Achat sur la boutique en ligne ou obtention en tant qu'objet bonus"
},
{
  "Id":643,
  "Name":"Kingdom of Baron (Endwalker)",
  "Description":"Le Souterrain lunaire"
},
{
  "Id":644,
  "Name":"A Gentleman to Walk with Me",
  "Description":"Récompense de quête"
},
{
  "Id":645,
  "Name":"Fair Winds to Guide",
  "Description":"Domaine divin - Thalie"
},
{
  "Id":646,
  "Name":"Course Uncharted",
  "Description":"Domaine divin - Thalie"
},
{
  "Id":647,
  "Name":"Myths of the Realm",
  "Description":"Domaine divin - Thalie"
},
{
  "Id":648,
  "Name":"O Speaker, Slumber",
  "Description":"Échange à Vieille Sharlayan"
},
{
  "Id":649,
  "Name":"O Hunter, Rejoice",
  "Description":"Échange à Vieille Sharlayan"
},
{
  "Id":650,
  "Name":"Pennons Aloft",
  "Description":"Expéditions en sous-marin"
},
{
  "Id":651,
  "Name":"From Fear to Fortitude",
  "Description":"Expéditions en sous-marin"
},
{
  "Id":652,
  "Name":"Who I Really Am",
  "Description":"Récompense d'événement saisonnier"
},
{
  "Id":653,
  "Name":"Away (Refrain)",
  "Description":"Récompense d'événement saisonnier"
},
{
  "Id":654,
  "Name":"To Sail Forbidden Seas",
  "Description":"Récompense d'événement saisonnier"
},
{
  "Id":655,
  "Name":"Find the Flame",
  "Description":"Récompense d'événement saisonnier"
},
{
  "Id":656,
  "Name":"Land of Eikons",
  "Description":"Récompense d'événement saisonnier"
},
{
  "Id":657,
  "Name":"Everybody Falls",
  "Description":"Récompense d'événement saisonnier"
}
]
