﻿[
{
  "Id":0,
  "Name":"",
  "HideOrder":0,
  "Icon":0,
  "Order":0
},
{
  "Id":1,
  "Name":"Alle",
  "HideOrder":0,
  "Icon":0,
  "Order":0
},
{
  "Id":2,
  "Name":"Orte I",
  "HideOrder":0,
  "Icon":82022,
  "Order":1
},
{
  "Id":3,
  "Name":"Dungeons I",
  "HideOrder":0,
  "Icon":82024,
  "Order":11
},
{
  "Id":4,
  "Name":"Primae",
  "HideOrder":0,
  "Icon":82027,
  "Order":21
},
{
  "Id":5,
  "Name":"Raids I",
  "HideOrder":0,
  "Icon":82025,
  "Order":31
},
{
  "Id":6,
  "Name":"Andere",
  "HideOrder":0,
  "Icon":82029,
  "Order":52
},
{
  "Id":7,
  "Name":"Saisonales Ereignis",
  "HideOrder":1,
  "Icon":82030,
  "Order":61
},
{
  "Id":8,
  "Name":"Online Store oder Bonusgegenstand",
  "HideOrder":1,
  "Icon":82031,
  "Order":71
},
{
  "Id":9,
  "Name":"Orte II",
  "HideOrder":0,
  "Icon":82023,
  "Order":2
},
{
  "Id":10,
  "Name":"Raids II",
  "HideOrder":0,
  "Icon":82026,
  "Order":32
},
{
  "Id":11,
  "Name":"Umgebung",
  "HideOrder":0,
  "Icon":82028,
  "Order":41
},
{
  "Id":12,
  "Name":"Dungeons II",
  "HideOrder":0,
  "Icon":82033,
  "Order":12
},
{
  "Id":13,
  "Name":"Aufträge",
  "HideOrder":0,
  "Icon":82036,
  "Order":51
}
]
