﻿[
{
  "Id":0,
  "Model":0,
  "Order":-1,
  "Icon":0,
  "Transient":0,
  "Singular":"",
  "Adjective":0,
  "Plural":"",
  "PossessivePronoun":0,
  "StartsWithVowel":0,
  "Pronoun":0,
  "Article":0
},
{
  "Id":1,
  "Model":2939,
  "Order":0,
  "Icon":8001,
  "Transient":1,
  "Singular":"Sonnenschirm",
  "Adjective":4,
  "Plural":"Sonnenschirme",
  "PossessivePronoun":2,
  "StartsWithVowel":0,
  "Pronoun":0,
  "Article":0
},
{
  "Id":2,
  "Model":2940,
  "Order":1,
  "Icon":8002,
  "Transient":2,
  "Singular":"Himmlischer Sonnenschirm",
  "Adjective":4,
  "Plural":"Himmlische Sonnenschirme",
  "PossessivePronoun":2,
  "StartsWithVowel":0,
  "Pronoun":0,
  "Article":0
},
{
  "Id":3,
  "Model":3007,
  "Order":2,
  "Icon":8003,
  "Transient":3,
  "Singular":"Roter Ölpapierschirm",
  "Adjective":4,
  "Plural":"Rote Ölpapierschirme",
  "PossessivePronoun":2,
  "StartsWithVowel":0,
  "Pronoun":0,
  "Article":0
},
{
  "Id":4,
  "Model":3008,
  "Order":3,
  "Icon":8004,
  "Transient":4,
  "Singular":"Violetter Ölpapierschirm",
  "Adjective":4,
  "Plural":"Violette Ölpapierschirme",
  "PossessivePronoun":2,
  "StartsWithVowel":0,
  "Pronoun":0,
  "Article":0
},
{
  "Id":5,
  "Model":3009,
  "Order":4,
  "Icon":8005,
  "Transient":5,
  "Singular":"Gelber Ölpapierschirm",
  "Adjective":4,
  "Plural":"Gelbe Ölpapierschirme",
  "PossessivePronoun":2,
  "StartsWithVowel":0,
  "Pronoun":0,
  "Article":0
},
{
  "Id":6,
  "Model":3010,
  "Order":5,
  "Icon":8006,
  "Transient":6,
  "Singular":"Blau karierter Sonnenschirm",
  "Adjective":4,
  "Plural":"Blau karierter Sonnenschirme",
  "PossessivePronoun":2,
  "StartsWithVowel":0,
  "Pronoun":0,
  "Article":0
},
{
  "Id":7,
  "Model":3011,
  "Order":6,
  "Icon":8007,
  "Transient":7,
  "Singular":"Rot karierter Sonnenschirm",
  "Adjective":4,
  "Plural":"Rot karierter Sonnenschirme",
  "PossessivePronoun":2,
  "StartsWithVowel":0,
  "Pronoun":0,
  "Article":0
},
{
  "Id":8,
  "Model":3012,
  "Order":7,
  "Icon":8008,
  "Transient":8,
  "Singular":"Schwarz karierter Sonnenschirm",
  "Adjective":4,
  "Plural":"Schwarz karierter Sonnenschirme",
  "PossessivePronoun":2,
  "StartsWithVowel":0,
  "Pronoun":0,
  "Article":0
},
{
  "Id":9,
  "Model":3042,
  "Order":8,
  "Icon":8013,
  "Transient":100,
  "Singular":"Engelsflügel",
  "Adjective":4,
  "Plural":"Engelsflügel",
  "PossessivePronoun":2,
  "StartsWithVowel":0,
  "Pronoun":0,
  "Article":0
},
{
  "Id":10,
  "Model":3169,
  "Order":9,
  "Icon":8012,
  "Transient":9,
  "Singular":"Gold Saucer-Sonnenschirm",
  "Adjective":4,
  "Plural":"Gold Saucer-Sonnenschirme",
  "PossessivePronoun":2,
  "StartsWithVowel":0,
  "Pronoun":0,
  "Article":0
},
{
  "Id":11,
  "Model":3166,
  "Order":10,
  "Icon":8009,
  "Transient":10,
  "Singular":"Blau-weiß gepunkteter Sonnenschirm",
  "Adjective":4,
  "Plural":"Blau-weiß gepunktete Sonnenschirme",
  "PossessivePronoun":2,
  "StartsWithVowel":0,
  "Pronoun":0,
  "Article":0
},
{
  "Id":12,
  "Model":3167,
  "Order":11,
  "Icon":8010,
  "Transient":11,
  "Singular":"Rosa-weiß gepunkteter Sonnenschirm",
  "Adjective":4,
  "Plural":"Rosa-weiß gepunktete Sonnenschirme",
  "PossessivePronoun":2,
  "StartsWithVowel":0,
  "Pronoun":0,
  "Article":0
},
{
  "Id":13,
  "Model":3168,
  "Order":12,
  "Icon":8011,
  "Transient":12,
  "Singular":"Hellblau-weiß gepunkteter Sonnenschirm",
  "Adjective":4,
  "Plural":"Hellblau-weiß gepunktete Sonnenschirme",
  "PossessivePronoun":2,
  "StartsWithVowel":0,
  "Pronoun":0,
  "Article":0
},
{
  "Id":14,
  "Model":3286,
  "Order":13,
  "Icon":8014,
  "Transient":13,
  "Singular":"Dicke-Katze-Sonnenschirm",
  "Adjective":4,
  "Plural":"Dicke-Katze-Sonnenschirme",
  "PossessivePronoun":2,
  "StartsWithVowel":0,
  "Pronoun":0,
  "Article":0
},
{
  "Id":15,
  "Model":3287,
  "Order":14,
  "Icon":8015,
  "Transient":14,
  "Singular":"Wasserschlange-Sonnenschirm",
  "Adjective":4,
  "Plural":"Wasserschlange Ronka-Sonnenschirme",
  "PossessivePronoun":2,
  "StartsWithVowel":0,
  "Pronoun":0,
  "Article":0
},
{
  "Id":16,
  "Model":3288,
  "Order":15,
  "Icon":8016,
  "Transient":15,
  "Singular":"Dalamud-Papierschirm",
  "Adjective":4,
  "Plural":"Dalamud-Papierschirme",
  "PossessivePronoun":2,
  "StartsWithVowel":0,
  "Pronoun":0,
  "Article":0
},
{
  "Id":17,
  "Model":3426,
  "Order":16,
  "Icon":8017,
  "Transient":100,
  "Singular":"Gefallener-Engel-Flügel",
  "Adjective":4,
  "Plural":"Gefallener-Engel-Flügel",
  "PossessivePronoun":2,
  "StartsWithVowel":0,
  "Pronoun":0,
  "Article":0
},
{
  "Id":18,
  "Model":3427,
  "Order":17,
  "Icon":8018,
  "Transient":100,
  "Singular":"Erzengel-Flügel",
  "Adjective":4,
  "Plural":"Erzengel-Flügel",
  "PossessivePronoun":2,
  "StartsWithVowel":0,
  "Pronoun":0,
  "Article":0
},
{
  "Id":19,
  "Model":3428,
  "Order":18,
  "Icon":8019,
  "Transient":101,
  "Singular":"Diabolos-Flügel",
  "Adjective":4,
  "Plural":"Diabolos-Flügel",
  "PossessivePronoun":2,
  "StartsWithVowel":0,
  "Pronoun":0,
  "Article":0
},
{
  "Id":20,
  "Model":3429,
  "Order":19,
  "Icon":8020,
  "Transient":102,
  "Singular":"Pixie-Flügel",
  "Adjective":4,
  "Plural":"Pixie-Flügel",
  "PossessivePronoun":2,
  "StartsWithVowel":0,
  "Pronoun":0,
  "Article":0
},
{
  "Id":21,
  "Model":0,
  "Order":0,
  "Icon":0,
  "Transient":0,
  "Singular":"",
  "Adjective":0,
  "Plural":"",
  "PossessivePronoun":0,
  "StartsWithVowel":0,
  "Pronoun":0,
  "Article":0
},
{
  "Id":22,
  "Model":3431,
  "Order":21,
  "Icon":8022,
  "Transient":200,
  "Singular":"Ovale Brille",
  "Adjective":3,
  "Plural":"Ovale Brillen",
  "PossessivePronoun":1,
  "StartsWithVowel":0,
  "Pronoun":1,
  "Article":0
},
{
  "Id":23,
  "Model":3611,
  "Order":22,
  "Icon":8023,
  "Transient":16,
  "Singular":"Weißer Rüschen-Sonnenschirm",
  "Adjective":4,
  "Plural":"Weiße Rüschen-Sonnenschirme",
  "PossessivePronoun":2,
  "StartsWithVowel":0,
  "Pronoun":0,
  "Article":0
},
{
  "Id":24,
  "Model":3612,
  "Order":23,
  "Icon":8024,
  "Transient":17,
  "Singular":"Blauer Blüten-Sonnenschirm",
  "Adjective":4,
  "Plural":"Blaue Blüten-Sonnenschirme",
  "PossessivePronoun":2,
  "StartsWithVowel":0,
  "Pronoun":0,
  "Article":0
},
{
  "Id":25,
  "Model":3613,
  "Order":24,
  "Icon":8025,
  "Transient":201,
  "Singular":"Getönte Brille",
  "Adjective":3,
  "Plural":"Getönte Brillen",
  "PossessivePronoun":1,
  "StartsWithVowel":0,
  "Pronoun":1,
  "Article":0
},
{
  "Id":26,
  "Model":3614,
  "Order":25,
  "Icon":8026,
  "Transient":202,
  "Singular":"Klassische Brille",
  "Adjective":3,
  "Plural":"Klassische Brillen",
  "PossessivePronoun":1,
  "StartsWithVowel":0,
  "Pronoun":1,
  "Article":0
},
{
  "Id":27,
  "Model":3701,
  "Order":26,
  "Icon":8027,
  "Transient":18,
  "Singular":"Sabotender-Sonnenschirm",
  "Adjective":4,
  "Plural":"Sabotender-Sonnenschirme",
  "PossessivePronoun":2,
  "StartsWithVowel":0,
  "Pronoun":0,
  "Article":0
},
{
  "Id":28,
  "Model":3702,
  "Order":27,
  "Icon":8028,
  "Transient":102,
  "Singular":"Blaue Pixie-Flügel",
  "Adjective":4,
  "Plural":"Blaue Pixie-Flügel",
  "PossessivePronoun":2,
  "StartsWithVowel":0,
  "Pronoun":0,
  "Article":0
},
{
  "Id":29,
  "Model":0,
  "Order":0,
  "Icon":0,
  "Transient":0,
  "Singular":"",
  "Adjective":0,
  "Plural":"",
  "PossessivePronoun":0,
  "StartsWithVowel":0,
  "Pronoun":0,
  "Article":0
},
{
  "Id":30,
  "Model":3815,
  "Order":28,
  "Icon":8029,
  "Transient":19,
  "Singular":"Miaurizius-Schirm",
  "Adjective":4,
  "Plural":"Miaurizius-Schirme",
  "PossessivePronoun":2,
  "StartsWithVowel":0,
  "Pronoun":0,
  "Article":0
},
{
  "Id":31,
  "Model":3816,
  "Order":29,
  "Icon":8030,
  "Transient":20,
  "Singular":"Wasserschutz-System",
  "Adjective":4,
  "Plural":"Wasserschutz-Systeme",
  "PossessivePronoun":1,
  "StartsWithVowel":0,
  "Pronoun":2,
  "Article":0
},
{
  "Id":32,
  "Model":3884,
  "Order":30,
  "Icon":8033,
  "Transient":203,
  "Singular":"Rosarote Brille",
  "Adjective":3,
  "Plural":"Rosarote Brillen",
  "PossessivePronoun":2,
  "StartsWithVowel":0,
  "Pronoun":1,
  "Article":0
},
{
  "Id":33,
  "Model":3885,
  "Order":31,
  "Icon":8031,
  "Transient":22,
  "Singular":"Tsukumogami-Sonnenschirm",
  "Adjective":4,
  "Plural":"Tsukumogami-Sonnenschirme",
  "PossessivePronoun":2,
  "StartsWithVowel":0,
  "Pronoun":0,
  "Article":0
},
{
  "Id":34,
  "Model":3886,
  "Order":32,
  "Icon":8032,
  "Transient":21,
  "Singular":"Bauderich-Schirm",
  "Adjective":4,
  "Plural":"Bauderich-Schirme",
  "PossessivePronoun":2,
  "StartsWithVowel":0,
  "Pronoun":0,
  "Article":0
},
{
  "Id":35,
  "Model":3928,
  "Order":33,
  "Icon":8037,
  "Transient":300,
  "Singular":"Rucksack",
  "Adjective":4,
  "Plural":"Rucksäcke",
  "PossessivePronoun":2,
  "StartsWithVowel":0,
  "Pronoun":0,
  "Article":0
},
{
  "Id":36,
  "Model":4016,
  "Order":34,
  "Icon":8034,
  "Transient":103,
  "Singular":"Statice-Flügel",
  "Adjective":4,
  "Plural":"Statice-Flügel",
  "PossessivePronoun":2,
  "StartsWithVowel":0,
  "Pronoun":0,
  "Article":0
},
{
  "Id":37,
  "Model":4017,
  "Order":35,
  "Icon":8035,
  "Transient":24,
  "Singular":"Blatt-Schirm",
  "Adjective":4,
  "Plural":"Blatt-Schirme",
  "PossessivePronoun":2,
  "StartsWithVowel":0,
  "Pronoun":0,
  "Article":0
},
{
  "Id":38,
  "Model":4018,
  "Order":36,
  "Icon":8036,
  "Transient":23,
  "Singular":"Karotten-Sonnenschirm",
  "Adjective":4,
  "Plural":"Karotten-Sonnenschirme",
  "PossessivePronoun":2,
  "StartsWithVowel":0,
  "Pronoun":0,
  "Article":0
},
{
  "Id":39,
  "Model":0,
  "Order":0,
  "Icon":0,
  "Transient":0,
  "Singular":"",
  "Adjective":0,
  "Plural":"",
  "PossessivePronoun":0,
  "StartsWithVowel":0,
  "Pronoun":0,
  "Article":0
},
{
  "Id":40,
  "Model":0,
  "Order":0,
  "Icon":0,
  "Transient":0,
  "Singular":"",
  "Adjective":0,
  "Plural":"",
  "PossessivePronoun":0,
  "StartsWithVowel":0,
  "Pronoun":0,
  "Article":0
}
]
