﻿[
{
  "Id":0,
  "Masculine":"",
  "Feminine":"",
  "RSE{M}{Body}":0,
  "RSE{M}{Hands}":0,
  "RSE{M}{Legs}":0,
  "RSE{M}{Feet}":0,
  "RSE{F}{Body}":0,
  "RSE{F}{Hands}":0,
  "RSE{F}{Legs}":0,
  "RSE{F}{Feet}":0,
  "ExPac":0
},
{
  "Id":1,
  "Masculine":"ヒューラン",
  "Feminine":"ヒューラン",
  "RSE{M}{Body}":2983,
  "RSE{M}{Hands}":3520,
  "RSE{M}{Legs}":3296,
  "RSE{M}{Feet}":3750,
  "RSE{F}{Body}":2984,
  "RSE{F}{Hands}":3521,
  "RSE{F}{Legs}":3297,
  "RSE{F}{Feet}":3751,
  "ExPac":0
},
{
  "Id":2,
  "Masculine":"エレゼン",
  "Feminine":"エレゼン",
  "RSE{M}{Body}":2985,
  "RSE{M}{Hands}":3522,
  "RSE{M}{Legs}":3298,
  "RSE{M}{Feet}":3752,
  "RSE{F}{Body}":2986,
  "RSE{F}{Hands}":3523,
  "RSE{F}{Legs}":3299,
  "RSE{F}{Feet}":3753,
  "ExPac":0
},
{
  "Id":3,
  "Masculine":"ララフェル",
  "Feminine":"ララフェル",
  "RSE{M}{Body}":2987,
  "RSE{M}{Hands}":3524,
  "RSE{M}{Legs}":3300,
  "RSE{M}{Feet}":3754,
  "RSE{F}{Body}":2988,
  "RSE{F}{Hands}":3525,
  "RSE{F}{Legs}":3301,
  "RSE{F}{Feet}":3755,
  "ExPac":0
},
{
  "Id":4,
  "Masculine":"ミコッテ",
  "Feminine":"ミコッテ",
  "RSE{M}{Body}":2989,
  "RSE{M}{Hands}":3526,
  "RSE{M}{Legs}":3302,
  "RSE{M}{Feet}":3756,
  "RSE{F}{Body}":2990,
  "RSE{F}{Hands}":3527,
  "RSE{F}{Legs}":3303,
  "RSE{F}{Feet}":3757,
  "ExPac":0
},
{
  "Id":5,
  "Masculine":"ルガディン",
  "Feminine":"ルガディン",
  "RSE{M}{Body}":2991,
  "RSE{M}{Hands}":3528,
  "RSE{M}{Legs}":3304,
  "RSE{M}{Feet}":3758,
  "RSE{F}{Body}":2992,
  "RSE{F}{Hands}":3529,
  "RSE{F}{Legs}":3305,
  "RSE{F}{Feet}":3759,
  "ExPac":0
},
{
  "Id":6,
  "Masculine":"アウラ",
  "Feminine":"アウラ",
  "RSE{M}{Body}":9645,
  "RSE{M}{Hands}":9646,
  "RSE{M}{Legs}":9647,
  "RSE{M}{Feet}":9648,
  "RSE{F}{Body}":9649,
  "RSE{F}{Hands}":9650,
  "RSE{F}{Legs}":9651,
  "RSE{F}{Feet}":9652,
  "ExPac":1
},
{
  "Id":7,
  "Masculine":"ロスガル",
  "Feminine":"ロスガル",
  "RSE{M}{Body}":25212,
  "RSE{M}{Hands}":25213,
  "RSE{M}{Legs}":25214,
  "RSE{M}{Feet}":25215,
  "RSE{F}{Body}":0,
  "RSE{F}{Hands}":0,
  "RSE{F}{Legs}":0,
  "RSE{F}{Feet}":0,
  "ExPac":3
},
{
  "Id":8,
  "Masculine":"ヴィエラ",
  "Feminine":"ヴィエラ",
  "RSE{M}{Body}":33943,
  "RSE{M}{Hands}":33944,
  "RSE{M}{Legs}":33945,
  "RSE{M}{Feet}":33946,
  "RSE{F}{Body}":25208,
  "RSE{F}{Hands}":25209,
  "RSE{F}{Legs}":25210,
  "RSE{F}{Feet}":25211,
  "ExPac":3
}
]
