﻿[
{
  "Id":0,
  "Item":0,
  "Name":""
},
{
  "Id":1,
  "Item":7778,
  "Name":"Menuiserie experte I"
},
{
  "Id":2,
  "Item":7779,
  "Name":"Métallurgie experte I"
},
{
  "Id":3,
  "Item":7780,
  "Name":"Armurerie experte I"
},
{
  "Id":4,
  "Item":7781,
  "Name":"Orfèvrerie experte I"
},
{
  "Id":5,
  "Item":7782,
  "Name":"Tannerie experte I"
},
{
  "Id":6,
  "Item":7783,
  "Name":"Couture experte I"
},
{
  "Id":7,
  "Item":7784,
  "Name":"Alchimie experte I"
},
{
  "Id":8,
  "Item":7785,
  "Name":"Cuisine experte I"
},
{
  "Id":9,
  "Item":7786,
  "Name":"Menuiserie experte : mirages"
},
{
  "Id":10,
  "Item":7787,
  "Name":"Métallurgie experte : mirages"
},
{
  "Id":11,
  "Item":7788,
  "Name":"Armurerie experte : mirages"
},
{
  "Id":12,
  "Item":7789,
  "Name":"Orfèvrerie experte : mirages"
},
{
  "Id":13,
  "Item":7790,
  "Name":"Tannerie experte : mirages"
},
{
  "Id":14,
  "Item":7791,
  "Name":"Couture experte : mirages"
},
{
  "Id":15,
  "Item":7792,
  "Name":"Alchimie experte : mirages"
},
{
  "Id":16,
  "Item":7793,
  "Name":"Cuisine experte : mirages"
},
{
  "Id":17,
  "Item":8135,
  "Name":"Menuiserie experte : demi-matérias"
},
{
  "Id":18,
  "Item":8136,
  "Name":"Métallurgie experte : demi-matérias"
},
{
  "Id":19,
  "Item":8137,
  "Name":"Armurerie experte : demi-matérias"
},
{
  "Id":20,
  "Item":8138,
  "Name":"Orfèvrerie experte : demi-matérias"
},
{
  "Id":21,
  "Item":8139,
  "Name":"Tannerie experte : demi-matérias"
},
{
  "Id":22,
  "Item":8140,
  "Name":"Couture experte : demi-matérias"
},
{
  "Id":23,
  "Item":8141,
  "Name":"Alchimie experte : demi-matérias"
},
{
  "Id":24,
  "Item":9336,
  "Name":"Menuiserie experte II"
},
{
  "Id":25,
  "Item":9337,
  "Name":"Métallurgie experte II"
},
{
  "Id":26,
  "Item":9338,
  "Name":"Armurerie experte II"
},
{
  "Id":27,
  "Item":9339,
  "Name":"Orfèvrerie experte II"
},
{
  "Id":28,
  "Item":9340,
  "Name":"Tannerie experte II"
},
{
  "Id":29,
  "Item":9341,
  "Name":"Couture experte II"
},
{
  "Id":30,
  "Item":9342,
  "Name":"Alchimie experte II"
},
{
  "Id":31,
  "Item":9343,
  "Name":"Cuisine experte II"
},
{
  "Id":32,
  "Item":12244,
  "Name":"Menuiserie experte III"
},
{
  "Id":33,
  "Item":12245,
  "Name":"Métallurgie experte III"
},
{
  "Id":34,
  "Item":12246,
  "Name":"Armurerie experte III"
},
{
  "Id":35,
  "Item":12247,
  "Name":"Orfèvrerie experte III"
},
{
  "Id":36,
  "Item":12248,
  "Name":"Tannerie experte III"
},
{
  "Id":37,
  "Item":12249,
  "Name":"Couture experte III"
},
{
  "Id":38,
  "Item":12250,
  "Name":"Alchimie experte III"
},
{
  "Id":39,
  "Item":12251,
  "Name":"Cuisine experte III"
},
{
  "Id":40,
  "Item":14126,
  "Name":"Menuiserie experte IV"
},
{
  "Id":41,
  "Item":14127,
  "Name":"Métallurgie experte IV"
},
{
  "Id":42,
  "Item":14128,
  "Name":"Armurerie experte IV"
},
{
  "Id":43,
  "Item":14129,
  "Name":"Orfèvrerie experte IV"
},
{
  "Id":44,
  "Item":14130,
  "Name":"Tannerie experte IV"
},
{
  "Id":45,
  "Item":14131,
  "Name":"Couture experte IV"
},
{
  "Id":46,
  "Item":14132,
  "Name":"Alchimie experte IV"
},
{
  "Id":47,
  "Item":14133,
  "Name":"Cuisine experte IV"
},
{
  "Id":48,
  "Item":17869,
  "Name":"Menuiserie experte V"
},
{
  "Id":49,
  "Item":17870,
  "Name":"Métallurgie experte V"
},
{
  "Id":50,
  "Item":17871,
  "Name":"Armurerie experte V"
},
{
  "Id":51,
  "Item":17872,
  "Name":"Orfèvrerie experte V"
},
{
  "Id":52,
  "Item":17873,
  "Name":"Tannerie experte V"
},
{
  "Id":53,
  "Item":17874,
  "Name":"Couture experte V"
},
{
  "Id":54,
  "Item":17875,
  "Name":"Alchimie experte V"
},
{
  "Id":55,
  "Item":17876,
  "Name":"Cuisine experte V"
},
{
  "Id":56,
  "Item":22309,
  "Name":"Menuiserie experte VI"
},
{
  "Id":57,
  "Item":22310,
  "Name":"Métallurgie experte VI"
},
{
  "Id":58,
  "Item":22311,
  "Name":"Armurerie experte VI"
},
{
  "Id":59,
  "Item":22312,
  "Name":"Orfèvrerie experte VI"
},
{
  "Id":60,
  "Item":22313,
  "Name":"Tannerie experte VI"
},
{
  "Id":61,
  "Item":22314,
  "Name":"Couture experte VI"
},
{
  "Id":62,
  "Item":22315,
  "Name":"Alchimie experte VI"
},
{
  "Id":63,
  "Item":22316,
  "Name":"Cuisine experte VI"
},
{
  "Id":64,
  "Item":24266,
  "Name":"Menuiserie experte VII"
},
{
  "Id":65,
  "Item":24267,
  "Name":"Métallurgie experte VII"
},
{
  "Id":66,
  "Item":24268,
  "Name":"Armurerie experte VII"
},
{
  "Id":67,
  "Item":24269,
  "Name":"Orfèvrerie experte VII"
},
{
  "Id":68,
  "Item":24270,
  "Name":"Tannerie experte VII"
},
{
  "Id":69,
  "Item":24271,
  "Name":"Couture experte VII"
},
{
  "Id":70,
  "Item":24272,
  "Name":"Alchimie experte VII"
},
{
  "Id":71,
  "Item":24273,
  "Name":"Cuisine experte VII"
},
{
  "Id":72,
  "Item":29484,
  "Name":"Menuiserie experte VIII"
},
{
  "Id":73,
  "Item":29485,
  "Name":"Métallurgie experte VIII"
},
{
  "Id":74,
  "Item":29486,
  "Name":"Armurerie experte VIII"
},
{
  "Id":75,
  "Item":29487,
  "Name":"Orfèvrerie experte VIII"
},
{
  "Id":76,
  "Item":29488,
  "Name":"Tannerie experte VIII"
},
{
  "Id":77,
  "Item":29489,
  "Name":"Couture experte VIII"
},
{
  "Id":78,
  "Item":29490,
  "Name":"Alchimie experte VIII"
},
{
  "Id":79,
  "Item":29491,
  "Name":"Cuisine experte VIII"
},
{
  "Id":80,
  "Item":35618,
  "Name":"Menuiserie experte IX"
},
{
  "Id":81,
  "Item":35619,
  "Name":"Métallurgie experte IX"
},
{
  "Id":82,
  "Item":35620,
  "Name":"Armurerie experte IX"
},
{
  "Id":83,
  "Item":35621,
  "Name":"Orfèvrerie experte IX"
},
{
  "Id":84,
  "Item":35622,
  "Name":"Tannerie experte IX"
},
{
  "Id":85,
  "Item":35623,
  "Name":"Couture experte IX"
},
{
  "Id":86,
  "Item":35624,
  "Name":"Alchimie experte IX"
},
{
  "Id":87,
  "Item":35625,
  "Name":"Cuisine experte IX"
},
{
  "Id":88,
  "Item":37734,
  "Name":"Menuiserie experte X"
},
{
  "Id":89,
  "Item":37735,
  "Name":"Métallurgie experte X"
},
{
  "Id":90,
  "Item":37736,
  "Name":"Armurerie experte X"
},
{
  "Id":91,
  "Item":37737,
  "Name":"Orfèvrerie experte X"
},
{
  "Id":92,
  "Item":37738,
  "Name":"Tannerie experte X"
},
{
  "Id":93,
  "Item":37739,
  "Name":"Couture experte X"
},
{
  "Id":94,
  "Item":37740,
  "Name":"Alchimie experte X"
},
{
  "Id":95,
  "Item":37741,
  "Name":"Cuisine experte X"
}
]
