﻿[
{
  "Id":0,
  "Description":"",
  "Item":0,
  "GatheringItemLevel":0,
  "FishingRecordType":0,
  "TerritoryType":0,
  "IsVisible":false
},
{
  "Id":20000,
  "Description":"Those who dare gaze into its swirling whorls risk spiraling into infinite madness. Luckily, few have peered into that void, as an intact specimen of this fragile shell is scarcely to be found.",
  "Item":20144,
  "GatheringItemLevel":205,
  "FishingRecordType":10,
  "TerritoryType":0,
  "IsVisible":true
},
{
  "Id":20001,
  "Description":"Despite its name, the shading of this protogynous species is subject to variation as it transitions genders. As a result, some infer that its tenebrous title in fact references the deadly, viscous toxin it secretes.",
  "Item":20145,
  "GatheringItemLevel":205,
  "FishingRecordType":11,
  "TerritoryType":0,
  "IsVisible":true
},
{
  "Id":20002,
  "Description":"The glass manta is known as a languorous, lackadaisical wayfarer whose striped ray brethren were domesticated by the Kojin long ago.",
  "Item":20146,
  "GatheringItemLevel":205,
  "FishingRecordType":12,
  "TerritoryType":1,
  "IsVisible":true
},
{
  "Id":20003,
  "Description":"Originally brought over as tribute to the bakufu of Hingashi by an emissary from Radz–at–Han, the diplomat himself could not have taken to his new habitat as well as these fish have.",
  "Item":20147,
  "GatheringItemLevel":205,
  "FishingRecordType":10,
  "TerritoryType":2,
  "IsVisible":true
},
{
  "Id":20004,
  "Description":"This moray maintains a symbiotic relationship with the spiny lobster, providing protection to the crustacean while the lobster lures forth the octopodes on which the wavekin feeds.",
  "Item":20148,
  "GatheringItemLevel":205,
  "FishingRecordType":11,
  "TerritoryType":4,
  "IsVisible":true
},
{
  "Id":20005,
  "Description":"A well-known children's story in Doma tells of a complacent hoppfish given to pondering the unbearable lightness of being, an allegory of existential thought positing that each has but one life to fish.",
  "Item":20149,
  "GatheringItemLevel":205,
  "FishingRecordType":13,
  "TerritoryType":6,
  "IsVisible":true
},
{
  "Id":20006,
  "Description":"Wrapped in a tough, scaly cuirass and always craving the crunch of bones and shells, this hardest of links in the food chain has a name synonymous with grit in Doman vernacular.",
  "Item":20150,
  "GatheringItemLevel":205,
  "FishingRecordType":15,
  "TerritoryType":6,
  "IsVisible":true
},
{
  "Id":20007,
  "Description":"Per the axiom “the harder the battle, the sweeter the victory,” this notoriously difficult-to-land blowfish is as much loathed by fishermen as it is loved by diners.",
  "Item":20151,
  "GatheringItemLevel":205,
  "FishingRecordType":14,
  "TerritoryType":7,
  "IsVisible":true
},
{
  "Id":20008,
  "Description":"What it loses to the Doman eel in terms of flavor, the giant eel more than makes up with in volume, and those who value a full belly will certainly get their gil's worth out of this oversized creature.",
  "Item":20152,
  "GatheringItemLevel":205,
  "FishingRecordType":15,
  "TerritoryType":7,
  "IsVisible":true
},
{
  "Id":20009,
  "Description":"This hermit crab spins its way through several spiral shells over the course of its curmudgeonly life, gradually grabbing larger domiciles as it chases pesky neighbors away from its property.",
  "Item":20153,
  "GatheringItemLevel":205,
  "FishingRecordType":13,
  "TerritoryType":8,
  "IsVisible":true
},
{
  "Id":20010,
  "Description":"Based on history, we know this massive crab can extend its major claws to span the width of two adult Hyurs set shoulder to shoulder.",
  "Item":20154,
  "GatheringItemLevel":210,
  "FishingRecordType":12,
  "TerritoryType":0,
  "IsVisible":true
},
{
  "Id":20011,
  "Description":"Once brought to the brink of extinction by a Thavnairian fad that claimed these fish could unlock the secret to eternal youth, the species was saved at the last moment by a shift in popular attitudes toward growing old gracefully.",
  "Item":20155,
  "GatheringItemLevel":210,
  "FishingRecordType":11,
  "TerritoryType":1,
  "IsVisible":true
},
{
  "Id":20012,
  "Description":"The precise purpose of its dual dorsal fins remains a mystery to scholars, as observing the dark fish in its native deep-sea environs has proven nigh impossible.",
  "Item":20156,
  "GatheringItemLevel":210,
  "FishingRecordType":12,
  "TerritoryType":2,
  "IsVisible":true
},
{
  "Id":20013,
  "Description":"The vertical black-and-white striping that identifies these sharks disappears as the pups mature, and for a long time, youth and adult specimens were considered altogether separate species.",
  "Item":20157,
  "GatheringItemLevel":210,
  "FishingRecordType":12,
  "TerritoryType":3,
  "IsVisible":true
},
{
  "Id":20014,
  "Description":"With a morose, bony appearance and purported powers to ward off evil spirits, it should come as no surprise this shell is a popular trinket with those who fly the skull and crossbones.",
  "Item":20158,
  "GatheringItemLevel":210,
  "FishingRecordType":10,
  "TerritoryType":4,
  "IsVisible":true
},
{
  "Id":20015,
  "Description":"This repulsive breed of languid swimmers' only chance of drawing near to fellow sea creatures is to dangle bait from their protrusions and hope others are not revolted.",
  "Item":20159,
  "GatheringItemLevel":210,
  "FishingRecordType":14,
  "TerritoryType":6,
  "IsVisible":true
},
{
  "Id":20016,
  "Description":"Ubiquitous and unremarkable shellfish tucked in among the rocks and algae along Othardian river- and lakebeds. These whelks are essentially what fish feed on when they can't be bothered to hunt for something better.",
  "Item":20160,
  "GatheringItemLevel":210,
  "FishingRecordType":13,
  "TerritoryType":7,
  "IsVisible":true
},
{
  "Id":20017,
  "Description":"It is indeed a curiosity how a herbivorous fish should chance to grow to Roegadyn dimensions in length, but the vegetarian diet at least helps explain this fish's youthful, clean-shaven appearance.",
  "Item":20161,
  "GatheringItemLevel":210,
  "FishingRecordType":15,
  "TerritoryType":8,
  "IsVisible":true
},
{
  "Id":20018,
  "Description":"The bioluminescent organs that cause this slight-bodied fish to glow in the dark are sometimes mistaken by fishers for drowned spirits lost at sea from afar, but there is no mistaking the wavekin's disproportionately enormous head.",
  "Item":20162,
  "GatheringItemLevel":215,
  "FishingRecordType":10,
  "TerritoryType":0,
  "IsVisible":true
},
{
  "Id":20019,
  "Description":"While this fish may not technically be inedible, its string-like fin fibers make for a meal that will under no circumstances go down smoothly, and the flesh reeks of rot to boot.",
  "Item":20163,
  "GatheringItemLevel":215,
  "FishingRecordType":11,
  "TerritoryType":0,
  "IsVisible":true
},
{
  "Id":20020,
  "Description":"Though this eel may be named for its affinity for green, its aversion to land should assuage growers' fears of one turning up in the garden.",
  "Item":20164,
  "GatheringItemLevel":215,
  "FishingRecordType":10,
  "TerritoryType":1,
  "IsVisible":true
},
{
  "Id":20021,
  "Description":"Overlooked in most cultures due to its voidsent likeness, the Hingashi see past the repugnant exterior of this prize ingredient and find the hidden delectability underneath.",
  "Item":20165,
  "GatheringItemLevel":215,
  "FishingRecordType":10,
  "TerritoryType":2,
  "IsVisible":true
},
{
  "Id":20022,
  "Description":"From shellfish and small fry to turtles and baby sharks, this fish has an appetite for everything, and the Kojin discipline little wrongdoers by warning them the brindlebass seeks out naughty children for supper.",
  "Item":20166,
  "GatheringItemLevel":215,
  "FishingRecordType":12,
  "TerritoryType":3,
  "IsVisible":true
},
{
  "Id":20023,
  "Description":"It is well-known that the spina of its fins are laced with a virulent toxin, yet still the promise of its tender, white flesh tempts many a fisher into an early grave.",
  "Item":20167,
  "GatheringItemLevel":215,
  "FishingRecordType":11,
  "TerritoryType":4,
  "IsVisible":true
},
{
  "Id":20024,
  "Description":"This offshoot of the Doman crayfish boasts a vibrant sanguine-toned plate, a stark contrast to the other members of its family.",
  "Item":20168,
  "GatheringItemLevel":215,
  "FishingRecordType":13,
  "TerritoryType":7,
  "IsVisible":true
},
{
  "Id":20025,
  "Description":"One of the four great fish of Doma, its delights were once a rare treat for the privileged, but have since been made available to the masses via farming.",
  "Item":20169,
  "GatheringItemLevel":215,
  "FishingRecordType":15,
  "TerritoryType":7,
  "IsVisible":true
},
{
  "Id":20026,
  "Description":"The shells of this wavekin once served as the coin of the realm in the lands of Yanxia, to which the Hingan term “zeni” refers, though the mollusk is all but worthless nowadays.",
  "Item":20170,
  "GatheringItemLevel":215,
  "FishingRecordType":13,
  "TerritoryType":8,
  "IsVisible":true
},
{
  "Id":20027,
  "Description":"The corpse-eater is a large carnivorous fish that rides the warm currents into the Ruby Sea. Its unfortunate habit of gathering around floating bodies has resulted in an undeservedly grim name. For the record, any corpses the fish may have been caught nibbling on were dead before the fish found them.",
  "Item":20171,
  "GatheringItemLevel":220,
  "FishingRecordType":12,
  "TerritoryType":0,
  "IsVisible":true
},
{
  "Id":20028,
  "Description":"Its rugged facial features, scar-like stripe, and solitary swimming habits earned this fish the Hingan title of “ronin,” or “wandering warrior.” The fish does not seem to actively seek a master.",
  "Item":20172,
  "GatheringItemLevel":220,
  "FishingRecordType":12,
  "TerritoryType":1,
  "IsVisible":true
},
{
  "Id":20029,
  "Description":"To taste a toothsome grouper is to enter a higher plane of flavorful bliss; to catch one, divine.",
  "Item":20173,
  "GatheringItemLevel":220,
  "FishingRecordType":12,
  "TerritoryType":2,
  "IsVisible":true
},
{
  "Id":20030,
  "Description":"This popular Far Eastern treat spends its evenings scouring the reef with its radula, delicately sifting through and devouring scrumptious strands of seaweed.",
  "Item":20174,
  "GatheringItemLevel":220,
  "FishingRecordType":10,
  "TerritoryType":3,
  "IsVisible":true
},
{
  "Id":20031,
  "Description":"In case you were wondering, correcting friends and family members who erroneously refer to this species as a “red starfish” does indeed make you a pedant.",
  "Item":20175,
  "GatheringItemLevel":220,
  "FishingRecordType":10,
  "TerritoryType":4,
  "IsVisible":true
},
{
  "Id":20032,
  "Description":"This crab runs the migratory gauntlet of the river, starting out at the basin, then venturing upstream to freshwater in midlife before ultimately returning out to sea to bear its young.",
  "Item":20176,
  "GatheringItemLevel":220,
  "FishingRecordType":13,
  "TerritoryType":6,
  "IsVisible":true
},
{
  "Id":20033,
  "Description":"Just your typical, average, run-of-the-mill case of a reclusive ascetic fasting to the point of infirmity, stumbling and tumbling into a river, receiving the mercy of the gods, and having his spirit transmigrated into a fish.",
  "Item":20177,
  "GatheringItemLevel":220,
  "FishingRecordType":14,
  "TerritoryType":7,
  "IsVisible":true
},
{
  "Id":20034,
  "Description":"A fish of famed longevity that has swum the One River since time immemorial in search of enlightenment, with a few supposedly having ascended to the heavens above.",
  "Item":20178,
  "GatheringItemLevel":220,
  "FishingRecordType":15,
  "TerritoryType":8,
  "IsVisible":true
},
{
  "Id":20035,
  "Description":"A squid with a reputation for getting around, this sharp cephalopod resides on plates all over the Far East. Delicious whether raw or battered.",
  "Item":20179,
  "GatheringItemLevel":225,
  "FishingRecordType":11,
  "TerritoryType":1,
  "IsVisible":true
},
{
  "Id":20036,
  "Description":"A scad or not a scad? That is the question that confronts scholars who ponder the nomenclature of this undefinable fish, a pioneering maverick that defiantly straddles taxonomical lines and chooses to live beyond labels.",
  "Item":20180,
  "GatheringItemLevel":225,
  "FishingRecordType":11,
  "TerritoryType":2,
  "IsVisible":true
},
{
  "Id":20037,
  "Description":"Spontaneous though it may be, occasionally a species will simply be named after the first thing its finder spies in the vicinity, as in the case of this cold-climate crustacean.",
  "Item":20181,
  "GatheringItemLevel":225,
  "FishingRecordType":11,
  "TerritoryType":3,
  "IsVisible":true
},
{
  "Id":20038,
  "Description":"Even amid the scarce light of the deep, its highly reflective eyes shine a bright-red beacon, and its name has inspired numerous groan-worthy “how did the lates eyes get so red” punchlines among schoolchildren desperate for attention.",
  "Item":20182,
  "GatheringItemLevel":225,
  "FishingRecordType":12,
  "TerritoryType":4,
  "IsVisible":true
},
{
  "Id":20039,
  "Description":"After the eggs are laid in autumn, the hatchlings battle winter's chill to emerge full-grown in spring, constituting an entirely common life cycle with nothing in particular to be bitter about, really.",
  "Item":20183,
  "GatheringItemLevel":225,
  "FishingRecordType":14,
  "TerritoryType":6,
  "IsVisible":true
},
{
  "Id":20040,
  "Description":"Despite complete and utter inattention to diet and exercise, this longevous fish still manages to see its fair share of summers, not uncommonly more than the fishermen who pursue it.",
  "Item":20184,
  "GatheringItemLevel":225,
  "FishingRecordType":15,
  "TerritoryType":6,
  "IsVisible":true
},
{
  "Id":20041,
  "Description":"This wavekin's dubious origin story tells of a snake who wished to swim in the river despite the fact that snakes and fish are in no way related, though in fairness, the small up-top, long-in-the-back form of the mullet does bear a slight ophidian resemblance.",
  "Item":20185,
  "GatheringItemLevel":225,
  "FishingRecordType":14,
  "TerritoryType":8,
  "IsVisible":true
},
{
  "Id":20042,
  "Description":"Whiling the daylight hours away under the cover of rock, this fish comes out at night to paint the sea red─two coats!",
  "Item":20186,
  "GatheringItemLevel":230,
  "FishingRecordType":11,
  "TerritoryType":5,
  "IsVisible":true
},
{
  "Id":20043,
  "Description":"This tiny floating tiger earns its stripes by hunting plankton with catlike precision, but its gluttonous appetite threatens to turn its stripes into rings.",
  "Item":20187,
  "GatheringItemLevel":230,
  "FishingRecordType":13,
  "TerritoryType":9,
  "IsVisible":true
},
{
  "Id":20044,
  "Description":"A holy hand fan called forth the rains that doused the fires of the mountain, only for the great butterfingered tengu to then unceremoniously drop it into the One River, whereupon it metamorphosed into this stormy electric ray. True story.",
  "Item":20188,
  "GatheringItemLevel":230,
  "FishingRecordType":14,
  "TerritoryType":9,
  "IsVisible":true
},
{
  "Id":20045,
  "Description":"The trained eye will appreciate the lamellated striae and tuberculate folds of the concentric whorls atop its squamous base, its thin, arcuate columella, and lustrous operculum. The untrained eye will appreciate a pretty shell.",
  "Item":20189,
  "GatheringItemLevel":230,
  "FishingRecordType":13,
  "TerritoryType":10,
  "IsVisible":true
},
{
  "Id":20046,
  "Description":"Most somber-toned of the four great fish of Doma. Having nourished the masses for generations, the blue-fish has swum its way into Doman folklore alongside the mythical onefish, twofish, and red-fish.",
  "Item":20190,
  "GatheringItemLevel":230,
  "FishingRecordType":15,
  "TerritoryType":10,
  "IsVisible":true
},
{
  "Id":20047,
  "Description":"This naughty nocturnal croaker has a habit of getting itself into hot water, namely Yanxian and Nagxian cauldrons.",
  "Item":20191,
  "GatheringItemLevel":230,
  "FishingRecordType":16,
  "TerritoryType":11,
  "IsVisible":true
},
{
  "Id":20048,
  "Description":"The “cavalry” of its name arrives from the popular rumor that an esurient school of the catfish split a river-fording horse in two, devouring it from the stomach out. Horse-lovers and the weak of stomach might steer clear of this “meal that eats you back.”",
  "Item":20192,
  "GatheringItemLevel":230,
  "FishingRecordType":18,
  "TerritoryType":11,
  "IsVisible":true
},
{
  "Id":20049,
  "Description":"While more imaginative Xaela may convince themselves that this fish's eponymous appendage heralds the dawn and renders its kin to the almighty Azim, sometimes a red fin is just a red fin.",
  "Item":20193,
  "GatheringItemLevel":230,
  "FishingRecordType":17,
  "TerritoryType":12,
  "IsVisible":true
},
{
  "Id":20050,
  "Description":"Having fallen in a teardrop as the moon above wept into the sea below, this pious disc-in-water offers prayers to the Lover each full moon in hopes of returning home. ",
  "Item":20194,
  "GatheringItemLevel":230,
  "FishingRecordType":19,
  "TerritoryType":13,
  "IsVisible":true
},
{
  "Id":20051,
  "Description":"One might mistakenly assume this bonytongue was left out in the sun too long, but the pigmentation of its glistening scales actually owes more to its saline habitat.",
  "Item":20195,
  "GatheringItemLevel":230,
  "FishingRecordType":21,
  "TerritoryType":13,
  "IsVisible":true
},
{
  "Id":20052,
  "Description":"This merciless lord of Loch Seld rules with an iron fin, visiting a nightly reign of terror upon the indigenous flood tuna, who live in perpetual fear of the salty tyrant.",
  "Item":20196,
  "GatheringItemLevel":230,
  "FishingRecordType":20,
  "TerritoryType":14,
  "IsVisible":true
},
{
  "Id":20053,
  "Description":"The sky-colored shine of its tapetum evokes the proud image of Ala Mhigan regalia, but the cape is only as good as the king, and the fish was unduly subjected to symbolic slaughter following the fall of Theodoric.",
  "Item":20197,
  "GatheringItemLevel":230,
  "FishingRecordType":21,
  "TerritoryType":15,
  "IsVisible":true
},
{
  "Id":20054,
  "Description":"Discovery of this “new” bioluminescent species has been hailed as a breakthrough by academics, but the Kojin, who have dwelled beside the fish for countless generations, do not see what all the fuss is about.",
  "Item":20198,
  "GatheringItemLevel":245,
  "FishingRecordType":10,
  "TerritoryType":5,
  "IsVisible":true
},
{
  "Id":20055,
  "Description":"Despite being the largest fish in its family, this exceptional hunter is remarkably fast, and sure to go quickly when served for supper as well.",
  "Item":20199,
  "GatheringItemLevel":245,
  "FishingRecordType":12,
  "TerritoryType":5,
  "IsVisible":true
},
{
  "Id":20056,
  "Description":"Whether it is named for the fruit of the season in which it is oft seen or named for the sweetness of its flesh, under no circumstances should fish be paired with fruit.",
  "Item":20200,
  "GatheringItemLevel":245,
  "FishingRecordType":15,
  "TerritoryType":9,
  "IsVisible":true
},
{
  "Id":20057,
  "Description":"Borrowing its name from the Hingan word for the “flowers” of sintered sediment found in hot springs, this crab has the curious ability to warm the waters around itself, not unlike younglings in a pool.",
  "Item":20201,
  "GatheringItemLevel":245,
  "FishingRecordType":14,
  "TerritoryType":10,
  "IsVisible":true
},
{
  "Id":20058,
  "Description":"The namesake gudgeon of the Nhaama desert dwellers is also a kindred spirit, abiding the daylight's arc amid the shade of rocks, and emerging to hunt only at night.",
  "Item":20202,
  "GatheringItemLevel":245,
  "FishingRecordType":17,
  "TerritoryType":11,
  "IsVisible":true
},
{
  "Id":20059,
  "Description":"One man's dross is another man's dinner with these clams, and while the Xaela may turn their nose up in the steppes, the Yanxians are more than happy to chow down by the river.",
  "Item":20203,
  "GatheringItemLevel":245,
  "FishingRecordType":16,
  "TerritoryType":12,
  "IsVisible":true
},
{
  "Id":20060,
  "Description":"Fret not─this herbivorous catfish posing as a land shark is little more than a paper tiger.",
  "Item":20204,
  "GatheringItemLevel":245,
  "FishingRecordType":18,
  "TerritoryType":12,
  "IsVisible":true
},
{
  "Id":20061,
  "Description":"These shrimp literally rained from the heavens above Gyr Abania after being swept up in the seismic sea storms of the Calamity. ",
  "Item":20205,
  "GatheringItemLevel":245,
  "FishingRecordType":20,
  "TerritoryType":13,
  "IsVisible":true
},
{
  "Id":20062,
  "Description":"The saviors of your dinner party come complete with their own dish. Simply soak the salt and sand out before serving to enjoy these heroes in the half shell.",
  "Item":20206,
  "GatheringItemLevel":245,
  "FishingRecordType":19,
  "TerritoryType":14,
  "IsVisible":true
},
{
  "Id":20063,
  "Description":"The whitening effect of salt-absorption is favored by natural selection amid the saline climes, and the seasoning effect is favored by Highlanders, who enjoy the urchins raw.",
  "Item":20207,
  "GatheringItemLevel":245,
  "FishingRecordType":19,
  "TerritoryType":15,
  "IsVisible":true
},
{
  "Id":20064,
  "Description":"An expert at meticulously crafting dwellings out of salt licks, this architectural crustacean's schematic weakness lies in its failure to build in a backdoor, allowing itself to be cornered by all too many guileful fishermen.",
  "Item":20208,
  "GatheringItemLevel":245,
  "FishingRecordType":20,
  "TerritoryType":15,
  "IsVisible":true
},
{
  "Id":20065,
  "Description":"To small sea creatures, this aquatic warrior strikes an imposing profile─clad in a chitinous, segmented exoskeleton of armor, brandishing menacing pincers, and flailing thick, whip-like antennae. Gods be praised they are tiny.",
  "Item":20209,
  "GatheringItemLevel":260,
  "FishingRecordType":11,
  "TerritoryType":5,
  "IsVisible":true
},
{
  "Id":20066,
  "Description":"While the shark bears the name of the venerated Far Eastern sea scholar who discovered it, genealogy hints that it is actually an ancestor of the Allagan bladeshark.",
  "Item":20210,
  "GatheringItemLevel":260,
  "FishingRecordType":12,
  "TerritoryType":28,
  "IsVisible":true
},
{
  "Id":20067,
  "Description":"Initially the unintended by-product of rabid inbreeding among market goldfish, the Doman bubble eye has stabilized into a viable species with an eye-popping following, no doubt owing to its vibrant coloring and caricaturish expressions.",
  "Item":20211,
  "GatheringItemLevel":260,
  "FishingRecordType":13,
  "TerritoryType":9,
  "IsVisible":true
},
{
  "Id":20068,
  "Description":"An old Doman fable tells of a presumptuous squeaker who sought to soar where only dragons dare venture, and was cast to the depths of the sea as punishment, never to surface again.",
  "Item":20212,
  "GatheringItemLevel":260,
  "FishingRecordType":13,
  "TerritoryType":10,
  "IsVisible":true
},
{
  "Id":20069,
  "Description":"Denizen of the middle and lower rivers of Othard who loyally serves as the eyes of the Dawn Father, to hear the Xaela tell it.",
  "Item":20213,
  "GatheringItemLevel":260,
  "FishingRecordType":16,
  "TerritoryType":11,
  "IsVisible":true
},
{
  "Id":20070,
  "Description":"While a few are to be found in Loch Seld, one is far more likely to come across this swirly shell atop the tables of Ala Mhigo, where the cellar's abode is routinely repurposed into a salt shaker.",
  "Item":20214,
  "GatheringItemLevel":260,
  "FishingRecordType":19,
  "TerritoryType":13,
  "IsVisible":true
},
{
  "Id":20071,
  "Description":"While fishmongers may carry cuts of this sturgeon, it is the caviar, marinated to perfection in the brine of Loch Seld, that is worth its weight in gold.",
  "Item":20215,
  "GatheringItemLevel":260,
  "FishingRecordType":21,
  "TerritoryType":14,
  "IsVisible":true
},
{
  "Id":20072,
  "Description":"The toothy grin this ruthless long-jawed killer flashes before bearing down on its prey will be a familiar sight to debtors who've taken loans from sharks of a different sort.",
  "Item":20216,
  "GatheringItemLevel":260,
  "FishingRecordType":21,
  "TerritoryType":15,
  "IsVisible":true
},
{
  "Id":20073,
  "Description":"With winglike fins, this dark crusader glides through the sea, a hero fighting for the small fry. The bashful bat relies not on witchery, instead prevailing with its physical prowess, genius intellect, and indomitable will.",
  "Item":20217,
  "GatheringItemLevel":275,
  "FishingRecordType":10,
  "TerritoryType":5,
  "IsVisible":true
},
{
  "Id":20074,
  "Description":"From the brackish estuaries to the fresh waters upstream, these protandrous fish visit every ilm of the river over the course of their lives.",
  "Item":20218,
  "GatheringItemLevel":275,
  "FishingRecordType":14,
  "TerritoryType":9,
  "IsVisible":true
},
{
  "Id":20075,
  "Description":"Myriad twisted tales of drowned souls have been tied to the eerie, rope-like appearance of this otherwise harmless anguilliform fish, whose only crime is wanting a hug.",
  "Item":20219,
  "GatheringItemLevel":275,
  "FishingRecordType":15,
  "TerritoryType":10,
  "IsVisible":true
},
{
  "Id":20076,
  "Description":"The precious shade of pink worn by this adorable little angel tempts one to pinch its heavenly little fish cheeks. These domesticated darlings can be found watching over many an aquatic garden.",
  "Item":20220,
  "GatheringItemLevel":275,
  "FishingRecordType":14,
  "TerritoryType":30,
  "IsVisible":true
},
{
  "Id":20077,
  "Description":"Looming larger than her dawn relative, the dusk herald benights the waters with silver-blue scales of twilight in devout service to Nhaama.",
  "Item":20221,
  "GatheringItemLevel":275,
  "FishingRecordType":17,
  "TerritoryType":11,
  "IsVisible":true
},
{
  "Id":20078,
  "Description":"Fiercely territorial from birth, the younglings seek to intimidate any and all who enter their perceived sphere of dominion, kin included; a posture that sits perfectly well with the Oronir.",
  "Item":20222,
  "GatheringItemLevel":275,
  "FishingRecordType":18,
  "TerritoryType":12,
  "IsVisible":true
},
{
  "Id":20079,
  "Description":"This pipira's saltwater habitat seasons it to perfection, soliciting no assistance on the part of the cook other than to slap the fish on the grill, making for an unmistakable taste of Ala Mhigo the first time, and every time.",
  "Item":20223,
  "GatheringItemLevel":275,
  "FishingRecordType":20,
  "TerritoryType":13,
  "IsVisible":true
},
{
  "Id":20080,
  "Description":"Before reaching out to caress the smooth and lustrous chrome of this seemingly metallic specimen, be forewarned that it is indeed a slimy, smelly fish.",
  "Item":20224,
  "GatheringItemLevel":275,
  "FishingRecordType":19,
  "TerritoryType":14,
  "IsVisible":true
},
{
  "Id":20081,
  "Description":"While the sole may resemble the bottom of a foot, this fastidious fish is mindful not to tread on its predators' toes, and its ivory sheen allows it to step lightly among the flora of the lake floor.",
  "Item":20225,
  "GatheringItemLevel":275,
  "FishingRecordType":20,
  "TerritoryType":15,
  "IsVisible":true
},
{
  "Id":20082,
  "Description":"A slough of unflattering sobriquets, many of which cannot be uttered in polite company, are ascribed to this beakfish at its various phases of development, hence its “motley” moniker. Needless to say, the tale of the ugly beakfish does not end happily.",
  "Item":20226,
  "GatheringItemLevel":290,
  "FishingRecordType":12,
  "TerritoryType":5,
  "IsVisible":true
},
{
  "Id":20083,
  "Description":"When one predatory trait far exceeds any local resistance, a species is wont to remain largely the same, and such is the case of this immutable scalekin, whose preternatural olfactory sense has allowed it to sniff out prey, track the scent, and stave off adaptation for ages.",
  "Item":20227,
  "GatheringItemLevel":290,
  "FishingRecordType":12,
  "TerritoryType":28,
  "IsVisible":true
},
{
  "Id":20084,
  "Description":"Researchers spent decades attempting to mark the spot where this scalekin fell on the ancestral scale between fish and dolphin only to recently find that it had never actually gone extinct.",
  "Item":20228,
  "GatheringItemLevel":290,
  "FishingRecordType":15,
  "TerritoryType":9,
  "IsVisible":true
},
{
  "Id":20085,
  "Description":"The braggadocio of the sailfin landed it in the One River, as the mighty Susano put the arrogant fish in its place by casting it out of the Ruby Sea, banishing it from its home for once and for all.",
  "Item":20229,
  "GatheringItemLevel":290,
  "FishingRecordType":14,
  "TerritoryType":10,
  "IsVisible":true
},
{
  "Id":20086,
  "Description":"Possessed of an imposing frame and whiskers that speak to its wisdom, this fish calls to mind the balance of body and spirit embodied by the ancient masters, and appears cognizant of nature's innermost secrets.",
  "Item":20230,
  "GatheringItemLevel":290,
  "FishingRecordType":14,
  "TerritoryType":30,
  "IsVisible":true
},
{
  "Id":20087,
  "Description":"The act of swallowing the sun burned a permanent orange hue in to the scales of this hungry fire-eater and brought about the first eclipse, in case there was any question concerning how that astronomical phenomenon occurred.",
  "Item":20231,
  "GatheringItemLevel":290,
  "FishingRecordType":18,
  "TerritoryType":11,
  "IsVisible":true
},
{
  "Id":20088,
  "Description":"Feared and reviled by the public for the role its deadly venom played in the infamous assassination of a feudal lord, the snake itself is blameless, exhibiting a passive temperament and not ordinarily given to biting.",
  "Item":20232,
  "GatheringItemLevel":290,
  "FishingRecordType":17,
  "TerritoryType":12,
  "IsVisible":true
},
{
  "Id":20089,
  "Description":"Unblinking sentinel left in the wake of the Dawn Father and Dusk Mother's departure to watch over the Xaela in their absence.",
  "Item":20233,
  "GatheringItemLevel":275,
  "FishingRecordType":16,
  "TerritoryType":31,
  "IsVisible":true
},
{
  "Id":20090,
  "Description":"According to the existential hierarchy of Xaela reincarnation, fishliness is next to godliness. Horses who serve their masters well in life ascend to the waters afterward, with the most noble of destriers reborn in pristine scales of white.",
  "Item":20234,
  "GatheringItemLevel":290,
  "FishingRecordType":16,
  "TerritoryType":31,
  "IsVisible":true
},
{
  "Id":20091,
  "Description":"This fish is said to have been found atop the peaks of Abalathia's Spine following the great deluge of the Calamity, though the claims are widely regarded as wildly inaccurate, if not patently false.",
  "Item":20235,
  "GatheringItemLevel":290,
  "FishingRecordType":21,
  "TerritoryType":13,
  "IsVisible":true
},
{
  "Id":20092,
  "Description":"This freelance, armed with a sturdy helm and pair of pincers, was once consulted for tactical strategy, as oracles invoked plastromancy to divine routes to victory from the lines beneath its carapace.",
  "Item":20236,
  "GatheringItemLevel":290,
  "FishingRecordType":20,
  "TerritoryType":14,
  "IsVisible":true
},
{
  "Id":20093,
  "Description":"The Sharlayans lightheartedly dubbed this fish a “butterfly,” while in Ala Mhigo it was given the macabre moniker of “wraith,” a textbook illustration of a cultural bias anecdote referenced by scholars ad infinitum despite the fact everyone has already heard it a hundred times over.",
  "Item":20237,
  "GatheringItemLevel":290,
  "FishingRecordType":19,
  "TerritoryType":15,
  "IsVisible":true
},
{
  "Id":20094,
  "Description":"These flat, flaxen fish are instinctively drawn to floating objects, so there's a fair chance a friendly one will swim up to greet visitors in the water. Whether or not to return the hail by harpooning the fish is at the visitor's discretion.",
  "Item":20238,
  "GatheringItemLevel":275,
  "FishingRecordType":21,
  "TerritoryType":32,
  "IsVisible":true
},
{
  "Id":20095,
  "Description":"Infighting among this breed of scalekin is rampant, as merely being a member of the species atop the food chain of Loch Seld will not suffice for these bloodthirsty despots, who seek utter and total dominance over all.",
  "Item":20239,
  "GatheringItemLevel":290,
  "FishingRecordType":21,
  "TerritoryType":32,
  "IsVisible":true
},
{
  "Id":20096,
  "Description":"While it is the female tatsunoko who lays the eggs, it is the male who sees them through gestation in a brood pouch on its belly. And if that doesn't make you truly stop and think, nothing will.",
  "Item":20528,
  "GatheringItemLevel":290,
  "FishingRecordType":10,
  "TerritoryType":28,
  "IsVisible":true
},
{
  "Id":20097,
  "Description":"Taking its name from a Hingan blade of legend, this razor-toothed wavekin is one of the few predators known to successfully hunt the slippery snailfish.",
  "Item":21179,
  "GatheringItemLevel":300,
  "FishingRecordType":12,
  "TerritoryType":5,
  "IsVisible":true
},
{
  "Id":20098,
  "Description":"The unusual snailfish is covered in a supple, gelatinous skin rather than scales, allowing it to wriggle free from the jaws of would-be predators.",
  "Item":21180,
  "GatheringItemLevel":300,
  "FishingRecordType":11,
  "TerritoryType":29,
  "IsVisible":true
},
{
  "Id":20099,
  "Description":"Edible either steamed or fried, this wavekin is common throughout the waterways of Lakeland. With its ordinary appearance and undistinctive taste, the grey carp's name has become a byword for “boring.”",
  "Item":27516,
  "GatheringItemLevel":345,
  "FishingRecordType":22,
  "TerritoryType":17,
  "IsVisible":true
},
{
  "Id":20100,
  "Description":"This goby's large, lilac fins protect it from the attentions of hungry wildfowl. It absorbs the pigment from the purple plants that line the pools of Lakeland, making it look like a flower fallen from the very same shrubs.",
  "Item":27517,
  "GatheringItemLevel":345,
  "FishingRecordType":22,
  "TerritoryType":16,
  "IsVisible":true
},
{
  "Id":20101,
  "Description":"This creature has the ability to produce a strong galvanic force, which it uses to stun prey by the schoolload. Scavengers often follow behind it to scoop up the leftovers, but if they stray too close, they too may be in for a shock.",
  "Item":27518,
  "GatheringItemLevel":345,
  "FishingRecordType":22,
  "TerritoryType":16,
  "IsVisible":true
},
{
  "Id":20102,
  "Description":"Strange, twisting shadows can be seen within this sea creature's glassy skin, making them popular substitutes for crystal balls among the fortune-tellers of Lakeland. Scholars insist the visions it reveals are but the half-digested remains of its last meal.",
  "Item":27520,
  "GatheringItemLevel":345,
  "FishingRecordType":23,
  "TerritoryType":16,
  "IsVisible":true
},
{
  "Id":20103,
  "Description":"This wavekin has a vicious temperament, attacking fish and fisher alike. Legend holds that these creatures are the animated spears of fallen elves who have held dominion over Lakeland since time immemorial.",
  "Item":27522,
  "GatheringItemLevel":345,
  "FishingRecordType":24,
  "TerritoryType":16,
  "IsVisible":true
},
{
  "Id":20104,
  "Description":"Named after its unusual ritual, wherein individuals rub their cheeks against each other, mouths opening and closing all the while. Scholars believe this aids the wavekin in establishing hierarchies of dominance within social groups.",
  "Item":27528,
  "GatheringItemLevel":345,
  "FishingRecordType":22,
  "TerritoryType":18,
  "IsVisible":true
},
{
  "Id":20105,
  "Description":"This pretty pink and purple shellfish is a distant relative of the dusk scallop. Its flesh has the unmistakable floral flavor of viola blossoms.",
  "Item":27529,
  "GatheringItemLevel":345,
  "FishingRecordType":22,
  "TerritoryType":18,
  "IsVisible":true
},
{
  "Id":20106,
  "Description":"With its pure white scales representing honesty, and its peaceable demeanor representing harmony, this wavekin is often served at Lakeland wedding feasts, where the happy couple separate the sweet, steamed, fleshy flakes with a ceremonial fish knife.",
  "Item":27533,
  "GatheringItemLevel":345,
  "FishingRecordType":24,
  "TerritoryType":18,
  "IsVisible":true
},
{
  "Id":20107,
  "Description":"This fish was once a fixture on the dining tables of Voeburt, oft served stewed with a heady mix of aromatic herbs and spices. Whether this was in order to complement the fish's strong, sulphurous taste, or to mask it, is a matter for the historians.",
  "Item":27536,
  "GatheringItemLevel":390,
  "FishingRecordType":23,
  "TerritoryType":23,
  "IsVisible":true
},
{
  "Id":20108,
  "Description":"Feeding by filtering algae and other living things from the water, this aquatic insect lacks excretory organs and uses virtually everything it eats to add to its armor. Just as well that it is an extremely light eater, or this louse would be as big as a house.",
  "Item":27519,
  "GatheringItemLevel":345,
  "FishingRecordType":23,
  "TerritoryType":16,
  "IsVisible":true
},
{
  "Id":20109,
  "Description":"Endemic to the Source, this cephalopod's pale purple patina helps it to remain hidden beneath the waters of Lakeland, upon whose surface is reflected the lilac-blossomed branches of the local flora.",
  "Item":27521,
  "GatheringItemLevel":350,
  "FishingRecordType":24,
  "TerritoryType":16,
  "IsVisible":true
},
{
  "Id":20110,
  "Description":"The gudgeon are cowardly creatures, burrowing into the lakebed to hide themselves from harm. Shade gudgeon differ only in that the high concentration of crystal in Lakeland sands stains their bodies a bright, shining white.",
  "Item":27523,
  "GatheringItemLevel":350,
  "FishingRecordType":22,
  "TerritoryType":17,
  "IsVisible":true
},
{
  "Id":20111,
  "Description":"When the shallow pools that this wavekin lives in dry up, it crafts a cocoon from a mixture of mucus and mud, within which it hibernates. When the rains return and refill the pools, these purple pods float to the surface, looking every bit like the flowers of thistles.",
  "Item":27524,
  "GatheringItemLevel":350,
  "FishingRecordType":23,
  "TerritoryType":17,
  "IsVisible":true
},
{
  "Id":20112,
  "Description":"The aether this wavekin absorbs from the water makes its scales shine in a pattern peculiar to each fish. They use this to identify each other─unfortunately for them, the light they reflect also identifies them to any nearby anglers.",
  "Item":27525,
  "GatheringItemLevel":350,
  "FishingRecordType":23,
  "TerritoryType":17,
  "IsVisible":true
},
{
  "Id":20113,
  "Description":"Immediately identifiable by the fat, purple body it shares with its vegetable namesake, this wavekin's appearance in the waterways around a farm heralds a bumper harvest─according to local legend, at least.",
  "Item":27527,
  "GatheringItemLevel":350,
  "FishingRecordType":24,
  "TerritoryType":17,
  "IsVisible":true
},
{
  "Id":20114,
  "Description":"This hardy fish can survive on almost any source of food and is also highly resistant to temperature changes. Where other wavekin were driven to extinction by the Flood of Light, the geayi not only survived, but thrived.",
  "Item":27530,
  "GatheringItemLevel":350,
  "FishingRecordType":23,
  "TerritoryType":18,
  "IsVisible":true
},
{
  "Id":20115,
  "Description":"Captivating in both shape and shade, the noblefish has long had pride of place in the aquariums of the high houses of Lakeland. Some say the wavekin was named after its stuck-up snout and absent chin, but this is likely naught but sour grapes.",
  "Item":27531,
  "GatheringItemLevel":350,
  "FishingRecordType":23,
  "TerritoryType":18,
  "IsVisible":true
},
{
  "Id":20116,
  "Description":"Though its name conjures romantic images of a wizened night watchman, holding his lamp aloft as its flickering flame illuminates the path ahead, this fish's vile visage is rather more reminiscent of another kind of warden─that of an infernal gaol.",
  "Item":27526,
  "GatheringItemLevel":355,
  "FishingRecordType":24,
  "TerritoryType":17,
  "IsVisible":true
},
{
  "Id":20117,
  "Description":"This ancient, armored wavekin cannot see through its clouded eyes. Instead, it navigates by sensing the flow of the water against its skin, which is remarkably sensitive despite its protective plating.",
  "Item":27532,
  "GatheringItemLevel":355,
  "FishingRecordType":24,
  "TerritoryType":18,
  "IsVisible":true
},
{
  "Id":20118,
  "Description":"Princess Jenanna of the Kingdom of Voeburt weeps still for the fate of her fallen nation, her tears falling from the heavens and mingling with the waters that once belonged to her homeland.",
  "Item":27537,
  "GatheringItemLevel":355,
  "FishingRecordType":22,
  "TerritoryType":19,
  "IsVisible":true
},
{
  "Id":20119,
  "Description":"Local legend has it that the verdant light that spilled forth from the castle of Lyhe Ghiah gave these amphibians their jadeite tint. Before the Flood, their skin was a pale pink.",
  "Item":27539,
  "GatheringItemLevel":355,
  "FishingRecordType":23,
  "TerritoryType":19,
  "IsVisible":true
},
{
  "Id":20120,
  "Description":"Named after the long spines that extend from the edges of its shell like petals, and the whorl that twists around its side like a silken scarf. Its bright-yellow color attracts curious fish, which it seizes upon with its sharp, toothy beak.",
  "Item":27538,
  "GatheringItemLevel":370,
  "FishingRecordType":22,
  "TerritoryType":19,
  "IsVisible":true
},
{
  "Id":20121,
  "Description":"These small river dwellers are often offered as gifts between lovers, due to the romantic implications of the heart marks upon their heads. In captivity, it is wise to keep individuals apart, due to their unfortunate cannibalistic tendencies.",
  "Item":27540,
  "GatheringItemLevel":370,
  "FishingRecordType":23,
  "TerritoryType":19,
  "IsVisible":true
},
{
  "Id":20122,
  "Description":"A peallaidh is a Fuath's best friend, or so the fae folk say─and indeed, the wavekin are unusually intelligent and expressive creatures. However, when asked how they feel about the Fuath, they are wont to wear altogether more dubious faces.",
  "Item":27541,
  "GatheringItemLevel":370,
  "FishingRecordType":24,
  "TerritoryType":19,
  "IsVisible":true
},
{
  "Id":20123,
  "Description":"The golden fringes of this fish's fluttering fins attract the envy of every lake dweller. They have become something of a fashion accessory for the Fuath, where everyone who is anyone in polite society has one in tow.",
  "Item":27544,
  "GatheringItemLevel":370,
  "FishingRecordType":22,
  "TerritoryType":20,
  "IsVisible":true
},
{
  "Id":20124,
  "Description":"This wavekin was common throughout the waterways of Voeburt before the Flood. Its scales were once dull and grey, before the ever-playful pixies decided to give them a touch more glamour.",
  "Item":27546,
  "GatheringItemLevel":370,
  "FishingRecordType":23,
  "TerritoryType":20,
  "IsVisible":true
},
{
  "Id":20125,
  "Description":"This eel's glossy, cerulean skin resembles naught more than the signature glassware of old Voeburt, leading the antique hunters of Il Mheg to christen the species the “Fool's Goblet.”",
  "Item":27547,
  "GatheringItemLevel":345,
  "FishingRecordType":24,
  "TerritoryType":20,
  "IsVisible":true
},
{
  "Id":20126,
  "Description":"The Voeburt bichir is easily identified by the plethora of independently agile dorsal finlets along its spine. The more a fish has, the higher its position in the dominance hierarchy, so individuals engage in vicious duels to remove their rivals' fins.",
  "Item":27542,
  "GatheringItemLevel":380,
  "FishingRecordType":24,
  "TerritoryType":19,
  "IsVisible":true
},
{
  "Id":20127,
  "Description":"One of the many species of wavekin given a gaudy makeover by the fae folk of Il Mheg. The Fuath compete to decorate these fish, using their magicks to dress them in the most captivating patterns they can.",
  "Item":27543,
  "GatheringItemLevel":380,
  "FishingRecordType":22,
  "TerritoryType":20,
  "IsVisible":true
},
{
  "Id":20128,
  "Description":"With its pale pink body and sky blue fins, this wavekin resembles naught more than a flower falling from a tree. It flutters its entire body from side to side as it swims, only adding to the effect.",
  "Item":27545,
  "GatheringItemLevel":380,
  "FishingRecordType":23,
  "TerritoryType":20,
  "IsVisible":true
},
{
  "Id":20129,
  "Description":"The Voeburt salamander is a relic from the times before the Flood. It survived the crisis thanks in no small part to its incredible regenerative powers─cut off the creature's tail, and it will regrow in a matter of moons. Alas, this oft makes them the target for mischievous pixies.",
  "Item":27548,
  "GatheringItemLevel":380,
  "FishingRecordType":24,
  "TerritoryType":20,
  "IsVisible":true
},
{
  "Id":20130,
  "Description":"During the spawning season, bedskippers have a tendency to leap about upon the surface of the water, the fluttering of their large, colorful dorsal fins looking like a storm of summer blossoms blowing across a lake.",
  "Item":27549,
  "GatheringItemLevel":390,
  "FishingRecordType":22,
  "TerritoryType":21,
  "IsVisible":true
},
{
  "Id":20131,
  "Description":"The dandyfish attaches great importance to its opulent appearance. Be sure to don dull clothing before entering this wavekin's waters, for it will attack anything that attracts more attention than itself on sight, and not cease until their togs are in tatters.",
  "Item":27550,
  "GatheringItemLevel":390,
  "FishingRecordType":22,
  "TerritoryType":21,
  "IsVisible":true
},
{
  "Id":20132,
  "Description":"Some say this strange, barely sentient creature is the result of the wandering soul of a fallen faerie taking up residence in an algal bloom, and failing to reshape its new body into its former form.",
  "Item":27552,
  "GatheringItemLevel":390,
  "FishingRecordType":23,
  "TerritoryType":21,
  "IsVisible":true
},
{
  "Id":20133,
  "Description":"With its arrow-like head and sleek, shaft-like body, this scalekin flies through the water like a dart loosed from a bow. Once it has set upon a course it refuses to change direction, leading to innumerable painful prangs with underwater cliff faces.",
  "Item":27553,
  "GatheringItemLevel":390,
  "FishingRecordType":24,
  "TerritoryType":21,
  "IsVisible":true
},
{
  "Id":20134,
  "Description":"Rulers of the lakes within which they reside due to their prodigious size, this aptly named wavekin has a habit of swallowing the frog-like fae folk whole. Luckily for the Fuath, the gobblers are unable to digest such sizable prey, and spit their victims out soon after.",
  "Item":27554,
  "GatheringItemLevel":390,
  "FishingRecordType":24,
  "TerritoryType":21,
  "IsVisible":true
},
{
  "Id":20135,
  "Description":"A wanderer who once strayed into a land of eternal springtime tells of how he met with a man who lived in a mushroom house who grew mushrooms to feed his family, who were also made of mushrooms. The moral of the story is─don't eat fungus from a crab's back.",
  "Item":27555,
  "GatheringItemLevel":390,
  "FishingRecordType":22,
  "TerritoryType":22,
  "IsVisible":true
},
{
  "Id":20136,
  "Description":"An anemone that makes its home at the foot of the cliff where Saint Fathric performed his ablutionary rites. Its mane of blond tendrils resembles the hair of the short-tempered penitent, who was prone to fly into a furious rage when disturbed.",
  "Item":27556,
  "GatheringItemLevel":390,
  "FishingRecordType":22,
  "TerritoryType":22,
  "IsVisible":true
},
{
  "Id":20137,
  "Description":"The jade frills of this fish's fins remind one of the ball gowns beloved by the royal ladies of Voeburt. Smaller wavekin are wont to follow in their wake in search of scraps, resembling the train of sycophants who would often attend such lofty personages.",
  "Item":27557,
  "GatheringItemLevel":390,
  "FishingRecordType":23,
  "TerritoryType":22,
  "IsVisible":true
},
{
  "Id":20138,
  "Description":"Native to the waterways of the Rak'tika Greatwood, this small, stone-colored crab will hide itself among the riverbed rubble, attacking the ankles of any passing animals with its viselike pincers.",
  "Item":27568,
  "GatheringItemLevel":390,
  "FishingRecordType":22,
  "TerritoryType":24,
  "IsVisible":true
},
{
  "Id":20139,
  "Description":"These freshwater shellfish attach themselves to the roots of lakeside trees, looking to all the world like nothing more than another knot, thanks to their brown, bark-like patina. Eagle-eyed oyster hunters are in for a delicious, earthy treat.",
  "Item":27569,
  "GatheringItemLevel":390,
  "FishingRecordType":22,
  "TerritoryType":24,
  "IsVisible":true
},
{
  "Id":20140,
  "Description":"Depicted in Ronkan murals with brightly patterned scales, it would seem that this wavekin has faded faster over the passing of the generations than the pigments used in the ancient empire's paint.",
  "Item":27570,
  "GatheringItemLevel":390,
  "FishingRecordType":23,
  "TerritoryType":24,
  "IsVisible":true
},
{
  "Id":20141,
  "Description":"A close cousin of the robber crab that lives alongside it, the gourmand crab is a pickier eater than its omnivorous ally, feeding only on the blue berries that lend its shell its distinctive hue.",
  "Item":27571,
  "GatheringItemLevel":390,
  "FishingRecordType":23,
  "TerritoryType":24,
  "IsVisible":true
},
{
  "Id":20142,
  "Description":"A prince from a faraway nation once gifted such a creature to Princess Sauldia of the Kingdom of Voeburt, and it has been a staple of aquariums both public and private ever since. At night, it shines with a rosy glow, signifying the ardor of her suitor's heart.",
  "Item":27551,
  "GatheringItemLevel":400,
  "FishingRecordType":23,
  "TerritoryType":21,
  "IsVisible":true
},
{
  "Id":20143,
  "Description":"The ancestors of this bright and beautiful wavekin had scales a tawny brown, to hide themselves among the leaf litter. All that was to change when the fae folk filled Il Mheg with flowers, and the duller creatures suddenly started to stand out.",
  "Item":27558,
  "GatheringItemLevel":400,
  "FishingRecordType":23,
  "TerritoryType":22,
  "IsVisible":true
},
{
  "Id":20144,
  "Description":"With a clear cranium revealing its innards, this weird wavekin spends most of its time buried beneath the lakebed, tubular eyes scanning the waters above. The innards of its prey also become visible when they chance to swim above it, and are torn apart by a flurry of darting teeth.",
  "Item":27559,
  "GatheringItemLevel":400,
  "FishingRecordType":24,
  "TerritoryType":22,
  "IsVisible":true
},
{
  "Id":20145,
  "Description":"Known to the fae folk of Il Mheg as the “Children of the Storm,” these wavekin can deliver a stunning shock when touched. The pixies claim that they fell from the sky as lightning bolts─in truth, their skin is simply laced with a paralyzing poison.",
  "Item":27560,
  "GatheringItemLevel":400,
  "FishingRecordType":24,
  "TerritoryType":22,
  "IsVisible":true
},
{
  "Id":20146,
  "Description":"According to fable, a Fuath once wished to have horns on his head, and cast a spell to make it so. Alas, he neglected to specify the horns be attached, and so came to conjure this species into existence, crawling over his flustered face.",
  "Item":27561,
  "GatheringItemLevel":390,
  "FishingRecordType":22,
  "TerritoryType":23,
  "IsVisible":true
},
{
  "Id":20147,
  "Description":"A larger, more aggressive cousin of the Night's bass, introduced to the Greatwood by the Night's Blessed. The wavekin's readiness to resort to violence to assert their dominion over their compeers provides a striking parallel with the Children of the Everlasting Dark.",
  "Item":27577,
  "GatheringItemLevel":400,
  "FishingRecordType":23,
  "TerritoryType":25,
  "IsVisible":true
},
{
  "Id":20148,
  "Description":"Known in the world beneath the water as death incarnate, due to the ferocious manner in which they devour their prey. When a swarm of aquabloom attack a larger wavekin en masse, they resemble a great thicket, its leaves whipping to and fro in a storm.",
  "Item":27562,
  "GatheringItemLevel":410,
  "FishingRecordType":22,
  "TerritoryType":23,
  "IsVisible":true
},
{
  "Id":20149,
  "Description":"The jesters of ancient Voeburt would wear round, red noses and perform gymnastic tricks for the court. The swollen, scarlet eyes of this wavekin resemble the clowns' snouts, and with their ungainly swimming style, seem to be imitating their movements too.",
  "Item":27563,
  "GatheringItemLevel":410,
  "FishingRecordType":23,
  "TerritoryType":23,
  "IsVisible":true
},
{
  "Id":20150,
  "Description":"This freshwater fish uses its wing-shaped fins to traverse the water at alarming speeds. Some have likened it to a bolt from the blue.",
  "Item":27564,
  "GatheringItemLevel":410,
  "FishingRecordType":24,
  "TerritoryType":23,
  "IsVisible":true
},
{
  "Id":20151,
  "Description":"This rather autumnal fish can look out of place in the faerie kingdom. Its eggs are a greenish yellow and give off a unique stench.",
  "Item":27565,
  "GatheringItemLevel":410,
  "FishingRecordType":24,
  "TerritoryType":23,
  "IsVisible":true
},
{
  "Id":20152,
  "Description":"Hermit crabs like to make homes of this mollusk's discarded shells, wearing them like a hat. In life, they migrate from place to place, feeding on the local fauna as they go. Different foodstuffs produce shells of a different color, adding another stripe each season.",
  "Item":27574,
  "GatheringItemLevel":410,
  "FishingRecordType":22,
  "TerritoryType":25,
  "IsVisible":true
},
{
  "Id":20153,
  "Description":"A carnivorous freshwater fish that looks as if it hails from a bygone age, and acts as if it has been nursing a grudge all the while. Its powerful jaws can easily tear through the scales of fish, the shells of turtles, and the armor of adventurers.",
  "Item":27576,
  "GatheringItemLevel":410,
  "FishingRecordType":23,
  "TerritoryType":25,
  "IsVisible":true
},
{
  "Id":20154,
  "Description":"Long has the legend of Bismarck, the great spirit of the water, been passed down among the peoples of the Source. This fish is named for the single, sharp horn it shares with its fabular brother, though its purpose is unknown─the wavekin hunts with its teeth alone.",
  "Item":27534,
  "GatheringItemLevel":370,
  "FishingRecordType":24,
  "TerritoryType":33,
  "IsVisible":true
},
{
  "Id":20155,
  "Description":"Notable for its four fins that resemble a bird's wings. Only the most skilled of faerie pranksters are capable of taking on this form.",
  "Item":27567,
  "GatheringItemLevel":420,
  "FishingRecordType":23,
  "TerritoryType":34,
  "IsVisible":true
},
{
  "Id":20156,
  "Description":"When the world was young, Ox'Gatorl, the keeper of the flame, taught the Ronkans how to work metal. As he tended his forge, a drop of sweat fell from his forehead and into the lake below, quenching with a hiss of steam. Thus did this copper-plated wavekin come into being.",
  "Item":27572,
  "GatheringItemLevel":420,
  "FishingRecordType":24,
  "TerritoryType":24,
  "IsVisible":true
},
{
  "Id":20157,
  "Description":"Like a religious recluse, it lives alone in its seashell home. For reasons unknown, it refuses to take up residence in a shell of two or fewer colors, or of four or more. Only a shell striped thrice will suffice.",
  "Item":27575,
  "GatheringItemLevel":420,
  "FishingRecordType":22,
  "TerritoryType":25,
  "IsVisible":true
},
{
  "Id":20158,
  "Description":"Named after a stone giant from Ronkan legend, due to its prodigious size. In ancient times, these wavekin were often offered to the imperial household as tribute─the master of the waters lying before the throne representing the emperor's dominion over all.",
  "Item":27578,
  "GatheringItemLevel":420,
  "FishingRecordType":24,
  "TerritoryType":25,
  "IsVisible":true
},
{
  "Id":20159,
  "Description":"The long, flexible fins extending from this wavekin's belly allow it to steer through the water at will, describing loops and rolls with almost impertinent ease. Its movements are almost impossible to predict, resulting in many a perplexed predator.",
  "Item":27581,
  "GatheringItemLevel":420,
  "FishingRecordType":22,
  "TerritoryType":35,
  "IsVisible":true
},
{
  "Id":20160,
  "Description":"One of an ancient order of armored fish, the bothriolepis's body is protected by thick, chitinous plates. Unlike many of its cousins it is not a skilled hunter, preferring to stir up the lakebed sand with its fins and feasting on whatever it finds.",
  "Item":27535,
  "GatheringItemLevel":380,
  "FishingRecordType":24,
  "TerritoryType":33,
  "IsVisible":true
},
{
  "Id":20161,
  "Description":"Legend has it that this wavekin was once a butterfly, before being transformed into a fish by a mischievous pixie's magick. Instead of feeding on flower nectar, it nourishes itself by nibbling away at underwater weeds.",
  "Item":27566,
  "GatheringItemLevel":430,
  "FishingRecordType":23,
  "TerritoryType":34,
  "IsVisible":true
},
{
  "Id":20162,
  "Description":"The shining scales of this freshwater wavekin are as hard as diamond. Suits of armor have been crafted from these scales, though they have largely been relegated to ornamental purposes due to their tendency to shatter under impact.",
  "Item":27573,
  "GatheringItemLevel":430,
  "FishingRecordType":24,
  "TerritoryType":24,
  "IsVisible":true
},
{
  "Id":20163,
  "Description":"According to Ronkan legend, these large wavekin are the maidservants to the mortal form of Yx'Anpa, goddess of the harvest. Their migration patterns brought them to Ronkan lands come autumn, as if ushering in the changing of the season.",
  "Item":27579,
  "GatheringItemLevel":430,
  "FishingRecordType":24,
  "TerritoryType":25,
  "IsVisible":true
},
{
  "Id":20164,
  "Description":"These soft-bodied sea slugs are named for their resemblance to the long, pointed ears of the Viis. The people of Fanow reject this comparison─be sure not to speak the slug's sobriquet in the vicinity of the village, lest you find yourself on the pointy end of the rabbit ladies' lances.",
  "Item":27580,
  "GatheringItemLevel":430,
  "FishingRecordType":22,
  "TerritoryType":35,
  "IsVisible":true
},
{
  "Id":20165,
  "Description":"Watching their bloated, gelatinous forms drift through the waters would not whet many an appetite, but these wavekin make for a tasty treat when sufficiently dehydrated. Thus can they oft be found sun-drying on long sticks in Thavnairian fishing hamlets.",
  "Item":36522,
  "GatheringItemLevel":495,
  "FishingRecordType":25,
  "TerritoryType":36,
  "IsVisible":true
},
{
  "Id":20166,
  "Description":"A crustaceous wavekin whose body is covered in razor-sharp spines to fend off potential predators, straightforwardly named by a visiting merchant from Kugane who once had the misfortune of stepping upon one.",
  "Item":36523,
  "GatheringItemLevel":510,
  "FishingRecordType":25,
  "TerritoryType":36,
  "IsVisible":true
},
{
  "Id":20167,
  "Description":"A variety of pike eel closely related to those found in the Indigo Deep. They tuck their flexible forms away in the shadowy crevices of coral reefs, launching themselves from their hidey-holes to snatch prey unawares.",
  "Item":36524,
  "GatheringItemLevel":500,
  "FishingRecordType":26,
  "TerritoryType":36,
  "IsVisible":true
},
{
  "Id":20168,
  "Description":"These wavekin keep to reefs situated in warmer waters, where they feed off microbial organisms. The size of their dorsal and ventral fins likely correlates with their position within the hierarchy of their school.",
  "Item":36525,
  "GatheringItemLevel":527,
  "FishingRecordType":26,
  "TerritoryType":36,
  "IsVisible":true
},
{
  "Id":20169,
  "Description":"The electric organ of the Purusa fish provides not only mesmerizing illumination, but also a means by which to stun distracted prey. Its energies call to mind the invigorating spirit that flows through all living things, whence its name derives.",
  "Item":36526,
  "GatheringItemLevel":495,
  "FishingRecordType":27,
  "TerritoryType":36,
  "IsVisible":true
},
{
  "Id":20170,
  "Description":"Set against the murky waters this wavekin favors, its scales' peculiar pattern makes it appear as a floating stone wall. Its sharp fangs bring to mind daggers of giantsgall, hence its vicious name.",
  "Item":36527,
  "GatheringItemLevel":500,
  "FishingRecordType":27,
  "TerritoryType":36,
  "IsVisible":true
},
{
  "Id":20171,
  "Description":"The thick carapaces of these wavekin resemble naught so much as a shining, sturdy coffer, which opens to reveal a sumptuous serving of delicious flesh within. Near the fishing hamlet of Onokoro, women can oft be seen diving in tireless search of these shining shellfish.",
  "Item":36548,
  "GatheringItemLevel":495,
  "FishingRecordType":10,
  "TerritoryType":37,
  "IsVisible":true
},
{
  "Id":20172,
  "Description":"This grenadier's red and spiky form calls to mind Doman folklore's oni and their characteristic beards─though it admittedly most resembles a single, pitiful strand. Its oversized eyes locate smaller wavekin in a heartbeat, and its teeth make meals of them even faster.",
  "Item":36549,
  "GatheringItemLevel":495,
  "FishingRecordType":10,
  "TerritoryType":37,
  "IsVisible":true
},
{
  "Id":20173,
  "Description":"A variety of omnivorous bream with tawny scales and an undiscriminating appetite. Its taste for both bottom-dwelling shellfish and all manner of sea wrack has earned it a reputation as the sanitizer of the seafloor.",
  "Item":36550,
  "GatheringItemLevel":500,
  "FishingRecordType":11,
  "TerritoryType":37,
  "IsVisible":true
},
{
  "Id":20174,
  "Description":"As its charmingly rubescent hue and mottled carapace signal a body replete with toxins, this wavekin is better admired than consumed. Fishermen of the Ruby Sea avail themselves of its poison's paralytic properties to more easily catch schools in a single swoop.",
  "Item":36551,
  "GatheringItemLevel":495,
  "FishingRecordType":11,
  "TerritoryType":37,
  "IsVisible":true
},
{
  "Id":20175,
  "Description":"A variety of corpse-eater that has found an icy home in the deep, dark depths of the Ruby Sea, this scavenger sustains itself with the marrow of skeletons and other carrion that drifts down to its watery lair.",
  "Item":36552,
  "GatheringItemLevel":495,
  "FishingRecordType":12,
  "TerritoryType":37,
  "IsVisible":true
},
{
  "Id":20176,
  "Description":"A long, smooth-looking wavekin that seemingly snakes across the seafloor, preying upon the smaller creatures that call those same reefs home. Those tempted to pet it should note that save for its coloration and fluid movements, it is not remotely feline.",
  "Item":36553,
  "GatheringItemLevel":500,
  "FishingRecordType":12,
  "TerritoryType":37,
  "IsVisible":true
},
{
  "Id":20177,
  "Description":"These wavekin are capable of gliding effortlessly through the waters thanks to their winglike pectoral fins and sizable air bladders─the latter of which occasionally produces a distasteful trumpeting noise.",
  "Item":36554,
  "GatheringItemLevel":510,
  "FishingRecordType":10,
  "TerritoryType":38,
  "IsVisible":true
},
{
  "Id":20178,
  "Description":"A variety of albino sea pickle exclusively found in the Ruby Sea. Those in possession of one are said to be so blessed with incredible fortune that a merchant from Kugane once offered as much as Isari earns in a year to get their hands on this wavekin─a deal which the village gladly accepted.",
  "Item":36555,
  "GatheringItemLevel":520,
  "FishingRecordType":10,
  "TerritoryType":38,
  "IsVisible":true
},
{
  "Id":20179,
  "Description":"These wavekin's scales shine with an uncommon luster akin to blood red snow on a sunny day. Known for their unusual migratory habits, they travel even to the One River's more turbulent brackish waters, favoring colder climes.",
  "Item":36556,
  "GatheringItemLevel":500,
  "FishingRecordType":11,
  "TerritoryType":38,
  "IsVisible":true
},
{
  "Id":20180,
  "Description":"This creature's curious coloration has granted it a diadem of azure and gold. As if to support its claim to its crown, it assumes an air of haughty grandeur, which other species of wavekin seem to find off-putting.",
  "Item":36557,
  "GatheringItemLevel":520,
  "FishingRecordType":11,
  "TerritoryType":38,
  "IsVisible":true
},
{
  "Id":20181,
  "Description":"With its armored scales and beastly fangs, few creatures are fool enough to encroach upon this wavekin's territory. Local legends claim it spawned from the blood of a fisherman who died protecting Isari from piratical pillaging. ",
  "Item":36558,
  "GatheringItemLevel":520,
  "FishingRecordType":12,
  "TerritoryType":38,
  "IsVisible":true
},
{
  "Id":20182,
  "Description":"Between its colossal size and lustrous lazuline scales, this shark is easily spotted weaving through the reedbeds and inlets of the Ruby Sea, where it migrates after its time spent in more open oceans.",
  "Item":36559,
  "GatheringItemLevel":527,
  "FishingRecordType":12,
  "TerritoryType":38,
  "IsVisible":true
},
{
  "Id":20183,
  "Description":"The signature mineral barbs lining this wavekin's back were ossified in the scorching heat of the deep waters near Hells' Lid. Its skin is nigh impregnable, and those who attempt to prey upon it are oft left with broken teeth for their efforts.",
  "Item":36560,
  "GatheringItemLevel":510,
  "FishingRecordType":10,
  "TerritoryType":39,
  "IsVisible":true
},
{
  "Id":20184,
  "Description":"This wavekin's appearance is redolent of the portly monk who, in the myths of the Far East, represents joy and prosperity. For this reason, the fishing hamlets of the Ruby Sea give this creature pride of place at celebratory meals.",
  "Item":36561,
  "GatheringItemLevel":520,
  "FishingRecordType":10,
  "TerritoryType":39,
  "IsVisible":true
},
{
  "Id":20185,
  "Description":"These circular wavekin have a tendency to cluster around the hydrothermal vents near Hells' Lid, thus giving rise to their name. As the waters can reach several hundred degrees, however, their ability to actually cap said Hells is limited by the unfortunate realities of being flesh rather than stone.",
  "Item":36562,
  "GatheringItemLevel":520,
  "FishingRecordType":11,
  "TerritoryType":39,
  "IsVisible":true
},
{
  "Id":20186,
  "Description":"This wavekin's chief form of defense is its conspicuous membranous appendage, which it can inflate to ward off potential predators on the hunt for a small, easy meal.",
  "Item":36563,
  "GatheringItemLevel":527,
  "FishingRecordType":11,
  "TerritoryType":39,
  "IsVisible":true
},
{
  "Id":20187,
  "Description":"Though they belong to the seas of the Far East, these fish bear a striking number of similarities to the wahoo found in Eorzean waters. They congregate in small pods, and move with the seasons.",
  "Item":36564,
  "GatheringItemLevel":510,
  "FishingRecordType":12,
  "TerritoryType":39,
  "IsVisible":true
},
{
  "Id":20188,
  "Description":"This wavekin boasts not only bright, beautiful shades, but a hefty price at market as well. Its eggs can be found dotting the shoals once the ice of winter thaws, making it a welcome harbinger of spring.",
  "Item":36565,
  "GatheringItemLevel":510,
  "FishingRecordType":12,
  "TerritoryType":39,
  "IsVisible":true
},
{
  "Id":20189,
  "Description":"The prized delicacy of Thavnair's Akyaali, this wavekin is most often served marinated or broiled. It is one of the Near East's chief exports─a testament to its toothsomeness.",
  "Item":36528,
  "GatheringItemLevel":534,
  "FishingRecordType":25,
  "TerritoryType":40,
  "IsVisible":true
},
{
  "Id":20190,
  "Description":"This invertebrate's signature sanguine hue can be attributed to its reef's calcareous quality and its own predilection for absorption. When it feels threatened, it will feign death by disemboweling itself, excreting its internal organs to befuddle its foes.",
  "Item":36529,
  "GatheringItemLevel":540,
  "FishingRecordType":25,
  "TerritoryType":40,
  "IsVisible":true
},
{
  "Id":20191,
  "Description":"The defining dorsal fin of this wavekin allows it to read aether currents with surprising ease. Come spawning season, it uses this unique ability to locate aether-rich locations where it will lay its eggs.",
  "Item":36530,
  "GatheringItemLevel":540,
  "FishingRecordType":26,
  "TerritoryType":40,
  "IsVisible":true
},
{
  "Id":20192,
  "Description":"This variety of wavekin is closely related to the bass found in the Far East. Unlike their stoic brethren, however, these fish stubbornly stick to the paradisiacal climes of Thavnair.",
  "Item":36531,
  "GatheringItemLevel":534,
  "FishingRecordType":26,
  "TerritoryType":40,
  "IsVisible":true
},
{
  "Id":20193,
  "Description":"Hannish legends have it that the satrap's ancestors once rebuffed a dragon of fierce repute, which is no doubt why this serpentine deep-sea wavekin was honored─or placated; it is difficult to tell─with such a name.",
  "Item":36532,
  "GatheringItemLevel":534,
  "FishingRecordType":27,
  "TerritoryType":40,
  "IsVisible":true
},
{
  "Id":20194,
  "Description":"To stare at this wavekin's cerulean body is to gaze upon the unspoiled waters of the southern seas. Unfortunately, once the creature dies, its lazuline beauty decays to a coal black, rendering its scales unworkable for cosmetic purposes.",
  "Item":36533,
  "GatheringItemLevel":547,
  "FishingRecordType":27,
  "TerritoryType":40,
  "IsVisible":true
},
{
  "Id":20195,
  "Description":"A jellyfish that glides through the seas subtly as a susurrus. Its cloud-like form calls to mind the satrap's residence, Meghaduta─and if ever Radz–at–Han's ruler needed a messenger, it would surely make for a stunning one. ",
  "Item":36534,
  "GatheringItemLevel":547,
  "FishingRecordType":25,
  "TerritoryType":41,
  "IsVisible":true
},
{
  "Id":20196,
  "Description":"With its silvery scales and elegant movements, this wavekin invites comparison to the elegant performers that brighten Radz–at–Han's dining establishments. Mirroring its namesakes' popularity, this aquatic dancer can be seen attracting throngs at the bazaar on any given day.",
  "Item":36537,
  "GatheringItemLevel":534,
  "FishingRecordType":25,
  "TerritoryType":41,
  "IsVisible":true
},
{
  "Id":20197,
  "Description":"A docile wavekin that keeps to the shadows of kelp and rocks. It makes a delicious addition to most any meal, as its every part down to the most unappealing of organs has been found to be a delight for the palate.",
  "Item":36536,
  "GatheringItemLevel":547,
  "FishingRecordType":26,
  "TerritoryType":41,
  "IsVisible":true
},
{
  "Id":20198,
  "Description":"A saltwater wavekin capable of living well over fifty years. Little wonder, then, that its name derives from the word for “vitality,” and that those in Thavnair use it to symbolize longevity.",
  "Item":36539,
  "GatheringItemLevel":547,
  "FishingRecordType":26,
  "TerritoryType":41,
  "IsVisible":true
},
{
  "Id":20199,
  "Description":"Though it looks as if it might well have been perfected in the alchemists' fires, this wavekin in fact hails from faraway seas. Migration is what brings it to Thavnair, where it adopts the metallic hue for which it is known.",
  "Item":36538,
  "GatheringItemLevel":540,
  "FishingRecordType":27,
  "TerritoryType":41,
  "IsVisible":true
},
{
  "Id":20200,
  "Description":"Contrary to its terrifying appearance, this sea-dweller is a rather docile creature. That is not to say it is easy prey, however─when threatened, it bears its visibly lethal fangs, and only desperate fishermen looking to exchange flesh for delicious flesh are foolish enough to face it.",
  "Item":36547,
  "GatheringItemLevel":560,
  "FishingRecordType":27,
  "TerritoryType":41,
  "IsVisible":true
},
{
  "Id":20201,
  "Description":"According to local legend, this crustacean was born from the handprint left at water's edge by Agama, a sainted ascetic of Thavnair. As such, it is thought to represent the purgation of evil.",
  "Item":36540,
  "GatheringItemLevel":540,
  "FishingRecordType":25,
  "TerritoryType":42,
  "IsVisible":true
},
{
  "Id":20202,
  "Description":"A tropical fish boasting a striped tail and bright scarlet scales at its fore. It is said to have once been a monk, nose rouged with drink, who tripped into the Font of Maya and was summarily reincarnated─which, given the number of tetra to be found there, does raise questions about the frequency of such occurrences.",
  "Item":36541,
  "GatheringItemLevel":547,
  "FishingRecordType":25,
  "TerritoryType":42,
  "IsVisible":true
},
{
  "Id":20203,
  "Description":"With an appearance often likened to that of the stunted blades carried by the guardians of Thavnair's holy places, this fish is easily mistaken for an abandoned weapon floating up from the depths in defiance of nature.",
  "Item":36542,
  "GatheringItemLevel":540,
  "FishingRecordType":26,
  "TerritoryType":42,
  "IsVisible":true
},
{
  "Id":20204,
  "Description":"A fish that likes to travel in schools which, with their bright coloration, resemble ripe amra swaying in the breeze. When spawning, it keeps its eggs stuffed safely in its mouth like so many seeds of the aforementioned fruit.",
  "Item":36543,
  "GatheringItemLevel":547,
  "FishingRecordType":26,
  "TerritoryType":42,
  "IsVisible":true
},
{
  "Id":20205,
  "Description":"This wavekin's thin, long body pierces Thavnair's waters like the roots of its well-adapted trees. A useful disguise─but not so useful that man has not learned how delicious it tastes when grilled on a skewer above an open flame.",
  "Item":36544,
  "GatheringItemLevel":534,
  "FishingRecordType":27,
  "TerritoryType":42,
  "IsVisible":true
},
{
  "Id":20206,
  "Description":"This fish boasts unique scale patterns that resemble─and shine unnervingly in the dark like─a thousand eyes, though its name indicates that this is subject to interpretation on the part of the beholder. Growing up to a few yalms in size, it can be found swimming languidly through the Font of Maya.",
  "Item":36545,
  "GatheringItemLevel":554,
  "FishingRecordType":27,
  "TerritoryType":42,
  "IsVisible":true
},
{
  "Id":20207,
  "Description":"These small crabs mimic pebbles scattered around boulders on the sea floor. While the shell is thick and there is little edible flesh, it is an indispensable part of a pirate's diet thanks to its suitability for stock.",
  "Item":36566,
  "GatheringItemLevel":534,
  "FishingRecordType":10,
  "TerritoryType":43,
  "IsVisible":true
},
{
  "Id":20208,
  "Description":"This fish sports a body like that of a shrimp, a head that resembles a frog's, and a pattern that one would be forgiven for mistaking for the pox. The Kojin are said to use these critters for divination, believing that everything from the size of the upcoming catch to one's romantic future can be read in the number of spots upon them.",
  "Item":36567,
  "GatheringItemLevel":540,
  "FishingRecordType":10,
  "TerritoryType":43,
  "IsVisible":true
},
{
  "Id":20209,
  "Description":"These crimson-scaled fish have exceptionally tall and thin diamond-shaped bodies. The sight of them swimming in a school─a familiar spectacle in which fishermen delight─is oft likened to that of a red mosaic surfing the seas.",
  "Item":36571,
  "GatheringItemLevel":547,
  "FishingRecordType":11,
  "TerritoryType":43,
  "IsVisible":true
},
{
  "Id":20210,
  "Description":"From the reaches of the Glass Ocean to the depths of the Ruby Sea, this creature dwells far and wide─and goes by many names. While its white flesh is light, it has a pleasing texture, and its roe is known for its rich flavor.",
  "Item":36569,
  "GatheringItemLevel":540,
  "FishingRecordType":11,
  "TerritoryType":43,
  "IsVisible":true
},
{
  "Id":20211,
  "Description":"These creatures are cousins to the striped rays used by the Kojin as mounts. Due to their translucent flesh, seen as testament to their divinity, they are revered as living seats for the most sagacious.",
  "Item":36570,
  "GatheringItemLevel":554,
  "FishingRecordType":12,
  "TerritoryType":43,
  "IsVisible":true
},
{
  "Id":20212,
  "Description":"This creature's defining feature is its tooth-lined jaw, which spirals out and forward in a horrific loop. This exposed lower mandible can never be completely closed, but this is hardly necessary with the level of carnage that simply whipping its head around to saw through its prey creates.",
  "Item":36581,
  "GatheringItemLevel":560,
  "FishingRecordType":12,
  "TerritoryType":43,
  "IsVisible":true
},
{
  "Id":20213,
  "Description":"In stark contrast to its closest kin, the seahorse, this wavekin has a smooth, tubular body. It is known to swim vertically, an adaptation that naturalists suspect is intended to mimic the movement of seaweed.",
  "Item":36572,
  "GatheringItemLevel":540,
  "FishingRecordType":10,
  "TerritoryType":44,
  "IsVisible":true
},
{
  "Id":20214,
  "Description":"A fiery wavekin dwelling amongst the coral reefs, its coloration calls to mind the clothing donned by fell spirits, the yasha, traditionally thought to reside on the Isle of Zekki.",
  "Item":36575,
  "GatheringItemLevel":554,
  "FishingRecordType":10,
  "TerritoryType":44,
  "IsVisible":true
},
{
  "Id":20215,
  "Description":"A fish with tawny-brown coloring on the side it prefers to show to the world, and pale white where it lies upon the sea floor. Among this species one will find the occasional giant, some spanning up to five yalms in size.",
  "Item":36574,
  "GatheringItemLevel":534,
  "FishingRecordType":11,
  "TerritoryType":44,
  "IsVisible":true
},
{
  "Id":20216,
  "Description":"Bony protrusions line this fish's body and sucker-like fins extend from its abdomen. An inept swimmer, it uses these fins to cling to rocks on the seabed where it spends the majority of its life.",
  "Item":36577,
  "GatheringItemLevel":560,
  "FishingRecordType":11,
  "TerritoryType":44,
  "IsVisible":true
},
{
  "Id":20217,
  "Description":"According to Far Eastern legend, when the kami built the very first shrine, it was this shark's convenient snout that they borrowed to do so. This being the case, it enjoys massive popularity among carpenters as a token of good fortune─fortune that presumably does not extend to the creature itself.",
  "Item":36576,
  "GatheringItemLevel":554,
  "FishingRecordType":12,
  "TerritoryType":44,
  "IsVisible":true
},
{
  "Id":20218,
  "Description":"Always on the prowl for prey, this wavekin devours fish up to its own size and even the hardest of crustaceans. Its beautiful fins are known for their ability to capture aether from the surrounding waters, and shine a deep blue as it cruises the seas.",
  "Item":36579,
  "GatheringItemLevel":547,
  "FishingRecordType":12,
  "TerritoryType":44,
  "IsVisible":true
},
{
  "Id":20219,
  "Description":"The sacks their kin use for storing poison are adapted by this creature to instead accumulate carbonate minerals from the deposits found on the beds of salt lakes. Gyr Abanians dry this fish to make a dehydrating agent used for interring their dead.",
  "Item":36582,
  "GatheringItemLevel":540,
  "FishingRecordType":19,
  "TerritoryType":45,
  "IsVisible":true
},
{
  "Id":20220,
  "Description":"The fins on this wavekin's abdomen allow it to cleave through waters of varying salinity with ease. They can even cut through the waters in the depths of the lochs─where the pressure is extreme─with the swiftness of a thrown dagger.",
  "Item":36583,
  "GatheringItemLevel":547,
  "FishingRecordType":19,
  "TerritoryType":45,
  "IsVisible":true
},
{
  "Id":20221,
  "Description":"Enveloping their thin bodies in an assortment of white crystals, these creatures attempt to mimic the boulders found on salty lochbeds. With said crystals varying from great to small, the wavekin resemble fans adorned with quartz and pearls, such as the rich and boastful might carry.",
  "Item":36584,
  "GatheringItemLevel":547,
  "FishingRecordType":20,
  "TerritoryType":45,
  "IsVisible":true
},
{
  "Id":20222,
  "Description":"White with black spots, this serpentine wavekin looks like the typical panther might after its observer has pressed their fists to their eyes for some time─an action that naturalists stress is not recommended. While it moves with the speed one would expect of a carnivore, due to its poor eyesight coupled with the near nonexistent light deep below the surface, it is sadly inept at finding prey.",
  "Item":36585,
  "GatheringItemLevel":534,
  "FishingRecordType":20,
  "TerritoryType":45,
  "IsVisible":true
},
{
  "Id":20223,
  "Description":"A squid that grows to enormous size thanks to the abundance of minerals that amass in the depths of its high-salinity environment. While favored by local Highlanders for its nutritious flesh, most find this loch-dweller too salty for their tastes.",
  "Item":36586,
  "GatheringItemLevel":534,
  "FishingRecordType":21,
  "TerritoryType":45,
  "IsVisible":true
},
{
  "Id":20224,
  "Description":"With eyes on either side of its protruding head, this predator misses none of what happens deep in the loch. It rules its waters with a fist more iron than platinum, hunting down the prey it sets its bulging eyes upon to the very end.",
  "Item":36587,
  "GatheringItemLevel":554,
  "FishingRecordType":21,
  "TerritoryType":45,
  "IsVisible":true
},
{
  "Id":20225,
  "Description":"Small sky blue dots pattern this creature's otherwise monochrome body. While its few larger black markings may be suspected of camouflaging the true location of its eyes, they in fact are a by-product of this fish's aether-sensitive organs, and─rather dangerously─mark said organs' position.",
  "Item":36568,
  "GatheringItemLevel":510,
  "FishingRecordType":11,
  "TerritoryType":39,
  "IsVisible":true
},
{
  "Id":20226,
  "Description":"With a head shape eerily reminiscent of a samurai's helmet, it is no surprise that warriors once attempted to don this fish's skull as a form of protection. One will also not be shocked to hear that it was far from effective, being easily penetrated by enemy katana.",
  "Item":36578,
  "GatheringItemLevel":520,
  "FishingRecordType":12,
  "TerritoryType":46,
  "IsVisible":true
},
{
  "Id":20227,
  "Description":"Inhabiting the coral reef and its neighboring sands, this creature peeks out from its abode to expose the white, arrow-shaped pattern on its head only once in a blue moon. Though it lacks many a spot compared to the garden eels it so resembles, it at least shares their bulging and slightly confused eyes.",
  "Item":36573,
  "GatheringItemLevel":527,
  "FishingRecordType":10,
  "TerritoryType":46,
  "IsVisible":true
},
{
  "Id":20228,
  "Description":"Primordial beings with glimmering teeth so sharp as to earn them the name “blade's ray.” Known to hunt birds in addition to other fish, they propel themselves through the surface with powerful strokes before their prey gets any hint of danger.",
  "Item":36546,
  "GatheringItemLevel":554,
  "FishingRecordType":27,
  "TerritoryType":47,
  "IsVisible":true
},
{
  "Id":20229,
  "Description":"A leisurely shark partial to life at the bottom of the seas. While many mistakenly believe it to have skin tougher than armor, this is but a misnomer wrapped in an old wives' tale. Though comparably inflexible for a creature of the deep seas, when brought ashore, its hide is far from what it is cracked up to be.",
  "Item":36580,
  "GatheringItemLevel":560,
  "FishingRecordType":12,
  "TerritoryType":43,
  "IsVisible":true
},
{
  "Id":20230,
  "Description":"A small tropical fish that inhabits the coral reefs off of Tebqeyiq. Males boast bright blue and yellow patterning to court females, which keep to an arguably drab grey-black.",
  "Item":36535,
  "GatheringItemLevel":560,
  "FishingRecordType":25,
  "TerritoryType":47,
  "IsVisible":true
},
{
  "Id":20231,
  "Description":"Among the cephalopods found in salt lakes, this particular wavekin boasts the largest ink sac despite its diminutive size. Treasured as a delicacy in Gyr Abania, its ink is well known for the abundant minerals contained within it, and its pungent kick is ever a delight to those whose family traditions involve a nice lick of licking salt.",
  "Item":36659,
  "GatheringItemLevel":495,
  "FishingRecordType":20,
  "TerritoryType":48,
  "IsVisible":true
},
{
  "Id":20232,
  "Description":"According to Far Eastern legend, this clam emits light of comparable beauty to that which radiates from the very goddess of auroras herself. A coveted ingredient for mother-of-pearl inlays, some believe that simply adorning tableware with its shell will improve the taste of food, a flimsy theory Sharlayan cuisine has put to the proof time and time again.",
  "Item":36661,
  "GatheringItemLevel":500,
  "FishingRecordType":10,
  "TerritoryType":49,
  "IsVisible":true
},
{
  "Id":20233,
  "Description":"Though the waters surrounding the Isle of Ken can sink to frigid temperatures, this freshwater fish thrives by generating copious amounts of body heat. This internal aetheric reaction is far more than simple thermoregulation, however, as the flesh of this creature retains its uncanny heat even after trimmed and gutted.",
  "Item":38811,
  "GatheringItemLevel":500,
  "FishingRecordType":23,
  "TerritoryType":50,
  "IsVisible":true
},
{
  "Id":20234,
  "Description":"This bivalve mollusk is of such a clear and delicate color, it perfectly resembles an errant petal plucked from a flower in the blush of spring. Perhaps this is why the pixies were so quick to name it for their forebear Glorianda, in imitation of the Jenanna's tear of Longmirror Lake.",
  "Item":38813,
  "GatheringItemLevel":520,
  "FishingRecordType":22,
  "TerritoryType":51,
  "IsVisible":true
},
{
  "Id":20235,
  "Description":"This wavekin's mottled green pattern gives it the impression of being clad in weathered bronze─a perception not far from the truth. Its scales, suffused by the mineral waters of Bronze Lake, are known to contain traces of rare metal.",
  "Item":38939,
  "GatheringItemLevel":600,
  "FishingRecordType":29,
  "TerritoryType":52,
  "IsVisible":true
},
{
  "Id":20236,
  "Description":"Known─and named─for its unique style of swimming, this freshwater fish skips rapidly from rock to rock as it traverses the lake floor. It does this not for the sheer joy of living, but to inflict a swift, unpredictable death upon the smaller wavekin that it hunts for food.",
  "Item":38837,
  "GatheringItemLevel":534,
  "FishingRecordType":29,
  "TerritoryType":52,
  "IsVisible":true
},
{
  "Id":20237,
  "Description":"Legend has it that this smooth-scaled eel of dark bronze came into existence only after a lancer hurled a slain comrade's spear into the lake. The story fails to mention whether the lancer was ever aware of this miraculous genesis, or if it sparked a craze of submerging postmortem mementos in large bodies of water.",
  "Item":38838,
  "GatheringItemLevel":534,
  "FishingRecordType":30,
  "TerritoryType":52,
  "IsVisible":true
},
{
  "Id":20238,
  "Description":"This member of the peacock bass family is recognizable for its bold stripes, the deep green markings a stunning reflection of the lake's emerald waters. Spearfishers consider this fish one of the region's prize catches.",
  "Item":38839,
  "GatheringItemLevel":540,
  "FishingRecordType":30,
  "TerritoryType":52,
  "IsVisible":true
},
{
  "Id":20239,
  "Description":"The scales of this distinctive trout range from a deep olive green to a gleaming bronze brown. Its crimson flesh is highly sought after by fishermen, who equate the darker hue with a richer─and thus more expensive─flavor.",
  "Item":38840,
  "GatheringItemLevel":547,
  "FishingRecordType":31,
  "TerritoryType":52,
  "IsVisible":true
},
{
  "Id":20240,
  "Description":"This “unexpected predator,” as naturalists have dubbed it, is a surprisingly harmonious cog in the local ecology. Despite its prehistoric appearance, the massive nosceasaur appears to consciously avoid disrupting the food chain's delicate equilibrium.",
  "Item":38841,
  "GatheringItemLevel":600,
  "FishingRecordType":31,
  "TerritoryType":52,
  "IsVisible":true
},
{
  "Id":20241,
  "Description":"An abundant mollusk, the empyreal spiral is the source of many of Saibai Cavern's beautiful shells and, in turn, its name. The shells have long been used in the artisanal works of Sui no Sato─in particular, a pigment that shimmers with rainbow hues.",
  "Item":41060,
  "GatheringItemLevel":510,
  "FishingRecordType":10,
  "TerritoryType":53,
  "IsVisible":true
},
{
  "Id":20242,
  "Description":"As its name suggests, the opal tetra's scales gleam with brilliant color. Indeed, it is no less precious than a gem to aquarists, who firmly believe that the mere sight of the iridescent wavekin can cure most ails.",
  "Item":41062,
  "GatheringItemLevel":540,
  "FishingRecordType":29,
  "TerritoryType":54,
  "IsVisible":true
},
{
  "Id":20243,
  "Description":"",
  "Item":0,
  "GatheringItemLevel":0,
  "FishingRecordType":0,
  "TerritoryType":0,
  "IsVisible":false
},
{
  "Id":20244,
  "Description":"",
  "Item":0,
  "GatheringItemLevel":0,
  "FishingRecordType":0,
  "TerritoryType":0,
  "IsVisible":false
},
{
  "Id":20245,
  "Description":"",
  "Item":0,
  "GatheringItemLevel":0,
  "FishingRecordType":0,
  "TerritoryType":0,
  "IsVisible":false
},
{
  "Id":20246,
  "Description":"",
  "Item":0,
  "GatheringItemLevel":0,
  "FishingRecordType":0,
  "TerritoryType":0,
  "IsVisible":false
},
{
  "Id":20247,
  "Description":"",
  "Item":0,
  "GatheringItemLevel":0,
  "FishingRecordType":0,
  "TerritoryType":0,
  "IsVisible":false
},
{
  "Id":20248,
  "Description":"",
  "Item":0,
  "GatheringItemLevel":0,
  "FishingRecordType":0,
  "TerritoryType":0,
  "IsVisible":false
},
{
  "Id":20249,
  "Description":"",
  "Item":0,
  "GatheringItemLevel":0,
  "FishingRecordType":0,
  "TerritoryType":0,
  "IsVisible":false
},
{
  "Id":20250,
  "Description":"",
  "Item":0,
  "GatheringItemLevel":0,
  "FishingRecordType":0,
  "TerritoryType":0,
  "IsVisible":false
},
{
  "Id":20251,
  "Description":"",
  "Item":0,
  "GatheringItemLevel":0,
  "FishingRecordType":0,
  "TerritoryType":0,
  "IsVisible":false
},
{
  "Id":20252,
  "Description":"",
  "Item":0,
  "GatheringItemLevel":0,
  "FishingRecordType":0,
  "TerritoryType":0,
  "IsVisible":false
},
{
  "Id":20253,
  "Description":"",
  "Item":0,
  "GatheringItemLevel":0,
  "FishingRecordType":0,
  "TerritoryType":0,
  "IsVisible":false
},
{
  "Id":20254,
  "Description":"",
  "Item":0,
  "GatheringItemLevel":0,
  "FishingRecordType":0,
  "TerritoryType":0,
  "IsVisible":false
},
{
  "Id":20255,
  "Description":"",
  "Item":0,
  "GatheringItemLevel":0,
  "FishingRecordType":0,
  "TerritoryType":0,
  "IsVisible":false
},
{
  "Id":20256,
  "Description":"",
  "Item":0,
  "GatheringItemLevel":0,
  "FishingRecordType":0,
  "TerritoryType":0,
  "IsVisible":false
},
{
  "Id":20257,
  "Description":"",
  "Item":0,
  "GatheringItemLevel":0,
  "FishingRecordType":0,
  "TerritoryType":0,
  "IsVisible":false
},
{
  "Id":20258,
  "Description":"",
  "Item":0,
  "GatheringItemLevel":0,
  "FishingRecordType":0,
  "TerritoryType":0,
  "IsVisible":false
},
{
  "Id":20259,
  "Description":"",
  "Item":0,
  "GatheringItemLevel":0,
  "FishingRecordType":0,
  "TerritoryType":0,
  "IsVisible":false
},
{
  "Id":20260,
  "Description":"",
  "Item":0,
  "GatheringItemLevel":0,
  "FishingRecordType":0,
  "TerritoryType":0,
  "IsVisible":false
},
{
  "Id":20261,
  "Description":"",
  "Item":0,
  "GatheringItemLevel":0,
  "FishingRecordType":0,
  "TerritoryType":0,
  "IsVisible":false
},
{
  "Id":20262,
  "Description":"",
  "Item":0,
  "GatheringItemLevel":0,
  "FishingRecordType":0,
  "TerritoryType":0,
  "IsVisible":false
},
{
  "Id":20263,
  "Description":"",
  "Item":0,
  "GatheringItemLevel":0,
  "FishingRecordType":0,
  "TerritoryType":0,
  "IsVisible":false
},
{
  "Id":20264,
  "Description":"",
  "Item":0,
  "GatheringItemLevel":0,
  "FishingRecordType":0,
  "TerritoryType":0,
  "IsVisible":false
},
{
  "Id":20265,
  "Description":"",
  "Item":0,
  "GatheringItemLevel":0,
  "FishingRecordType":0,
  "TerritoryType":0,
  "IsVisible":false
},
{
  "Id":20266,
  "Description":"",
  "Item":0,
  "GatheringItemLevel":0,
  "FishingRecordType":0,
  "TerritoryType":0,
  "IsVisible":false
},
{
  "Id":20267,
  "Description":"",
  "Item":0,
  "GatheringItemLevel":0,
  "FishingRecordType":0,
  "TerritoryType":0,
  "IsVisible":false
},
{
  "Id":20268,
  "Description":"",
  "Item":0,
  "GatheringItemLevel":0,
  "FishingRecordType":0,
  "TerritoryType":0,
  "IsVisible":false
},
{
  "Id":20269,
  "Description":"",
  "Item":0,
  "GatheringItemLevel":0,
  "FishingRecordType":0,
  "TerritoryType":0,
  "IsVisible":false
},
{
  "Id":20270,
  "Description":"",
  "Item":0,
  "GatheringItemLevel":0,
  "FishingRecordType":0,
  "TerritoryType":0,
  "IsVisible":false
},
{
  "Id":20271,
  "Description":"",
  "Item":0,
  "GatheringItemLevel":0,
  "FishingRecordType":0,
  "TerritoryType":0,
  "IsVisible":false
},
{
  "Id":20272,
  "Description":"",
  "Item":0,
  "GatheringItemLevel":0,
  "FishingRecordType":0,
  "TerritoryType":0,
  "IsVisible":false
},
{
  "Id":30000,
  "Description":"",
  "Item":17835,
  "GatheringItemLevel":290,
  "FishingRecordType":33,
  "TerritoryType":10000,
  "IsVisible":false
},
{
  "Id":30001,
  "Description":"",
  "Item":17836,
  "GatheringItemLevel":290,
  "FishingRecordType":33,
  "TerritoryType":10000,
  "IsVisible":false
},
{
  "Id":30002,
  "Description":"",
  "Item":17951,
  "GatheringItemLevel":260,
  "FishingRecordType":33,
  "TerritoryType":10000,
  "IsVisible":false
},
{
  "Id":30003,
  "Description":"",
  "Item":26744,
  "GatheringItemLevel":425,
  "FishingRecordType":33,
  "TerritoryType":10000,
  "IsVisible":false
},
{
  "Id":30004,
  "Description":"",
  "Item":26745,
  "GatheringItemLevel":425,
  "FishingRecordType":33,
  "TerritoryType":10000,
  "IsVisible":false
},
{
  "Id":30005,
  "Description":"",
  "Item":29573,
  "GatheringItemLevel":290,
  "FishingRecordType":33,
  "TerritoryType":10000,
  "IsVisible":false
},
{
  "Id":30006,
  "Description":"",
  "Item":29574,
  "GatheringItemLevel":290,
  "FishingRecordType":33,
  "TerritoryType":10000,
  "IsVisible":false
},
{
  "Id":30007,
  "Description":"",
  "Item":29578,
  "GatheringItemLevel":290,
  "FishingRecordType":33,
  "TerritoryType":10000,
  "IsVisible":false
},
{
  "Id":30008,
  "Description":"",
  "Item":29579,
  "GatheringItemLevel":290,
  "FishingRecordType":33,
  "TerritoryType":10000,
  "IsVisible":false
},
{
  "Id":30009,
  "Description":"",
  "Item":29581,
  "GatheringItemLevel":290,
  "FishingRecordType":33,
  "TerritoryType":10000,
  "IsVisible":false
},
{
  "Id":30010,
  "Description":"",
  "Item":29589,
  "GatheringItemLevel":290,
  "FishingRecordType":33,
  "TerritoryType":10000,
  "IsVisible":false
},
{
  "Id":30011,
  "Description":"",
  "Item":36611,
  "GatheringItemLevel":560,
  "FishingRecordType":33,
  "TerritoryType":10000,
  "IsVisible":false
},
{
  "Id":30012,
  "Description":"",
  "Item":36612,
  "GatheringItemLevel":560,
  "FishingRecordType":33,
  "TerritoryType":10000,
  "IsVisible":false
}
]
