﻿[
{
  "Id":0,
  "GatheringLevel":65,
  "IsShadowNode":false,
  "TerritoryType":613,
  "X":1578,
  "Y":1434,
  "Radius":800,
  "PlaceName":2511,
  "GatheringPointBase":464
},
{
  "Id":1,
  "GatheringLevel":65,
  "IsShadowNode":false,
  "TerritoryType":613,
  "X":1344,
  "Y":516,
  "Radius":600,
  "PlaceName":2512,
  "GatheringPointBase":465
},
{
  "Id":2,
  "GatheringLevel":65,
  "IsShadowNode":false,
  "TerritoryType":613,
  "X":828,
  "Y":964,
  "Radius":600,
  "PlaceName":2513,
  "GatheringPointBase":466
},
{
  "Id":3,
  "GatheringLevel":65,
  "IsShadowNode":false,
  "TerritoryType":613,
  "X":768,
  "Y":1180,
  "Radius":600,
  "PlaceName":2514,
  "GatheringPointBase":467
},
{
  "Id":4,
  "GatheringLevel":65,
  "IsShadowNode":false,
  "TerritoryType":613,
  "X":192,
  "Y":1802,
  "Radius":600,
  "PlaceName":2515,
  "GatheringPointBase":468
},
{
  "Id":5,
  "GatheringLevel":70,
  "IsShadowNode":false,
  "TerritoryType":613,
  "X":1892,
  "Y":264,
  "Radius":600,
  "PlaceName":2516,
  "GatheringPointBase":472
},
{
  "Id":6,
  "GatheringLevel":65,
  "IsShadowNode":false,
  "TerritoryType":614,
  "X":704,
  "Y":1824,
  "Radius":600,
  "PlaceName":2517,
  "GatheringPointBase":469
},
{
  "Id":7,
  "GatheringLevel":65,
  "IsShadowNode":false,
  "TerritoryType":614,
  "X":1022,
  "Y":1782,
  "Radius":600,
  "PlaceName":2518,
  "GatheringPointBase":470
},
{
  "Id":8,
  "GatheringLevel":65,
  "IsShadowNode":false,
  "TerritoryType":614,
  "X":1688,
  "Y":1776,
  "Radius":600,
  "PlaceName":2519,
  "GatheringPointBase":471
},
{
  "Id":9,
  "GatheringLevel":70,
  "IsShadowNode":false,
  "TerritoryType":614,
  "X":444,
  "Y":1660,
  "Radius":600,
  "PlaceName":2520,
  "GatheringPointBase":473
},
{
  "Id":10,
  "GatheringLevel":70,
  "IsShadowNode":false,
  "TerritoryType":614,
  "X":496,
  "Y":484,
  "Radius":600,
  "PlaceName":2521,
  "GatheringPointBase":474
},
{
  "Id":11,
  "GatheringLevel":70,
  "IsShadowNode":false,
  "TerritoryType":622,
  "X":900,
  "Y":1100,
  "Radius":600,
  "PlaceName":2522,
  "GatheringPointBase":475
},
{
  "Id":12,
  "GatheringLevel":70,
  "IsShadowNode":false,
  "TerritoryType":622,
  "X":1100,
  "Y":1100,
  "Radius":600,
  "PlaceName":2523,
  "GatheringPointBase":476
},
{
  "Id":13,
  "GatheringLevel":70,
  "IsShadowNode":false,
  "TerritoryType":621,
  "X":644,
  "Y":880,
  "Radius":600,
  "PlaceName":2524,
  "GatheringPointBase":477
},
{
  "Id":14,
  "GatheringLevel":70,
  "IsShadowNode":false,
  "TerritoryType":621,
  "X":1115,
  "Y":1190,
  "Radius":850,
  "PlaceName":2525,
  "GatheringPointBase":478
},
{
  "Id":15,
  "GatheringLevel":70,
  "IsShadowNode":false,
  "TerritoryType":621,
  "X":1180,
  "Y":1350,
  "Radius":600,
  "PlaceName":2526,
  "GatheringPointBase":479
},
{
  "Id":16,
  "GatheringLevel":70,
  "IsShadowNode":false,
  "TerritoryType":813,
  "X":656,
  "Y":1506,
  "Radius":800,
  "PlaceName":3341,
  "GatheringPointBase":635
},
{
  "Id":17,
  "GatheringLevel":75,
  "IsShadowNode":false,
  "TerritoryType":813,
  "X":324,
  "Y":1562,
  "Radius":800,
  "PlaceName":3342,
  "GatheringPointBase":636
},
{
  "Id":18,
  "GatheringLevel":75,
  "IsShadowNode":false,
  "TerritoryType":813,
  "X":646,
  "Y":1824,
  "Radius":800,
  "PlaceName":3343,
  "GatheringPointBase":637
},
{
  "Id":19,
  "GatheringLevel":75,
  "IsShadowNode":false,
  "TerritoryType":816,
  "X":968,
  "Y":620,
  "Radius":600,
  "PlaceName":3344,
  "GatheringPointBase":638
},
{
  "Id":20,
  "GatheringLevel":75,
  "IsShadowNode":false,
  "TerritoryType":816,
  "X":934,
  "Y":1046,
  "Radius":800,
  "PlaceName":3345,
  "GatheringPointBase":639
},
{
  "Id":21,
  "GatheringLevel":80,
  "IsShadowNode":false,
  "TerritoryType":816,
  "X":1224,
  "Y":1224,
  "Radius":800,
  "PlaceName":3346,
  "GatheringPointBase":640
},
{
  "Id":22,
  "GatheringLevel":80,
  "IsShadowNode":false,
  "TerritoryType":816,
  "X":1456,
  "Y":1404,
  "Radius":800,
  "PlaceName":3347,
  "GatheringPointBase":641
},
{
  "Id":23,
  "GatheringLevel":80,
  "IsShadowNode":false,
  "TerritoryType":816,
  "X":1412,
  "Y":1784,
  "Radius":800,
  "PlaceName":3348,
  "GatheringPointBase":642
},
{
  "Id":24,
  "GatheringLevel":80,
  "IsShadowNode":false,
  "TerritoryType":817,
  "X":216,
  "Y":1234,
  "Radius":800,
  "PlaceName":3349,
  "GatheringPointBase":643
},
{
  "Id":25,
  "GatheringLevel":80,
  "IsShadowNode":false,
  "TerritoryType":817,
  "X":424,
  "Y":1444,
  "Radius":800,
  "PlaceName":3350,
  "GatheringPointBase":644
},
{
  "Id":26,
  "GatheringLevel":70,
  "IsShadowNode":false,
  "TerritoryType":817,
  "X":265,
  "Y":1335,
  "Radius":300,
  "PlaceName":3456,
  "GatheringPointBase":696
},
{
  "Id":27,
  "GatheringLevel":70,
  "IsShadowNode":false,
  "TerritoryType":817,
  "X":185,
  "Y":1465,
  "Radius":300,
  "PlaceName":3457,
  "GatheringPointBase":697
},
{
  "Id":28,
  "GatheringLevel":70,
  "IsShadowNode":true,
  "TerritoryType":613,
  "X":1961,
  "Y":433,
  "Radius":300,
  "PlaceName":3627,
  "GatheringPointBase":480
},
{
  "Id":29,
  "GatheringLevel":70,
  "IsShadowNode":true,
  "TerritoryType":613,
  "X":1911,
  "Y":89,
  "Radius":300,
  "PlaceName":3628,
  "GatheringPointBase":530
},
{
  "Id":30,
  "GatheringLevel":70,
  "IsShadowNode":true,
  "TerritoryType":614,
  "X":501,
  "Y":1839,
  "Radius":300,
  "PlaceName":3629,
  "GatheringPointBase":481
},
{
  "Id":31,
  "GatheringLevel":70,
  "IsShadowNode":true,
  "TerritoryType":622,
  "X":1034,
  "Y":1211,
  "Radius":225,
  "PlaceName":3630,
  "GatheringPointBase":482
},
{
  "Id":32,
  "GatheringLevel":70,
  "IsShadowNode":true,
  "TerritoryType":621,
  "X":1056,
  "Y":1194,
  "Radius":225,
  "PlaceName":3631,
  "GatheringPointBase":483
},
{
  "Id":33,
  "GatheringLevel":75,
  "IsShadowNode":true,
  "TerritoryType":813,
  "X":560,
  "Y":1757,
  "Radius":300,
  "PlaceName":3632,
  "GatheringPointBase":645
},
{
  "Id":34,
  "GatheringLevel":80,
  "IsShadowNode":true,
  "TerritoryType":816,
  "X":1450,
  "Y":1183,
  "Radius":300,
  "PlaceName":3633,
  "GatheringPointBase":646
},
{
  "Id":35,
  "GatheringLevel":80,
  "IsShadowNode":true,
  "TerritoryType":817,
  "X":234,
  "Y":1403,
  "Radius":300,
  "PlaceName":3634,
  "GatheringPointBase":647
},
{
  "Id":36,
  "GatheringLevel":85,
  "IsShadowNode":false,
  "TerritoryType":957,
  "X":694,
  "Y":1792,
  "Radius":750,
  "PlaceName":3746,
  "GatheringPointBase":889
},
{
  "Id":37,
  "GatheringLevel":85,
  "IsShadowNode":false,
  "TerritoryType":613,
  "X":1361,
  "Y":125,
  "Radius":750,
  "PlaceName":3751,
  "GatheringPointBase":890
},
{
  "Id":38,
  "GatheringLevel":85,
  "IsShadowNode":false,
  "TerritoryType":613,
  "X":500,
  "Y":644,
  "Radius":600,
  "PlaceName":3752,
  "GatheringPointBase":891
},
{
  "Id":39,
  "GatheringLevel":85,
  "IsShadowNode":false,
  "TerritoryType":613,
  "X":1361,
  "Y":1015,
  "Radius":900,
  "PlaceName":3753,
  "GatheringPointBase":892
},
{
  "Id":40,
  "GatheringLevel":90,
  "IsShadowNode":false,
  "TerritoryType":957,
  "X":367,
  "Y":1639,
  "Radius":750,
  "PlaceName":3747,
  "GatheringPointBase":893
},
{
  "Id":41,
  "GatheringLevel":90,
  "IsShadowNode":false,
  "TerritoryType":957,
  "X":183,
  "Y":1389,
  "Radius":750,
  "PlaceName":3748,
  "GatheringPointBase":894
},
{
  "Id":42,
  "GatheringLevel":90,
  "IsShadowNode":false,
  "TerritoryType":957,
  "X":1165,
  "Y":1188,
  "Radius":600,
  "PlaceName":3749,
  "GatheringPointBase":895
},
{
  "Id":43,
  "GatheringLevel":90,
  "IsShadowNode":false,
  "TerritoryType":613,
  "X":1812,
  "Y":563,
  "Radius":750,
  "PlaceName":3754,
  "GatheringPointBase":896
},
{
  "Id":44,
  "GatheringLevel":90,
  "IsShadowNode":false,
  "TerritoryType":613,
  "X":1937,
  "Y":1532,
  "Radius":900,
  "PlaceName":3755,
  "GatheringPointBase":897
},
{
  "Id":45,
  "GatheringLevel":90,
  "IsShadowNode":false,
  "TerritoryType":621,
  "X":1099,
  "Y":844,
  "Radius":750,
  "PlaceName":3758,
  "GatheringPointBase":898
},
{
  "Id":46,
  "GatheringLevel":85,
  "IsShadowNode":true,
  "TerritoryType":613,
  "X":1119,
  "Y":115,
  "Radius":300,
  "PlaceName":3756,
  "GatheringPointBase":899
},
{
  "Id":47,
  "GatheringLevel":90,
  "IsShadowNode":true,
  "TerritoryType":957,
  "X":292,
  "Y":1764,
  "Radius":300,
  "PlaceName":3750,
  "GatheringPointBase":900
},
{
  "Id":48,
  "GatheringLevel":85,
  "IsShadowNode":false,
  "TerritoryType":621,
  "X":975,
  "Y":1398,
  "Radius":600,
  "PlaceName":4179,
  "GatheringPointBase":903
},
{
  "Id":49,
  "GatheringLevel":85,
  "IsShadowNode":false,
  "TerritoryType":613,
  "X":1136,
  "Y":1319,
  "Radius":600,
  "PlaceName":3757,
  "GatheringPointBase":904
},
{
  "Id":50,
  "GatheringLevel":85,
  "IsShadowNode":false,
  "TerritoryType":813,
  "X":264,
  "Y":1807,
  "Radius":800,
  "PlaceName":4281,
  "GatheringPointBase":915
},
{
  "Id":51,
  "GatheringLevel":85,
  "IsShadowNode":false,
  "TerritoryType":816,
  "X":728,
  "Y":803,
  "Radius":600,
  "PlaceName":4282,
  "GatheringPointBase":916
},
{
  "Id":52,
  "GatheringLevel":90,
  "IsShadowNode":false,
  "TerritoryType":139,
  "X":1185,
  "Y":1023,
  "Radius":600,
  "PlaceName":4283,
  "GatheringPointBase":917
},
{
  "Id":53,
  "GatheringLevel":85,
  "IsShadowNode":false,
  "TerritoryType":613,
  "X":910,
  "Y":620,
  "Radius":600,
  "PlaceName":4429,
  "GatheringPointBase":942
},
{
  "Id":54,
  "GatheringLevel":90,
  "IsShadowNode":false,
  "TerritoryType":139,
  "X":900,
  "Y":1025,
  "Radius":600,
  "PlaceName":4430,
  "GatheringPointBase":943
},
{
  "Id":55,
  "GatheringLevel":0,
  "IsShadowNode":false,
  "TerritoryType":0,
  "X":0,
  "Y":0,
  "Radius":0,
  "PlaceName":0,
  "GatheringPointBase":0
}
]
