﻿[
{
  "Id":3276800,
  "Name":"",
  "Shop[0]":0,
  "Shop[1]":0,
  "Shop[2]":0,
  "Shop[3]":0,
  "Shop[4]":0,
  "Shop[5]":0,
  "Shop[6]":0,
  "Shop[7]":0,
  "Shop[8]":0,
  "Shop[9]":0
},
{
  "Id":3276801,
  "Name":"",
  "Shop[0]":0,
  "Shop[1]":0,
  "Shop[2]":0,
  "Shop[3]":0,
  "Shop[4]":0,
  "Shop[5]":0,
  "Shop[6]":0,
  "Shop[7]":0,
  "Shop[8]":0,
  "Shop[9]":0
},
{
  "Id":3276802,
  "Name":"Gordische Gegenstände",
  "Shop[0]":1769579,
  "Shop[1]":1769605,
  "Shop[2]":1769580,
  "Shop[3]":1769581,
  "Shop[4]":1769606,
  "Shop[5]":1769582,
  "Shop[6]":1769642,
  "Shop[7]":0,
  "Shop[8]":0,
  "Shop[9]":0
},
{
  "Id":3276803,
  "Name":"Midische Gegenstände",
  "Shop[0]":1769643,
  "Shop[1]":1769644,
  "Shop[2]":1769645,
  "Shop[3]":1769646,
  "Shop[4]":1769647,
  "Shop[5]":1769648,
  "Shop[6]":0,
  "Shop[7]":0,
  "Shop[8]":0,
  "Shop[9]":0
},
{
  "Id":3276804,
  "Name":"Aloalo-Gebrauchtwaren",
  "Shop[0]":1770725,
  "Shop[1]":1770726,
  "Shop[2]":1770727,
  "Shop[3]":0,
  "Shop[4]":0,
  "Shop[5]":0,
  "Shop[6]":0,
  "Shop[7]":0,
  "Shop[8]":0,
  "Shop[9]":0
},
{
  "Id":3276805,
  "Name":"",
  "Shop[0]":1769676,
  "Shop[1]":1769677,
  "Shop[2]":1769678,
  "Shop[3]":1769679,
  "Shop[4]":593394,
  "Shop[5]":0,
  "Shop[6]":0,
  "Shop[7]":0,
  "Shop[8]":0,
  "Shop[9]":0
},
{
  "Id":3276806,
  "Name":"Alexandrische Gegenstände",
  "Shop[0]":1769689,
  "Shop[1]":1769690,
  "Shop[2]":1769691,
  "Shop[3]":1769692,
  "Shop[4]":1769693,
  "Shop[5]":1769694,
  "Shop[6]":0,
  "Shop[7]":0,
  "Shop[8]":0,
  "Shop[9]":0
},
{
  "Id":3276807,
  "Name":"",
  "Shop[0]":0,
  "Shop[1]":0,
  "Shop[2]":0,
  "Shop[3]":0,
  "Shop[4]":0,
  "Shop[5]":0,
  "Shop[6]":0,
  "Shop[7]":0,
  "Shop[8]":0,
  "Shop[9]":0
},
{
  "Id":3276808,
  "Name":"",
  "Shop[0]":0,
  "Shop[1]":0,
  "Shop[2]":0,
  "Shop[3]":0,
  "Shop[4]":0,
  "Shop[5]":0,
  "Shop[6]":0,
  "Shop[7]":0,
  "Shop[8]":0,
  "Shop[9]":0
},
{
  "Id":3276809,
  "Name":"",
  "Shop[0]":0,
  "Shop[1]":0,
  "Shop[2]":0,
  "Shop[3]":0,
  "Shop[4]":0,
  "Shop[5]":0,
  "Shop[6]":0,
  "Shop[7]":0,
  "Shop[8]":0,
  "Shop[9]":0
},
{
  "Id":3276810,
  "Name":"Artefakt-Ausrüstung",
  "Shop[0]":1769715,
  "Shop[1]":1769716,
  "Shop[2]":1769717,
  "Shop[3]":0,
  "Shop[4]":0,
  "Shop[5]":0,
  "Shop[6]":0,
  "Shop[7]":0,
  "Shop[8]":0,
  "Shop[9]":0
},
{
  "Id":3276811,
  "Name":"Domanische Ausrüstung",
  "Shop[0]":1769660,
  "Shop[1]":1769661,
  "Shop[2]":0,
  "Shop[3]":0,
  "Shop[4]":0,
  "Shop[5]":0,
  "Shop[6]":0,
  "Shop[7]":0,
  "Shop[8]":0,
  "Shop[9]":0
},
{
  "Id":3276812,
  "Name":"Hinterländische Ausrüstung verbessern",
  "Shop[0]":1769734,
  "Shop[1]":1769735,
  "Shop[2]":1769736,
  "Shop[3]":0,
  "Shop[4]":0,
  "Shop[5]":0,
  "Shop[6]":0,
  "Shop[7]":0,
  "Shop[8]":0,
  "Shop[9]":0
},
{
  "Id":3276813,
  "Name":"",
  "Shop[0]":1769676,
  "Shop[1]":1769677,
  "Shop[2]":1769738,
  "Shop[3]":1769678,
  "Shop[4]":1769679,
  "Shop[5]":1769739,
  "Shop[6]":1769749,
  "Shop[7]":1769750,
  "Shop[8]":593394,
  "Shop[9]":0
},
{
  "Id":3276814,
  "Name":"",
  "Shop[0]":1769676,
  "Shop[1]":1769677,
  "Shop[2]":1769678,
  "Shop[3]":1769679,
  "Shop[4]":593394,
  "Shop[5]":0,
  "Shop[6]":0,
  "Shop[7]":0,
  "Shop[8]":0,
  "Shop[9]":0
},
{
  "Id":3276815,
  "Name":"Garo-Ausrüstung (Krieger I)",
  "Shop[0]":262677,
  "Shop[1]":262678,
  "Shop[2]":262679,
  "Shop[3]":263137,
  "Shop[4]":262680,
  "Shop[5]":263135,
  "Shop[6]":262681,
  "Shop[7]":263139,
  "Shop[8]":0,
  "Shop[9]":0
},
{
  "Id":3276816,
  "Name":"Garo-Ausrüstung (Magier)",
  "Shop[0]":262685,
  "Shop[1]":262686,
  "Shop[2]":263136,
  "Shop[3]":262687,
  "Shop[4]":262688,
  "Shop[5]":262689,
  "Shop[6]":263140,
  "Shop[7]":0,
  "Shop[8]":0,
  "Shop[9]":0
},
{
  "Id":3276817,
  "Name":"",
  "Shop[0]":0,
  "Shop[1]":0,
  "Shop[2]":0,
  "Shop[3]":0,
  "Shop[4]":0,
  "Shop[5]":0,
  "Shop[6]":0,
  "Shop[7]":0,
  "Shop[8]":0,
  "Shop[9]":0
},
{
  "Id":3276818,
  "Name":"",
  "Shop[0]":0,
  "Shop[1]":0,
  "Shop[2]":0,
  "Shop[3]":0,
  "Shop[4]":0,
  "Shop[5]":0,
  "Shop[6]":0,
  "Shop[7]":0,
  "Shop[8]":0,
  "Shop[9]":0
},
{
  "Id":3276819,
  "Name":"",
  "Shop[0]":0,
  "Shop[1]":0,
  "Shop[2]":0,
  "Shop[3]":0,
  "Shop[4]":0,
  "Shop[5]":0,
  "Shop[6]":0,
  "Shop[7]":0,
  "Shop[8]":0,
  "Shop[9]":0
},
{
  "Id":3276820,
  "Name":"",
  "Shop[0]":0,
  "Shop[1]":0,
  "Shop[2]":0,
  "Shop[3]":0,
  "Shop[4]":0,
  "Shop[5]":0,
  "Shop[6]":0,
  "Shop[7]":0,
  "Shop[8]":0,
  "Shop[9]":0
},
{
  "Id":3276821,
  "Name":"",
  "Shop[0]":0,
  "Shop[1]":0,
  "Shop[2]":0,
  "Shop[3]":0,
  "Shop[4]":0,
  "Shop[5]":0,
  "Shop[6]":0,
  "Shop[7]":0,
  "Shop[8]":0,
  "Shop[9]":0
},
{
  "Id":3276822,
  "Name":"",
  "Shop[0]":0,
  "Shop[1]":0,
  "Shop[2]":0,
  "Shop[3]":0,
  "Shop[4]":0,
  "Shop[5]":0,
  "Shop[6]":0,
  "Shop[7]":0,
  "Shop[8]":0,
  "Shop[9]":0
},
{
  "Id":3276823,
  "Name":"",
  "Shop[0]":0,
  "Shop[1]":0,
  "Shop[2]":0,
  "Shop[3]":0,
  "Shop[4]":0,
  "Shop[5]":0,
  "Shop[6]":0,
  "Shop[7]":0,
  "Shop[8]":0,
  "Shop[9]":0
},
{
  "Id":3276824,
  "Name":"",
  "Shop[0]":0,
  "Shop[1]":0,
  "Shop[2]":0,
  "Shop[3]":0,
  "Shop[4]":0,
  "Shop[5]":0,
  "Shop[6]":0,
  "Shop[7]":0,
  "Shop[8]":0,
  "Shop[9]":0
},
{
  "Id":3276825,
  "Name":"Ausrüstung (Krieger)",
  "Shop[0]":262700,
  "Shop[1]":262701,
  "Shop[2]":262702,
  "Shop[3]":262703,
  "Shop[4]":262704,
  "Shop[5]":0,
  "Shop[6]":0,
  "Shop[7]":0,
  "Shop[8]":0,
  "Shop[9]":0
},
{
  "Id":3276826,
  "Name":"Ausrüstung (Magier)",
  "Shop[0]":262705,
  "Shop[1]":262706,
  "Shop[2]":262707,
  "Shop[3]":262708,
  "Shop[4]":262709,
  "Shop[5]":0,
  "Shop[6]":0,
  "Shop[7]":0,
  "Shop[8]":0,
  "Shop[9]":0
},
{
  "Id":3276827,
  "Name":"Ausrüstung (Handwerker/Sammler)",
  "Shop[0]":262710,
  "Shop[1]":262711,
  "Shop[2]":262712,
  "Shop[3]":262713,
  "Shop[4]":262714,
  "Shop[5]":0,
  "Shop[6]":0,
  "Shop[7]":0,
  "Shop[8]":0,
  "Shop[9]":0
},
{
  "Id":3276828,
  "Name":"Waffen (Krieger)",
  "Shop[0]":262715,
  "Shop[1]":262716,
  "Shop[2]":262717,
  "Shop[3]":262718,
  "Shop[4]":262719,
  "Shop[5]":0,
  "Shop[6]":0,
  "Shop[7]":0,
  "Shop[8]":0,
  "Shop[9]":0
},
{
  "Id":3276829,
  "Name":"Waffen (Magier)",
  "Shop[0]":262720,
  "Shop[1]":262721,
  "Shop[2]":262722,
  "Shop[3]":262723,
  "Shop[4]":262724,
  "Shop[5]":0,
  "Shop[6]":0,
  "Shop[7]":0,
  "Shop[8]":0,
  "Shop[9]":0
},
{
  "Id":3276830,
  "Name":"Werkzeuge (Handwerker)",
  "Shop[0]":262725,
  "Shop[1]":262726,
  "Shop[2]":262727,
  "Shop[3]":262728,
  "Shop[4]":262729,
  "Shop[5]":0,
  "Shop[6]":0,
  "Shop[7]":0,
  "Shop[8]":0,
  "Shop[9]":0
},
{
  "Id":3276831,
  "Name":"Werkzeuge (Sammler)",
  "Shop[0]":262730,
  "Shop[1]":262731,
  "Shop[2]":262732,
  "Shop[3]":262733,
  "Shop[4]":262734,
  "Shop[5]":0,
  "Shop[6]":0,
  "Shop[7]":0,
  "Shop[8]":0,
  "Shop[9]":0
},
{
  "Id":3276832,
  "Name":"Ausrüstung (Krieger)",
  "Shop[0]":262703,
  "Shop[1]":262704,
  "Shop[2]":262737,
  "Shop[3]":262738,
  "Shop[4]":262739,
  "Shop[5]":262740,
  "Shop[6]":262741,
  "Shop[7]":262820,
  "Shop[8]":0,
  "Shop[9]":0
},
{
  "Id":3276833,
  "Name":"Ausrüstung (Magier)",
  "Shop[0]":262708,
  "Shop[1]":262709,
  "Shop[2]":262743,
  "Shop[3]":262744,
  "Shop[4]":262745,
  "Shop[5]":262746,
  "Shop[6]":262747,
  "Shop[7]":262827,
  "Shop[8]":0,
  "Shop[9]":0
},
{
  "Id":3276834,
  "Name":"Ausrüstung (Handwerker/Sammler)",
  "Shop[0]":262713,
  "Shop[1]":262714,
  "Shop[2]":262749,
  "Shop[3]":0,
  "Shop[4]":0,
  "Shop[5]":0,
  "Shop[6]":0,
  "Shop[7]":0,
  "Shop[8]":0,
  "Shop[9]":0
},
{
  "Id":3276835,
  "Name":"Waffen (Krieger)",
  "Shop[0]":262718,
  "Shop[1]":262719,
  "Shop[2]":262750,
  "Shop[3]":262751,
  "Shop[4]":262752,
  "Shop[5]":262753,
  "Shop[6]":262754,
  "Shop[7]":262835,
  "Shop[8]":0,
  "Shop[9]":0
},
{
  "Id":3276836,
  "Name":"Waffen (Magier)",
  "Shop[0]":262723,
  "Shop[1]":262724,
  "Shop[2]":262756,
  "Shop[3]":262757,
  "Shop[4]":262758,
  "Shop[5]":262759,
  "Shop[6]":262760,
  "Shop[7]":262842,
  "Shop[8]":0,
  "Shop[9]":0
},
{
  "Id":3276837,
  "Name":"Werkzeuge (Handwerker)",
  "Shop[0]":262728,
  "Shop[1]":262729,
  "Shop[2]":262762,
  "Shop[3]":0,
  "Shop[4]":0,
  "Shop[5]":0,
  "Shop[6]":0,
  "Shop[7]":0,
  "Shop[8]":0,
  "Shop[9]":0
},
{
  "Id":3276838,
  "Name":"Werkzeuge (Sammler)",
  "Shop[0]":262733,
  "Shop[1]":262734,
  "Shop[2]":262763,
  "Shop[3]":0,
  "Shop[4]":0,
  "Shop[5]":0,
  "Shop[6]":0,
  "Shop[7]":0,
  "Shop[8]":0,
  "Shop[9]":0
},
{
  "Id":3276839,
  "Name":"Jobspezifische Ausrüstung",
  "Shop[0]":262445,
  "Shop[1]":262443,
  "Shop[2]":262444,
  "Shop[3]":262951,
  "Shop[4]":262896,
  "Shop[5]":262897,
  "Shop[6]":262898,
  "Shop[7]":262899,
  "Shop[8]":262926,
  "Shop[9]":0
},
{
  "Id":3276840,
  "Name":"Auftragsvergütungen",
  "Shop[0]":262446,
  "Shop[1]":263134,
  "Shop[2]":262449,
  "Shop[3]":262450,
  "Shop[4]":263045,
  "Shop[5]":0,
  "Shop[6]":0,
  "Shop[7]":0,
  "Shop[8]":0,
  "Shop[9]":0
},
{
  "Id":3276841,
  "Name":"Ausrüstung (Mann/Frau)",
  "Shop[0]":1769513,
  "Shop[1]":1769688,
  "Shop[2]":1769512,
  "Shop[3]":1769687,
  "Shop[4]":0,
  "Shop[5]":0,
  "Shop[6]":0,
  "Shop[7]":0,
  "Shop[8]":0,
  "Shop[9]":0
},
{
  "Id":3276842,
  "Name":"Seltene Gegenstände",
  "Shop[0]":1769753,
  "Shop[1]":1769607,
  "Shop[2]":1769610,
  "Shop[3]":1769988,
  "Shop[4]":1769989,
  "Shop[5]":1770475,
  "Shop[6]":0,
  "Shop[7]":0,
  "Shop[8]":0,
  "Shop[9]":0
},
{
  "Id":3276843,
  "Name":"",
  "Shop[0]":721154,
  "Shop[1]":721343,
  "Shop[2]":0,
  "Shop[3]":0,
  "Shop[4]":0,
  "Shop[5]":0,
  "Shop[6]":0,
  "Shop[7]":0,
  "Shop[8]":0,
  "Shop[9]":0
},
{
  "Id":3276844,
  "Name":"",
  "Shop[0]":0,
  "Shop[1]":0,
  "Shop[2]":0,
  "Shop[3]":0,
  "Shop[4]":0,
  "Shop[5]":0,
  "Shop[6]":0,
  "Shop[7]":0,
  "Shop[8]":0,
  "Shop[9]":0
},
{
  "Id":3276845,
  "Name":"",
  "Shop[0]":0,
  "Shop[1]":0,
  "Shop[2]":0,
  "Shop[3]":0,
  "Shop[4]":0,
  "Shop[5]":0,
  "Shop[6]":0,
  "Shop[7]":0,
  "Shop[8]":0,
  "Shop[9]":0
},
{
  "Id":3276846,
  "Name":"Werkzeuge",
  "Shop[0]":262911,
  "Shop[1]":262912,
  "Shop[2]":262913,
  "Shop[3]":0,
  "Shop[4]":0,
  "Shop[5]":0,
  "Shop[6]":0,
  "Shop[7]":0,
  "Shop[8]":0,
  "Shop[9]":0
},
{
  "Id":3276847,
  "Name":"Ausrüstung",
  "Shop[0]":262914,
  "Shop[1]":262915,
  "Shop[2]":262916,
  "Shop[3]":0,
  "Shop[4]":0,
  "Shop[5]":0,
  "Shop[6]":0,
  "Shop[7]":0,
  "Shop[8]":0,
  "Shop[9]":0
},
{
  "Id":3276848,
  "Name":"Saisonale Gegenstände",
  "Shop[0]":262626,
  "Shop[1]":262627,
  "Shop[2]":262628,
  "Shop[3]":262629,
  "Shop[4]":262630,
  "Shop[5]":262631,
  "Shop[6]":262632,
  "Shop[7]":262633,
  "Shop[8]":262634,
  "Shop[9]":0
},
{
  "Id":3276849,
  "Name":"Gegenstände für Errungenschaften",
  "Shop[0]":262449,
  "Shop[1]":262450,
  "Shop[2]":263045,
  "Shop[3]":0,
  "Shop[4]":0,
  "Shop[5]":0,
  "Shop[6]":0,
  "Shop[7]":0,
  "Shop[8]":0,
  "Shop[9]":0
},
{
  "Id":3276850,
  "Name":"NQ-Ausrüstung in Armeemarken umtauschen",
  "Shop[0]":1769885,
  "Shop[1]":1769886,
  "Shop[2]":1769887,
  "Shop[3]":0,
  "Shop[4]":0,
  "Shop[5]":0,
  "Shop[6]":0,
  "Shop[7]":0,
  "Shop[8]":0,
  "Shop[9]":0
},
{
  "Id":3276851,
  "Name":"HQ-Ausrüstung in Armeemarken umtauschen",
  "Shop[0]":1769888,
  "Shop[1]":1769889,
  "Shop[2]":1769890,
  "Shop[3]":0,
  "Shop[4]":0,
  "Shop[5]":0,
  "Shop[6]":0,
  "Shop[7]":0,
  "Shop[8]":0,
  "Shop[9]":0
},
{
  "Id":3276852,
  "Name":"Armeemarken in NQ-Ausrüstung umtauschen",
  "Shop[0]":1769891,
  "Shop[1]":1769892,
  "Shop[2]":1769893,
  "Shop[3]":0,
  "Shop[4]":0,
  "Shop[5]":0,
  "Shop[6]":0,
  "Shop[7]":0,
  "Shop[8]":0,
  "Shop[9]":0
},
{
  "Id":3276853,
  "Name":"Armeemarken in HQ-Ausrüstung umtauschen",
  "Shop[0]":1769894,
  "Shop[1]":1769895,
  "Shop[2]":1769896,
  "Shop[3]":0,
  "Shop[4]":0,
  "Shop[5]":0,
  "Shop[6]":0,
  "Shop[7]":0,
  "Shop[8]":0,
  "Shop[9]":0
},
{
  "Id":3276854,
  "Name":"NQ-Ausrüstung in Rakshasa-Marken umtauschen",
  "Shop[0]":1769941,
  "Shop[1]":1769942,
  "Shop[2]":1769943,
  "Shop[3]":0,
  "Shop[4]":0,
  "Shop[5]":0,
  "Shop[6]":0,
  "Shop[7]":0,
  "Shop[8]":0,
  "Shop[9]":0
},
{
  "Id":3276855,
  "Name":"HQ-Ausrüstung in Rakshasa-Marken umtauschen",
  "Shop[0]":1769944,
  "Shop[1]":1769945,
  "Shop[2]":1769946,
  "Shop[3]":0,
  "Shop[4]":0,
  "Shop[5]":0,
  "Shop[6]":0,
  "Shop[7]":0,
  "Shop[8]":0,
  "Shop[9]":0
},
{
  "Id":3276856,
  "Name":"Rakshasa-Marken in HQ-Ausrüstung umtauschen",
  "Shop[0]":1769947,
  "Shop[1]":1769948,
  "Shop[2]":1769949,
  "Shop[3]":0,
  "Shop[4]":0,
  "Shop[5]":0,
  "Shop[6]":0,
  "Shop[7]":0,
  "Shop[8]":0,
  "Shop[9]":0
},
{
  "Id":3276857,
  "Name":"Ausrüstung (Krieger)",
  "Shop[0]":3538969,
  "Shop[1]":3538970,
  "Shop[2]":3538976,
  "Shop[3]":3538977,
  "Shop[4]":3538978,
  "Shop[5]":0,
  "Shop[6]":0,
  "Shop[7]":0,
  "Shop[8]":0,
  "Shop[9]":0
},
{
  "Id":3276858,
  "Name":"Ausrüstung (Magier)",
  "Shop[0]":3538979,
  "Shop[1]":3538980,
  "Shop[2]":3538981,
  "Shop[3]":3538982,
  "Shop[4]":3538983,
  "Shop[5]":0,
  "Shop[6]":0,
  "Shop[7]":0,
  "Shop[8]":0,
  "Shop[9]":0
},
{
  "Id":3276859,
  "Name":"Handwerkerscheine",
  "Shop[0]":3539004,
  "Shop[1]":3539008,
  "Shop[2]":3538996,
  "Shop[3]":3539010,
  "Shop[4]":3539012,
  "Shop[5]":3539016,
  "Shop[6]":3539018,
  "Shop[7]":3539019,
  "Shop[8]":3539055,
  "Shop[9]":3539020
},
{
  "Id":3276860,
  "Name":"Sammlerscheine",
  "Shop[0]":3539021,
  "Shop[1]":3539025,
  "Shop[2]":3539027,
  "Shop[3]":3539029,
  "Shop[4]":3539033,
  "Shop[5]":3539035,
  "Shop[6]":3539036,
  "Shop[7]":3539056,
  "Shop[8]":3539037,
  "Shop[9]":0
},
{
  "Id":3276861,
  "Name":"Handwerkerscheine",
  "Shop[0]":3539004,
  "Shop[1]":3539008,
  "Shop[2]":3538997,
  "Shop[3]":3539010,
  "Shop[4]":3539012,
  "Shop[5]":3539016,
  "Shop[6]":3539018,
  "Shop[7]":3539019,
  "Shop[8]":3539055,
  "Shop[9]":3539020
},
{
  "Id":3276862,
  "Name":"Sammlerscheine",
  "Shop[0]":3539021,
  "Shop[1]":3539025,
  "Shop[2]":3539027,
  "Shop[3]":3539029,
  "Shop[4]":3539033,
  "Shop[5]":3539035,
  "Shop[6]":3539036,
  "Shop[7]":3539056,
  "Shop[8]":3539037,
  "Shop[9]":0
},
{
  "Id":3276863,
  "Name":"Handwerkerscheine",
  "Shop[0]":3539004,
  "Shop[1]":3539008,
  "Shop[2]":3538998,
  "Shop[3]":3539010,
  "Shop[4]":3539012,
  "Shop[5]":3539016,
  "Shop[6]":3539018,
  "Shop[7]":3539019,
  "Shop[8]":3539055,
  "Shop[9]":3539020
},
{
  "Id":3276864,
  "Name":"Sammlerscheine",
  "Shop[0]":3539021,
  "Shop[1]":3539025,
  "Shop[2]":3539027,
  "Shop[3]":3539029,
  "Shop[4]":3539033,
  "Shop[5]":3539035,
  "Shop[6]":3539036,
  "Shop[7]":3539056,
  "Shop[8]":3539037,
  "Shop[9]":0
},
{
  "Id":3276865,
  "Name":"Handwerkerscheine",
  "Shop[0]":3539004,
  "Shop[1]":3539008,
  "Shop[2]":3538999,
  "Shop[3]":3539010,
  "Shop[4]":3539012,
  "Shop[5]":3539016,
  "Shop[6]":3539018,
  "Shop[7]":3539019,
  "Shop[8]":3539055,
  "Shop[9]":3539020
},
{
  "Id":3276866,
  "Name":"Sammlerscheine",
  "Shop[0]":3539021,
  "Shop[1]":3539025,
  "Shop[2]":3539027,
  "Shop[3]":3539029,
  "Shop[4]":3539033,
  "Shop[5]":3539035,
  "Shop[6]":3539036,
  "Shop[7]":3539056,
  "Shop[8]":3539037,
  "Shop[9]":0
},
{
  "Id":3276867,
  "Name":"Handwerkerscheine",
  "Shop[0]":3539005,
  "Shop[1]":3539008,
  "Shop[2]":3539000,
  "Shop[3]":3539010,
  "Shop[4]":3539012,
  "Shop[5]":3539016,
  "Shop[6]":3539018,
  "Shop[7]":3539019,
  "Shop[8]":3539055,
  "Shop[9]":3539020
},
{
  "Id":3276868,
  "Name":"Sammlerscheine",
  "Shop[0]":3539022,
  "Shop[1]":3539025,
  "Shop[2]":3539027,
  "Shop[3]":3539029,
  "Shop[4]":3539033,
  "Shop[5]":3539035,
  "Shop[6]":3539036,
  "Shop[7]":3539056,
  "Shop[8]":3539037,
  "Shop[9]":0
},
{
  "Id":3276869,
  "Name":"Handwerkerscheine",
  "Shop[0]":3539006,
  "Shop[1]":3539008,
  "Shop[2]":3539001,
  "Shop[3]":3539010,
  "Shop[4]":3539012,
  "Shop[5]":3539016,
  "Shop[6]":3539018,
  "Shop[7]":3539019,
  "Shop[8]":3539055,
  "Shop[9]":3539020
},
{
  "Id":3276870,
  "Name":"Sammlerscheine",
  "Shop[0]":3539023,
  "Shop[1]":3539025,
  "Shop[2]":3539027,
  "Shop[3]":3539029,
  "Shop[4]":3539033,
  "Shop[5]":3539035,
  "Shop[6]":3539036,
  "Shop[7]":3539056,
  "Shop[8]":3539037,
  "Shop[9]":0
},
{
  "Id":3276871,
  "Name":"Handwerkerscheine",
  "Shop[0]":3539007,
  "Shop[1]":3539009,
  "Shop[2]":3539003,
  "Shop[3]":3539011,
  "Shop[4]":3539013,
  "Shop[5]":3539017,
  "Shop[6]":3539018,
  "Shop[7]":3539019,
  "Shop[8]":3539055,
  "Shop[9]":3539020
},
{
  "Id":3276872,
  "Name":"Sammlerscheine",
  "Shop[0]":3539024,
  "Shop[1]":3539026,
  "Shop[2]":3539028,
  "Shop[3]":3539030,
  "Shop[4]":3539034,
  "Shop[5]":3539035,
  "Shop[6]":3539036,
  "Shop[7]":3539056,
  "Shop[8]":3539037,
  "Shop[9]":0
},
{
  "Id":3276873,
  "Name":"Handwerkerscheine",
  "Shop[0]":3539006,
  "Shop[1]":3539008,
  "Shop[2]":3539002,
  "Shop[3]":3539010,
  "Shop[4]":3539012,
  "Shop[5]":3539016,
  "Shop[6]":3539018,
  "Shop[7]":3539019,
  "Shop[8]":3539055,
  "Shop[9]":3539020
},
{
  "Id":3276874,
  "Name":"Sammlerscheine",
  "Shop[0]":3539023,
  "Shop[1]":3539025,
  "Shop[2]":3539027,
  "Shop[3]":3539029,
  "Shop[4]":3539033,
  "Shop[5]":3539035,
  "Shop[6]":3539036,
  "Shop[7]":3539056,
  "Shop[8]":3539037,
  "Shop[9]":0
},
{
  "Id":3276875,
  "Name":"Eulmore-Marken (NQ)",
  "Shop[0]":1770019,
  "Shop[1]":1770020,
  "Shop[2]":1770021,
  "Shop[3]":0,
  "Shop[4]":0,
  "Shop[5]":0,
  "Shop[6]":0,
  "Shop[7]":0,
  "Shop[8]":0,
  "Shop[9]":0
},
{
  "Id":3276876,
  "Name":"Eulmore-Marken (HQ)",
  "Shop[0]":1770022,
  "Shop[1]":1770023,
  "Shop[2]":1770024,
  "Shop[3]":0,
  "Shop[4]":0,
  "Shop[5]":0,
  "Shop[6]":0,
  "Shop[7]":0,
  "Shop[8]":0,
  "Shop[9]":0
},
{
  "Id":3276877,
  "Name":"Modifizierte Manufaktur-Ausrüstung",
  "Shop[0]":1770025,
  "Shop[1]":1770026,
  "Shop[2]":1770027,
  "Shop[3]":0,
  "Shop[4]":0,
  "Shop[5]":0,
  "Shop[6]":0,
  "Shop[7]":0,
  "Shop[8]":0,
  "Shop[9]":0
},
{
  "Id":3276878,
  "Name":"Eulmore-Marken II (NQ)",
  "Shop[0]":1770288,
  "Shop[1]":1770289,
  "Shop[2]":1770290,
  "Shop[3]":0,
  "Shop[4]":0,
  "Shop[5]":0,
  "Shop[6]":0,
  "Shop[7]":0,
  "Shop[8]":0,
  "Shop[9]":0
},
{
  "Id":3276879,
  "Name":"Eulmore-Marken II (HQ)",
  "Shop[0]":1770291,
  "Shop[1]":1770292,
  "Shop[2]":1770293,
  "Shop[3]":0,
  "Shop[4]":0,
  "Shop[5]":0,
  "Shop[6]":0,
  "Shop[7]":0,
  "Shop[8]":0,
  "Shop[9]":0
},
{
  "Id":3276880,
  "Name":"Neo-Ishgarder Verstärkungen",
  "Shop[0]":1770294,
  "Shop[1]":1770295,
  "Shop[2]":1770296,
  "Shop[3]":0,
  "Shop[4]":0,
  "Shop[5]":0,
  "Shop[6]":0,
  "Shop[7]":0,
  "Shop[8]":0,
  "Shop[9]":0
},
{
  "Id":3276881,
  "Name":"Handwerkerscheine",
  "Shop[0]":3539005,
  "Shop[1]":3539008,
  "Shop[2]":3539050,
  "Shop[3]":3539010,
  "Shop[4]":3539012,
  "Shop[5]":3539016,
  "Shop[6]":3539018,
  "Shop[7]":3539019,
  "Shop[8]":3539055,
  "Shop[9]":3539020
},
{
  "Id":3276882,
  "Name":"Sammlerscheine",
  "Shop[0]":3539022,
  "Shop[1]":3539025,
  "Shop[2]":3539027,
  "Shop[3]":3539029,
  "Shop[4]":3539033,
  "Shop[5]":3539035,
  "Shop[6]":3539036,
  "Shop[7]":3539056,
  "Shop[8]":3539037,
  "Shop[9]":0
},
{
  "Id":3276883,
  "Name":"Eulmore-Marken III (NQ)",
  "Shop[0]":1770345,
  "Shop[1]":1770346,
  "Shop[2]":1770347,
  "Shop[3]":0,
  "Shop[4]":0,
  "Shop[5]":0,
  "Shop[6]":0,
  "Shop[7]":0,
  "Shop[8]":0,
  "Shop[9]":0
},
{
  "Id":3276884,
  "Name":"Eulmore-Marken III (HQ)",
  "Shop[0]":1770348,
  "Shop[1]":1770349,
  "Shop[2]":1770350,
  "Shop[3]":0,
  "Shop[4]":0,
  "Shop[5]":0,
  "Shop[6]":0,
  "Shop[7]":0,
  "Shop[8]":0,
  "Shop[9]":0
},
{
  "Id":3276885,
  "Name":"Modifizierte Exarchen-Ausrüstung",
  "Shop[0]":1770351,
  "Shop[1]":1770352,
  "Shop[2]":1770353,
  "Shop[3]":0,
  "Shop[4]":0,
  "Shop[5]":0,
  "Shop[6]":0,
  "Shop[7]":0,
  "Shop[8]":0,
  "Shop[9]":0
},
{
  "Id":3276886,
  "Name":"Ausrüstung (Krieger)",
  "Shop[0]":263089,
  "Shop[1]":263090,
  "Shop[2]":263091,
  "Shop[3]":263092,
  "Shop[4]":263093,
  "Shop[5]":263094,
  "Shop[6]":0,
  "Shop[7]":0,
  "Shop[8]":0,
  "Shop[9]":0
},
{
  "Id":3276887,
  "Name":"Ausrüstung (Magier)",
  "Shop[0]":263095,
  "Shop[1]":263096,
  "Shop[2]":263097,
  "Shop[3]":263098,
  "Shop[4]":263099,
  "Shop[5]":263100,
  "Shop[6]":0,
  "Shop[7]":0,
  "Shop[8]":0,
  "Shop[9]":0
},
{
  "Id":3276888,
  "Name":"Radz-at-Han-Marken I (NQ)",
  "Shop[0]":1770539,
  "Shop[1]":1770540,
  "Shop[2]":1770541,
  "Shop[3]":0,
  "Shop[4]":0,
  "Shop[5]":0,
  "Shop[6]":0,
  "Shop[7]":0,
  "Shop[8]":0,
  "Shop[9]":0
},
{
  "Id":3276889,
  "Name":"Radz-at-Han-Marken I (HQ)",
  "Shop[0]":1770542,
  "Shop[1]":1770543,
  "Shop[2]":1770544,
  "Shop[3]":0,
  "Shop[4]":0,
  "Shop[5]":0,
  "Shop[6]":0,
  "Shop[7]":0,
  "Shop[8]":0,
  "Shop[9]":0
},
{
  "Id":3276890,
  "Name":"Modifizierte klassische Ausrüstung",
  "Shop[0]":1770545,
  "Shop[1]":1770546,
  "Shop[2]":1770547,
  "Shop[3]":0,
  "Shop[4]":0,
  "Shop[5]":0,
  "Shop[6]":0,
  "Shop[7]":0,
  "Shop[8]":0,
  "Shop[9]":0
},
{
  "Id":3276891,
  "Name":"Garo-Ausrüstung (Krieger II)",
  "Shop[0]":262682,
  "Shop[1]":262683,
  "Shop[2]":262684,
  "Shop[3]":263138,
  "Shop[4]":0,
  "Shop[5]":0,
  "Shop[6]":0,
  "Shop[7]":0,
  "Shop[8]":0,
  "Shop[9]":0
},
{
  "Id":3276892,
  "Name":"Radz-at-Han-Marken III (NQ)",
  "Shop[0]":1770714,
  "Shop[1]":1770715,
  "Shop[2]":1770716,
  "Shop[3]":0,
  "Shop[4]":0,
  "Shop[5]":0,
  "Shop[6]":0,
  "Shop[7]":0,
  "Shop[8]":0,
  "Shop[9]":0
},
{
  "Id":3276893,
  "Name":"Radz-at-Han-Marken II (NQ)",
  "Shop[0]":1770650,
  "Shop[1]":1770651,
  "Shop[2]":1770652,
  "Shop[3]":0,
  "Shop[4]":0,
  "Shop[5]":0,
  "Shop[6]":0,
  "Shop[7]":0,
  "Shop[8]":0,
  "Shop[9]":0
},
{
  "Id":3276894,
  "Name":"Radz-at-Han-Marken II (HQ)",
  "Shop[0]":1770653,
  "Shop[1]":1770654,
  "Shop[2]":1770655,
  "Shop[3]":0,
  "Shop[4]":0,
  "Shop[5]":0,
  "Shop[6]":0,
  "Shop[7]":0,
  "Shop[8]":0,
  "Shop[9]":0
},
{
  "Id":3276895,
  "Name":"Modifizierte Rinascita-Ausrüstung",
  "Shop[0]":1770656,
  "Shop[1]":1770657,
  "Shop[2]":1770658,
  "Shop[3]":0,
  "Shop[4]":0,
  "Shop[5]":0,
  "Shop[6]":0,
  "Shop[7]":0,
  "Shop[8]":0,
  "Shop[9]":0
},
{
  "Id":3276896,
  "Name":"Sil'dih-Gebrauchtwaren",
  "Shop[0]":1770621,
  "Shop[1]":1770622,
  "Shop[2]":1770623,
  "Shop[3]":0,
  "Shop[4]":0,
  "Shop[5]":0,
  "Shop[6]":0,
  "Shop[7]":0,
  "Shop[8]":0,
  "Shop[9]":0
},
{
  "Id":3276897,
  "Name":"Rokkon-Gebrauchtwaren",
  "Shop[0]":1770663,
  "Shop[1]":1770664,
  "Shop[2]":1770665,
  "Shop[3]":0,
  "Shop[4]":0,
  "Shop[5]":0,
  "Shop[6]":0,
  "Shop[7]":0,
  "Shop[8]":0,
  "Shop[9]":0
},
{
  "Id":3276898,
  "Name":"Radz-at-Han-Marken III (HQ)",
  "Shop[0]":1770717,
  "Shop[1]":1770718,
  "Shop[2]":1770719,
  "Shop[3]":0,
  "Shop[4]":0,
  "Shop[5]":0,
  "Shop[6]":0,
  "Shop[7]":0,
  "Shop[8]":0,
  "Shop[9]":0
},
{
  "Id":3276899,
  "Name":"Modifizierte Diadochen-Ausrüstung",
  "Shop[0]":1770720,
  "Shop[1]":1770721,
  "Shop[2]":1770722,
  "Shop[3]":0,
  "Shop[4]":0,
  "Shop[5]":0,
  "Shop[6]":0,
  "Shop[7]":0,
  "Shop[8]":0,
  "Shop[9]":0
}
]
