﻿[
{
  "Id":0,
  "Masculine":"",
  "Feminine":"",
  "Hp":0,
  "Mp":0,
  "STR":0,
  "VIT":0,
  "DEX":0,
  "INT":0,
  "MND":0,
  "PIE":0
},
{
  "Id":1,
  "Masculine":"ミッドランダー ",
  "Feminine":"ミッドランダー ",
  "Hp":0,
  "Mp":0,
  "STR":2,
  "VIT":0,
  "DEX":-1,
  "INT":3,
  "MND":-1,
  "PIE":0
},
{
  "Id":2,
  "Masculine":"ハイランダー",
  "Feminine":"ハイランダー",
  "Hp":0,
  "Mp":0,
  "STR":3,
  "VIT":2,
  "DEX":0,
  "INT":-2,
  "MND":0,
  "PIE":0
},
{
  "Id":3,
  "Masculine":"フォレスター",
  "Feminine":"フォレスター",
  "Hp":0,
  "Mp":0,
  "STR":0,
  "VIT":-1,
  "DEX":3,
  "INT":2,
  "MND":-1,
  "PIE":0
},
{
  "Id":4,
  "Masculine":"シェーダー",
  "Feminine":"シェーダー",
  "Hp":0,
  "Mp":0,
  "STR":0,
  "VIT":-1,
  "DEX":0,
  "INT":3,
  "MND":1,
  "PIE":0
},
{
  "Id":5,
  "Masculine":"プレーンフォーク",
  "Feminine":"プレーンフォーク",
  "Hp":0,
  "Mp":0,
  "STR":-1,
  "VIT":-1,
  "DEX":3,
  "INT":2,
  "MND":0,
  "PIE":0
},
{
  "Id":6,
  "Masculine":"デューンフォーク",
  "Feminine":"デューンフォーク",
  "Hp":0,
  "Mp":0,
  "STR":-1,
  "VIT":-2,
  "DEX":1,
  "INT":2,
  "MND":3,
  "PIE":0
},
{
  "Id":7,
  "Masculine":"サンシーカー",
  "Feminine":"サンシーカー",
  "Hp":0,
  "Mp":0,
  "STR":2,
  "VIT":0,
  "DEX":3,
  "INT":-1,
  "MND":-1,
  "PIE":0
},
{
  "Id":8,
  "Masculine":"ムーンキーパー",
  "Feminine":"ムーンキーパー",
  "Hp":0,
  "Mp":0,
  "STR":-1,
  "VIT":-2,
  "DEX":2,
  "INT":1,
  "MND":3,
  "PIE":0
},
{
  "Id":9,
  "Masculine":"ゼーヴォルフ",
  "Feminine":"ゼーヴォルフ",
  "Hp":0,
  "Mp":0,
  "STR":2,
  "VIT":3,
  "DEX":-1,
  "INT":-2,
  "MND":1,
  "PIE":0
},
{
  "Id":10,
  "Masculine":"ローエンガルデ",
  "Feminine":"ローエンガルデ",
  "Hp":0,
  "Mp":0,
  "STR":0,
  "VIT":3,
  "DEX":-2,
  "INT":0,
  "MND":2,
  "PIE":0
},
{
  "Id":11,
  "Masculine":"アウラ・レン",
  "Feminine":"アウラ・レン",
  "Hp":0,
  "Mp":0,
  "STR":-1,
  "VIT":-1,
  "DEX":2,
  "INT":0,
  "MND":3,
  "PIE":0
},
{
  "Id":12,
  "Masculine":"アウラ・ゼラ",
  "Feminine":"アウラ・ゼラ",
  "Hp":0,
  "Mp":0,
  "STR":3,
  "VIT":2,
  "DEX":0,
  "INT":0,
  "MND":-2,
  "PIE":0
},
{
  "Id":13,
  "Masculine":"ヘリオン",
  "Feminine":"ヘリオン",
  "Hp":0,
  "Mp":0,
  "STR":3,
  "VIT":3,
  "DEX":-3,
  "INT":-3,
  "MND":3,
  "PIE":0
},
{
  "Id":14,
  "Masculine":"ロスト",
  "Feminine":"ロスト",
  "Hp":0,
  "Mp":0,
  "STR":3,
  "VIT":3,
  "DEX":-3,
  "INT":-3,
  "MND":3,
  "PIE":0
},
{
  "Id":15,
  "Masculine":"ラヴァ・ヴィエラ",
  "Feminine":"ラヴァ・ヴィエラ",
  "Hp":0,
  "Mp":0,
  "STR":0,
  "VIT":-2,
  "DEX":3,
  "INT":1,
  "MND":1,
  "PIE":0
},
{
  "Id":16,
  "Masculine":"ヴィナ・ヴィエラ",
  "Feminine":"ヴィナ・ヴィエラ",
  "Hp":0,
  "Mp":0,
  "STR":-1,
  "VIT":-1,
  "DEX":0,
  "INT":3,
  "MND":2,
  "PIE":0
}
]
