﻿[
{
  "Id":0,
  "Masculine":"",
  "Feminine":"",
  "Hp":0,
  "Mp":0,
  "STR":0,
  "VIT":0,
  "DEX":0,
  "INT":0,
  "MND":0,
  "PIE":0
},
{
  "Id":1,
  "Masculine":"Hyurois",
  "Feminine":"Hyuroise",
  "Hp":0,
  "Mp":0,
  "STR":2,
  "VIT":0,
  "DEX":-1,
  "INT":3,
  "MND":-1,
  "PIE":0
},
{
  "Id":2,
  "Masculine":"Hyurgoth",
  "Feminine":"Hyurgothe",
  "Hp":0,
  "Mp":0,
  "STR":3,
  "VIT":2,
  "DEX":0,
  "INT":-2,
  "MND":0,
  "PIE":0
},
{
  "Id":3,
  "Masculine":"Sylvestre",
  "Feminine":"Sylvestre",
  "Hp":0,
  "Mp":0,
  "STR":0,
  "VIT":-1,
  "DEX":3,
  "INT":2,
  "MND":-1,
  "PIE":0
},
{
  "Id":4,
  "Masculine":"Crépusculaire",
  "Feminine":"Crépusculaire",
  "Hp":0,
  "Mp":0,
  "STR":0,
  "VIT":-1,
  "DEX":0,
  "INT":3,
  "MND":1,
  "PIE":0
},
{
  "Id":5,
  "Masculine":"Peuple des Plaines",
  "Feminine":"Peuple des Plaines",
  "Hp":0,
  "Mp":0,
  "STR":-1,
  "VIT":-1,
  "DEX":3,
  "INT":2,
  "MND":0,
  "PIE":0
},
{
  "Id":6,
  "Masculine":"Peuple des Dunes",
  "Feminine":"Peuple des Dunes",
  "Hp":0,
  "Mp":0,
  "STR":-1,
  "VIT":-2,
  "DEX":1,
  "INT":2,
  "MND":3,
  "PIE":0
},
{
  "Id":7,
  "Masculine":"Tribu du Soleil",
  "Feminine":"Tribu du Soleil",
  "Hp":0,
  "Mp":0,
  "STR":2,
  "VIT":0,
  "DEX":3,
  "INT":-1,
  "MND":-1,
  "PIE":0
},
{
  "Id":8,
  "Masculine":"Tribu de la Lune",
  "Feminine":"Tribu de la Lune",
  "Hp":0,
  "Mp":0,
  "STR":-1,
  "VIT":-2,
  "DEX":2,
  "INT":1,
  "MND":3,
  "PIE":0
},
{
  "Id":9,
  "Masculine":"Clan de la Mer",
  "Feminine":"Clan de la Mer",
  "Hp":0,
  "Mp":0,
  "STR":2,
  "VIT":3,
  "DEX":-1,
  "INT":-2,
  "MND":1,
  "PIE":0
},
{
  "Id":10,
  "Masculine":"Clan du Feu",
  "Feminine":"Clan du Feu",
  "Hp":0,
  "Mp":0,
  "STR":0,
  "VIT":3,
  "DEX":-2,
  "INT":0,
  "MND":2,
  "PIE":0
},
{
  "Id":11,
  "Masculine":"Raen",
  "Feminine":"Raen",
  "Hp":0,
  "Mp":0,
  "STR":-1,
  "VIT":-1,
  "DEX":2,
  "INT":0,
  "MND":3,
  "PIE":0
},
{
  "Id":12,
  "Masculine":"Xaela",
  "Feminine":"Xaela",
  "Hp":0,
  "Mp":0,
  "STR":3,
  "VIT":2,
  "DEX":0,
  "INT":0,
  "MND":-2,
  "PIE":0
},
{
  "Id":13,
  "Masculine":"Hélion",
  "Feminine":"Hélionne",
  "Hp":0,
  "Mp":0,
  "STR":3,
  "VIT":3,
  "DEX":-3,
  "INT":-3,
  "MND":3,
  "PIE":0
},
{
  "Id":14,
  "Masculine":"Éloigné",
  "Feminine":"Éloignée",
  "Hp":0,
  "Mp":0,
  "STR":3,
  "VIT":3,
  "DEX":-3,
  "INT":-3,
  "MND":3,
  "PIE":0
},
{
  "Id":15,
  "Masculine":"Rava",
  "Feminine":"Rava",
  "Hp":0,
  "Mp":0,
  "STR":0,
  "VIT":-2,
  "DEX":3,
  "INT":1,
  "MND":1,
  "PIE":0
},
{
  "Id":16,
  "Masculine":"Veena",
  "Feminine":"Veena",
  "Hp":0,
  "Mp":0,
  "STR":-1,
  "VIT":-1,
  "DEX":0,
  "INT":3,
  "MND":2,
  "PIE":0
}
]
