﻿[
{
  "Id":0,
  "Name":""
},
{
  "Id":1,
  "Name":"マンダヴィル・チャンピオンシップ"
},
{
  "Id":2,
  "Name":"星神ニメーヤ賞典"
},
{
  "Id":3,
  "Name":"オーラン記念"
},
{
  "Id":4,
  "Name":"ロウェナ商会杯"
},
{
  "Id":5,
  "Name":"マンダヴィル・チャンピオンシップ"
},
{
  "Id":6,
  "Name":"星神ニメーヤ賞典"
},
{
  "Id":7,
  "Name":"オーラン記念"
},
{
  "Id":8,
  "Name":"ロウェナ商会杯"
},
{
  "Id":9,
  "Name":"マンダヴィル・チャンピオンシップ"
},
{
  "Id":10,
  "Name":"星神ニメーヤ賞典"
},
{
  "Id":11,
  "Name":"オーラン記念"
},
{
  "Id":12,
  "Name":"ロウェナ商会杯"
},
{
  "Id":13,
  "Name":"マンダヴィル・チャンピオンシップ"
},
{
  "Id":14,
  "Name":"星神ニメーヤ賞典"
},
{
  "Id":15,
  "Name":"オーラン記念"
},
{
  "Id":16,
  "Name":"ロウェナ商会杯"
},
{
  "Id":17,
  "Name":"マンダヴィル・チャンピオンシップ"
},
{
  "Id":18,
  "Name":"星神ニメーヤ賞典"
},
{
  "Id":19,
  "Name":"オーラン記念"
},
{
  "Id":20,
  "Name":"ロウェナ商会杯"
},
{
  "Id":21,
  "Name":"マンダヴィル・チャンピオンシップ"
},
{
  "Id":22,
  "Name":"星神ニメーヤ賞典"
},
{
  "Id":23,
  "Name":"オーラン記念"
},
{
  "Id":24,
  "Name":"ロウェナ商会杯"
}
]
